<?xml version="1.0" encoding="UTF-8" standalone="no"?>
<!-- Created with Inkscape (http://www.inkscape.org/) -->

<svg
   xmlns:dc="http://purl.org/dc/elements/1.1/"
   xmlns:cc="http://creativecommons.org/ns#"
   xmlns:rdf="http://www.w3.org/1999/02/22-rdf-syntax-ns#"
   xmlns:svg="http://www.w3.org/2000/svg"
   xmlns="http://www.w3.org/2000/svg"
   xmlns:xlink="http://www.w3.org/1999/xlink"
   xmlns:sodipodi="http://sodipodi.sourceforge.net/DTD/sodipodi-0.dtd"
   xmlns:inkscape="http://www.inkscape.org/namespaces/inkscape"
   width="32"
   height="32"
   id="svg13093"
   version="1.1"
   inkscape:version="0.48.0 r9654"
   sodipodi:docname="config.svg"
   inkscape:export-filename="C:\Users\emo.GIRITECH\Documents\Shared Graphics\Program icons\config.png"
   inkscape:export-xdpi="90"
   inkscape:export-ydpi="90">
  <defs
     id="defs13095">
    <linearGradient
       id="linearGradient3789-0">
      <stop
         id="stop3791-5"
         offset="0"
         style="stop-color:#440008;stop-opacity:1;" />
      <stop
         id="stop3793-5"
         offset="1"
         style="stop-color:#880000;stop-opacity:1;" />
    </linearGradient>
    <linearGradient
       inkscape:collect="always"
       xlink:href="#linearGradient3789-0"
       id="linearGradient2999"
       gradientUnits="userSpaceOnUse"
       gradientTransform="matrix(0.22187678,0,0,0.22208472,0.012434,818.64368)"
       x1="34.479824"
       y1="980.94946"
       x2="34.479824"
       y2="1052.0378" />
    <linearGradient
       id="linearGradient3755">
      <stop
         style="stop-color:#440008;stop-opacity:1;"
         offset="0"
         id="stop3757" />
      <stop
         style="stop-color:#880000;stop-opacity:1;"
         offset="1"
         id="stop3759" />
    </linearGradient>
    <linearGradient
       inkscape:collect="always"
       xlink:href="#linearGradient3810"
       id="linearGradient11505"
       gradientUnits="userSpaceOnUse"
       x1="4.6965384"
       y1="56.000687"
       x2="4.6965384"
       y2="72.028633"
       gradientTransform="translate(236.24343,341.46016)" />
    <linearGradient
       id="linearGradient3810">
      <stop
         id="stop3812"
         offset="0"
         style="stop-color:#003807;stop-opacity:1;" />
      <stop
         id="stop3814"
         offset="1"
         style="stop-color:#00710e;stop-opacity:1;" />
    </linearGradient>
    <linearGradient
       inkscape:collect="always"
       xlink:href="#linearGradient3810"
       id="linearGradient3862"
       gradientUnits="userSpaceOnUse"
       gradientTransform="translate(0,980.35587)"
       x1="4.6965384"
       y1="56.000687"
       x2="4.6965384"
       y2="72.028633" />
    <linearGradient
       inkscape:collect="always"
       xlink:href="#linearGradient3789-0-1"
       id="linearGradient3041"
       gradientUnits="userSpaceOnUse"
       x1="1044.2717"
       y1="-4.1182613"
       x2="1052.2717"
       y2="-4.1182613" />
    <linearGradient
       id="linearGradient3789-0-1">
      <stop
         id="stop3791-5-7"
         offset="0"
         style="stop-color:#440008;stop-opacity:1;" />
      <stop
         id="stop3793-5-4"
         offset="1"
         style="stop-color:#880000;stop-opacity:1;" />
    </linearGradient>
    <linearGradient
       inkscape:collect="always"
       xlink:href="#linearGradient3789-0"
       id="linearGradient3016"
       gradientUnits="userSpaceOnUse"
       gradientTransform="matrix(0.22187678,0,0,0.22208472,0.012434,818.64368)"
       x1="34.479824"
       y1="980.94946"
       x2="34.479824"
       y2="1052.0378" />
    <linearGradient
       inkscape:collect="always"
       xlink:href="#linearGradient3789-0-1"
       id="linearGradient3018"
       gradientUnits="userSpaceOnUse"
       x1="1044.2717"
       y1="-4.1182613"
       x2="1052.2717"
       y2="-4.1182613" />
    <linearGradient
       inkscape:collect="always"
       xlink:href="#linearGradient3789-0"
       id="linearGradient3013"
       gradientUnits="userSpaceOnUse"
       gradientTransform="matrix(0.44444158,0,0,0.44444727,-2.6234094e-6,584.64268)"
       x1="34.479824"
       y1="980.94946"
       x2="34.479824"
       y2="1052.0378" />
    <linearGradient
       inkscape:collect="always"
       xlink:href="#linearGradient3494"
       id="linearGradient3935"
       gradientUnits="userSpaceOnUse"
       x1="114.31247"
       y1="244.5849"
       x2="114.31247"
       y2="300.44788"
       gradientTransform="matrix(2.9993609,0,0,2.9993609,-351.76913,-735.07411)" />
    <linearGradient
       id="linearGradient3494">
      <stop
         style="stop-color:#ffffff;stop-opacity:0;"
         offset="0"
         id="stop3496" />
      <stop
         style="stop-color:#ffffff;stop-opacity:0.29508197;"
         offset="1"
         id="stop3498" />
    </linearGradient>
  </defs>
  <sodipodi:namedview
     id="base"
     pagecolor="#ffffff"
     bordercolor="#666666"
     borderopacity="1.0"
     inkscape:pageopacity="0.0"
     inkscape:pageshadow="2"
     inkscape:zoom="6.8862614"
     inkscape:cx="24.737382"
     inkscape:cy="3.7054977"
     inkscape:document-units="px"
     inkscape:current-layer="layer1"
     showgrid="false"
     inkscape:window-width="1112"
     inkscape:window-height="797"
     inkscape:window-x="420"
     inkscape:window-y="51"
     inkscape:window-maximized="0"
     showborder="false"
     inkscape:showpageshadow="false" />
  <metadata
     id="metadata13098">
    <rdf:RDF>
      <cc:Work
         rdf:about="">
        <dc:format>image/svg+xml</dc:format>
        <dc:type
           rdf:resource="http://purl.org/dc/dcmitype/StillImage" />
        <dc:title />
      </cc:Work>
    </rdf:RDF>
  </metadata>
  <g
     inkscape:label="Layer 1"
     inkscape:groupmode="layer"
     id="layer1"
     transform="translate(0,-1020.3622)">
    <rect
       ry="5.6576934"
       y="1020.5812"
       x="0.21917807"
       height="31.561846"
       width="31.561441"
       id="rect2996-77"
       style="fill:url(#linearGradient3013);fill-opacity:1;stroke:#ffffff;stroke-width:0.43835613;stroke-miterlimit:4;stroke-opacity:0.16470588;stroke-dasharray:none;stroke-dashoffset:0;display:inline" />
    <path
       sodipodi:type="arc"
       style="fill:#690004;fill-opacity:1;stroke:none"
       id="path3775"
       sodipodi:cx="30.45002"
       sodipodi:cy="13.563897"
       sodipodi:rx="2.8789108"
       sodipodi:ry="2.8789108"
       d="m 33.328931,13.563897 a 2.8789108,2.8789108 0 1 1 -5.757822,0 2.8789108,2.8789108 0 1 1 5.757822,0 z"
       transform="matrix(0.91346154,0,0,0.91346154,-0.16076731,1023.9721)" />
    <path
       d="m 9.4742031,1036.3645 c 0,-3.6057 2.9237659,-6.5295 6.5295019,-6.5295 3.605736,0 6.529502,2.9238 6.529502,6.5295 0,3.6058 -2.923766,6.5296 -6.529502,6.5296 -3.605736,0 -6.5295019,-2.9238 -6.5295019,-6.5296 z m 6.5324619,-11.9389 c -0.562025,0 -1.111429,0.045 -1.652865,0.12 0.139971,1.0101 -0.449127,2.0064 -1.452921,2.3326 -1.00501,0.3265 -2.079594,-0.1247 -2.559274,-1.0264 -0.9624069,0.52 -1.8451219,1.1657 -2.6259219,1.9195 0.702439,0.7352 0.805514,1.8941 0.186614,2.7459 -0.615404,0.847 -1.739087,1.1103 -2.652581,0.6798 -0.465914,0.9667 -0.805618,2.0041 -0.999717,3.0924 0.990445,0.19 1.732842,1.0603 1.732842,2.1061 0,1.0457 -0.74264,1.9026 -1.732842,2.0927 0.196179,1.0898 0.542052,2.1269 1.013046,3.0925 8.38e-4,0 0.01248,0 0.01333,0 0.908474,-0.4128 2.016546,-0.1456 2.625922,0.6931 0.609376,0.8388 0.513352,1.9695 -0.159954,2.7059 0.779546,0.7466 1.666978,1.3912 2.6259209,1.9062 0.492345,-0.868 1.546625,-1.3068 2.532615,-0.9864 0.985991,0.3204 1.578092,1.2878 1.466251,2.2793 0.535592,0.073 1.083917,0.12 1.639535,0.12 0.54301,0 1.075842,-0.036 1.599547,-0.1067 -0.118452,-0.996 0.476008,-1.9709 1.466251,-2.2926 0.992025,-0.3224 2.057477,0.1211 2.545945,0.9997 0.962772,-0.5136 1.843678,-1.1592 2.625921,-1.9061 -0.685343,-0.7361 -0.773285,-1.8751 -0.159955,-2.7193 0.615254,-0.8468 1.725876,-1.1098 2.639253,-0.6798 0.471188,-0.966 0.81331,-2.0016 1.013044,-3.0924 -0.997686,-0.1842 -1.746171,-1.0551 -1.746171,-2.1061 0,-1.0549 0.75621,-1.9264 1.759501,-2.1061 -0.191974,-1.0943 -0.532383,-2.1357 -0.999715,-3.1057 -0.917834,0.4466 -2.045091,0.188 -2.665912,-0.6665 -0.620709,-0.8544 -0.521409,-2.011 0.186614,-2.7459 -0.785855,-0.7578 -1.668041,-1.4126 -2.639251,-1.9328 -0.476955,0.9086 -1.550409,1.3675 -2.559274,1.0397 -1.008047,-0.3275 -1.599777,-1.3314 -1.452922,-2.346 -0.529505,-0.072 -1.063694,-0.1066 -1.612876,-0.1066 z"
       style="fill:#e0e0e0;fill-opacity:1;stroke:none;display:inline"
       id="path3933"
       inkscape:connector-curvature="0" />
  </g>
</svg>
