<?xml version="1.0" encoding="UTF-8" standalone="no"?>
<!-- Created with Inkscape (http://www.inkscape.org/) -->

<svg
   xmlns:dc="http://purl.org/dc/elements/1.1/"
   xmlns:cc="http://creativecommons.org/ns#"
   xmlns:rdf="http://www.w3.org/1999/02/22-rdf-syntax-ns#"
   xmlns:svg="http://www.w3.org/2000/svg"
   xmlns="http://www.w3.org/2000/svg"
   xmlns:xlink="http://www.w3.org/1999/xlink"
   xmlns:sodipodi="http://sodipodi.sourceforge.net/DTD/sodipodi-0.dtd"
   xmlns:inkscape="http://www.inkscape.org/namespaces/inkscape"
   width="48"
   height="48"
   id="svg4109"
   version="1.1"
   inkscape:version="0.48.0 r9654"
   sodipodi:docname="template_ic_menu.svg">
  <defs
     id="defs4111">
    <linearGradient
       id="linearGradient3866">
      <stop
         style="stop-color:#b2b2b2;stop-opacity:1"
         offset="0"
         id="stop3868" />
      <stop
         style="stop-color:#8c8c8c;stop-opacity:1"
         offset="1"
         id="stop3870" />
    </linearGradient>
    <linearGradient
       y2="36.041847"
       x2="26.961161"
       y1="3.9229853"
       x1="26.961161"
       gradientUnits="userSpaceOnUse"
       id="linearGradient4146"
       xlink:href="#linearGradient3866"
       inkscape:collect="always"
       gradientTransform="matrix(1.25,0,0,1.25,2.8633429,949.98627)" />
    <linearGradient
       inkscape:collect="always"
       xlink:href="#linearGradient3866"
       id="linearGradient4729"
       gradientUnits="userSpaceOnUse"
       gradientTransform="matrix(1.25,0,0,1.25,2.8633429,949.98627)"
       x1="26.961161"
       y1="3.9229853"
       x2="26.961161"
       y2="36.041847" />
    <filter
       color-interpolation-filters="sRGB"
       id="filter4705"
       inkscape:label="Menu Icon"
       x="0"
       y="0"
       width="1"
       height="1">
      <feOffset
         dx="0"
         dy="0.69999999999999996"
         id="feOffset4707"
         result="result4" />
      <feOffset
         dx="0"
         dy="-1"
         id="feOffset4709"
         result="result1"
         in="SourceAlpha" />
      <feComposite
         id="feComposite4711"
         in2="result4"
         operator="out" />
      <feGaussianBlur
         stdDeviation="1"
         id="feGaussianBlur4713"
         result="result2" />
      <feComposite
         id="feComposite4715"
         in2="SourceGraphic"
         result="result3"
         operator="in" />
      <feBlend
         blend="normal"
         id="feBlend4717"
         mode="darken"
         in2="SourceGraphic"
         result="result9" />
      <feOffset
         dx="0"
         dy="-0.69999999999999996"
         id="feOffset4719"
         in="SourceGraphic"
         result="result6" />
      <feOffset
         dx="0"
         dy="1"
         id="feOffset4721"
         in="SourceGraphic"
         result="result5" />
      <feComposite
         id="feComposite4723"
         in2="result6"
         operator="out" />
      <feGaussianBlur
         stdDeviation="1"
         id="feGaussianBlur4725"
         result="result7" />
      <feColorMatrix
         id="feColorMatrix4731"
         values="1 0 0 1 0 0 1 0 1 0 0 0 1 1 0 0 0 0 1 0 " />
      <feComposite
         id="feComposite4727"
         in2="SourceGraphic"
         operator="in"
         result="result8" />
      <feBlend
         blend="normal"
         id="feBlend4729"
         in2="result9"
         in="result8"
         mode="normal" />
    </filter>
  </defs>
  <sodipodi:namedview
     id="base"
     pagecolor="#ffffff"
     bordercolor="#666666"
     borderopacity="1.0"
     inkscape:pageopacity="0.0"
     inkscape:pageshadow="2"
     inkscape:zoom="8"
     inkscape:cx="9.46875"
     inkscape:cy="27.609373"
     inkscape:document-units="px"
     inkscape:current-layer="layer2"
     showgrid="false"
     showborder="true"
     inkscape:showpageshadow="false"
     inkscape:window-width="1680"
     inkscape:window-height="970"
     inkscape:window-x="-8"
     inkscape:window-y="-8"
     inkscape:window-maximized="1" />
  <metadata
     id="metadata4114">
    <rdf:RDF>
      <cc:Work
         rdf:about="">
        <dc:format>image/svg+xml</dc:format>
        <dc:type
           rdf:resource="http://purl.org/dc/dcmitype/StillImage" />
        <dc:title />
      </cc:Work>
    </rdf:RDF>
  </metadata>
  <g
     inkscape:label="xx Background"
     inkscape:groupmode="layer"
     id="layer1"
     transform="translate(0,-1004.3622)"
     style="display:none"
     sodipodi:insensitive="true">
    <rect
       style="fill:#000000;fill-opacity:1;stroke:none"
       id="rect4725"
       width="71.875"
       height="71.875"
       x="0.0625"
       y="980.42468" />
  </g>
  <g
     inkscape:groupmode="layer"
     id="layer2"
     inkscape:label="Icon"
     style="display:inline" />
  <g
     inkscape:groupmode="layer"
     id="layer4"
     inkscape:label="xx Work Layer"
     style="display:none"
     transform="translate(0,12)">
    <g
       style="display:inline"
       id="g3883"
       transform="translate(29.5,-1030.081)">
      <path
         transform="matrix(1.3580902,0,0,1.254902,-4.4137931,993.30399)"
         d="m 15.03125,38.570312 c 0,0.880204 -0.659331,1.59375 -1.472656,1.59375 -0.813326,0 -1.472656,-0.713546 -1.472656,-1.59375 0,-0.880203 0.65933,-1.59375 1.472656,-1.59375 0.813325,0 1.472656,0.713547 1.472656,1.59375 z"
         sodipodi:ry="1.59375"
         sodipodi:rx="1.4726562"
         sodipodi:cy="38.570312"
         sodipodi:cx="13.558594"
         id="path3877"
         style="opacity:0.77999998;fill:#d18c8c;fill-opacity:1;stroke:none"
         sodipodi:type="arc" />
      <path
         inkscape:connector-curvature="0"
         id="path3879"
         d="m 13.718263,1041.9877 0.563475,-0.5635"
         style="fill:none;stroke:#000000;stroke-width:0.01;stroke-linecap:butt;stroke-linejoin:miter;stroke-miterlimit:4;stroke-opacity:1;stroke-dasharray:none" />
      <path
         style="fill:none;stroke:#000000;stroke-width:0.01;stroke-linecap:butt;stroke-linejoin:miter;stroke-miterlimit:4;stroke-opacity:1;stroke-dasharray:none"
         d="m 14.281747,1041.9877 -0.563494,-0.5635"
         id="path3881"
         inkscape:connector-curvature="0" />
    </g>
  </g>
  <g
     style="display:none"
     inkscape:label="xx lpdi: Guide Rectangles (page 36x36)"
     id="g4713"
     inkscape:groupmode="layer"
     sodipodi:insensitive="true">
    <rect
       y="19.0625"
       x="7.062499"
       height="21.875"
       width="21.875002"
       id="rect4715"
       style="fill:none;stroke:#b65100;stroke-width:0.1;stroke-miterlimit:4;stroke-opacity:1;stroke-dasharray:none" />
    <rect
       style="fill:none;stroke:#002fb6;stroke-width:0.10000001;stroke-miterlimit:4;stroke-opacity:1;stroke-dasharray:none"
       id="rect4717"
       width="23.875006"
       height="23.875004"
       x="6.0624971"
       y="18.062498" />
  </g>
  <g
     inkscape:groupmode="layer"
     id="layer3"
     inkscape:label="xx mpdi: Guide Rectangles (page 48x48)"
     style="display:inline"
     sodipodi:insensitive="true">
    <rect
       transform="translate(0,-1004.3622)"
       style="fill:none;stroke:#b65100;stroke-width:0.10000002;stroke-miterlimit:4;stroke-opacity:1;stroke-dasharray:none"
       id="rect4701"
       width="29.875004"
       height="29.875002"
       x="9.0624981"
       y="1013.4247" />
    <rect
       transform="translate(0,-1004.3622)"
       y="1012.4247"
       x="8.0624981"
       height="31.875002"
       width="31.875004"
       id="rect4703"
       style="fill:none;stroke:#002fb6;stroke-width:0.10000001;stroke-miterlimit:4;stroke-opacity:1;stroke-dasharray:none" />
  </g>
  <g
     style="display:none"
     inkscape:label="xx hpdi: Guide Rectangles (page 72x72)"
     id="g4719"
     inkscape:groupmode="layer"
     sodipodi:insensitive="true">
    <rect
       y="-9.9374962"
       x="14.062502"
       height="43.874992"
       width="43.874996"
       id="rect4721"
       style="fill:none;stroke:#b65100;stroke-width:0.10000002;stroke-miterlimit:4;stroke-opacity:1;stroke-dasharray:none" />
    <rect
       style="fill:none;stroke:#002fb6;stroke-width:0.1;stroke-miterlimit:4;stroke-opacity:1;stroke-dasharray:none"
       id="rect4723"
       width="47.874992"
       height="47.874989"
       x="12.062504"
       y="-11.937494" />
  </g>
</svg>
