<?xml version="1.0" encoding="UTF-8" standalone="no"?>
<!-- Created with Inkscape (http://www.inkscape.org/) -->

<svg
   xmlns:dc="http://purl.org/dc/elements/1.1/"
   xmlns:cc="http://creativecommons.org/ns#"
   xmlns:rdf="http://www.w3.org/1999/02/22-rdf-syntax-ns#"
   xmlns:svg="http://www.w3.org/2000/svg"
   xmlns="http://www.w3.org/2000/svg"
   xmlns:xlink="http://www.w3.org/1999/xlink"
   xmlns:sodipodi="http://sodipodi.sourceforge.net/DTD/sodipodi-0.dtd"
   xmlns:inkscape="http://www.inkscape.org/namespaces/inkscape"
   width="72.000114"
   height="72.000114"
   id="svg3466"
   version="1.1"
   inkscape:version="0.48.0 r9654"
   sodipodi:docname="ic_wait.svg"
   style="display:inline"
   inkscape:export-filename="C:\Users\emo.GIRITECH\Documents\Shared Graphics\Android\Icons\hdpi\Wait icons\ic_wait_12.png"
   inkscape:export-xdpi="90"
   inkscape:export-ydpi="90">
  <defs
     id="defs3468">
    <linearGradient
       inkscape:collect="always"
       id="linearGradient5518">
      <stop
         style="stop-color:#440008;stop-opacity:1;"
         offset="0"
         id="stop5520" />
      <stop
         style="stop-color:#440008;stop-opacity:0;"
         offset="1"
         id="stop5522" />
    </linearGradient>
    <linearGradient
       inkscape:collect="always"
       xlink:href="#linearGradient5518"
       id="linearGradient5524"
       x1="-7.9392281"
       y1="-5.7113862"
       x2="34.997414"
       y2="-5.7113862"
       gradientUnits="userSpaceOnUse" />
  </defs>
  <sodipodi:namedview
     id="base"
     pagecolor="#ffffff"
     bordercolor="#666666"
     borderopacity="1.0"
     inkscape:pageopacity="0.0"
     inkscape:pageshadow="2"
     inkscape:zoom="1"
     inkscape:cx="-205.41059"
     inkscape:cy="24.836976"
     inkscape:document-units="px"
     inkscape:current-layer="layer10"
     showgrid="false"
     fit-margin-top="0"
     fit-margin-left="0"
     fit-margin-right="0"
     fit-margin-bottom="0"
     inkscape:showpageshadow="false"
     showborder="false"
     inkscape:window-width="1680"
     inkscape:window-height="970"
     inkscape:window-x="-8"
     inkscape:window-y="-8"
     inkscape:window-maximized="1"
     inkscape:object-nodes="true"
     inkscape:snap-global="true" />
  <metadata
     id="metadata3471">
    <rdf:RDF>
      <cc:Work
         rdf:about="">
        <dc:format>image/svg+xml</dc:format>
        <dc:type
           rdf:resource="http://purl.org/dc/dcmitype/StillImage" />
        <dc:title></dc:title>
      </cc:Work>
    </rdf:RDF>
  </metadata>
  <g
     inkscape:groupmode="layer"
     id="layer11"
     inkscape:label="1"
     style="display:none"
     transform="translate(1.2574541e-5,40.00005)">
    <g
       id="g3177"
       transform="matrix(2.2500035,0,0,2.2500035,-1.2574541e-5,-40.00005)">
      <path
         style="fill:#480001;stroke:none;display:inline"
         d="m 25.7695,31.24995 c 3.02891,0 5.48046,-2.45155 5.48046,-5.48046 l 0,-19.53903 C 31.24996,3.20154 28.79841,0.75 25.7695,0.75 l -19.53903,0 c -3.0289,0 -5.48046,2.45154 -5.48046,5.48046 l 0,19.53903 c 0,3.02891 2.45156,5.48046 5.48046,5.48046 z"
         id="path6107"
         inkscape:connector-curvature="0"
         sodipodi:nodetypes="sssssssss" />
      <path
         id="path6109"
         d="m 0.74997,24.81245 15.25,-8.8125 -15.25,0 0,8.8125 z"
         style="fill:#680001;fill-opacity:1;stroke:none;display:inline"
         inkscape:connector-curvature="0" />
      <path
         style="fill:#730000;fill-opacity:1;stroke:none;display:inline"
         d="m 0.75003,15.99997 15.25,0 -15.25,-8.78125 0,8.78125 z"
         id="path6111"
         inkscape:connector-curvature="0" />
      <path
         style="fill:#880000;fill-opacity:1;stroke:none;display:inline"
         d="m 7.18753,0.74997 8.8125,15.25 0,-15.25 -8.8125,0 z"
         id="path6113"
         inkscape:connector-curvature="0" />
      <path
         inkscape:connector-curvature="0"
         id="path6115"
         d="M 24.78125,0.75001 16,16.00001 l 15.25,-8.8125 0,-0.96875 c 0,-3.02891 -2.43985,-5.46875 -5.46875,-5.46875 l -1,0 z"
         style="fill:#1d0002;fill-opacity:1;stroke:none;display:inline" />
      <path
         style="fill:#320001;fill-opacity:1;stroke:none;display:inline"
         d="m 31.24996,16.00001 -15.25,0 15.25,8.78125 0,-8.78125 z"
         id="path6117"
         inkscape:connector-curvature="0" />
      <path
         style="fill:#480001;fill-opacity:1;stroke:none;display:inline"
         d="m 24.81246,31.25001 -8.8125,-15.25 0,15.25 8.8125,0 z"
         id="path6119"
         inkscape:connector-curvature="0" />
      <path
         id="path6121"
         d="m 7.21872,31.24995 8.78125,-15.25 -15.25,8.8125 0,0.96875 c 0,3.02891 2.43985,5.46875 5.46875,5.46875 l 1,0 z"
         style="fill:#5d0001;fill-opacity:1;stroke:none;display:inline"
         inkscape:connector-curvature="0" />
      <path
         id="path6123"
         d="m 15.99997,31.24995 0,-15.25 -8.78125,15.25 8.78125,0 z"
         style="fill:#520001;fill-opacity:1;stroke:none;display:inline"
         inkscape:connector-curvature="0" />
      <path
         style="fill:#3d0001;fill-opacity:1;stroke:none;display:inline"
         d="m 31.24996,24.78126 -15.25,-8.78125 8.8125,15.25 0.96875,0 c 3.02891,0 5.46875,-2.43985 5.46875,-5.46875 l 0,-1 z"
         id="path6125"
         inkscape:connector-curvature="0" />
      <path
         inkscape:connector-curvature="0"
         id="path6127"
         d="m 16,0.75001 0,15.25 8.78125,-15.25 -8.78125,0 z"
         style="fill:#120002;fill-opacity:1;stroke:none;display:inline" />
      <path
         inkscape:connector-curvature="0"
         id="path6129"
         d="m 31.25,7.18751 -15.25,8.8125 15.25,0 0,-8.8125 z"
         style="fill:#270002;fill-opacity:1;stroke:none;display:inline" />
      <path
         style="fill:#7d0000;fill-opacity:1;stroke:none;display:inline"
         d="m 0.75003,7.21872 15.25,8.78125 -8.8125,-15.25 -0.96875,0 c -3.02891,0 -5.46875,2.43985 -5.46875,5.46875 l 0,1 z"
         id="path6131"
         inkscape:connector-curvature="0" />
      <path
         sodipodi:nodetypes="sssssssss"
         inkscape:connector-curvature="0"
         id="path6133"
         d="m 25.7695,31.24995 c 3.02891,0 5.48046,-2.45155 5.48046,-5.48046 l 0,-19.53903 C 31.24996,3.20154 28.79841,0.75 25.7695,0.75 l -19.53903,0 c -3.0289,0 -5.48046,2.45154 -5.48046,5.48046 l 0,19.53903 c 0,3.02891 2.45156,5.48046 5.48046,5.48046 z"
         style="fill:none;stroke:#e0e0e0;stroke-width:1.49999988;stroke-miterlimit:4;stroke-opacity:1;stroke-dasharray:none;display:inline" />
      <path
         transform="translate(-441.14288,-527.79078)"
         id="path6135"
         d="m 458.15555,534.85522 c 1.36327,2e-5 2.63619,0.14775 3.78271,0.47656 1.14649,0.32885 2.14265,0.89624 3.00829,1.69775 l -2.65087,2.88916 c -0.51333,-0.52895 -1.08628,-0.91883 -1.72754,-1.1914 -0.64128,-0.27255 -1.45009,-0.41698 -2.41259,-0.417 -0.80154,2e-5 -1.52498,0.14445 -2.17432,0.417 -0.64935,0.27257 -1.20286,0.64276 -1.66796,1.13183 -0.46512,0.4891 -0.82393,1.08401 -1.07226,1.75732 -0.24834,0.67333 -0.35743,1.38846 -0.35742,2.17431 -1e-5,0.80203 0.10908,1.53886 0.35742,2.2041 0.24833,0.66525 0.60714,1.23846 1.07226,1.72754 0.4651,0.48909 1.01861,0.85928 1.66796,1.13183 0.64934,0.27256 1.37278,0.417 2.17432,0.41699 0.81815,10e-6 1.52166,-0.0838 2.11474,-0.26806 0.59306,-0.18423 1.07686,-0.37312 1.42968,-0.56592 l 0,-2.77001 -3.06786,0 0,-3.45508 6.67186,0 0,8.87596 c -1.10639,0.57693 -2.25231,0.99432 -3.45507,1.25098 -1.20279,0.25665 -2.44263,0.3872 -3.69335,0.3872 -1.33051,0 -2.54105,-0.20857 -3.66357,-0.62548 -1.12253,-0.41691 -2.10127,-1.00931 -2.91894,-1.78711 -0.81768,-0.77779 -1.44921,-1.7232 -1.90625,-2.82958 -0.45703,-1.10638 -0.68506,-2.33056 -0.68505,-3.69336 -10e-6,-1.36278 0.22802,-2.58696 0.68505,-3.69335 0.45704,-1.10637 1.08857,-2.05178 1.90625,-2.82958 0.81767,-0.77778 1.79641,-1.37018 2.91894,-1.78711 1.12252,-0.41689 2.33306,-0.62547 3.66357,-0.62549 z"
         style="fill:#e0e0e0;fill-opacity:1;stroke:none;display:inline"
         inkscape:connector-curvature="0" />
    </g>
  </g>
  <g
     transform="translate(-441.14287,-487.79073)"
     style="display:none"
     inkscape:label="2"
     id="g5486"
     inkscape:groupmode="layer">
    <g
       id="g3194"
       transform="matrix(2.2500035,0,0,2.2500035,-551.43017,-699.74039)">
      <path
         style="fill:#480001;stroke:none"
         d="m 447.37335,528.54078 c -3.02891,0 -5.48046,2.45155 -5.48046,5.48046 l 0,19.53903 c 0,3.02892 2.45155,5.48046 5.48046,5.48046 l 19.53903,0 c 3.0289,0 5.48046,-2.45154 5.48046,-5.48046 l 0,-19.53903 c 0,-3.02891 -2.45156,-5.48046 -5.48046,-5.48046 z"
         id="path5289"
         inkscape:connector-curvature="0"
         sodipodi:nodetypes="sssssssss" />
      <path
         id="path3909"
         d="m 472.39288,534.97828 -15.25,8.8125 15.25,0 0,-8.8125 z"
         style="fill:#1d0002;fill-opacity:1;stroke:none"
         inkscape:connector-curvature="0" />
      <path
         style="fill:#270002;fill-opacity:1;stroke:none"
         d="m 472.39282,543.79076 -15.25,0 15.25,8.78125 0,-8.78125 z"
         id="path3954"
         inkscape:connector-curvature="0" />
      <path
         style="fill:#3d0001;fill-opacity:1;stroke:none"
         d="m 465.95532,559.04076 -8.8125,-15.25 0,15.25 8.8125,0 z"
         id="path3956"
         inkscape:connector-curvature="0" />
      <path
         inkscape:connector-curvature="0"
         id="path3942"
         d="m 448.3616,559.04072 8.78125,-15.25 -15.25,8.8125 0,0.96875 c 0,3.02891 2.43985,5.46875 5.46875,5.46875 l 1,0 z"
         style="fill:#520001;fill-opacity:1;stroke:none" />
      <path
         style="fill:#680001;fill-opacity:1;stroke:none"
         d="m 441.89289,543.79072 15.25,0 -15.25,-8.78125 0,8.78125 z"
         id="path3934"
         inkscape:connector-curvature="0" />
      <path
         style="fill:#7d0000;fill-opacity:1;stroke:none"
         d="m 448.33039,528.54072 8.8125,15.25 0,-15.25 -8.8125,0 z"
         id="path3936"
         inkscape:connector-curvature="0" />
      <path
         id="path3901"
         d="m 465.92413,528.54078 -8.78125,15.25 15.25,-8.8125 0,-0.96875 c 0,-3.02891 -2.43985,-5.46875 -5.46875,-5.46875 l -1,0 z"
         style="fill:#120002;fill-opacity:1;stroke:none"
         inkscape:connector-curvature="0" />
      <path
         id="path3903"
         d="m 457.14288,528.54078 0,15.25 8.78125,-15.25 -8.78125,0 z"
         style="fill:#880000;fill-opacity:1;stroke:none"
         inkscape:connector-curvature="0" />
      <path
         style="fill:#730000;fill-opacity:1;stroke:none"
         d="m 441.89289,535.00947 15.25,8.78125 -8.8125,-15.25 -0.96875,0 c -3.02891,0 -5.46875,2.43985 -5.46875,5.46875 l 0,1 z"
         id="path3932"
         inkscape:connector-curvature="0" />
      <path
         inkscape:connector-curvature="0"
         id="path3944"
         d="m 457.14285,559.04072 0,-15.25 -8.78125,15.25 8.78125,0 z"
         style="fill:#480001;fill-opacity:1;stroke:none" />
      <path
         inkscape:connector-curvature="0"
         id="path3946"
         d="m 441.89285,552.60322 15.25,-8.8125 -15.25,0 0,8.8125 z"
         style="fill:#5d0001;fill-opacity:1;stroke:none" />
      <path
         style="fill:#320001;fill-opacity:1;stroke:none"
         d="m 472.39282,552.57201 -15.25,-8.78125 8.8125,15.25 0.96875,0 c 3.02891,0 5.46875,-2.43985 5.46875,-5.46875 l 0,-1 z"
         id="path3952"
         inkscape:connector-curvature="0" />
      <path
         sodipodi:nodetypes="sssssssss"
         inkscape:connector-curvature="0"
         id="path5512"
         d="m 447.37335,528.54078 c -3.02891,0 -5.48046,2.45155 -5.48046,5.48046 l 0,19.53903 c 0,3.02892 2.45155,5.48046 5.48046,5.48046 l 19.53903,0 c 3.0289,0 5.48046,-2.45154 5.48046,-5.48046 l 0,-19.53903 c 0,-3.02891 -2.45156,-5.48046 -5.48046,-5.48046 z"
         style="fill:none;stroke:#e0e0e0;stroke-width:1.49999988;stroke-miterlimit:4;stroke-opacity:1;stroke-dasharray:none" />
      <path
         id="path5514"
         d="m 458.15555,534.85522 c 1.36327,2e-5 2.63619,0.14775 3.78271,0.47656 1.14649,0.32885 2.14265,0.89624 3.00829,1.69775 l -2.65087,2.88916 c -0.51333,-0.52895 -1.08628,-0.91883 -1.72754,-1.1914 -0.64128,-0.27255 -1.45009,-0.41698 -2.41259,-0.417 -0.80154,2e-5 -1.52498,0.14445 -2.17432,0.417 -0.64935,0.27257 -1.20286,0.64276 -1.66796,1.13183 -0.46512,0.4891 -0.82393,1.08401 -1.07226,1.75732 -0.24834,0.67333 -0.35743,1.38846 -0.35742,2.17431 -1e-5,0.80203 0.10908,1.53886 0.35742,2.2041 0.24833,0.66525 0.60714,1.23846 1.07226,1.72754 0.4651,0.48909 1.01861,0.85928 1.66796,1.13183 0.64934,0.27256 1.37278,0.417 2.17432,0.41699 0.81815,10e-6 1.52166,-0.0838 2.11474,-0.26806 0.59306,-0.18423 1.07686,-0.37312 1.42968,-0.56592 l 0,-2.77001 -3.06786,0 0,-3.45508 6.67186,0 0,8.87596 c -1.10639,0.57693 -2.25231,0.99432 -3.45507,1.25098 -1.20279,0.25665 -2.44263,0.3872 -3.69335,0.3872 -1.33051,0 -2.54105,-0.20857 -3.66357,-0.62548 -1.12253,-0.41691 -2.10127,-1.00931 -2.91894,-1.78711 -0.81768,-0.77779 -1.44921,-1.7232 -1.90625,-2.82958 -0.45703,-1.10638 -0.68506,-2.33056 -0.68505,-3.69336 -10e-6,-1.36278 0.22802,-2.58696 0.68505,-3.69335 0.45704,-1.10637 1.08857,-2.05178 1.90625,-2.82958 0.81767,-0.77778 1.79641,-1.37018 2.91894,-1.78711 1.12252,-0.41689 2.33306,-0.62547 3.66357,-0.62549 z"
         style="fill:#e0e0e0;fill-opacity:1;stroke:none"
         inkscape:connector-curvature="0" />
    </g>
  </g>
  <g
     inkscape:groupmode="layer"
     id="layer1"
     inkscape:label="3"
     style="display:none"
     transform="translate(1.2574541e-5,40.00005)">
    <g
       id="g3211"
       transform="matrix(2.2500035,0,0,2.2500035,-1.2574541e-5,-40.00005)">
      <path
         transform="translate(-441.14288,-527.79078)"
         sodipodi:nodetypes="sssssssss"
         inkscape:connector-curvature="0"
         id="path5291"
         d="m 447.37335,528.54078 c -3.02891,0 -5.48046,2.45155 -5.48046,5.48046 l 0,19.53903 c 0,3.02892 2.45155,5.48046 5.48046,5.48046 l 19.53903,0 c 3.0289,0 5.48046,-2.45154 5.48046,-5.48046 l 0,-19.53903 c 0,-3.02891 -2.45156,-5.48046 -5.48046,-5.48046 z"
         style="fill:#480001;stroke:none;display:inline" />
      <path
         inkscape:connector-curvature="0"
         style="fill:#120002;fill-opacity:1;stroke:none;display:inline"
         d="m 472.39288,534.97828 -15.25,8.8125 15.25,0 0,-8.8125 z"
         id="path5247"
         transform="translate(-441.14288,-527.79078)" />
      <path
         inkscape:connector-curvature="0"
         id="path5249"
         d="m 472.39282,543.79076 -15.25,0 15.25,8.78125 0,-8.78125 z"
         style="fill:#1d0002;fill-opacity:1;stroke:none;display:inline"
         transform="translate(-441.14288,-527.79078)" />
      <path
         inkscape:connector-curvature="0"
         id="path5251"
         d="m 465.95532,559.04076 -8.8125,-15.25 0,15.25 8.8125,0 z"
         style="fill:#320001;fill-opacity:1;stroke:none;display:inline"
         transform="translate(-441.14288,-527.79078)" />
      <path
         style="fill:#480001;fill-opacity:1;stroke:none;display:inline"
         d="m 448.3616,559.04072 8.78125,-15.25 -15.25,8.8125 0,0.96875 c 0,3.02891 2.43985,5.46875 5.46875,5.46875 l 1,0 z"
         id="path5253"
         inkscape:connector-curvature="0"
         transform="translate(-441.14288,-527.79078)" />
      <path
         inkscape:connector-curvature="0"
         id="path5255"
         d="m 441.89289,543.79072 15.25,0 -15.25,-8.78125 0,8.78125 z"
         style="fill:#5d0001;fill-opacity:1;stroke:none;display:inline"
         transform="translate(-441.14288,-527.79078)" />
      <path
         inkscape:connector-curvature="0"
         id="path5257"
         d="m 448.33039,528.54072 8.8125,15.25 0,-15.25 -8.8125,0 z"
         style="fill:#730000;fill-opacity:1;stroke:none;display:inline"
         transform="translate(-441.14288,-527.79078)" />
      <path
         inkscape:connector-curvature="0"
         style="fill:#880000;fill-opacity:1;stroke:none;display:inline"
         d="m 465.92413,528.54078 -8.78125,15.25 15.25,-8.8125 0,-0.96875 c 0,-3.02891 -2.43985,-5.46875 -5.46875,-5.46875 l -1,0 z"
         id="path5259"
         transform="translate(-441.14288,-527.79078)" />
      <path
         inkscape:connector-curvature="0"
         style="fill:#7d0000;fill-opacity:1;stroke:none;display:inline"
         d="m 457.14288,528.54078 0,15.25 8.78125,-15.25 -8.78125,0 z"
         id="path5261"
         transform="translate(-441.14288,-527.79078)" />
      <path
         inkscape:connector-curvature="0"
         id="path5263"
         d="m 441.89289,535.00947 15.25,8.78125 -8.8125,-15.25 -0.96875,0 c -3.02891,0 -5.46875,2.43985 -5.46875,5.46875 l 0,1 z"
         style="fill:#680001;fill-opacity:1;stroke:none;display:inline"
         transform="translate(-441.14288,-527.79078)" />
      <path
         style="fill:#3d0001;fill-opacity:1;stroke:none;display:inline"
         d="m 457.14285,559.04072 0,-15.25 -8.78125,15.25 8.78125,0 z"
         id="path5265"
         inkscape:connector-curvature="0"
         transform="translate(-441.14288,-527.79078)" />
      <path
         style="fill:#520001;fill-opacity:1;stroke:none;display:inline"
         d="m 441.89285,552.60322 15.25,-8.8125 -15.25,0 0,8.8125 z"
         id="path5267"
         inkscape:connector-curvature="0"
         transform="translate(-441.14288,-527.79078)" />
      <path
         inkscape:connector-curvature="0"
         id="path5269"
         d="m 472.39282,552.57201 -15.25,-8.78125 8.8125,15.25 0.96875,0 c 3.02891,0 5.46875,-2.43985 5.46875,-5.46875 l 0,-1 z"
         style="fill:#270002;fill-opacity:1;stroke:none;display:inline"
         transform="translate(-441.14288,-527.79078)" />
      <path
         style="fill:none;stroke:#e0e0e0;stroke-width:1.49999988;stroke-miterlimit:4;stroke-opacity:1;stroke-dasharray:none;display:inline"
         d="m 447.37335,528.54078 c -3.02891,0 -5.48046,2.45155 -5.48046,5.48046 l 0,19.53903 c 0,3.02892 2.45155,5.48046 5.48046,5.48046 l 19.53903,0 c 3.0289,0 5.48046,-2.45154 5.48046,-5.48046 l 0,-19.53903 c 0,-3.02891 -2.45156,-5.48046 -5.48046,-5.48046 z"
         id="path5271"
         inkscape:connector-curvature="0"
         sodipodi:nodetypes="sssssssss"
         transform="translate(-441.14288,-527.79078)" />
      <path
         inkscape:connector-curvature="0"
         style="fill:#e0e0e0;fill-opacity:1;stroke:none;display:inline"
         d="m 458.15555,534.85522 c 1.36327,2e-5 2.63619,0.14775 3.78271,0.47656 1.14649,0.32885 2.14265,0.89624 3.00829,1.69775 l -2.65087,2.88916 c -0.51333,-0.52895 -1.08628,-0.91883 -1.72754,-1.1914 -0.64128,-0.27255 -1.45009,-0.41698 -2.41259,-0.417 -0.80154,2e-5 -1.52498,0.14445 -2.17432,0.417 -0.64935,0.27257 -1.20286,0.64276 -1.66796,1.13183 -0.46512,0.4891 -0.82393,1.08401 -1.07226,1.75732 -0.24834,0.67333 -0.35743,1.38846 -0.35742,2.17431 -1e-5,0.80203 0.10908,1.53886 0.35742,2.2041 0.24833,0.66525 0.60714,1.23846 1.07226,1.72754 0.4651,0.48909 1.01861,0.85928 1.66796,1.13183 0.64934,0.27256 1.37278,0.417 2.17432,0.41699 0.81815,10e-6 1.52166,-0.0838 2.11474,-0.26806 0.59306,-0.18423 1.07686,-0.37312 1.42968,-0.56592 l 0,-2.77001 -3.06786,0 0,-3.45508 6.67186,0 0,8.87596 c -1.10639,0.57693 -2.25231,0.99432 -3.45507,1.25098 -1.20279,0.25665 -2.44263,0.3872 -3.69335,0.3872 -1.33051,0 -2.54105,-0.20857 -3.66357,-0.62548 -1.12253,-0.41691 -2.10127,-1.00931 -2.91894,-1.78711 -0.81768,-0.77779 -1.44921,-1.7232 -1.90625,-2.82958 -0.45703,-1.10638 -0.68506,-2.33056 -0.68505,-3.69336 -10e-6,-1.36278 0.22802,-2.58696 0.68505,-3.69335 0.45704,-1.10637 1.08857,-2.05178 1.90625,-2.82958 0.81767,-0.77778 1.79641,-1.37018 2.91894,-1.78711 1.12252,-0.41689 2.33306,-0.62547 3.66357,-0.62549 z"
         id="path5273"
         transform="translate(-441.14288,-527.79078)" />
    </g>
  </g>
  <g
     inkscape:groupmode="layer"
     id="layer2"
     inkscape:label="4"
     style="display:none"
     transform="translate(1.2574541e-5,40.00005)">
    <g
       id="g3228"
       transform="matrix(2.2500035,0,0,2.2500035,-1.2574541e-5,-40.00005)">
      <path
         transform="translate(-441.14288,-527.79078)"
         sodipodi:nodetypes="sssssssss"
         inkscape:connector-curvature="0"
         id="path5293"
         d="m 447.37335,528.54078 c -3.02891,0 -5.48046,2.45155 -5.48046,5.48046 l 0,19.53903 c 0,3.02892 2.45155,5.48046 5.48046,5.48046 l 19.53903,0 c 3.0289,0 5.48046,-2.45154 5.48046,-5.48046 l 0,-19.53903 c 0,-3.02891 -2.45156,-5.48046 -5.48046,-5.48046 z"
         style="fill:#480001;stroke:none;display:inline" />
      <path
         inkscape:connector-curvature="0"
         style="fill:#880000;fill-opacity:1;stroke:none;display:inline"
         d="m 472.39288,534.97828 -15.25,8.8125 15.25,0 0,-8.8125 z"
         id="path5191"
         transform="translate(-441.14288,-527.79078)" />
      <path
         inkscape:connector-curvature="0"
         id="path5193"
         d="m 472.39282,543.79076 -15.25,0 15.25,8.78125 0,-8.78125 z"
         style="fill:#120002;fill-opacity:1;stroke:none;display:inline"
         transform="translate(-441.14288,-527.79078)" />
      <path
         inkscape:connector-curvature="0"
         id="path5195"
         d="m 465.95532,559.04076 -8.8125,-15.25 0,15.25 8.8125,0 z"
         style="fill:#270002;fill-opacity:1;stroke:none;display:inline"
         transform="translate(-441.14288,-527.79078)" />
      <path
         style="fill:#3d0001;fill-opacity:1;stroke:none;display:inline"
         d="m 448.3616,559.04072 8.78125,-15.25 -15.25,8.8125 0,0.96875 c 0,3.02891 2.43985,5.46875 5.46875,5.46875 l 1,0 z"
         id="path5197"
         inkscape:connector-curvature="0"
         transform="translate(-441.14288,-527.79078)" />
      <path
         inkscape:connector-curvature="0"
         id="path5199"
         d="m 441.89289,543.79072 15.25,0 -15.25,-8.78125 0,8.78125 z"
         style="fill:#520001;fill-opacity:1;stroke:none;display:inline"
         transform="translate(-441.14288,-527.79078)" />
      <path
         inkscape:connector-curvature="0"
         id="path5201"
         d="m 448.33039,528.54072 8.8125,15.25 0,-15.25 -8.8125,0 z"
         style="fill:#680001;fill-opacity:1;stroke:none;display:inline"
         transform="translate(-441.14288,-527.79078)" />
      <path
         inkscape:connector-curvature="0"
         style="fill:#7d0000;fill-opacity:1;stroke:none;display:inline"
         d="m 465.92413,528.54078 -8.78125,15.25 15.25,-8.8125 0,-0.96875 c 0,-3.02891 -2.43985,-5.46875 -5.46875,-5.46875 l -1,0 z"
         id="path5203"
         transform="translate(-441.14288,-527.79078)" />
      <path
         inkscape:connector-curvature="0"
         style="fill:#730000;fill-opacity:1;stroke:none;display:inline"
         d="m 457.14288,528.54078 0,15.25 8.78125,-15.25 -8.78125,0 z"
         id="path5205"
         transform="translate(-441.14288,-527.79078)" />
      <path
         inkscape:connector-curvature="0"
         id="path5207"
         d="m 441.89289,535.00947 15.25,8.78125 -8.8125,-15.25 -0.96875,0 c -3.02891,0 -5.46875,2.43985 -5.46875,5.46875 l 0,1 z"
         style="fill:#5d0001;fill-opacity:1;stroke:none;display:inline"
         transform="translate(-441.14288,-527.79078)" />
      <path
         style="fill:#320001;fill-opacity:1;stroke:none;display:inline"
         d="m 457.14285,559.04072 0,-15.25 -8.78125,15.25 8.78125,0 z"
         id="path5209"
         inkscape:connector-curvature="0"
         transform="translate(-441.14288,-527.79078)" />
      <path
         style="fill:#480001;fill-opacity:1;stroke:none;display:inline"
         d="m 441.89285,552.60322 15.25,-8.8125 -15.25,0 0,8.8125 z"
         id="path5211"
         inkscape:connector-curvature="0"
         transform="translate(-441.14288,-527.79078)" />
      <path
         inkscape:connector-curvature="0"
         id="path5213"
         d="m 472.39282,552.57201 -15.25,-8.78125 8.8125,15.25 0.96875,0 c 3.02891,0 5.46875,-2.43985 5.46875,-5.46875 l 0,-1 z"
         style="fill:#1d0002;fill-opacity:1;stroke:none;display:inline"
         transform="translate(-441.14288,-527.79078)" />
      <path
         style="fill:none;stroke:#e0e0e0;stroke-width:1.49999988;stroke-miterlimit:4;stroke-opacity:1;stroke-dasharray:none;display:inline"
         d="m 447.37335,528.54078 c -3.02891,0 -5.48046,2.45155 -5.48046,5.48046 l 0,19.53903 c 0,3.02892 2.45155,5.48046 5.48046,5.48046 l 19.53903,0 c 3.0289,0 5.48046,-2.45154 5.48046,-5.48046 l 0,-19.53903 c 0,-3.02891 -2.45156,-5.48046 -5.48046,-5.48046 z"
         id="path5215"
         inkscape:connector-curvature="0"
         sodipodi:nodetypes="sssssssss"
         transform="translate(-441.14288,-527.79078)" />
      <path
         inkscape:connector-curvature="0"
         style="fill:#e0e0e0;fill-opacity:1;stroke:none;display:inline"
         d="m 458.15555,534.85522 c 1.36327,2e-5 2.63619,0.14775 3.78271,0.47656 1.14649,0.32885 2.14265,0.89624 3.00829,1.69775 l -2.65087,2.88916 c -0.51333,-0.52895 -1.08628,-0.91883 -1.72754,-1.1914 -0.64128,-0.27255 -1.45009,-0.41698 -2.41259,-0.417 -0.80154,2e-5 -1.52498,0.14445 -2.17432,0.417 -0.64935,0.27257 -1.20286,0.64276 -1.66796,1.13183 -0.46512,0.4891 -0.82393,1.08401 -1.07226,1.75732 -0.24834,0.67333 -0.35743,1.38846 -0.35742,2.17431 -1e-5,0.80203 0.10908,1.53886 0.35742,2.2041 0.24833,0.66525 0.60714,1.23846 1.07226,1.72754 0.4651,0.48909 1.01861,0.85928 1.66796,1.13183 0.64934,0.27256 1.37278,0.417 2.17432,0.41699 0.81815,10e-6 1.52166,-0.0838 2.11474,-0.26806 0.59306,-0.18423 1.07686,-0.37312 1.42968,-0.56592 l 0,-2.77001 -3.06786,0 0,-3.45508 6.67186,0 0,8.87596 c -1.10639,0.57693 -2.25231,0.99432 -3.45507,1.25098 -1.20279,0.25665 -2.44263,0.3872 -3.69335,0.3872 -1.33051,0 -2.54105,-0.20857 -3.66357,-0.62548 -1.12253,-0.41691 -2.10127,-1.00931 -2.91894,-1.78711 -0.81768,-0.77779 -1.44921,-1.7232 -1.90625,-2.82958 -0.45703,-1.10638 -0.68506,-2.33056 -0.68505,-3.69336 -10e-6,-1.36278 0.22802,-2.58696 0.68505,-3.69335 0.45704,-1.10637 1.08857,-2.05178 1.90625,-2.82958 0.81767,-0.77778 1.79641,-1.37018 2.91894,-1.78711 1.12252,-0.41689 2.33306,-0.62547 3.66357,-0.62549 z"
         id="path5217"
         transform="translate(-441.14288,-527.79078)" />
    </g>
  </g>
  <g
     inkscape:groupmode="layer"
     id="layer3"
     inkscape:label="5"
     style="display:none"
     transform="translate(1.2574541e-5,40.00005)">
    <g
       id="g3245"
       transform="matrix(2.2500035,0,0,2.2500035,-1.2574541e-5,-40.00005)">
      <path
         transform="translate(-441.14288,-527.79078)"
         sodipodi:nodetypes="sssssssss"
         inkscape:connector-curvature="0"
         id="path5295"
         d="m 447.37335,528.54078 c -3.02891,0 -5.48046,2.45155 -5.48046,5.48046 l 0,19.53903 c 0,3.02892 2.45155,5.48046 5.48046,5.48046 l 19.53903,0 c 3.0289,0 5.48046,-2.45154 5.48046,-5.48046 l 0,-19.53903 c 0,-3.02891 -2.45156,-5.48046 -5.48046,-5.48046 z"
         style="fill:#480001;stroke:none;display:inline" />
      <path
         inkscape:connector-curvature="0"
         style="fill:#7d0000;fill-opacity:1;stroke:none;display:inline"
         d="m 472.39288,534.97828 -15.25,8.8125 15.25,0 0,-8.8125 z"
         id="path5121"
         transform="translate(-441.14288,-527.79078)" />
      <path
         inkscape:connector-curvature="0"
         id="path5123"
         d="m 472.39282,543.79076 -15.25,0 15.25,8.78125 0,-8.78125 z"
         style="fill:#880000;fill-opacity:1;stroke:none;display:inline"
         transform="translate(-441.14288,-527.79078)" />
      <path
         inkscape:connector-curvature="0"
         id="path5125"
         d="m 465.95532,559.04076 -8.8125,-15.25 0,15.25 8.8125,0 z"
         style="fill:#1d0002;fill-opacity:1;stroke:none;display:inline"
         transform="translate(-441.14288,-527.79078)" />
      <path
         style="fill:#320001;fill-opacity:1;stroke:none;display:inline"
         d="m 448.3616,559.04072 8.78125,-15.25 -15.25,8.8125 0,0.96875 c 0,3.02891 2.43985,5.46875 5.46875,5.46875 l 1,0 z"
         id="path5127"
         inkscape:connector-curvature="0"
         transform="translate(-441.14288,-527.79078)" />
      <path
         inkscape:connector-curvature="0"
         id="path5129"
         d="m 441.89289,543.79072 15.25,0 -15.25,-8.78125 0,8.78125 z"
         style="fill:#480001;fill-opacity:1;stroke:none;display:inline"
         transform="translate(-441.14288,-527.79078)" />
      <path
         inkscape:connector-curvature="0"
         id="path5131"
         d="m 448.33039,528.54072 8.8125,15.25 0,-15.25 -8.8125,0 z"
         style="fill:#5d0001;fill-opacity:1;stroke:none;display:inline"
         transform="translate(-441.14288,-527.79078)" />
      <path
         inkscape:connector-curvature="0"
         style="fill:#730000;fill-opacity:1;stroke:none;display:inline"
         d="m 465.92413,528.54078 -8.78125,15.25 15.25,-8.8125 0,-0.96875 c 0,-3.02891 -2.43985,-5.46875 -5.46875,-5.46875 l -1,0 z"
         id="path5133"
         transform="translate(-441.14288,-527.79078)" />
      <path
         inkscape:connector-curvature="0"
         style="fill:#680001;fill-opacity:1;stroke:none;display:inline"
         d="m 457.14288,528.54078 0,15.25 8.78125,-15.25 -8.78125,0 z"
         id="path5135"
         transform="translate(-441.14288,-527.79078)" />
      <path
         inkscape:connector-curvature="0"
         id="path5137"
         d="m 441.89289,535.00947 15.25,8.78125 -8.8125,-15.25 -0.96875,0 c -3.02891,0 -5.46875,2.43985 -5.46875,5.46875 l 0,1 z"
         style="fill:#520001;fill-opacity:1;stroke:none;display:inline"
         transform="translate(-441.14288,-527.79078)" />
      <path
         style="fill:#270002;fill-opacity:1;stroke:none;display:inline"
         d="m 457.14285,559.04072 0,-15.25 -8.78125,15.25 8.78125,0 z"
         id="path5139"
         inkscape:connector-curvature="0"
         transform="translate(-441.14288,-527.79078)" />
      <path
         style="fill:#3d0001;fill-opacity:1;stroke:none;display:inline"
         d="m 441.89285,552.60322 15.25,-8.8125 -15.25,0 0,8.8125 z"
         id="path5141"
         inkscape:connector-curvature="0"
         transform="translate(-441.14288,-527.79078)" />
      <path
         inkscape:connector-curvature="0"
         id="path5143"
         d="m 472.39282,552.57201 -15.25,-8.78125 8.8125,15.25 0.96875,0 c 3.02891,0 5.46875,-2.43985 5.46875,-5.46875 l 0,-1 z"
         style="fill:#120002;fill-opacity:1;stroke:none;display:inline"
         transform="translate(-441.14288,-527.79078)" />
      <path
         style="fill:none;stroke:#e0e0e0;stroke-width:1.49999988;stroke-miterlimit:4;stroke-opacity:1;stroke-dasharray:none;display:inline"
         d="m 447.37335,528.54078 c -3.02891,0 -5.48046,2.45155 -5.48046,5.48046 l 0,19.53903 c 0,3.02892 2.45155,5.48046 5.48046,5.48046 l 19.53903,0 c 3.0289,0 5.48046,-2.45154 5.48046,-5.48046 l 0,-19.53903 c 0,-3.02891 -2.45156,-5.48046 -5.48046,-5.48046 z"
         id="path5145"
         inkscape:connector-curvature="0"
         sodipodi:nodetypes="sssssssss"
         transform="translate(-441.14288,-527.79078)" />
      <path
         inkscape:connector-curvature="0"
         style="fill:#e0e0e0;fill-opacity:1;stroke:none;display:inline"
         d="m 458.15555,534.85522 c 1.36327,2e-5 2.63619,0.14775 3.78271,0.47656 1.14649,0.32885 2.14265,0.89624 3.00829,1.69775 l -2.65087,2.88916 c -0.51333,-0.52895 -1.08628,-0.91883 -1.72754,-1.1914 -0.64128,-0.27255 -1.45009,-0.41698 -2.41259,-0.417 -0.80154,2e-5 -1.52498,0.14445 -2.17432,0.417 -0.64935,0.27257 -1.20286,0.64276 -1.66796,1.13183 -0.46512,0.4891 -0.82393,1.08401 -1.07226,1.75732 -0.24834,0.67333 -0.35743,1.38846 -0.35742,2.17431 -1e-5,0.80203 0.10908,1.53886 0.35742,2.2041 0.24833,0.66525 0.60714,1.23846 1.07226,1.72754 0.4651,0.48909 1.01861,0.85928 1.66796,1.13183 0.64934,0.27256 1.37278,0.417 2.17432,0.41699 0.81815,10e-6 1.52166,-0.0838 2.11474,-0.26806 0.59306,-0.18423 1.07686,-0.37312 1.42968,-0.56592 l 0,-2.77001 -3.06786,0 0,-3.45508 6.67186,0 0,8.87596 c -1.10639,0.57693 -2.25231,0.99432 -3.45507,1.25098 -1.20279,0.25665 -2.44263,0.3872 -3.69335,0.3872 -1.33051,0 -2.54105,-0.20857 -3.66357,-0.62548 -1.12253,-0.41691 -2.10127,-1.00931 -2.91894,-1.78711 -0.81768,-0.77779 -1.44921,-1.7232 -1.90625,-2.82958 -0.45703,-1.10638 -0.68506,-2.33056 -0.68505,-3.69336 -10e-6,-1.36278 0.22802,-2.58696 0.68505,-3.69335 0.45704,-1.10637 1.08857,-2.05178 1.90625,-2.82958 0.81767,-0.77778 1.79641,-1.37018 2.91894,-1.78711 1.12252,-0.41689 2.33306,-0.62547 3.66357,-0.62549 z"
         id="path5147"
         transform="translate(-441.14288,-527.79078)" />
    </g>
  </g>
  <g
     inkscape:groupmode="layer"
     id="layer4"
     inkscape:label="6"
     style="display:none"
     transform="translate(1.2574541e-5,40.00005)">
    <g
       id="g3262"
       transform="matrix(2.2500035,0,0,2.2500035,-1.2574541e-5,-40.00005)">
      <path
         transform="translate(-441.14288,-527.79078)"
         sodipodi:nodetypes="sssssssss"
         inkscape:connector-curvature="0"
         id="path5297"
         d="m 447.37335,528.54078 c -3.02891,0 -5.48046,2.45155 -5.48046,5.48046 l 0,19.53903 c 0,3.02892 2.45155,5.48046 5.48046,5.48046 l 19.53903,0 c 3.0289,0 5.48046,-2.45154 5.48046,-5.48046 l 0,-19.53903 c 0,-3.02891 -2.45156,-5.48046 -5.48046,-5.48046 z"
         style="fill:#480001;stroke:none;display:inline" />
      <path
         inkscape:connector-curvature="0"
         style="fill:#730000;fill-opacity:1;stroke:none;display:inline"
         d="m 472.39288,534.97828 -15.25,8.8125 15.25,0 0,-8.8125 z"
         id="path5037"
         transform="translate(-441.14288,-527.79078)" />
      <path
         inkscape:connector-curvature="0"
         id="path5039"
         d="m 472.39282,543.79076 -15.25,0 15.25,8.78125 0,-8.78125 z"
         style="fill:#7d0000;fill-opacity:1;stroke:none;display:inline"
         transform="translate(-441.14288,-527.79078)" />
      <path
         inkscape:connector-curvature="0"
         id="path5041"
         d="m 465.95532,559.04076 -8.8125,-15.25 0,15.25 8.8125,0 z"
         style="fill:#120002;fill-opacity:1;stroke:none;display:inline"
         transform="translate(-441.14288,-527.79078)" />
      <path
         style="fill:#270002;fill-opacity:1;stroke:none;display:inline"
         d="m 448.3616,559.04072 8.78125,-15.25 -15.25,8.8125 0,0.96875 c 0,3.02891 2.43985,5.46875 5.46875,5.46875 l 1,0 z"
         id="path5043"
         inkscape:connector-curvature="0"
         transform="translate(-441.14288,-527.79078)" />
      <path
         inkscape:connector-curvature="0"
         id="path5045"
         d="m 441.89289,543.79072 15.25,0 -15.25,-8.78125 0,8.78125 z"
         style="fill:#3d0001;fill-opacity:1;stroke:none;display:inline"
         transform="translate(-441.14288,-527.79078)" />
      <path
         inkscape:connector-curvature="0"
         id="path5047"
         d="m 448.33039,528.54072 8.8125,15.25 0,-15.25 -8.8125,0 z"
         style="fill:#520001;fill-opacity:1;stroke:none;display:inline"
         transform="translate(-441.14288,-527.79078)" />
      <path
         inkscape:connector-curvature="0"
         style="fill:#680001;fill-opacity:1;stroke:none;display:inline"
         d="m 465.92413,528.54078 -8.78125,15.25 15.25,-8.8125 0,-0.96875 c 0,-3.02891 -2.43985,-5.46875 -5.46875,-5.46875 l -1,0 z"
         id="path5049"
         transform="translate(-441.14288,-527.79078)" />
      <path
         inkscape:connector-curvature="0"
         style="fill:#5d0001;fill-opacity:1;stroke:none;display:inline"
         d="m 457.14288,528.54078 0,15.25 8.78125,-15.25 -8.78125,0 z"
         id="path5051"
         transform="translate(-441.14288,-527.79078)" />
      <path
         inkscape:connector-curvature="0"
         id="path5053"
         d="m 441.89289,535.00947 15.25,8.78125 -8.8125,-15.25 -0.96875,0 c -3.02891,0 -5.46875,2.43985 -5.46875,5.46875 l 0,1 z"
         style="fill:#480001;fill-opacity:1;stroke:none;display:inline"
         transform="translate(-441.14288,-527.79078)" />
      <path
         style="fill:#1d0002;fill-opacity:1;stroke:none;display:inline"
         d="m 457.14285,559.04072 0,-15.25 -8.78125,15.25 8.78125,0 z"
         id="path5055"
         inkscape:connector-curvature="0"
         transform="translate(-441.14288,-527.79078)" />
      <path
         style="fill:#320001;fill-opacity:1;stroke:none;display:inline"
         d="m 441.89285,552.60322 15.25,-8.8125 -15.25,0 0,8.8125 z"
         id="path5057"
         inkscape:connector-curvature="0"
         transform="translate(-441.14288,-527.79078)" />
      <path
         inkscape:connector-curvature="0"
         id="path5059"
         d="m 472.39282,552.57201 -15.25,-8.78125 8.8125,15.25 0.96875,0 c 3.02891,0 5.46875,-2.43985 5.46875,-5.46875 l 0,-1 z"
         style="fill:#880000;fill-opacity:1;stroke:none;display:inline"
         transform="translate(-441.14288,-527.79078)" />
      <path
         style="fill:none;stroke:#e0e0e0;stroke-width:1.49999988;stroke-miterlimit:4;stroke-opacity:1;stroke-dasharray:none;display:inline"
         d="m 447.37335,528.54078 c -3.02891,0 -5.48046,2.45155 -5.48046,5.48046 l 0,19.53903 c 0,3.02892 2.45155,5.48046 5.48046,5.48046 l 19.53903,0 c 3.0289,0 5.48046,-2.45154 5.48046,-5.48046 l 0,-19.53903 c 0,-3.02891 -2.45156,-5.48046 -5.48046,-5.48046 z"
         id="path5061"
         inkscape:connector-curvature="0"
         sodipodi:nodetypes="sssssssss"
         transform="translate(-441.14288,-527.79078)" />
      <path
         inkscape:connector-curvature="0"
         style="fill:#e0e0e0;fill-opacity:1;stroke:none;display:inline"
         d="m 458.15555,534.85522 c 1.36327,2e-5 2.63619,0.14775 3.78271,0.47656 1.14649,0.32885 2.14265,0.89624 3.00829,1.69775 l -2.65087,2.88916 c -0.51333,-0.52895 -1.08628,-0.91883 -1.72754,-1.1914 -0.64128,-0.27255 -1.45009,-0.41698 -2.41259,-0.417 -0.80154,2e-5 -1.52498,0.14445 -2.17432,0.417 -0.64935,0.27257 -1.20286,0.64276 -1.66796,1.13183 -0.46512,0.4891 -0.82393,1.08401 -1.07226,1.75732 -0.24834,0.67333 -0.35743,1.38846 -0.35742,2.17431 -1e-5,0.80203 0.10908,1.53886 0.35742,2.2041 0.24833,0.66525 0.60714,1.23846 1.07226,1.72754 0.4651,0.48909 1.01861,0.85928 1.66796,1.13183 0.64934,0.27256 1.37278,0.417 2.17432,0.41699 0.81815,10e-6 1.52166,-0.0838 2.11474,-0.26806 0.59306,-0.18423 1.07686,-0.37312 1.42968,-0.56592 l 0,-2.77001 -3.06786,0 0,-3.45508 6.67186,0 0,8.87596 c -1.10639,0.57693 -2.25231,0.99432 -3.45507,1.25098 -1.20279,0.25665 -2.44263,0.3872 -3.69335,0.3872 -1.33051,0 -2.54105,-0.20857 -3.66357,-0.62548 -1.12253,-0.41691 -2.10127,-1.00931 -2.91894,-1.78711 -0.81768,-0.77779 -1.44921,-1.7232 -1.90625,-2.82958 -0.45703,-1.10638 -0.68506,-2.33056 -0.68505,-3.69336 -10e-6,-1.36278 0.22802,-2.58696 0.68505,-3.69335 0.45704,-1.10637 1.08857,-2.05178 1.90625,-2.82958 0.81767,-0.77778 1.79641,-1.37018 2.91894,-1.78711 1.12252,-0.41689 2.33306,-0.62547 3.66357,-0.62549 z"
         id="path5063"
         transform="translate(-441.14288,-527.79078)" />
    </g>
  </g>
  <g
     inkscape:groupmode="layer"
     id="layer5"
     inkscape:label="7"
     style="display:none"
     transform="translate(1.2574541e-5,40.00005)">
    <g
       id="g3279"
       transform="matrix(2.2500035,0,0,2.2500035,-1.2574541e-5,-40.00005)">
      <path
         transform="translate(-441.14288,-527.79078)"
         sodipodi:nodetypes="sssssssss"
         inkscape:connector-curvature="0"
         id="path5299"
         d="m 447.37335,528.54078 c -3.02891,0 -5.48046,2.45155 -5.48046,5.48046 l 0,19.53903 c 0,3.02892 2.45155,5.48046 5.48046,5.48046 l 19.53903,0 c 3.0289,0 5.48046,-2.45154 5.48046,-5.48046 l 0,-19.53903 c 0,-3.02891 -2.45156,-5.48046 -5.48046,-5.48046 z"
         style="fill:#480001;stroke:none;display:inline" />
      <path
         inkscape:connector-curvature="0"
         style="fill:#680001;fill-opacity:1;stroke:none;display:inline"
         d="m 472.39288,534.97828 -15.25,8.8125 15.25,0 0,-8.8125 z"
         id="path4939"
         transform="translate(-441.14288,-527.79078)" />
      <path
         inkscape:connector-curvature="0"
         id="path4941"
         d="m 472.39282,543.79076 -15.25,0 15.25,8.78125 0,-8.78125 z"
         style="fill:#730000;fill-opacity:1;stroke:none;display:inline"
         transform="translate(-441.14288,-527.79078)" />
      <path
         inkscape:connector-curvature="0"
         id="path4943"
         d="m 465.95532,559.04076 -8.8125,-15.25 0,15.25 8.8125,0 z"
         style="fill:#880000;fill-opacity:1;stroke:none;display:inline"
         transform="translate(-441.14288,-527.79078)" />
      <path
         style="fill:#1d0002;fill-opacity:1;stroke:none;display:inline"
         d="m 448.3616,559.04072 8.78125,-15.25 -15.25,8.8125 0,0.96875 c 0,3.02891 2.43985,5.46875 5.46875,5.46875 l 1,0 z"
         id="path4945"
         inkscape:connector-curvature="0"
         transform="translate(-441.14288,-527.79078)" />
      <path
         inkscape:connector-curvature="0"
         id="path4947"
         d="m 441.89289,543.79072 15.25,0 -15.25,-8.78125 0,8.78125 z"
         style="fill:#320001;fill-opacity:1;stroke:none;display:inline"
         transform="translate(-441.14288,-527.79078)" />
      <path
         inkscape:connector-curvature="0"
         id="path4949"
         d="m 448.33039,528.54072 8.8125,15.25 0,-15.25 -8.8125,0 z"
         style="fill:#480001;fill-opacity:1;stroke:none;display:inline"
         transform="translate(-441.14288,-527.79078)" />
      <path
         inkscape:connector-curvature="0"
         style="fill:#5d0001;fill-opacity:1;stroke:none;display:inline"
         d="m 465.92413,528.54078 -8.78125,15.25 15.25,-8.8125 0,-0.96875 c 0,-3.02891 -2.43985,-5.46875 -5.46875,-5.46875 l -1,0 z"
         id="path4951"
         transform="translate(-441.14288,-527.79078)" />
      <path
         inkscape:connector-curvature="0"
         style="fill:#520001;fill-opacity:1;stroke:none;display:inline"
         d="m 457.14288,528.54078 0,15.25 8.78125,-15.25 -8.78125,0 z"
         id="path4953"
         transform="translate(-441.14288,-527.79078)" />
      <path
         inkscape:connector-curvature="0"
         id="path4955"
         d="m 441.89289,535.00947 15.25,8.78125 -8.8125,-15.25 -0.96875,0 c -3.02891,0 -5.46875,2.43985 -5.46875,5.46875 l 0,1 z"
         style="fill:#3d0001;fill-opacity:1;stroke:none;display:inline"
         transform="translate(-441.14288,-527.79078)" />
      <path
         style="fill:#120002;fill-opacity:1;stroke:none;display:inline"
         d="m 457.14285,559.04072 0,-15.25 -8.78125,15.25 8.78125,0 z"
         id="path4957"
         inkscape:connector-curvature="0"
         transform="translate(-441.14288,-527.79078)" />
      <path
         style="fill:#270002;fill-opacity:1;stroke:none;display:inline"
         d="m 441.89285,552.60322 15.25,-8.8125 -15.25,0 0,8.8125 z"
         id="path4959"
         inkscape:connector-curvature="0"
         transform="translate(-441.14288,-527.79078)" />
      <path
         inkscape:connector-curvature="0"
         id="path4961"
         d="m 472.39282,552.57201 -15.25,-8.78125 8.8125,15.25 0.96875,0 c 3.02891,0 5.46875,-2.43985 5.46875,-5.46875 l 0,-1 z"
         style="fill:#7d0000;fill-opacity:1;stroke:none;display:inline"
         transform="translate(-441.14288,-527.79078)" />
      <path
         style="fill:none;stroke:#e0e0e0;stroke-width:1.49999988;stroke-miterlimit:4;stroke-opacity:1;stroke-dasharray:none;display:inline"
         d="m 447.37335,528.54078 c -3.02891,0 -5.48046,2.45155 -5.48046,5.48046 l 0,19.53903 c 0,3.02892 2.45155,5.48046 5.48046,5.48046 l 19.53903,0 c 3.0289,0 5.48046,-2.45154 5.48046,-5.48046 l 0,-19.53903 c 0,-3.02891 -2.45156,-5.48046 -5.48046,-5.48046 z"
         id="path4963"
         inkscape:connector-curvature="0"
         sodipodi:nodetypes="sssssssss"
         transform="translate(-441.14288,-527.79078)" />
      <path
         inkscape:connector-curvature="0"
         style="fill:#e0e0e0;fill-opacity:1;stroke:none;display:inline"
         d="m 458.15555,534.85522 c 1.36327,2e-5 2.63619,0.14775 3.78271,0.47656 1.14649,0.32885 2.14265,0.89624 3.00829,1.69775 l -2.65087,2.88916 c -0.51333,-0.52895 -1.08628,-0.91883 -1.72754,-1.1914 -0.64128,-0.27255 -1.45009,-0.41698 -2.41259,-0.417 -0.80154,2e-5 -1.52498,0.14445 -2.17432,0.417 -0.64935,0.27257 -1.20286,0.64276 -1.66796,1.13183 -0.46512,0.4891 -0.82393,1.08401 -1.07226,1.75732 -0.24834,0.67333 -0.35743,1.38846 -0.35742,2.17431 -1e-5,0.80203 0.10908,1.53886 0.35742,2.2041 0.24833,0.66525 0.60714,1.23846 1.07226,1.72754 0.4651,0.48909 1.01861,0.85928 1.66796,1.13183 0.64934,0.27256 1.37278,0.417 2.17432,0.41699 0.81815,10e-6 1.52166,-0.0838 2.11474,-0.26806 0.59306,-0.18423 1.07686,-0.37312 1.42968,-0.56592 l 0,-2.77001 -3.06786,0 0,-3.45508 6.67186,0 0,8.87596 c -1.10639,0.57693 -2.25231,0.99432 -3.45507,1.25098 -1.20279,0.25665 -2.44263,0.3872 -3.69335,0.3872 -1.33051,0 -2.54105,-0.20857 -3.66357,-0.62548 -1.12253,-0.41691 -2.10127,-1.00931 -2.91894,-1.78711 -0.81768,-0.77779 -1.44921,-1.7232 -1.90625,-2.82958 -0.45703,-1.10638 -0.68506,-2.33056 -0.68505,-3.69336 -10e-6,-1.36278 0.22802,-2.58696 0.68505,-3.69335 0.45704,-1.10637 1.08857,-2.05178 1.90625,-2.82958 0.81767,-0.77778 1.79641,-1.37018 2.91894,-1.78711 1.12252,-0.41689 2.33306,-0.62547 3.66357,-0.62549 z"
         id="path4965"
         transform="translate(-441.14288,-527.79078)" />
    </g>
  </g>
  <g
     inkscape:groupmode="layer"
     id="layer6"
     inkscape:label="8"
     style="display:none"
     transform="translate(1.2574541e-5,40.00005)">
    <g
       id="g3296"
       transform="matrix(2.2500035,0,0,2.2500035,-1.2574541e-5,-40.00005)">
      <path
         sodipodi:nodetypes="sssssssss"
         inkscape:connector-curvature="0"
         id="path5507"
         d="m 25.7695,31.24995 c 3.02891,0 5.48046,-2.45155 5.48046,-5.48046 l 0,-19.53903 C 31.24996,3.20154 28.79841,0.75 25.7695,0.75 l -19.53903,0 c -3.0289,0 -5.48046,2.45154 -5.48046,5.48046 l 0,19.53903 c 0,3.02891 2.45156,5.48046 5.48046,5.48046 z"
         style="fill:#480001;stroke:none;display:inline" />
      <path
         inkscape:connector-curvature="0"
         style="fill:#1d0002;fill-opacity:1;stroke:none;display:inline"
         d="m 0.74997,24.81245 15.25,-8.8125 -15.25,0 0,8.8125 z"
         id="path5509" />
      <path
         inkscape:connector-curvature="0"
         id="path5511"
         d="m 0.75003,15.99997 15.25,0 -15.25,-8.78125 0,8.78125 z"
         style="fill:#270002;fill-opacity:1;stroke:none;display:inline" />
      <path
         inkscape:connector-curvature="0"
         id="path5513"
         d="m 7.18753,0.74997 8.8125,15.25 0,-15.25 -8.8125,0 z"
         style="fill:#3d0001;fill-opacity:1;stroke:none;display:inline" />
      <path
         style="fill:#520001;fill-opacity:1;stroke:none;display:inline"
         d="M 24.78125,0.75001 16,16.00001 l 15.25,-8.8125 0,-0.96875 c 0,-3.02891 -2.43985,-5.46875 -5.46875,-5.46875 l -1,0 z"
         id="path5515"
         inkscape:connector-curvature="0" />
      <path
         inkscape:connector-curvature="0"
         id="path5517"
         d="m 31.24996,16.00001 -15.25,0 15.25,8.78125 0,-8.78125 z"
         style="fill:#680001;fill-opacity:1;stroke:none;display:inline" />
      <path
         inkscape:connector-curvature="0"
         id="path5519"
         d="m 24.81246,31.25001 -8.8125,-15.25 0,15.25 8.8125,0 z"
         style="fill:#7d0000;fill-opacity:1;stroke:none;display:inline" />
      <path
         inkscape:connector-curvature="0"
         style="fill:#120002;fill-opacity:1;stroke:none;display:inline"
         d="m 7.21872,31.24995 8.78125,-15.25 -15.25,8.8125 0,0.96875 c 0,3.02891 2.43985,5.46875 5.46875,5.46875 l 1,0 z"
         id="path5521" />
      <path
         inkscape:connector-curvature="0"
         style="fill:#880000;fill-opacity:1;stroke:none;display:inline"
         d="m 15.99997,31.24995 0,-15.25 -8.78125,15.25 8.78125,0 z"
         id="path5523" />
      <path
         inkscape:connector-curvature="0"
         id="path5525"
         d="m 31.24996,24.78126 -15.25,-8.78125 8.8125,15.25 0.96875,0 c 3.02891,0 5.46875,-2.43985 5.46875,-5.46875 l 0,-1 z"
         style="fill:#730000;fill-opacity:1;stroke:none;display:inline" />
      <path
         style="fill:#480001;fill-opacity:1;stroke:none;display:inline"
         d="m 16,0.75001 0,15.25 8.78125,-15.25 -8.78125,0 z"
         id="path5527"
         inkscape:connector-curvature="0" />
      <path
         style="fill:#5d0001;fill-opacity:1;stroke:none;display:inline"
         d="m 31.25,7.18751 -15.25,8.8125 15.25,0 0,-8.8125 z"
         id="path5529"
         inkscape:connector-curvature="0" />
      <path
         inkscape:connector-curvature="0"
         id="path5531"
         d="m 0.75003,7.21872 15.25,8.78125 -8.8125,-15.25 -0.96875,0 c -3.02891,0 -5.46875,2.43985 -5.46875,5.46875 l 0,1 z"
         style="fill:#320001;fill-opacity:1;stroke:none;display:inline" />
      <path
         style="fill:none;stroke:#e0e0e0;stroke-width:1.49999988;stroke-miterlimit:4;stroke-opacity:1;stroke-dasharray:none;display:inline"
         d="m 25.7695,31.24995 c 3.02891,0 5.48046,-2.45155 5.48046,-5.48046 l 0,-19.53903 C 31.24996,3.20154 28.79841,0.75 25.7695,0.75 l -19.53903,0 c -3.0289,0 -5.48046,2.45154 -5.48046,5.48046 l 0,19.53903 c 0,3.02891 2.45156,5.48046 5.48046,5.48046 z"
         id="path5533"
         inkscape:connector-curvature="0"
         sodipodi:nodetypes="sssssssss" />
      <path
         inkscape:connector-curvature="0"
         style="fill:#e0e0e0;fill-opacity:1;stroke:none;display:inline"
         d="m 458.15555,534.85522 c 1.36327,2e-5 2.63619,0.14775 3.78271,0.47656 1.14649,0.32885 2.14265,0.89624 3.00829,1.69775 l -2.65087,2.88916 c -0.51333,-0.52895 -1.08628,-0.91883 -1.72754,-1.1914 -0.64128,-0.27255 -1.45009,-0.41698 -2.41259,-0.417 -0.80154,2e-5 -1.52498,0.14445 -2.17432,0.417 -0.64935,0.27257 -1.20286,0.64276 -1.66796,1.13183 -0.46512,0.4891 -0.82393,1.08401 -1.07226,1.75732 -0.24834,0.67333 -0.35743,1.38846 -0.35742,2.17431 -1e-5,0.80203 0.10908,1.53886 0.35742,2.2041 0.24833,0.66525 0.60714,1.23846 1.07226,1.72754 0.4651,0.48909 1.01861,0.85928 1.66796,1.13183 0.64934,0.27256 1.37278,0.417 2.17432,0.41699 0.81815,10e-6 1.52166,-0.0838 2.11474,-0.26806 0.59306,-0.18423 1.07686,-0.37312 1.42968,-0.56592 l 0,-2.77001 -3.06786,0 0,-3.45508 6.67186,0 0,8.87596 c -1.10639,0.57693 -2.25231,0.99432 -3.45507,1.25098 -1.20279,0.25665 -2.44263,0.3872 -3.69335,0.3872 -1.33051,0 -2.54105,-0.20857 -3.66357,-0.62548 -1.12253,-0.41691 -2.10127,-1.00931 -2.91894,-1.78711 -0.81768,-0.77779 -1.44921,-1.7232 -1.90625,-2.82958 -0.45703,-1.10638 -0.68506,-2.33056 -0.68505,-3.69336 -10e-6,-1.36278 0.22802,-2.58696 0.68505,-3.69335 0.45704,-1.10637 1.08857,-2.05178 1.90625,-2.82958 0.81767,-0.77778 1.79641,-1.37018 2.91894,-1.78711 1.12252,-0.41689 2.33306,-0.62547 3.66357,-0.62549 z"
         id="path5535"
         transform="translate(-441.14288,-527.79078)" />
    </g>
  </g>
  <g
     inkscape:groupmode="layer"
     id="layer7"
     inkscape:label="9"
     style="display:none"
     transform="translate(1.2574541e-5,40.00005)">
    <g
       id="g3313"
       transform="matrix(2.2500035,0,0,2.2500035,-1.2574541e-5,-40.00005)">
      <path
         style="fill:#480001;stroke:none;display:inline"
         d="m 25.7695,31.24995 c 3.02891,0 5.48046,-2.45155 5.48046,-5.48046 l 0,-19.53903 C 31.24996,3.20154 28.79841,0.75 25.7695,0.75 l -19.53903,0 c -3.0289,0 -5.48046,2.45154 -5.48046,5.48046 l 0,19.53903 c 0,3.02891 2.45156,5.48046 5.48046,5.48046 z"
         id="path5627"
         inkscape:connector-curvature="0"
         sodipodi:nodetypes="sssssssss" />
      <path
         id="path5629"
         d="m 0.74997,24.81245 15.25,-8.8125 -15.25,0 0,8.8125 z"
         style="fill:#120002;fill-opacity:1;stroke:none;display:inline"
         inkscape:connector-curvature="0" />
      <path
         style="fill:#1d0002;fill-opacity:1;stroke:none;display:inline"
         d="m 0.75003,15.99997 15.25,0 -15.25,-8.78125 0,8.78125 z"
         id="path5631"
         inkscape:connector-curvature="0" />
      <path
         style="fill:#320001;fill-opacity:1;stroke:none;display:inline"
         d="m 7.18753,0.74997 8.8125,15.25 0,-15.25 -8.8125,0 z"
         id="path5633"
         inkscape:connector-curvature="0" />
      <path
         inkscape:connector-curvature="0"
         id="path5635"
         d="M 24.78125,0.75001 16,16.00001 l 15.25,-8.8125 0,-0.96875 c 0,-3.02891 -2.43985,-5.46875 -5.46875,-5.46875 l -1,0 z"
         style="fill:#480001;fill-opacity:1;stroke:none;display:inline" />
      <path
         style="fill:#5d0001;fill-opacity:1;stroke:none;display:inline"
         d="m 31.24996,16.00001 -15.25,0 15.25,8.78125 0,-8.78125 z"
         id="path5637"
         inkscape:connector-curvature="0" />
      <path
         style="fill:#730000;fill-opacity:1;stroke:none;display:inline"
         d="m 24.81246,31.25001 -8.8125,-15.25 0,15.25 8.8125,0 z"
         id="path5639"
         inkscape:connector-curvature="0" />
      <path
         id="path5641"
         d="m 7.21872,31.24995 8.78125,-15.25 -15.25,8.8125 0,0.96875 c 0,3.02891 2.43985,5.46875 5.46875,5.46875 l 1,0 z"
         style="fill:#880000;fill-opacity:1;stroke:none;display:inline"
         inkscape:connector-curvature="0" />
      <path
         id="path5643"
         d="m 15.99997,31.24995 0,-15.25 -8.78125,15.25 8.78125,0 z"
         style="fill:#7d0000;fill-opacity:1;stroke:none;display:inline"
         inkscape:connector-curvature="0" />
      <path
         style="fill:#680001;fill-opacity:1;stroke:none;display:inline"
         d="m 31.24996,24.78126 -15.25,-8.78125 8.8125,15.25 0.96875,0 c 3.02891,0 5.46875,-2.43985 5.46875,-5.46875 l 0,-1 z"
         id="path5645"
         inkscape:connector-curvature="0" />
      <path
         inkscape:connector-curvature="0"
         id="path5647"
         d="m 16,0.75001 0,15.25 8.78125,-15.25 -8.78125,0 z"
         style="fill:#3d0001;fill-opacity:1;stroke:none;display:inline" />
      <path
         inkscape:connector-curvature="0"
         id="path5649"
         d="m 31.25,7.18751 -15.25,8.8125 15.25,0 0,-8.8125 z"
         style="fill:#520001;fill-opacity:1;stroke:none;display:inline" />
      <path
         style="fill:#270002;fill-opacity:1;stroke:none;display:inline"
         d="m 0.75003,7.21872 15.25,8.78125 -8.8125,-15.25 -0.96875,0 c -3.02891,0 -5.46875,2.43985 -5.46875,5.46875 l 0,1 z"
         id="path5651"
         inkscape:connector-curvature="0" />
      <path
         sodipodi:nodetypes="sssssssss"
         inkscape:connector-curvature="0"
         id="path5653"
         d="m 25.7695,31.24995 c 3.02891,0 5.48046,-2.45155 5.48046,-5.48046 l 0,-19.53903 C 31.24996,3.20154 28.79841,0.75 25.7695,0.75 l -19.53903,0 c -3.0289,0 -5.48046,2.45154 -5.48046,5.48046 l 0,19.53903 c 0,3.02891 2.45156,5.48046 5.48046,5.48046 z"
         style="fill:none;stroke:#e0e0e0;stroke-width:1.49999988;stroke-miterlimit:4;stroke-opacity:1;stroke-dasharray:none;display:inline" />
      <path
         transform="translate(-441.14288,-527.79078)"
         id="path5655"
         d="m 458.15555,534.85522 c 1.36327,2e-5 2.63619,0.14775 3.78271,0.47656 1.14649,0.32885 2.14265,0.89624 3.00829,1.69775 l -2.65087,2.88916 c -0.51333,-0.52895 -1.08628,-0.91883 -1.72754,-1.1914 -0.64128,-0.27255 -1.45009,-0.41698 -2.41259,-0.417 -0.80154,2e-5 -1.52498,0.14445 -2.17432,0.417 -0.64935,0.27257 -1.20286,0.64276 -1.66796,1.13183 -0.46512,0.4891 -0.82393,1.08401 -1.07226,1.75732 -0.24834,0.67333 -0.35743,1.38846 -0.35742,2.17431 -1e-5,0.80203 0.10908,1.53886 0.35742,2.2041 0.24833,0.66525 0.60714,1.23846 1.07226,1.72754 0.4651,0.48909 1.01861,0.85928 1.66796,1.13183 0.64934,0.27256 1.37278,0.417 2.17432,0.41699 0.81815,10e-6 1.52166,-0.0838 2.11474,-0.26806 0.59306,-0.18423 1.07686,-0.37312 1.42968,-0.56592 l 0,-2.77001 -3.06786,0 0,-3.45508 6.67186,0 0,8.87596 c -1.10639,0.57693 -2.25231,0.99432 -3.45507,1.25098 -1.20279,0.25665 -2.44263,0.3872 -3.69335,0.3872 -1.33051,0 -2.54105,-0.20857 -3.66357,-0.62548 -1.12253,-0.41691 -2.10127,-1.00931 -2.91894,-1.78711 -0.81768,-0.77779 -1.44921,-1.7232 -1.90625,-2.82958 -0.45703,-1.10638 -0.68506,-2.33056 -0.68505,-3.69336 -10e-6,-1.36278 0.22802,-2.58696 0.68505,-3.69335 0.45704,-1.10637 1.08857,-2.05178 1.90625,-2.82958 0.81767,-0.77778 1.79641,-1.37018 2.91894,-1.78711 1.12252,-0.41689 2.33306,-0.62547 3.66357,-0.62549 z"
         style="fill:#e0e0e0;fill-opacity:1;stroke:none;display:inline"
         inkscape:connector-curvature="0" />
    </g>
  </g>
  <g
     inkscape:groupmode="layer"
     id="layer8"
     inkscape:label="10"
     style="display:none"
     transform="translate(1.2574541e-5,40.00005)">
    <g
       id="g3330"
       transform="matrix(2.2500035,0,0,2.2500035,-1.2574541e-5,-40.00005)">
      <path
         style="fill:#480001;stroke:none;display:inline"
         d="m 25.7695,31.24995 c 3.02891,0 5.48046,-2.45155 5.48046,-5.48046 l 0,-19.53903 C 31.24996,3.20154 28.79841,0.75 25.7695,0.75 l -19.53903,0 c -3.0289,0 -5.48046,2.45154 -5.48046,5.48046 l 0,19.53903 c 0,3.02891 2.45156,5.48046 5.48046,5.48046 z"
         id="path5747"
         inkscape:connector-curvature="0"
         sodipodi:nodetypes="sssssssss" />
      <path
         id="path5749"
         d="m 0.74997,24.81245 15.25,-8.8125 -15.25,0 0,8.8125 z"
         style="fill:#880000;fill-opacity:1;stroke:none;display:inline"
         inkscape:connector-curvature="0" />
      <path
         style="fill:#120002;fill-opacity:1;stroke:none;display:inline"
         d="m 0.75003,15.99997 15.25,0 -15.25,-8.78125 0,8.78125 z"
         id="path5751"
         inkscape:connector-curvature="0" />
      <path
         style="fill:#270002;fill-opacity:1;stroke:none;display:inline"
         d="m 7.18753,0.74997 8.8125,15.25 0,-15.25 -8.8125,0 z"
         id="path5753"
         inkscape:connector-curvature="0" />
      <path
         inkscape:connector-curvature="0"
         id="path5755"
         d="M 24.78125,0.75001 16,16.00001 l 15.25,-8.8125 0,-0.96875 c 0,-3.02891 -2.43985,-5.46875 -5.46875,-5.46875 l -1,0 z"
         style="fill:#3d0001;fill-opacity:1;stroke:none;display:inline" />
      <path
         style="fill:#520001;fill-opacity:1;stroke:none;display:inline"
         d="m 31.24996,16.00001 -15.25,0 15.25,8.78125 0,-8.78125 z"
         id="path5757"
         inkscape:connector-curvature="0" />
      <path
         style="fill:#680001;fill-opacity:1;stroke:none;display:inline"
         d="m 24.81246,31.25001 -8.8125,-15.25 0,15.25 8.8125,0 z"
         id="path5759"
         inkscape:connector-curvature="0" />
      <path
         id="path5761"
         d="m 7.21872,31.24995 8.78125,-15.25 -15.25,8.8125 0,0.96875 c 0,3.02891 2.43985,5.46875 5.46875,5.46875 l 1,0 z"
         style="fill:#7d0000;fill-opacity:1;stroke:none;display:inline"
         inkscape:connector-curvature="0" />
      <path
         id="path5763"
         d="m 15.99997,31.24995 0,-15.25 -8.78125,15.25 8.78125,0 z"
         style="fill:#730000;fill-opacity:1;stroke:none;display:inline"
         inkscape:connector-curvature="0" />
      <path
         style="fill:#5d0001;fill-opacity:1;stroke:none;display:inline"
         d="m 31.24996,24.78126 -15.25,-8.78125 8.8125,15.25 0.96875,0 c 3.02891,0 5.46875,-2.43985 5.46875,-5.46875 l 0,-1 z"
         id="path5765"
         inkscape:connector-curvature="0" />
      <path
         inkscape:connector-curvature="0"
         id="path5767"
         d="m 16,0.75001 0,15.25 8.78125,-15.25 -8.78125,0 z"
         style="fill:#320001;fill-opacity:1;stroke:none;display:inline" />
      <path
         inkscape:connector-curvature="0"
         id="path5769"
         d="m 31.25,7.18751 -15.25,8.8125 15.25,0 0,-8.8125 z"
         style="fill:#480001;fill-opacity:1;stroke:none;display:inline" />
      <path
         style="fill:#1d0002;fill-opacity:1;stroke:none;display:inline"
         d="m 0.75003,7.21872 15.25,8.78125 -8.8125,-15.25 -0.96875,0 c -3.02891,0 -5.46875,2.43985 -5.46875,5.46875 l 0,1 z"
         id="path5771"
         inkscape:connector-curvature="0" />
      <path
         sodipodi:nodetypes="sssssssss"
         inkscape:connector-curvature="0"
         id="path5773"
         d="m 25.7695,31.24995 c 3.02891,0 5.48046,-2.45155 5.48046,-5.48046 l 0,-19.53903 C 31.24996,3.20154 28.79841,0.75 25.7695,0.75 l -19.53903,0 c -3.0289,0 -5.48046,2.45154 -5.48046,5.48046 l 0,19.53903 c 0,3.02891 2.45156,5.48046 5.48046,5.48046 z"
         style="fill:none;stroke:#e0e0e0;stroke-width:1.49999988;stroke-miterlimit:4;stroke-opacity:1;stroke-dasharray:none;display:inline" />
      <path
         transform="translate(-441.14288,-527.79078)"
         id="path5775"
         d="m 458.15555,534.85522 c 1.36327,2e-5 2.63619,0.14775 3.78271,0.47656 1.14649,0.32885 2.14265,0.89624 3.00829,1.69775 l -2.65087,2.88916 c -0.51333,-0.52895 -1.08628,-0.91883 -1.72754,-1.1914 -0.64128,-0.27255 -1.45009,-0.41698 -2.41259,-0.417 -0.80154,2e-5 -1.52498,0.14445 -2.17432,0.417 -0.64935,0.27257 -1.20286,0.64276 -1.66796,1.13183 -0.46512,0.4891 -0.82393,1.08401 -1.07226,1.75732 -0.24834,0.67333 -0.35743,1.38846 -0.35742,2.17431 -1e-5,0.80203 0.10908,1.53886 0.35742,2.2041 0.24833,0.66525 0.60714,1.23846 1.07226,1.72754 0.4651,0.48909 1.01861,0.85928 1.66796,1.13183 0.64934,0.27256 1.37278,0.417 2.17432,0.41699 0.81815,10e-6 1.52166,-0.0838 2.11474,-0.26806 0.59306,-0.18423 1.07686,-0.37312 1.42968,-0.56592 l 0,-2.77001 -3.06786,0 0,-3.45508 6.67186,0 0,8.87596 c -1.10639,0.57693 -2.25231,0.99432 -3.45507,1.25098 -1.20279,0.25665 -2.44263,0.3872 -3.69335,0.3872 -1.33051,0 -2.54105,-0.20857 -3.66357,-0.62548 -1.12253,-0.41691 -2.10127,-1.00931 -2.91894,-1.78711 -0.81768,-0.77779 -1.44921,-1.7232 -1.90625,-2.82958 -0.45703,-1.10638 -0.68506,-2.33056 -0.68505,-3.69336 -10e-6,-1.36278 0.22802,-2.58696 0.68505,-3.69335 0.45704,-1.10637 1.08857,-2.05178 1.90625,-2.82958 0.81767,-0.77778 1.79641,-1.37018 2.91894,-1.78711 1.12252,-0.41689 2.33306,-0.62547 3.66357,-0.62549 z"
         style="fill:#e0e0e0;fill-opacity:1;stroke:none;display:inline"
         inkscape:connector-curvature="0" />
    </g>
  </g>
  <g
     inkscape:groupmode="layer"
     id="layer9"
     inkscape:label="11"
     style="display:none"
     transform="translate(1.2574541e-5,40.00005)">
    <g
       id="g3347"
       transform="matrix(2.2500035,0,0,2.2500035,-1.2574541e-5,-40.00005)">
      <path
         style="fill:#480001;stroke:none;display:inline"
         d="m 25.7695,31.24995 c 3.02891,0 5.48046,-2.45155 5.48046,-5.48046 l 0,-19.53903 C 31.24996,3.20154 28.79841,0.75 25.7695,0.75 l -19.53903,0 c -3.0289,0 -5.48046,2.45154 -5.48046,5.48046 l 0,19.53903 c 0,3.02891 2.45156,5.48046 5.48046,5.48046 z"
         id="path5867"
         inkscape:connector-curvature="0"
         sodipodi:nodetypes="sssssssss" />
      <path
         id="path5869"
         d="m 0.74997,24.81245 15.25,-8.8125 -15.25,0 0,8.8125 z"
         style="fill:#7d0000;fill-opacity:1;stroke:none;display:inline"
         inkscape:connector-curvature="0" />
      <path
         style="fill:#880000;fill-opacity:1;stroke:none;display:inline"
         d="m 0.75003,15.99997 15.25,0 -15.25,-8.78125 0,8.78125 z"
         id="path5871"
         inkscape:connector-curvature="0" />
      <path
         style="fill:#1d0002;fill-opacity:1;stroke:none;display:inline"
         d="m 7.18753,0.74997 8.8125,15.25 0,-15.25 -8.8125,0 z"
         id="path5873"
         inkscape:connector-curvature="0" />
      <path
         inkscape:connector-curvature="0"
         id="path5875"
         d="M 24.78125,0.75001 16,16.00001 l 15.25,-8.8125 0,-0.96875 c 0,-3.02891 -2.43985,-5.46875 -5.46875,-5.46875 l -1,0 z"
         style="fill:#320001;fill-opacity:1;stroke:none;display:inline" />
      <path
         style="fill:#480001;fill-opacity:1;stroke:none;display:inline"
         d="m 31.24996,16.00001 -15.25,0 15.25,8.78125 0,-8.78125 z"
         id="path5877"
         inkscape:connector-curvature="0" />
      <path
         style="fill:#5d0001;fill-opacity:1;stroke:none;display:inline"
         d="m 24.81246,31.25001 -8.8125,-15.25 0,15.25 8.8125,0 z"
         id="path5879"
         inkscape:connector-curvature="0" />
      <path
         id="path5881"
         d="m 7.21872,31.24995 8.78125,-15.25 -15.25,8.8125 0,0.96875 c 0,3.02891 2.43985,5.46875 5.46875,5.46875 l 1,0 z"
         style="fill:#730000;fill-opacity:1;stroke:none;display:inline"
         inkscape:connector-curvature="0" />
      <path
         id="path5883"
         d="m 15.99997,31.24995 0,-15.25 -8.78125,15.25 8.78125,0 z"
         style="fill:#680001;fill-opacity:1;stroke:none;display:inline"
         inkscape:connector-curvature="0" />
      <path
         style="fill:#520001;fill-opacity:1;stroke:none;display:inline"
         d="m 31.24996,24.78126 -15.25,-8.78125 8.8125,15.25 0.96875,0 c 3.02891,0 5.46875,-2.43985 5.46875,-5.46875 l 0,-1 z"
         id="path5885"
         inkscape:connector-curvature="0" />
      <path
         inkscape:connector-curvature="0"
         id="path5887"
         d="m 16,0.75001 0,15.25 8.78125,-15.25 -8.78125,0 z"
         style="fill:#270002;fill-opacity:1;stroke:none;display:inline" />
      <path
         inkscape:connector-curvature="0"
         id="path5889"
         d="m 31.25,7.18751 -15.25,8.8125 15.25,0 0,-8.8125 z"
         style="fill:#3d0001;fill-opacity:1;stroke:none;display:inline" />
      <path
         style="fill:#120002;fill-opacity:1;stroke:none;display:inline"
         d="m 0.75003,7.21872 15.25,8.78125 -8.8125,-15.25 -0.96875,0 c -3.02891,0 -5.46875,2.43985 -5.46875,5.46875 l 0,1 z"
         id="path5891"
         inkscape:connector-curvature="0" />
      <path
         sodipodi:nodetypes="sssssssss"
         inkscape:connector-curvature="0"
         id="path5893"
         d="m 25.7695,31.24995 c 3.02891,0 5.48046,-2.45155 5.48046,-5.48046 l 0,-19.53903 C 31.24996,3.20154 28.79841,0.75 25.7695,0.75 l -19.53903,0 c -3.0289,0 -5.48046,2.45154 -5.48046,5.48046 l 0,19.53903 c 0,3.02891 2.45156,5.48046 5.48046,5.48046 z"
         style="fill:none;stroke:#e0e0e0;stroke-width:1.49999988;stroke-miterlimit:4;stroke-opacity:1;stroke-dasharray:none;display:inline" />
      <path
         transform="translate(-441.14288,-527.79078)"
         id="path5895"
         d="m 458.15555,534.85522 c 1.36327,2e-5 2.63619,0.14775 3.78271,0.47656 1.14649,0.32885 2.14265,0.89624 3.00829,1.69775 l -2.65087,2.88916 c -0.51333,-0.52895 -1.08628,-0.91883 -1.72754,-1.1914 -0.64128,-0.27255 -1.45009,-0.41698 -2.41259,-0.417 -0.80154,2e-5 -1.52498,0.14445 -2.17432,0.417 -0.64935,0.27257 -1.20286,0.64276 -1.66796,1.13183 -0.46512,0.4891 -0.82393,1.08401 -1.07226,1.75732 -0.24834,0.67333 -0.35743,1.38846 -0.35742,2.17431 -1e-5,0.80203 0.10908,1.53886 0.35742,2.2041 0.24833,0.66525 0.60714,1.23846 1.07226,1.72754 0.4651,0.48909 1.01861,0.85928 1.66796,1.13183 0.64934,0.27256 1.37278,0.417 2.17432,0.41699 0.81815,10e-6 1.52166,-0.0838 2.11474,-0.26806 0.59306,-0.18423 1.07686,-0.37312 1.42968,-0.56592 l 0,-2.77001 -3.06786,0 0,-3.45508 6.67186,0 0,8.87596 c -1.10639,0.57693 -2.25231,0.99432 -3.45507,1.25098 -1.20279,0.25665 -2.44263,0.3872 -3.69335,0.3872 -1.33051,0 -2.54105,-0.20857 -3.66357,-0.62548 -1.12253,-0.41691 -2.10127,-1.00931 -2.91894,-1.78711 -0.81768,-0.77779 -1.44921,-1.7232 -1.90625,-2.82958 -0.45703,-1.10638 -0.68506,-2.33056 -0.68505,-3.69336 -10e-6,-1.36278 0.22802,-2.58696 0.68505,-3.69335 0.45704,-1.10637 1.08857,-2.05178 1.90625,-2.82958 0.81767,-0.77778 1.79641,-1.37018 2.91894,-1.78711 1.12252,-0.41689 2.33306,-0.62547 3.66357,-0.62549 z"
         style="fill:#e0e0e0;fill-opacity:1;stroke:none;display:inline"
         inkscape:connector-curvature="0" />
    </g>
  </g>
  <g
     inkscape:groupmode="layer"
     id="layer10"
     inkscape:label="12"
     style="display:inline"
     transform="translate(1.2574541e-5,40.00005)">
    <g
       id="g3364"
       transform="matrix(2.2500035,0,0,2.2500035,-1.2574541e-5,-40.00005)">
      <path
         style="fill:#480001;stroke:none;display:inline"
         d="m 25.7695,31.24995 c 3.02891,0 5.48046,-2.45155 5.48046,-5.48046 l 0,-19.53903 C 31.24996,3.20154 28.79841,0.75 25.7695,0.75 l -19.53903,0 c -3.0289,0 -5.48046,2.45154 -5.48046,5.48046 l 0,19.53903 c 0,3.02891 2.45156,5.48046 5.48046,5.48046 z"
         id="path5987"
         inkscape:connector-curvature="0"
         sodipodi:nodetypes="sssssssss" />
      <path
         id="path5989"
         d="m 0.74997,24.81245 15.25,-8.8125 -15.25,0 0,8.8125 z"
         style="fill:#730000;fill-opacity:1;stroke:none;display:inline"
         inkscape:connector-curvature="0" />
      <path
         style="fill:#7d0000;fill-opacity:1;stroke:none;display:inline"
         d="m 0.75003,15.99997 15.25,0 -15.25,-8.78125 0,8.78125 z"
         id="path5991"
         inkscape:connector-curvature="0" />
      <path
         style="fill:#120002;fill-opacity:1;stroke:none;display:inline"
         d="m 7.18753,0.74997 8.8125,15.25 0,-15.25 -8.8125,0 z"
         id="path5993"
         inkscape:connector-curvature="0" />
      <path
         inkscape:connector-curvature="0"
         id="path5995"
         d="M 24.78125,0.75001 16,16.00001 l 15.25,-8.8125 0,-0.96875 c 0,-3.02891 -2.43985,-5.46875 -5.46875,-5.46875 l -1,0 z"
         style="fill:#270002;fill-opacity:1;stroke:none;display:inline" />
      <path
         style="fill:#3d0001;fill-opacity:1;stroke:none;display:inline"
         d="m 31.24996,16.00001 -15.25,0 15.25,8.78125 0,-8.78125 z"
         id="path5997"
         inkscape:connector-curvature="0" />
      <path
         style="fill:#520001;fill-opacity:1;stroke:none;display:inline"
         d="m 24.81246,31.25001 -8.8125,-15.25 0,15.25 8.8125,0 z"
         id="path5999"
         inkscape:connector-curvature="0" />
      <path
         id="path6001"
         d="m 7.21872,31.24995 8.78125,-15.25 -15.25,8.8125 0,0.96875 c 0,3.02891 2.43985,5.46875 5.46875,5.46875 l 1,0 z"
         style="fill:#680001;fill-opacity:1;stroke:none;display:inline"
         inkscape:connector-curvature="0" />
      <path
         id="path6003"
         d="m 15.99997,31.24995 0,-15.25 -8.78125,15.25 8.78125,0 z"
         style="fill:#5d0001;fill-opacity:1;stroke:none;display:inline"
         inkscape:connector-curvature="0" />
      <path
         style="fill:#480001;fill-opacity:1;stroke:none;display:inline"
         d="m 31.24996,24.78126 -15.25,-8.78125 8.8125,15.25 0.96875,0 c 3.02891,0 5.46875,-2.43985 5.46875,-5.46875 l 0,-1 z"
         id="path6005"
         inkscape:connector-curvature="0" />
      <path
         inkscape:connector-curvature="0"
         id="path6007"
         d="m 16,0.75001 0,15.25 8.78125,-15.25 -8.78125,0 z"
         style="fill:#1d0002;fill-opacity:1;stroke:none;display:inline" />
      <path
         inkscape:connector-curvature="0"
         id="path6009"
         d="m 31.25,7.18751 -15.25,8.8125 15.25,0 0,-8.8125 z"
         style="fill:#320001;fill-opacity:1;stroke:none;display:inline" />
      <path
         style="fill:#880000;fill-opacity:1;stroke:none;display:inline"
         d="m 0.75003,7.21872 15.25,8.78125 -8.8125,-15.25 -0.96875,0 c -3.02891,0 -5.46875,2.43985 -5.46875,5.46875 l 0,1 z"
         id="path6011"
         inkscape:connector-curvature="0" />
      <path
         sodipodi:nodetypes="sssssssss"
         inkscape:connector-curvature="0"
         id="path6013"
         d="m 25.7695,31.24995 c 3.02891,0 5.48046,-2.45155 5.48046,-5.48046 l 0,-19.53903 C 31.24996,3.20154 28.79841,0.75 25.7695,0.75 l -19.53903,0 c -3.0289,0 -5.48046,2.45154 -5.48046,5.48046 l 0,19.53903 c 0,3.02891 2.45156,5.48046 5.48046,5.48046 z"
         style="fill:none;stroke:#e0e0e0;stroke-width:1.49999988;stroke-miterlimit:4;stroke-opacity:1;stroke-dasharray:none;display:inline" />
      <path
         transform="translate(-441.14288,-527.79078)"
         id="path6015"
         d="m 458.15555,534.85522 c 1.36327,2e-5 2.63619,0.14775 3.78271,0.47656 1.14649,0.32885 2.14265,0.89624 3.00829,1.69775 l -2.65087,2.88916 c -0.51333,-0.52895 -1.08628,-0.91883 -1.72754,-1.1914 -0.64128,-0.27255 -1.45009,-0.41698 -2.41259,-0.417 -0.80154,2e-5 -1.52498,0.14445 -2.17432,0.417 -0.64935,0.27257 -1.20286,0.64276 -1.66796,1.13183 -0.46512,0.4891 -0.82393,1.08401 -1.07226,1.75732 -0.24834,0.67333 -0.35743,1.38846 -0.35742,2.17431 -1e-5,0.80203 0.10908,1.53886 0.35742,2.2041 0.24833,0.66525 0.60714,1.23846 1.07226,1.72754 0.4651,0.48909 1.01861,0.85928 1.66796,1.13183 0.64934,0.27256 1.37278,0.417 2.17432,0.41699 0.81815,10e-6 1.52166,-0.0838 2.11474,-0.26806 0.59306,-0.18423 1.07686,-0.37312 1.42968,-0.56592 l 0,-2.77001 -3.06786,0 0,-3.45508 6.67186,0 0,8.87596 c -1.10639,0.57693 -2.25231,0.99432 -3.45507,1.25098 -1.20279,0.25665 -2.44263,0.3872 -3.69335,0.3872 -1.33051,0 -2.54105,-0.20857 -3.66357,-0.62548 -1.12253,-0.41691 -2.10127,-1.00931 -2.91894,-1.78711 -0.81768,-0.77779 -1.44921,-1.7232 -1.90625,-2.82958 -0.45703,-1.10638 -0.68506,-2.33056 -0.68505,-3.69336 -10e-6,-1.36278 0.22802,-2.58696 0.68505,-3.69335 0.45704,-1.10637 1.08857,-2.05178 1.90625,-2.82958 0.81767,-0.77778 1.79641,-1.37018 2.91894,-1.78711 1.12252,-0.41689 2.33306,-0.62547 3.66357,-0.62549 z"
         style="fill:#e0e0e0;fill-opacity:1;stroke:none;display:inline"
         inkscape:connector-curvature="0" />
    </g>
  </g>
</svg>
