<?xml version="1.0" encoding="UTF-8" standalone="no"?>
<!-- Created with Inkscape (http://www.inkscape.org/) -->

<svg
   xmlns:dc="http://purl.org/dc/elements/1.1/"
   xmlns:cc="http://creativecommons.org/ns#"
   xmlns:rdf="http://www.w3.org/1999/02/22-rdf-syntax-ns#"
   xmlns:svg="http://www.w3.org/2000/svg"
   xmlns="http://www.w3.org/2000/svg"
   xmlns:sodipodi="http://sodipodi.sourceforge.net/DTD/sodipodi-0.dtd"
   xmlns:inkscape="http://www.inkscape.org/namespaces/inkscape"
   width="48"
   height="48"
   id="svg4109"
   version="1.1"
   inkscape:version="0.48.0 r9654"
   sodipodi:docname="ic_tab_gapps_unselected.svg"
   inkscape:export-filename="C:\Users\emo.GIRITECH\Documents\Shared Graphics\Android\Icons\hdpi\ic_tab_gapps_unselected.png"
   inkscape:export-xdpi="90"
   inkscape:export-ydpi="90">
  <defs
     id="defs4111">
    <filter
       color-interpolation-filters="sRGB"
       id="filter5852"
       inkscape:label="Tab Icon, Selected"
       width="1.5"
       height="1.5"
       x="-0.25"
       y="-0.25">
      <feGaussianBlur
         id="feGaussianBlur5854"
         in="SourceAlpha"
         stdDeviation="1"
         result="blur" />
      <feColorMatrix
         id="feColorMatrix5856"
         result="bluralpha"
         type="saturate"
         values="0" />
      <feOffset
         id="feOffset5858"
         in="bluralpha"
         dx="0"
         dy="0"
         result="offsetBlur" />
      <feMerge
         id="feMerge5860">
        <feMergeNode
           id="feMergeNode5862"
           in="offsetBlur" />
        <feMergeNode
           id="feMergeNode5864"
           in="SourceGraphic" />
      </feMerge>
    </filter>
  </defs>
  <sodipodi:namedview
     id="base"
     pagecolor="#ffffff"
     bordercolor="#666666"
     borderopacity="1.0"
     inkscape:pageopacity="0.0"
     inkscape:pageshadow="2"
     inkscape:zoom="8"
     inkscape:cx="-15.631316"
     inkscape:cy="27.609373"
     inkscape:document-units="px"
     inkscape:current-layer="layer2"
     showgrid="false"
     showborder="true"
     inkscape:showpageshadow="false"
     inkscape:window-width="1680"
     inkscape:window-height="970"
     inkscape:window-x="-8"
     inkscape:window-y="-8"
     inkscape:window-maximized="1" />
  <metadata
     id="metadata4114">
    <rdf:RDF>
      <cc:Work
         rdf:about="">
        <dc:format>image/svg+xml</dc:format>
        <dc:type
           rdf:resource="http://purl.org/dc/dcmitype/StillImage" />
        <dc:title></dc:title>
      </cc:Work>
    </rdf:RDF>
  </metadata>
  <g
     inkscape:label="xx Background"
     inkscape:groupmode="layer"
     id="layer1"
     transform="translate(0,-1004.3622)"
     style="display:none"
     sodipodi:insensitive="true">
    <rect
       style="fill:#000000;fill-opacity:1;stroke:none"
       id="rect4725"
       width="48"
       height="48"
       x="0.0625"
       y="1004.2997" />
  </g>
  <g
     inkscape:groupmode="layer"
     id="layer2"
     inkscape:label="Icon"
     style="display:inline">
    <path
       style="fill:#808080;fill-opacity:1;stroke:none;display:inline"
       d="M 10.546875,3 C 6.375915,3 3,6.3759 3,10.5468 L 3,37.4532 C 3,41.6241 6.375915,45 10.546875,45 l 26.90625,0 C 41.624086,45 45,41.6241 45,37.4532 L 45,10.5468 C 45,6.3759 41.624086,3 37.453125,3 l -26.90625,0 z m 14.847657,8.6952 c 1.877289,1.5e-4 3.630169,0.20355 5.208984,0.6564 1.578776,0.4527 2.950541,1.23405 4.142577,2.3379 l -3.650391,3.97845 c -0.70687,-0.7284 -1.495861,-1.26525 -2.378904,-1.6407 -0.88308,-0.37515 -1.996846,-0.57405 -3.322266,-0.57405 -1.103755,0 -2.099974,0.1989 -2.994141,0.57405 -0.894192,0.37545 -1.656405,0.8853 -2.296875,1.55865 -0.640489,0.6735 -1.134598,1.4928 -1.476564,2.41995 -0.341976,0.92715 -0.492193,1.9119 -0.492186,2.99415 -7e-6,1.10445 0.15021,2.11905 0.492186,3.03525 0.341966,0.9159 0.836075,1.70535 1.476564,2.37885 0.64047,0.6735 1.402683,1.1832 2.296875,1.55865 0.894167,0.3753 1.890386,0.57405 2.994141,0.57405 1.126637,0 2.095406,-0.114 2.912109,-0.369 0.816672,-0.2538 1.482897,-0.51375 1.96875,-0.7794 l 0,-3.81435 -4.224609,0 0,-4.75785 9.1875,0 0,12.2226 c -1.523566,0.79455 -3.101547,1.36935 -4.757814,1.72275 -1.656303,0.3534 -3.363628,0.53325 -5.085936,0.53325 -1.832172,0 -3.499155,-0.2874 -5.044923,-0.86145 C 18.803823,34.8693 17.456052,34.0536 16.330077,32.98245 15.20409,31.91145 14.334435,30.6096 13.705065,29.0859 13.07571,27.5625 12.76173,25.87665 12.76173,24 c 0,-1.8765 0.31398,-3.5625 0.943335,-5.0859 0.62937,-1.52355 1.499025,-2.82555 2.625012,-3.89655 1.125975,-1.071 2.473746,-1.8867 4.019532,-2.4609 1.545768,-0.57405 3.212751,-0.8613 5.044923,-0.86145 z"
       id="rect2996"
       inkscape:connector-curvature="0" />
  </g>
  <g
     inkscape:groupmode="layer"
     id="layer4"
     inkscape:label="xx Work Layer"
     style="display:none"
     transform="translate(0,12)">
    <g
       style="display:inline"
       id="g3883"
       transform="translate(13.75,-1028.956)">
      <path
         transform="matrix(1.3580902,0,0,1.254902,-4.4137931,993.30399)"
         d="m 15.03125,38.570312 c 0,0.880204 -0.659331,1.59375 -1.472656,1.59375 -0.813326,0 -1.472656,-0.713546 -1.472656,-1.59375 0,-0.880203 0.65933,-1.59375 1.472656,-1.59375 0.813325,0 1.472656,0.713547 1.472656,1.59375 z"
         sodipodi:ry="1.59375"
         sodipodi:rx="1.4726562"
         sodipodi:cy="38.570312"
         sodipodi:cx="13.558594"
         id="path3877"
         style="opacity:0.77999998;fill:#d18c8c;fill-opacity:1;stroke:none"
         sodipodi:type="arc" />
      <path
         inkscape:connector-curvature="0"
         id="path3879"
         d="m 13.718263,1041.9877 0.563475,-0.5635"
         style="fill:none;stroke:#000000;stroke-width:0.01;stroke-linecap:butt;stroke-linejoin:miter;stroke-miterlimit:4;stroke-opacity:1;stroke-dasharray:none" />
      <path
         style="fill:none;stroke:#000000;stroke-width:0.01;stroke-linecap:butt;stroke-linejoin:miter;stroke-miterlimit:4;stroke-opacity:1;stroke-dasharray:none"
         d="m 14.281747,1041.9877 -0.563494,-0.5635"
         id="path3881"
         inkscape:connector-curvature="0" />
    </g>
  </g>
  <g
     style="display:none"
     inkscape:label="xx lpdi: Guide Rectangles (page 24x24)"
     id="g4713"
     inkscape:groupmode="layer"
     sodipodi:insensitive="true">
    <rect
       y="25.0625"
       x="1.062499"
       height="21.875"
       width="21.875002"
       id="rect4715"
       style="fill:none;stroke:#b65100;stroke-width:0.1;stroke-miterlimit:4;stroke-opacity:1;stroke-dasharray:none" />
  </g>
  <g
     inkscape:groupmode="layer"
     id="layer3"
     inkscape:label="xx mpdi: Guide Rectangles (page 32x32)"
     style="display:none"
     sodipodi:insensitive="true">
    <rect
       style="fill:none;stroke:#b65100;stroke-width:0.10000001;stroke-miterlimit:4;stroke-opacity:1;stroke-dasharray:none"
       id="rect4701"
       width="27.875002"
       height="27.875"
       x="2.062499"
       y="18.0625" />
  </g>
  <g
     style="display:none"
     inkscape:label="xx hpdi: Guide Rectangles (page 48x48)"
     id="g4719"
     inkscape:groupmode="layer"
     sodipodi:insensitive="true">
    <rect
       y="3.0625019"
       x="3.0625"
       height="41.874996"
       width="41.875"
       id="rect4721"
       style="fill:none;stroke:#b65100;stroke-width:0.10000002;stroke-miterlimit:4;stroke-opacity:1;stroke-dasharray:none" />
  </g>
</svg>
