<?xml version="1.0" encoding="UTF-8" standalone="no"?>
<!-- Created with Inkscape (http://www.inkscape.org/) -->

<svg
   xmlns:dc="http://purl.org/dc/elements/1.1/"
   xmlns:cc="http://creativecommons.org/ns#"
   xmlns:rdf="http://www.w3.org/1999/02/22-rdf-syntax-ns#"
   xmlns:svg="http://www.w3.org/2000/svg"
   xmlns="http://www.w3.org/2000/svg"
   xmlns:xlink="http://www.w3.org/1999/xlink"
   xmlns:sodipodi="http://sodipodi.sourceforge.net/DTD/sodipodi-0.dtd"
   xmlns:inkscape="http://www.inkscape.org/namespaces/inkscape"
   width="16"
   height="16"
   id="svg12878"
   version="1.1"
   inkscape:version="0.48.2 r9819"
   sodipodi:docname="g_dme_man_icon_16x16.svg"
   inkscape:export-filename="C:\Users\emo.HEADQUARTERS\Documents\Shared Graphics\Management\Icons\Version 5\Perspectives and Elements\g_dme_man_icon_16x16.png"
   inkscape:export-xdpi="90"
   inkscape:export-ydpi="90">
  <defs
     id="defs12880">
    <linearGradient
       id="linearGradient11562">
      <stop
         id="stop11564"
         offset="0"
         style="stop-color:#372e4a;stop-opacity:1;" />
      <stop
         id="stop11566"
         offset="1"
         style="stop-color:#8271a6;stop-opacity:1;" />
    </linearGradient>
    <linearGradient
       inkscape:collect="always"
       xlink:href="#linearGradient3824"
       id="linearGradient3004"
       gradientUnits="userSpaceOnUse"
       x1="356"
       y1="0"
       x2="356"
       y2="512.87817" />
    <linearGradient
       id="linearGradient3824">
      <stop
         style="stop-color:#07446c;stop-opacity:1;"
         offset="0"
         id="stop3826" />
      <stop
         style="stop-color:#4e7ea6;stop-opacity:1;"
         offset="1"
         id="stop3828" />
    </linearGradient>
    <linearGradient
       inkscape:collect="always"
       xlink:href="#linearGradient11562"
       id="linearGradient3020"
       gradientUnits="userSpaceOnUse"
       x1="68.76239"
       y1="306.36261"
       x2="68.76239"
       y2="322.19794"
       gradientTransform="translate(-63.750002,730.43709)" />
    <linearGradient
       inkscape:collect="always"
       xlink:href="#linearGradient3824"
       id="linearGradient3823"
       gradientUnits="userSpaceOnUse"
       x1="356"
       y1="0"
       x2="356"
       y2="512.87817" />
    <linearGradient
       inkscape:collect="always"
       xlink:href="#linearGradient3824"
       id="linearGradient3830"
       gradientUnits="userSpaceOnUse"
       x1="356"
       y1="0"
       x2="356"
       y2="512.87817"
       gradientTransform="matrix(0.03082031,0,0,0.03082031,0.10999999,1036.4722)" />
  </defs>
  <sodipodi:namedview
     id="base"
     pagecolor="#ffffff"
     bordercolor="#666666"
     borderopacity="1.0"
     inkscape:pageopacity="0.0"
     inkscape:pageshadow="2"
     inkscape:zoom="1"
     inkscape:cx="4.1637816"
     inkscape:cy="9.8972311"
     inkscape:document-units="px"
     inkscape:current-layer="layer1"
     showgrid="false"
     inkscape:window-width="1364"
     inkscape:window-height="706"
     inkscape:window-x="-8"
     inkscape:window-y="-8"
     inkscape:window-maximized="1" />
  <metadata
     id="metadata12883">
    <rdf:RDF>
      <cc:Work
         rdf:about="">
        <dc:format>image/svg+xml</dc:format>
        <dc:type
           rdf:resource="http://purl.org/dc/dcmitype/StillImage" />
        <dc:title></dc:title>
      </cc:Work>
    </rdf:RDF>
  </metadata>
  <g
     inkscape:label="Layer 1"
     inkscape:groupmode="layer"
     id="layer1"
     transform="translate(0,-1036.3622)">
    <rect
       style="fill:url(#linearGradient3830);fill-opacity:1;stroke:#ffffff;stroke-width:0.21999998;stroke-miterlimit:4;stroke-opacity:0.16470588;stroke-dasharray:none"
       id="rect3018"
       width="15.779999"
       height="15.779999"
       x="0.10999999"
       y="1036.4722"
       rx="2.4906571"
       ry="2.4906571" />
    <g
       style="stroke:none;stroke-width:2.21803903999999990;stroke-miterlimit:4;stroke-opacity:0.16470588000000000;stroke-dasharray:none"
       id="g4752"
       transform="matrix(0.0991867,0,0,0.0991867,-20.087816,1008.9902)">
      <polygon
         style="fill:#ffffff;stroke:none;stroke-width:0.97120373999999998;stroke-miterlimit:4;stroke-opacity:0.16470588000000000;stroke-dasharray:none"
         points="137.12,71.594 150.651,62.908 164.182,71.596 150.653,80.214 "
         id="polygon4754"
         transform="matrix(2.2838041,0,0,2.2838041,-36.27695,193.39935)" />
      <polygon
         style="fill:#ffffff;stroke:none;stroke-width:0.97120373999999998;stroke-miterlimit:4;stroke-opacity:0.16470588000000000;stroke-dasharray:none"
         points="145.94,59.06 132.411,67.678 118.877,59.058 132.409,50.371 "
         id="polygon4756"
         transform="matrix(2.2838041,0,0,2.2838041,-32.624405,197.38053)" />
      <polygon
         style="fill:#ffffff;stroke:none;stroke-width:0.97120373999999998;stroke-miterlimit:4;stroke-opacity:0.16470588000000000;stroke-dasharray:none"
         points="132.394,75.464 145.926,84.153 132.396,92.77 118.862,84.15 "
         id="polygon4758"
         transform="matrix(2.2838041,0,0,2.2838041,-32.59129,188.95478)" />
    </g>
  </g>
</svg>
