<?xml version="1.0" encoding="UTF-8" standalone="no"?>
<!-- Created with Inkscape (http://www.inkscape.org/) -->

<svg
   xmlns:dc="http://purl.org/dc/elements/1.1/"
   xmlns:cc="http://creativecommons.org/ns#"
   xmlns:rdf="http://www.w3.org/1999/02/22-rdf-syntax-ns#"
   xmlns:svg="http://www.w3.org/2000/svg"
   xmlns="http://www.w3.org/2000/svg"
   xmlns:xlink="http://www.w3.org/1999/xlink"
   xmlns:sodipodi="http://sodipodi.sourceforge.net/DTD/sodipodi-0.dtd"
   xmlns:inkscape="http://www.inkscape.org/namespaces/inkscape"
   width="16"
   height="16"
   id="svg13428"
   version="1.1"
   inkscape:version="0.48.0 r9654"
   sodipodi:docname="g_personal_token_man_icon_16x16.svg"
   inkscape:export-filename="C:\Users\emo.GIRITECH\Documents\Shared Graphics\Management\Icons\g_personal_token_man_icon_16x16.png"
   inkscape:export-xdpi="90"
   inkscape:export-ydpi="90">
  <defs
     id="defs13430">
    <linearGradient
       inkscape:collect="always"
       xlink:href="#linearGradient11828"
       id="linearGradient11826"
       gradientUnits="userSpaceOnUse"
       gradientTransform="translate(191,341.46016)"
       x1="5.0372043"
       y1="56.000687"
       x2="5.0372043"
       y2="71.947021" />
    <linearGradient
       id="linearGradient11828">
      <stop
         style="stop-color:#004d54;stop-opacity:1;"
         offset="0"
         id="stop11830" />
      <stop
         style="stop-color:#00a3b4;stop-opacity:1;"
         offset="1"
         id="stop11832" />
    </linearGradient>
  </defs>
  <sodipodi:namedview
     id="base"
     pagecolor="#ffffff"
     bordercolor="#666666"
     borderopacity="1.0"
     inkscape:pageopacity="0.0"
     inkscape:pageshadow="2"
     inkscape:zoom="1"
     inkscape:cx="8"
     inkscape:cy="8"
     inkscape:document-units="px"
     inkscape:current-layer="layer1"
     showgrid="false"
     inkscape:window-width="1680"
     inkscape:window-height="970"
     inkscape:window-x="-8"
     inkscape:window-y="-8"
     inkscape:window-maximized="1" />
  <metadata
     id="metadata13433">
    <rdf:RDF>
      <cc:Work
         rdf:about="">
        <dc:format>image/svg+xml</dc:format>
        <dc:type
           rdf:resource="http://purl.org/dc/dcmitype/StillImage" />
        <dc:title></dc:title>
      </cc:Work>
    </rdf:RDF>
  </metadata>
  <g
     inkscape:label="Layer 1"
     inkscape:groupmode="layer"
     id="layer1"
     transform="translate(0,-1036.3622)">
    <g
       transform="translate(-191,638.89571)"
       id="g11834">
      <rect
         ry="2.8270783"
         y="397.58096"
         x="191.12186"
         height="15.771058"
         width="15.756291"
         id="rect11797"
         style="fill:url(#linearGradient11826);fill-opacity:1;stroke:#ffffff;stroke-width:0.21893989;stroke-miterlimit:4;stroke-opacity:0.16470588;stroke-dasharray:none;stroke-dashoffset:0;display:inline" />
      <g
         id="g11799"
         inkscape:label="User"
         style="display:inline"
         transform="translate(191,397.46016)">
        <g
           id="g11801"
           transform="matrix(0.96569963,0,0,0.96569963,0.22584045,0.32873595)">
          <g
             id="g11803">
            <path
               style="fill:#e0e0e0;fill-opacity:1;stroke:none"
               d="m 4.125,8.90625 c -1.618045,0.7214954 -2.9407597,2.194125 -3.125,4.75 -0.026816,0.372003 3.71e-4,1.15625 0.75,1.15625 3.5381039,0 5.0625,-0.03125 5.0625,-0.03125 0,0 0.8772791,-0.002 1,0 L 6.59375,14.5 6.03125,13.78125 6.25,12.1875 9.625,8.96875 C 9.5832968,8.9489454 9.5421183,8.9250308 9.5,8.90625 8.813115,9.6017808 7.8672647,10.0625 6.8125,10.0625 5.7577353,10.0625 4.8118852,9.6017808 4.125,8.90625 z m 7.53125,1.8125 0.3125,1.3125 L 10.3125,11.75 10.625,13.625 8.90625,13.40625 9.46875,14.8125 c 0.824366,0.0074 0.724623,0 2.40625,0 0.749629,0 0.776815,-0.784247 0.75,-1.15625 -0.08772,-1.21686 -0.4559,-2.175886 -0.96875,-2.9375 z"
               id="path11805"
               inkscape:connector-curvature="0" />
            <path
               sodipodi:type="arc"
               style="fill:#e0e0e0;fill-opacity:1;stroke:none"
               id="path11807"
               sodipodi:cx="11.206391"
               sodipodi:cy="3.4300933"
               sodipodi:rx="3.3661785"
               sodipodi:ry="3.3661785"
               d="m 14.57257,3.4300933 c 0,1.859089 -1.50709,3.3661785 -3.366179,3.3661785 -1.8590887,0 -3.3661782,-1.5070895 -3.3661782,-3.3661785 0,-1.8590891 1.5070895,-3.36617852 3.3661782,-3.36617852 1.859089,0 3.366179,1.50708942 3.366179,3.36617852 z"
               transform="matrix(0.93790503,0,0,0.93790503,-3.7036724,3.0500094)" />
          </g>
          <g
             id="g11809">
            <path
               id="path11811"
               d="m 12.992182,4.9179828 c -1.602632,0 -2.909452,1.3068203 -2.909452,2.9094521 0,1.6026318 1.30682,2.8857981 2.909452,2.8857981 1.602632,0 2.909452,-1.2831663 2.909452,-2.8857981 0,-1.6026318 -1.30682,-2.9094521 -2.909452,-2.9094521 z m 1.064434,0.9225092 c 0.463129,0 0.827892,0.3884174 0.827892,0.8515469 0,0.4631296 -0.364763,0.8278929 -0.827892,0.8278929 -0.46313,0 -0.851547,-0.3647633 -0.851547,-0.8278929 0,-0.4631295 0.388417,-0.8515469 0.851547,-0.8515469 z"
               style="fill:#e0e0e0;fill-opacity:1;stroke:none"
               inkscape:connector-curvature="0" />
            <path
               sodipodi:nodetypes="cccccccccccc"
               inkscape:connector-curvature="0"
               id="path11813"
               d="m 10.532366,8.6652267 -3.7384819,3.7384793 -0.1640759,1.178707 0.3464103,0.431151 1.6105341,0.437599 -0.382878,-1.532064 1.7564556,0.109376 -0.2370179,-1.778178 1.5109997,0.21878 -0.364638,-1.403712 1.229055,0.402501 z"
               style="fill:#e0e0e0;fill-opacity:1;stroke:#e0e0e0;stroke-width:0.18318051;stroke-linecap:butt;stroke-linejoin:miter;stroke-miterlimit:4;stroke-opacity:1;stroke-dasharray:none" />
          </g>
        </g>
      </g>
    </g>
  </g>
</svg>
