<?xml version="1.0" encoding="UTF-8" standalone="no"?>
<!-- Created with Inkscape (http://www.inkscape.org/) -->

<svg
   xmlns:dc="http://purl.org/dc/elements/1.1/"
   xmlns:cc="http://creativecommons.org/ns#"
   xmlns:rdf="http://www.w3.org/1999/02/22-rdf-syntax-ns#"
   xmlns:svg="http://www.w3.org/2000/svg"
   xmlns="http://www.w3.org/2000/svg"
   xmlns:xlink="http://www.w3.org/1999/xlink"
   xmlns:sodipodi="http://sodipodi.sourceforge.net/DTD/sodipodi-0.dtd"
   xmlns:inkscape="http://www.inkscape.org/namespaces/inkscape"
   width="16"
   height="16"
   id="svg13665"
   version="1.1"
   inkscape:version="0.48.0 r9654"
   sodipodi:docname="g_token_man_icon_16x16.svg"
   inkscape:export-filename="C:\Users\emo.GIRITECH\Documents\Shared Graphics\Management\Icons\g_token_man_icon_16x16.png"
   inkscape:export-xdpi="90"
   inkscape:export-ydpi="90">
  <defs
     id="defs13667">
    <linearGradient
       gradientUnits="userSpaceOnUse"
       y2="71.792641"
       x2="7.0834522"
       y1="55.962994"
       x1="7.0834522"
       id="linearGradient3826"
       xlink:href="#linearGradient3818"
       inkscape:collect="always" />
    <linearGradient
       id="linearGradient3818">
      <stop
         id="stop3821"
         offset="0"
         style="stop-color:#4f280d;stop-opacity:1;" />
      <stop
         id="stop3823"
         offset="1"
         style="stop-color:#dc7733;stop-opacity:1;" />
    </linearGradient>
    <linearGradient
       y2="981.34082"
       x2="34.371315"
       y1="1052.3622"
       x1="34.371315"
       gradientTransform="matrix(0.22187678,0,0,0.14105166,0.01243575,-76.466136)"
       gradientUnits="userSpaceOnUse"
       id="linearGradient3051-4"
       xlink:href="#linearGradient3816-6"
       inkscape:collect="always" />
    <linearGradient
       id="linearGradient3816-6">
      <stop
         id="stop3818-22"
         offset="0"
         style="stop-color:#ffffff;stop-opacity:0.25882354;" />
      <stop
         id="stop3820-9"
         offset="1"
         style="stop-color:#ffffff;stop-opacity:0;" />
    </linearGradient>
    <linearGradient
       y2="108.26157"
       x2="35.989838"
       y1="51.432434"
       x1="35.989838"
       gradientTransform="matrix(0.26753263,0,0,0.22208472,-1.6167136,40.021184)"
       gradientUnits="userSpaceOnUse"
       id="linearGradient3048-2"
       xlink:href="#linearGradient3797-6"
       inkscape:collect="always" />
    <linearGradient
       id="linearGradient3797-6">
      <stop
         id="stop3799-56"
         offset="0"
         style="stop-color:#ffffff;stop-opacity:1;" />
      <stop
         id="stop3801-40"
         offset="1"
         style="stop-color:#ffffff;stop-opacity:0.16470589;" />
    </linearGradient>
  </defs>
  <sodipodi:namedview
     id="base"
     pagecolor="#ffffff"
     bordercolor="#666666"
     borderopacity="1.0"
     inkscape:pageopacity="0.0"
     inkscape:pageshadow="2"
     inkscape:zoom="1"
     inkscape:cx="8"
     inkscape:cy="8"
     inkscape:document-units="px"
     inkscape:current-layer="layer1"
     showgrid="false"
     inkscape:window-width="1680"
     inkscape:window-height="970"
     inkscape:window-x="-8"
     inkscape:window-y="-8"
     inkscape:window-maximized="1" />
  <metadata
     id="metadata13670">
    <rdf:RDF>
      <cc:Work
         rdf:about="">
        <dc:format>image/svg+xml</dc:format>
        <dc:type
           rdf:resource="http://purl.org/dc/dcmitype/StillImage" />
        <dc:title></dc:title>
      </cc:Work>
    </rdf:RDF>
  </metadata>
  <g
     inkscape:label="Layer 1"
     inkscape:groupmode="layer"
     id="layer1"
     transform="translate(0,-1036.3622)">
    <g
       style="display:inline"
       id="g5319"
       transform="translate(-1.2665987e-7,1036.3559)">
      <g
         style="display:inline"
         transform="translate(0,-1036.3622)"
         id="layer1-43"
         inkscape:label="Layer 1">
        <rect
           ry="2.8270783"
           y="56.120804"
           x="0.12185443"
           height="15.771058"
           width="15.756291"
           id="rect2996-9"
           style="fill:url(#linearGradient3826);fill-opacity:1;stroke:#ffffff;stroke-width:0.21893989;stroke-miterlimit:4;stroke-opacity:0.16470588;stroke-dasharray:none;stroke-dashoffset:0;display:inline"
           transform="translate(0,980.3622)" />
      </g>
      <g
         transform="translate(0,-56)"
         style="display:none"
         inkscape:label="Glass effect lower"
         id="layer4-4">
        <path
           inkscape:connector-curvature="0"
           id="rect3812-95"
           d="m 1.1426206,61.868768 c -0.50168188,0 -0.91359329,0.349643 -1.01924646,0.818938 l 0,6.377995 c 0,1.566202 1.25726026,2.82464 2.82199526,2.82464 l 10.1092606,0 c 1.564735,0 2.821996,-1.258438 2.821996,-2.82464 l 0,-6.377995 c -0.105654,-0.469295 -0.517565,-0.818938 -1.019247,-0.818938 l -13.7147584,0 z"
           style="fill:url(#linearGradient3051-4);fill-opacity:1;stroke:none;display:inline" />
      </g>
      <g
         transform="translate(0,-56)"
         style="display:none"
         inkscape:label="Glass effect upper"
         id="layer5-21">
        <path
           inkscape:connector-curvature="0"
           id="path3779-67"
           d="m 2.9453694,56.122326 c -1.564735,0 -2.82199526,1.258439 -2.82199526,2.82464 l 0,3.685219 c 2.15634606,0.864641 4.89399986,1.388029 7.87662566,1.388029 2.9826262,0 5.7202792,-0.523388 7.8766262,-1.388029 l 0,-3.685219 c 0,-1.566201 -1.257261,-2.82464 -2.821996,-2.82464 l -10.1092606,0 z"
           style="fill:url(#linearGradient3048-2);fill-opacity:1;stroke:#ffffff;stroke-width:0.24375173;stroke-opacity:0.07051284;display:inline" />
      </g>
      <g
         transform="translate(0,-56)"
         style="display:none"
         inkscape:label="pictogram"
         id="layer3-2">
        <text
           transform="scale(0.99953172,1.0004685)"
           sodipodi:linespacing="125%"
           id="text3038-5"
           y="68.370628"
           x="3.3607414"
           style="font-size:12.4309206px;font-style:normal;font-variant:normal;font-weight:900;font-stretch:normal;line-height:125%;letter-spacing:0px;word-spacing:0px;fill:#e0e0e0;fill-opacity:1;stroke:none;font-family:Avenir;-inkscape-font-specification:Avenir Heavy"
           xml:space="preserve"><tspan
             style="font-style:normal;font-weight:900;fill:#e0e0e0;fill-opacity:1;-inkscape-font-specification:Avenir Heavy"
             y="68.370628"
             x="3.3607414"
             id="tspan3040-1"
             sodipodi:role="line">G</tspan></text>
      </g>
      <g
         style="display:inline"
         inkscape:label="User"
         id="layer2-80">
        <g
           id="g3052">
          <path
             inkscape:connector-curvature="0"
             style="fill:#e0e0e0;fill-opacity:1;stroke:none"
             d="m 9.8911866,3.1461801 c -1.8727033,0 -3.3997459,1.5270425 -3.3997459,3.3997458 0,1.8727034 1.5270426,3.3721057 3.3997459,3.3721057 1.8727034,0 3.3997454,-1.4994023 3.3997454,-3.3721057 0,-1.8727033 -1.527042,-3.3997458 -3.3997454,-3.3997458 z m 1.2438094,1.0779682 c 0.541175,0 0.967407,0.4538725 0.967407,0.9950475 0,0.5411751 -0.426232,0.9674074 -0.967407,0.9674074 -0.541175,0 -0.995047,-0.4262323 -0.995047,-0.9674074 0,-0.541175 0.453872,-0.9950475 0.995047,-0.9950475 z"
             id="path4945-7" />
          <path
             style="fill:#e0e0e0;fill-opacity:1;stroke:#e0e0e0;stroke-width:0.17689735;stroke-linecap:butt;stroke-linejoin:miter;stroke-miterlimit:4;stroke-opacity:1;stroke-dasharray:none"
             d="m 7.0168485,7.5249004 -4.368482,4.3684786 -0.1917256,1.37734 0.4047866,0.503807 1.8819373,0.511342 L 4.2959651,12.495625 6.3484143,12.623433 6.0714547,10.5456 7.8370841,10.801249 7.4109985,9.160986 8.8471713,9.6313158 z"
             id="path4947-5"
             inkscape:connector-curvature="0"
             sodipodi:nodetypes="cccccccccccc" />
        </g>
      </g>
    </g>
  </g>
</svg>
