<?xml version="1.0" encoding="UTF-8" standalone="no"?>
<!-- Created with Inkscape (http://www.inkscape.org/) -->

<svg
   xmlns:dc="http://purl.org/dc/elements/1.1/"
   xmlns:cc="http://creativecommons.org/ns#"
   xmlns:rdf="http://www.w3.org/1999/02/22-rdf-syntax-ns#"
   xmlns:svg="http://www.w3.org/2000/svg"
   xmlns="http://www.w3.org/2000/svg"
   xmlns:xlink="http://www.w3.org/1999/xlink"
   xmlns:sodipodi="http://sodipodi.sourceforge.net/DTD/sodipodi-0.dtd"
   xmlns:inkscape="http://www.inkscape.org/namespaces/inkscape"
   width="16"
   height="16"
   id="svg12878"
   version="1.1"
   inkscape:version="0.48.0 r9654"
   sodipodi:docname="g_zone_man_icon_16x16.svg"
   inkscape:export-filename="C:\Users\emo.GIRITECH\Documents\Shared Graphics\Management\Icons\g_zone_man_icon_16x16.png"
   inkscape:export-xdpi="90"
   inkscape:export-ydpi="90">
  <defs
     id="defs12880">
    <linearGradient
       inkscape:collect="always"
       xlink:href="#linearGradient11562"
       id="linearGradient11262"
       x1="68.76239"
       y1="306.36261"
       x2="68.76239"
       y2="322.19794"
       gradientUnits="userSpaceOnUse" />
    <linearGradient
       id="linearGradient11562">
      <stop
         id="stop11564"
         offset="0"
         style="stop-color:#372e4a;stop-opacity:1;" />
      <stop
         id="stop11566"
         offset="1"
         style="stop-color:#8271a6;stop-opacity:1;" />
    </linearGradient>
  </defs>
  <sodipodi:namedview
     id="base"
     pagecolor="#ffffff"
     bordercolor="#666666"
     borderopacity="1.0"
     inkscape:pageopacity="0.0"
     inkscape:pageshadow="2"
     inkscape:zoom="1"
     inkscape:cx="8"
     inkscape:cy="8"
     inkscape:document-units="px"
     inkscape:current-layer="layer1"
     showgrid="false"
     inkscape:window-width="1680"
     inkscape:window-height="970"
     inkscape:window-x="-8"
     inkscape:window-y="-8"
     inkscape:window-maximized="1" />
  <metadata
     id="metadata12883">
    <rdf:RDF>
      <cc:Work
         rdf:about="">
        <dc:format>image/svg+xml</dc:format>
        <dc:type
           rdf:resource="http://purl.org/dc/dcmitype/StillImage" />
        <dc:title></dc:title>
      </cc:Work>
    </rdf:RDF>
  </metadata>
  <g
     inkscape:label="Layer 1"
     inkscape:groupmode="layer"
     id="layer1"
     transform="translate(0,-1036.3622)">
    <g
       transform="translate(-64.000002,730.06209)"
       id="g12400">
      <rect
         style="fill:url(#linearGradient11262);fill-opacity:1;stroke:#ffffff;stroke-width:0.21893989;stroke-miterlimit:4;stroke-opacity:0.16470588;stroke-dasharray:none;stroke-dashoffset:0;display:inline"
         id="rect2996"
         width="15.756291"
         height="15.771058"
         x="64.121857"
         y="306.41458"
         ry="2.8270783" />
      <g
         transform="translate(64,250.29379)"
         style="display:inline"
         inkscape:label="pictogram"
         id="layer3">
        <text
           transform="scale(0.99953174,1.0004685)"
           sodipodi:linespacing="125%"
           id="text3038"
           y="68.376953"
           x="4.0879774"
           style="font-size:12.4309206px;font-style:normal;font-variant:normal;font-weight:900;font-stretch:normal;line-height:125%;letter-spacing:0px;word-spacing:0px;fill:#e0e0e0;fill-opacity:1;stroke:none;display:inline;font-family:Avenir;-inkscape-font-specification:Avenir Heavy"
           xml:space="preserve"><tspan
             style="font-style:normal;font-weight:900;fill:#e0e0e0;fill-opacity:1;-inkscape-font-specification:Avenir Heavy"
             y="68.376953"
             x="4.0879774"
             id="tspan3040"
             sodipodi:role="line">Z</tspan></text>
      </g>
    </g>
  </g>
</svg>
