<?xml version="1.0" encoding="UTF-8" standalone="no"?>
<!-- Created with Inkscape (http://www.inkscape.org/) -->

<svg
   xmlns:dc="http://purl.org/dc/elements/1.1/"
   xmlns:cc="http://creativecommons.org/ns#"
   xmlns:rdf="http://www.w3.org/1999/02/22-rdf-syntax-ns#"
   xmlns:svg="http://www.w3.org/2000/svg"
   xmlns="http://www.w3.org/2000/svg"
   xmlns:xlink="http://www.w3.org/1999/xlink"
   xmlns:sodipodi="http://sodipodi.sourceforge.net/DTD/sodipodi-0.dtd"
   xmlns:inkscape="http://www.inkscape.org/namespaces/inkscape"
   width="150"
   height="148"
   id="svg2"
   version="1.1"
   inkscape:version="0.48.0 r9654"
   sodipodi:docname="gon_about.svg"
   inkscape:export-filename="C:\Users\emo.GIRITECH\Documents\Shared Graphics\Management\About\Version 3\gon_about.png"
   inkscape:export-xdpi="90"
   inkscape:export-ydpi="90">
  <defs
     id="defs4">
    <linearGradient
       id="linearGradient3760">
      <stop
         id="stop3762"
         offset="0"
         style="stop-color:#440008;stop-opacity:1;" />
      <stop
         style="stop-color:#880000;stop-opacity:1;"
         offset="1"
         id="stop3764" />
    </linearGradient>
    <linearGradient
       id="linearGradient3780">
      <stop
         style="stop-color:#440008;stop-opacity:1;"
         offset="0"
         id="stop3782" />
      <stop
         id="stop3788"
         offset="0.87333333"
         style="stop-color:#880000;stop-opacity:1;" />
      <stop
         style="stop-color:#ffffff;stop-opacity:0;"
         offset="1"
         id="stop3784" />
    </linearGradient>
    <linearGradient
       inkscape:collect="always"
       xlink:href="#linearGradient3760"
       id="linearGradient3786"
       x1="0"
       y1="28.5"
       x2="150"
       y2="28.5"
       gradientUnits="userSpaceOnUse"
       gradientTransform="matrix(1,0,0,2.5964912,0,-57)" />
  </defs>
  <sodipodi:namedview
     id="base"
     pagecolor="#ffffff"
     bordercolor="#666666"
     borderopacity="1.0"
     inkscape:pageopacity="0.0"
     inkscape:pageshadow="2"
     inkscape:zoom="3.36"
     inkscape:cx="75"
     inkscape:cy="74"
     inkscape:document-units="px"
     inkscape:current-layer="layer2"
     showgrid="false"
     fit-margin-top="0"
     fit-margin-left="0"
     fit-margin-right="0"
     fit-margin-bottom="0"
     inkscape:showpageshadow="false"
     borderlayer="true"
     showborder="false"
     showguides="true"
     inkscape:guide-bbox="true"
     inkscape:window-width="946"
     inkscape:window-height="848"
     inkscape:window-x="207"
     inkscape:window-y="166"
     inkscape:window-maximized="0" />
  <metadata
     id="metadata7">
    <rdf:RDF>
      <cc:Work
         rdf:about="">
        <dc:format>image/svg+xml</dc:format>
        <dc:type
           rdf:resource="http://purl.org/dc/dcmitype/StillImage" />
        <dc:title></dc:title>
      </cc:Work>
    </rdf:RDF>
  </metadata>
  <g
     inkscape:groupmode="layer"
     id="layer2"
     inkscape:label="Background"
     style="display:inline"
     transform="translate(0,91)">
    <rect
       style="fill:url(#linearGradient3786);fill-opacity:1.0;stroke:none"
       id="rect3010"
       width="150"
       height="148"
       x="0"
       y="-57"
       rx="0"
       ry="0"
       transform="scale(1,-1)" />
  </g>
  <g
     inkscape:groupmode="layer"
     id="layer3"
     inkscape:label="xx Work Layer"
     style="display:none"
     transform="translate(0,91)">
    <image
       style="display:inline"
       y="-91"
       x="0"
       id="image3000"
       xlink:href="data:image/png;base64,iVBORw0KGgoAAAANSUhEUgAAAJYAAACUCAIAAAD+q0e+AAAAA3NCSVQICAjb4U/gAAAL3klEQVR4 nO2dS28aVxuA3zPDDMPVYGN8wcHBgG/YiZNacqOmqT616W3TqqrUVXeVov6A9pd001XUTbvpplXV LqPmUqdN7dQfdoyDjR1iwA5gwAPDbS7fYmJ/1NgODlWTNznP6nDmnHdmeDhz3jMzEoTjOGYPQshR Bb2sfzxq6/F9/8HIJ9rdv3bMx3c50RmdKDIDFORQheihCtFDFaKHKkQPVYgeqhA9VCF6qEL0UIXo oQrRQxWihypED1WIHqoQPVQheqhC9FCF6KEK0UMVoocqRA9ViB6qED1UIXqoQvRQheihCtFDFaKH KkQPVYgeqhA9VCF6qEL0UIXooQrRQxWihypED1WIHqoQPVQheqhC9FCF6KEK0UMVoocqRA9ViB6q ED1UIXqoQvRQheihCtFDFaKHKkQPVYgeqhA9VCF6qEL0UIXooQrRQxWihypED1WIHqoQPVQheqhC 9FCF6KEK0WNopzPHcTabLRgMer1es9ksy3I2m43FYvl8vlarPbH74ODge++9V61Wf/zxR1EUGzcZ a7Wh7e3hhw/tkqQyTNrlWg0Esl1d2j/0z7WEEKPRqGkay7KapmmaBgBI/xb3KRW63e5QKDQ1NeX1 eh0Oh8lkIoQAgCzLoiju7OxEIpFff/21XC4fEyQYDPb396+trTU2s0vS+Obm6MOHXYWCQVH0yr5H j4Lr61tu91owGB8agra/a5Zle3p6zGazKIomk6lSqWQymYGBgXK5vLOz02bwf5kTKySEXL58+YMP Pujp6dmvrNVqiqIQQgRBcDqdTqfT4/HMzs4eo9BisYyMjKiqury8XK/X9V+Af2vr7YUFR7Got8nb bGVB4GTZlcuZymXfgwe+Bw/W/f4/XntNstlOfrL/R5bldDrd19eXyWR8Pp/VahVFURAEQsgLrtBu t3/22WcXL17UP25sbMzPz6dSKVEUVVVlWVYQhM7OzrNnzxYKhUKhcEyo0dFRt9tdKBTu37+v10zE 4+/fvauPvOjAwL2hoYLDUTMaOVV1lEqDicSZpSVGVX1ra0KlcuPNN8sdHU91yo8hhGiaxjBMpVIx GAwejyefz3e0F/OZcAKFLMteuXLlwoULAJDP57///vv5+fnd3d3m/1u/e/cuwzCqqh41uxBChoaG CCGrq6vFYpEQMpjJvBkO6/5uTk7OjYwoPL8fsGi3Jz2e7Z6ei7OzllKpL5F45fffb12+3M6Zkz00 TSsWi06nU5Kk7u7udmI+E06g8OOPP9b9pdPpr7766v79+7q25paSJOlf/VGh+vr6hoeHAWB5eRkA OEW5EI1aqlUAuD06Ojs+Tghpjrt++jQL8J9r11hF8UWjKa93fXy89eM/QLlcTiQSiqKk02lFUURR JIRsbGw8dcBnRat5wenTpz/88EMAkGX566+/jkQi7ezV5/OZTKZ4PJ5IJABgLJkMbG8DwJbDcXt0 9JiOsaGhyNgYADCq6o9EuIa811CrCcUiV63u1wi7u10bG661tY5EgtnLjPZRVbVWq2maVq/XNU1T FEVVVUmS2jmvZ0Kro/DSpUuCIADAtWvXFhYW2sm/zWbz5OQkAITD4UqlwgEEt7YAQCNkweerctzx oSPj40OxmEmS3MmkO5lM+nx6/fD8vDcSyQ4MLLz/Pi9JgTt3eqNRSzZLVLVuNue93tT0dLaNUfvc 0pIJi8UyPT0NAJqm/fLLL23usq+vz+PxlEol/arVVSye2tkBgKIgrLvdT+xecDiyLhcAsIrS0ZA9 2nK5jnS6M5m07uyc/+mn4Rs37FtbjKIwimIUxZ6lpcnvvuu/c6fNg38OaWkUnj9/3u12A8DGxkYm k2lzl2fPnmUYZmVlJZ1OA4BTkiy1GgDkLJaSIDyxu8owj3p7B+JxAOjY2SGaptfXeB4AjJI0/cMP zmRyOxjcnJqq2WzmQmHwjz8cDx+ytVrg55+LHk/p1Kk2T+G5oiWFMzMzPM8DQCwWqzZMNk+Bw+HQ l4PRaFRPWc3VKqOqAJCx2WoGQyuXhYLDoTIMo6pmUeRqNdlkAgAgBABMomgSxY3z55feeUczGgkh OUJ2gsFz337riMc5Ser566/YS6hwcHBQTy93d3f1JfyBBhMTE+Pj46qqAoC+1Wg0ptPp27dvH2gZ CoXsdns8Ho9Go3qNIMt6oWw0tnjQdZ7XFRpkWdffSHZgIPz221rDnFq1WlffeuuVb74hiuKIxThJ UqzWFvf1/NOSQoPhcTNt76p1gNdff31mZuZA5cbGxtzcXL1e368hhIRCIQBYXV2tVCp6TkSOiHkM RNPIXsTmztt+v9I0msXe3rrJxBeLQqFgKJdfOoWZTKa/vx8ArFYrwzDNIsPhsNVqlWW5Xq9brVaf z2c0GhVFUf6eyvv9/lOnTpVKpcXFxf1KmWX1At8g+wkHXa8TVQWAOs8rhr+dgsqydf26+nc0Qqo2 G18sgqrCyX80zzMtKQyHw6FQyGAweL1enuebp8PZ2dk///yTZVlVVbu7u69cueLxeDRNO3DJnZiY 4Hk+Fos9evRov7LE8xohRNO6ikVOUZQWlisd+bx+/RTtdvnAIkTTSNMSEAAIgLb3W4Gj7zlgpKVF xa1bt3Z3dwEgEAg4nc7mBoqiVKvVSqUiy/KhkyUAdHZ2BoNBVVXn5uYax/GuyVQ1GACgs1g0t5Ar Marak0rp5bzLdWArATjcj6bB/qz5Yo3ClhRubW2trKwAgMFgeOONN45vzPP8oQt/v9/f3d2dy+XW 19cb67NWa9puB4AOSRpsGJ1H0ZHPO7NZAKgKQqGzs5Xj13mhhl4DLSlUFOW3337Ty++++67X6z3p bliWHRkZAYCFhYVSqdS4SeL5NbcbAIimnY/FuL0E9ShGIhGzJAHAtseTbXjg9dLS6n2yubk5/amQ 1Wr9/PPPj7mjr6pqc77T19c3NjamquqhN1cXPZ6MzQYAfbnczMrKMYcx+ODBcCQCADLHrY6NKfvT 20tMqwolSbp69Wo+nweAQCDw5ZdfTk5OchzX3FKW5X2F+4XR0VGj0RiJRJLJZHOXnMVyOxBQCQGA C5HIzPIy27TaA4BTm5uXrl/nazUAWBkf3zx9usWDP8iLlc6c4GFTJBK5evXqp59+6nK5vF7vF198 sbi4ODc3l0ql9ByVZVmj0XjmzBk95dl/3iQIwrlz5wBgcXGxXq8fOlP+NTjYJUkXVlYYVb303//2 Z7N3R0eLNptmMDCaZq7Xh9fXJ5aXDbIMAOt+/92ZmYP5LgAAaADaoYYIeVxPyAuWzpzsqf2NGzdy udxHH300NTXFcdy5c+d0N5VKRVEUo9FoaFil6WsMAPB6vb29vZlM5kAic4BroVCV416LRDhZDiQS gURCtFiKZrOxVuvcewFAI2Q5FJp79dWDawkAfaXIqGrzcyUAAE1jZBkAmHr9KW4mPM+c+N2Ze/fu RaPRixcvTk1NBQKB7u5uhmGEhtvTu7u7W1tbqVRqaWlJURSGYWZmZggh0Wg0m80e8xwYAGZHRlJd XZMPHvhTKVO1aiuVbHu5T5XnNwcG1gKB+NAQwzDNUfQ1vszz6mETpEaIynEAIAvC4cMULU/zBpss y9evX79586bb7bbb7R0dHfqLQ7Isl0qlSqVSKpXK5bL+TL+np8fv95fL5XA43ErwuNu92dvrEkWH JHVIEqeqssFQslpLdnve6SQse9TsfX96OjkyohqN1cPef5EFIfzJJ3ytpvJ89bClLV7aeo80nU5n s9nmd2f0gt7G5XKVSqV4PH78VfQAWbs953A0Rz5m+JSt1qrd/rhl01aNYSSXq7If7YRn+jzTlsJW WFpaWl5ePuCV8g9Cv1P0UIXooQrRQxWihypED1WIHqoQPVQheqhC9FCF6KEK0UMVoocqRA9ViB6q ED1UIXqoQvRQheihCtFDFaKHKkQPVYgeqhA9VCF6qEL0UIXooQrRQxWihypED1WIHqoQPVQheqhC 9FCF6KEK0UMVoocqRA9ViB6qED1UIXqoQvRQheihCtFDFaKHKkQPVYgeqhA9VCF6qEL0UIXooQrR QxWihypED1WInv8B96WdXUFIAKsAAAAASUVORK5CYII= "
       height="148"
       width="150" />
  </g>
  <g
     inkscape:label="Text"
     inkscape:groupmode="layer"
     id="layer1"
     transform="translate(-256.42856,-358.57648)"
     style="display:inline">
    <image
       y="419.88837"
       x="268.42932"
       id="image3004"
       xlink:href="data:image/png;base64,iVBORw0KGgoAAAANSUhEUgAAAc4AAACPCAYAAABzlTvNAAAABHNCSVQICAgIfAhkiAAAGo9JREFU eJztndFx3LjShc+69t3zR7DcCFZbhXfTEXgcgeEIVo7A4wisG4G5Eew4gqXfUbXjCC43g3EE939A U6KomdEQbBAgeb6qKUuy0IRGEA660Wj8BEJmhnPuFwBFQNODMeaHcneS4YCr3wcDfIvbG0LWw8+p O5AK59xLADedL5UDTdSdjxc1Ic+APR7/7q7hiDCxTYoDXsH3u4AfoxsM/9nhHj5seq8awMEAHL+E XMlPqTsQE/FMbuRV9F4xOAI4dP5tADTGGK72lZDfaRPQtDLGvFfujioOeAkvjiX8mC0nfHwDP2Zr AHsD/DvhswmZFYsRTvEgSzxMOGXC7pyiwcPEdKCYhuGc+wzgNqBpmeN7LuHWLfx43abtzSMaeM++ MsD3xH0hC2XEtssT2r9v59xv8JGZLo0xZtBi0Dn36twzZh2qdc69weMVes4U8toCgHMO8CJaA9gb Yzg5XYcNaJOd1++Ad/BjISex7FLAL1Bu3YOI3tETJcpYADslW60jeIenjlMF4OqIk2jL/twzZiec zrl3eFid91cVc6OU1845d4T/Re2NMV9TdipXZDCH/M7vtPsSgniXt/CTxZzGboEHEa3hBZRjlMyJ rXPudkAuysUF7SyEU1xmi2WI5Tk28D+jFRGtANwNDS8sHBvY7tTKcTJEMHcI739OlABK8UJ3Bvgz bXcIuYoNvH48O15l289e+p5s9zg7nb/FDLMhFamNMa9TdyI1I5KC9saYt8rduYqFCeY5GgC39ECJ NuIw1Z0v7Ywxn65o97/Op0c8OFtXzQUS1axOtAckV+LFc0amxjn3iySANPAhtiJph9JzTN2BTAjd C6w0O3ENDnjpgI/wY9hO/fyJKQDsHfC3A35L3RlCetSdj7fikD2HPdP+nmyEUwTzC2QFi+WGZIeS NMyYESGZtM3U+8UOeAOfPb2b8rkZUAI4OOCjHKshJAfq3uf20jdLZKvsfOnk/JtcOJ1zL51za1md h1Cn7kBqJGRTBDSdbNEhXuZf8sxiqudmyA5eQOl9ksmRoyhd2nP1LfYZE93IVoOn20M3QGLhdM79 AUkySNmPjDkwOQhA+IJqkmxaqe5zQL5HS6amgHifqTtCVsepSGV3AX0jXuU5upGtUwvvDZBIOJ1z vznn/oGf2BiSPU+VugOpkT2JEEGqp1h0iDjUWLeXeY6dA/5i6JYkpu59fnLbR7zVovOl6pzByYVT wrIH5F+wIAe4vxl+BKlS7scjOqHZXcznLIAtgJqhWzIRxYmv9efRcwtx2/m4OVOUpgAmPMcpal6B gnktg0tELZSQpKC2mEQUxIOqkc9Yrk98LagYfCRu4MWzZPk+Epmi+0mnDN8eD4JZOOdenagmZjsf t/PH4ZT9SYRTzsUwLDuM1XubnSL9Q9nHuq1GPKca04/lQ+/VXFv+Tvpc4KGO8w2m7/8GXjwtz3yS BHSFE/AieS+cJ6qSVQBgjPkh5VEfEV045YiJjf2cAdR4eosJMOBqsF5h4nZl3/93LJWCjbkT4m0C kZKCEojmXl71mBqx4uV9hxesT8D9z2LhJ5NibEevZAN/5tOy4hCJxLm/zVPh2ve9z1vOhWnv7UcT TknqqJE2XHR/Gwm8MKqEiSSE2p3InqygJTR9g8er/Gs5sug7gLCkoEuDPpgJRbOB3zfdx7wjU8T0 A4AP8rO1NXSnoHK+DxRPos3JeVY8x67XuXHOvemc8+7ONZcW3jdAJOEU0Uhxnu0IuW0EEcN11yCT 93fI5NC59mwr/xYXmjNM60MnRUBTdW9zItGs4Wu/Tn6Li4joeyeF3DFNAZI75y/Q5gKRxKLufd4P 15YAvp4I0/bn3xq921bUhVNEs8a0eyh7+IuKs907ERH/Kq/2fbI4fVPG6oUT4d5PpdiHKUSzgQ9d Jr/2TDzcT84vPu4Q1wNt9zyZMESmYo/HtWe38FGXsvM9Vx1jUz2OMrFoHuFDWoUx5m3OonkKY8x3 Y8wHY8z/wU9Qdef/ZvWzaDPi7KZqlEGyZyvEG887A/yag2h2McAP4/d/SjzNKtSk3fPkOU+iRXnu P2Ru6DolxYkSe9VzD3DO/abmcU4omg18lfzF7I/Iz/LniV/iWrGB7SrFPgD+jyzGHv0B3svM2tMS Qf/dAZ8Rnqj1HAX8+7z6G4DIJOzxeH6xePw3firad+x9vlHxOCcSzSMAa4z5dUmi2cUY8+9Sf7aB hEzSqgXdRSxKLXsdKgP8nrtodjE+nLVFvJt6SpbnIxGo+1+QOaI7jrtzTXUmYvUk6jJaOCcSzTv4 kCxFZeGcKHt1LZVaH/wNJzE8LGsep8DPBjl7WSJe6HYnNX8JCUIug7iGrld5KSnoHMUo4ZS9qArx RPMA4Eb2ApNlyJJJCRWsSuPhcvm0iq0OPloy8+MX4iWXiCee3O8kU3AyHDsgYjVOOBH3nObOGPM7 zzOuh0wKulfQXQge4TNHZy2aLZJ5WyKOeG7Awh8kMifCtcDlcdf0vxAsnM65z4gjmn6iMeZTBNsk b7ZIWNDdAX9Af19zO6f9zGuILJ5bCZUTMpS+HtUXvrfvdVYXvrfpfb4JyqqVA6Mx9oAOALYsbr5a bECbo8bet4Rod2Pt9MjifGYMDPDDPYhnoWz+zvkyg9yeIUMYsujeoSOIAyObNz8N+GYA93VaD9Df 16zhRZN/LCtExlUT0LQyxoxOuHHA39D1NndG6sIumYgFIlbx/pF5EhKqraD/R1IZY15TNFdNsoLu Ehosx9rpsF/LpC9haBvB9K1EAQjJjkHC6ZyLsQek4jGQ2ROSFKRVuF+zvm2DvG4Dio4cVdGuEbwB LwknmXK1cEoobaf8/JqiSUYUdK9GP9sfvA959jm2a9ybkyIJ2slCll4nyZEhHmcF3RDtAWFeBlke NrBdNeahcmZQM8ltt7QM2oHYCDZ3EWwSMoqrhFM8glLxue2Rk9WtzMljRpzdPFceawia12c1iHSB 9lyQRcNO2Sy9TpId13qc2hMCRZO02MB21ZiHRvA27RpDtCe4Q1h29CViFZgnJIhnhVMSggrFZ+5Y DYh0sAFtGmPM2PORocUWTlEv9bzmUGTxsFM2a1mKj+TEReGUMNpO8Xk1KwKRFinoHlJ9qlJ4/E7B RotVtDV7pLxgrWhyA+ZDkIx4rnKQ5h7QEZxgyGOSFHSXc5vFGBsdKgOw0tVTdtAVz1sspN6vJuKJ n1t8HleerBaN54TTKj7rjqX0SI8QL2KvMI7syPZddoq2FoMBvjkvnKWSyRsH/LZWIRCBLOFFsoRf +BVXtAO803KA/30cwHKGozkrnM65d9BblTcM0ZIuMr5CohnX3pl3+rk+Q1Mr7Lent3mRO+hm41v4 86LRkPFRhLbX3OvujFWLcRdqbOB/D2XH9gE+csMxHMAlj3On+BxmxZE+NqCNRkF3zb2yVR8/eQ4D fHU+w7ZQMrlFZOGEH5e7Ee0H1//u44B30o9yrK0L3MCP3zvnF6N3THC7npPJQXKTdqH0jHrABaFk BUgVqjKgaaXweKtgAwAaTjRXobm4KKSo/OJwwEsHfHTAf+HHeTnh47cAagf87YBXEz53tpzLqrWK z9gp2iLLwAa2q8Y8VCZdrTtk6W1eR6Vszyrb69NEtv8E8TAP8HNlMfXzO5TwAvoXi05c5olwyhEU q2T/oHDejiwPG9BGo6B7ObJ9l0rR1mKRJJRK0WTsYynNmMZDPGIH/CLX2VVIK5h9tgAOIujkBKc8 Tu4BkWiMKOiuMZasgg3AJ1QwK/F6RiV09Sgy94auSnhzwB/wXmYZtTfhbABUDviSuiM5ElM4NRI5 yPIIGV9H6GTTaoVpNYVg8ci1Y0dFk6WirUmRvcwv8AtB7XuNY2Ad8A8rNz3mkXCOKLh9ikrJDlkI I7YB9gq1jcuR7btQOIej+Z6VirYmQ8SnxvwKwdzA731SPIW+x6kZpq0UbZFlYAPbVQrPLhVsAAzT hjIL4VTIlD4Z1ZC9z/rc/88AimeHvnCWSnYbFnInJ7ABbTQKugN6Y7tWsrMqJFyrRc77nE/Crx1P c66i2ULxFGJ5nAxlkUeMKOg+OilobDWYHrWSnTVSK9qahQh1RHMO+5nX0BZOWDX3wikTm9Yvt1Ky Q5aDDWynsQgrFWwAvugBIynh1Iq2ZiGc8ON3Ln29Frv2oypdj7NUsnlkmJacwAa00SjoDuhNXAcl O2ulVrRVKtrSpGw/cMBn5NvPsdxlHC6PTrdWrdbkUivZIQthREH3SqkLHNsZIDemaFHomdJHStdp 1Ohuj2Id5NX0i7J3yuSVeLg9JXZoeAP/9/k68nOypCucpZLNWskOWQ5BZzcVaxyXSnbocY7nAJ2F TKFgIwqyr1mNMNGK5d01WwOdTOD7JDq5c7a9WSUWpQPeKCd+zYIXwP35ukLJJicXco8UdA8Rzkrl +YrhJBZ1V0FtfohY8L0Z2f4WYfPpEVKv1gDvx+ynG+CrAd5LP6pQO1ewykShdo9TbfOatWlJDxvY TusPslCywwWhDprvY6xwZDOibYmwiy328IL5SfOcsAH+FQEtEaeAfbHGRCFt4eTkQvrYgDYHpaQg QG9sN0p21o7mHFEq2krFEcDWAG9jFtaQaMkN4szRuwg2s6YVzkLJHoWT3DPiXlfN8I+WV8KxrUOT ugMZcQBwM9UeoQhzCf2xXKztHk9tj7NRskOWgQ1oM7qge49SyU6jZGfV9DNCRzLn85EHAKXy+/Es EcXTKtvLmlY4uSonqiQu6B6DJnUHFoTWPDHXajytaCYZ5/LcLXRvrLFrKsWn7XFq/iLIvAkt36id pcexnR9rfi+TimaLeLpW2WzsS8az4dR9nGOgx0laQg5/x7gcQMUrYak9VbSEs1CyMxVHADa1aLbI 3mqtaHI9wik1alXINMRGJiZlQXcyC7QW2IWSnam4zXABZhVtlYq2suYF5rtPQPLFBrarFPugeUC+ UbJD1sveAH+m7kQfCdlWSuY2EYtSZIVmqLZRtEXmjQ1oEyMpSGtR2CjZIevkCJ26tbGoFG2Viray 5efnv+VqGkVbk+Kc+4z5pLYfjDEfUnfiHBkUdCckN+6mPnYyBCm+30An9F0C+I+Cnaz5GStZITxD e6MAGU9IgkCjWNCd5M+akgiPmMfe/R46XvFcHJBRaGfVkhUzoqC7ZsEDkj9rOo6yzyWL9hkqJTuF kp2soXASTXI5u0lILsxibEu2r8qCZg3l9yicRJOQUE+tWNCdkJxoMjx+cok6dQfmAoWTqDCioHul 2xMyA8rUHZiIuW1BaO09l0p2soXCSbSwAW2OxpjszrYRosTchLNO3YG58ALr2qgnEZCC7kwKIuQx c8sebpTsFEp2suUF6J6T8WwRdnZzFokTJFtyFqbjTLJp71E8a1oo2ckWhmqJBiFJQYcIBd3JPNCq 6JRztCxnUb9Ek7oDc4DCSUYhZzdDDj1Xyl2JSZm6AwtjFYfkZ0qTugNzQFU4NW9aIbMhtNpIpdmJ M8x11U+uI2ePkyyYF8aYb4r2eNPK+rABbaoprqDT3GNa0+32E1Ao2eHCiCRBO1RbKNsjGeOce4Ow xdIcs2kZXtSjSN0BcpY6dQfmQHs7SgOdwaxhY3KMMa+neI4UCaineNZE2IA2Uxd0P0BH9AoAmtGZ VaJ8XyM9TpKE1uNslOxxVb4SRhR0r5S78hxa+2CFkp21o7mdwz1OkgQKJwkltKB7pdmJK2iU7HBs 61BqGTKMAJBEaAtnoWSH5E9INu0+QUH3RslOoWRn7RRKduhtkmS0wllrGZR9PLJg5NhREdA0RVKQ 1j4YPU4dtN5H7m+SZGh7nAAPi6+BEG8zVUH3RsvQGu4ZnAAKJ5k9LwBAwmdaoQ+uzBfMiILulXJX rkL5PkSO7REoLzwaRVuEDKJ7jpPF3sk1hBZ0r5T7MQSO7TwoFW3R4yTJ6ApnrWRzw33ORWMD2qQu 6E7hzINSyxAzaklKYnicQPhRBZIxcnazDGia+vowrbG9UT7AvzZKJTu1kh1CgojhcQIUzqUSWtA9 dYm9WtEWx3YADnijaI5hWpKUe+GUottaA7LgTSmLJCgpaIqC7peQBCGt5DcKZxiloq1a0RYhg+kX ea8VbVtFWyQxUtC9CGha6fYkmFrJzo0DflGytSbUFhwGmLLWMSFP6AunZkjNKtoi6bEBbRrla+vG UCvaotc5ANkXLpTM1Up2CAnmkXDKJKcV0to4594p2SIJmdvZzTPUirZC93rXilW0lXq/nJCT93Fq DkxOMMvABrarFPswCtnnbJTMFcyuHYRVtEXhJMmJLZw3PNO5COZS0P05uCicGAe8g95VYgcD5Dam yAp5IpxyybDmzQM7RVtkYkYUdK90e6JCpWjLOuClor2lYhVtVYq2CAnmlMcJ6A7Qkl7nrAkt6J5d 5qNyuBag13kRCWeXiiYZpiVZcE44tSu9pK4cQ8KZe1JQH9VwLb3Oi2guLGqGaUkunBRO2ZuqFZ9z wwzb+SG/s5D9qZwXSpp924Be50nkrKtVNFkp2iJkFOc8TkB/oN7JsQYyH2xAm0OGSUH3iNdSK5qk 13manaKtowFS3OVKyEnOCqdcOtwoPmsDrhpnw4wLul9DpWiLXmcP2du0iibnMKbIirjkcQL6GbFb Kd1G8scGtDliBgkc4r00iiZ3LMP3CG2hq5TtETKKi8IpXqfm0RQAqMSbIXljA9rsUxd0H0CVub1Z Iuc2S0WTFZOCSG4853EC+l7nBsCe+535soCC7tdwB91FYal8ddbskL1ebW9zp2yPkNE8K5zGmP9A N6wFADfgvkXOhBxByamg+7MY4AcihBRXnihUQa9KEEBvk2TKNR4nECf5wTrnvkSwS0YgkQAb0HSO CyFtr3ODGezxxkBCtNq3xuyU7RGiwlXCKVVg6gjPt865PyLYJeHYwHaVYh8mQbzOnbLZ0gEflW1m jWTRqodo6W2SXLnW4wTipdzfUTyzwga0mVNS0CMMEGMrYreW/U4JTVfQDdE2mGcEg6yEq4XTGPMd 8UIndwzbpkcKut8ENK2UuzI1NoLNaiVXj+0RNmYucSvRAEKyZIjHCWPMJwCHSH2xzrkvzLZNSkhU ocmxoPsQDPAN+nuTGwD1ksXTAV+ge/QE8DVpZz2eyPIZJJyChf7Zzq7tmuc8kxGS3LGUZBgL/XHd iufixrOIplU2e4xgkxB1BgunhGxjlhi7AXBghaFpWWhB96uR0KCNYHoD4LAkzzOSaAI+RMuEIJI9 IR5nW1Go0u3KI9oiCX8xdDsZNqBNnXNB96FIiDCGB72IsK0DXkYUzYqF3MlcCBJO4Rbx9jtbtgAa Zt3GZURB90q3J1lgoZ9lCzyI5yyv15Nwc404onkAC+WTGREsnHL8oEScSabLBj7r9h/n3KvIz1or NqDNLAq6D0VCtlvE2cffwGfbfplThSE5WnOAfvYsIPuazKIlc2KMx9mKZ6xJps8NfOLQ39z/VMcG tJnt2c3nMEDsfXwLv++Z9UJQQrOf4RdImuc0u1h5vwmZDaOEE7hPFioxjXhCnrV3zv3XOfcH90DH IV58EdB0EUlB55D9tl3ERxTwodssvU8JKTeIvIDg0RMyR0YLJ5BEPAE/8dwBOMr5z6y9UMla3aXu xwlsQJuD/M4XjQE+If4+rgXQOOBjDgLqgFcO+Bv61YD63DEZiMyVn7UMGWO+O+dK+ASCmH9wp7Dw BRQAH1aq4TM+k03unYSbEj6cPfV78iwjCrpXuj3JFwO8d/5DG/ExG/hF1a3zi8HJbwURD/MWcfYx +1QG+DDBcwiJgppwAvfiWcAL1xR/gKfYygvOuSN8UkMt/zYxxFTCnRv4n7l9FdrPiUDobRaVZidy ZyLxBB4EdOf8AnAPYB8rcUaSftq/l6kWdpUB3k/0LEKioCqcgE8YEs+zgv41Q0PZ4MHrAwCIV9rg IRv4gOtDzK04tpRnvm8uhOxfVUtNCrrEhOLZ8rAAlAiKvA6hQirJSDd4+JuYOgpyR0+TLAF14QTu s23fOuc+Is99vQIPHmGZrBcJGVHQfXFHUK4lgXi2lOgu/vxCr13wXTpLXfReKbHc0yRLIYpwthhj PjnnasRNZydh2IA2sy/oPhYRzwZpF4RtJAVIH9V5jvac5qrHDVkWKlm1lzDGfINf7a7WU8kUG9Cm Uu7DLJFsW4tps8jnyAFASdEkSyO6cAI+dGuMeYvpiiWQC4wo6F4pd2W2SNixRPyyk3OlghfNxR9b IutjEuFskTBfgYUfnp8BIeG9RRV010BEoQTHc5cjgK0B3rOMHlkqkwoncO99foCU0Jv6+WtHzpeG CGel3JVFYIAfkilaIn7d5tzZAygYmiVLZ3LhbDHGfDfGvIafcOpU/Zghzcj2NqDNUa6SI2cwwDf4 xeAavc8GPiz7ll4mWQPJhLPFGPOtI6BMIDpNAz8hF8aYsYfHbUAb/l6uoON9FljHYvAIf/n0r7Jw IGQVRD2OMgTJvv0mocRb+Al+zUdYDmgrxyhVO2JB92mQcnmvpeDADss7K3yEHxN39DDJGslGOFsk AeUDgA9SuN0i/7NqGhzhvZQ94iXi2IA2qyjoHgPxwloBvcX8x3EDvxCIVgaQkDmQnXB2kSzcr1KM fIuMC6YH0OChjm70gvSd93Ao9DZHIgL6zQFtNGWL9JV8hlDB15hlOJYQZC6cLVLC7095vZdycSXS 1dwcSr/Y/CHB0Y7QBQf3N5WQEK6PpqQpsD6E6EXmCZkrP6XugAayL9q/mSTF7Szd+qENHkQy+cTj nPsHw9+TSiEZiTyDhHLbiEqqW4Xuox8A6jWLpVyxVow008yxNq+MxXKkmVn+7ENYhHCeQwS1wONb Tfo3nAyhW1S7+3EW4ngOeR+agKalJG2RiZDLrNsbTGItArsLuxojblwhZI0sWjiJxzn3GcOvEGuM Mb/G6A8ZjuyPFji98Ct7n9e9z9tISDP1BdmELJFZ7HGS0diANpVyH8gIRPBa0etX5vk0cXcIWTXJ CyCQuMiRHhZ0J4QQJSicy8cGtNmzoDshhJyGwrlgRhR05xEUQgg5A4Vz2YSIJgu6E0LIBZgctGxq DD+TxYvGCSHkAv8Pw6vIPBTO7fIAAAAASUVORK5CYII= "
       height="25.376238"
       width="81.984772" />
  </g>
</svg>
