<?xml version="1.0" encoding="UTF-8" standalone="no"?>
<!-- Created with Inkscape (http://www.inkscape.org/) -->

<svg
   xmlns:dc="http://purl.org/dc/elements/1.1/"
   xmlns:cc="http://creativecommons.org/ns#"
   xmlns:rdf="http://www.w3.org/1999/02/22-rdf-syntax-ns#"
   xmlns:svg="http://www.w3.org/2000/svg"
   xmlns="http://www.w3.org/2000/svg"
   xmlns:xlink="http://www.w3.org/1999/xlink"
   xmlns:sodipodi="http://sodipodi.sourceforge.net/DTD/sodipodi-0.dtd"
   xmlns:inkscape="http://www.inkscape.org/namespaces/inkscape"
   width="32"
   height="30"
   id="svg2"
   version="1.1"
   inkscape:version="0.48.0 r9654"
   sodipodi:docname="g_left_bar_pin.svg"
   inkscape:export-filename="C:\Users\emo.GIRITECH\Documents\Shared Graphics\iPad\Icons and Buttons\Left bar\Version 2\g_left_bar_pin.png"
   inkscape:export-xdpi="90"
   inkscape:export-ydpi="90">
  <defs
     id="defs4" />
  <sodipodi:namedview
     id="base"
     pagecolor="#ffffff"
     bordercolor="#666666"
     borderopacity="1.0"
     inkscape:pageopacity="0.0"
     inkscape:pageshadow="2"
     inkscape:zoom="8"
     inkscape:cx="-0.25221"
     inkscape:cy="0.37347589"
     inkscape:document-units="px"
     inkscape:current-layer="layer2"
     showgrid="false"
     inkscape:showpageshadow="false"
     borderlayer="true"
     inkscape:window-width="1680"
     inkscape:window-height="970"
     inkscape:window-x="-8"
     inkscape:window-y="-8"
     inkscape:window-maximized="1"
     showborder="true" />
  <metadata
     id="metadata7">
    <rdf:RDF>
      <cc:Work
         rdf:about="">
        <dc:format>image/svg+xml</dc:format>
        <dc:type
           rdf:resource="http://purl.org/dc/dcmitype/StillImage" />
        <dc:title></dc:title>
      </cc:Work>
    </rdf:RDF>
  </metadata>
  <g
     inkscape:label="Layer 1"
     inkscape:groupmode="layer"
     id="layer1"
     transform="translate(0,-1022.3622)"
     sodipodi:insensitive="true"
     style="display:none">
    <image
       y="984.48407"
       x="-54.994007"
       id="image2993"
       xlink:href="data:image/png;base64,iVBORw0KGgoAAAANSUhEUgAAAGcAAABPCAIAAAB53Ez1AAAAA3NCSVQICAjb4U/gAAAIMklEQVR4 nO2bzU8TWxvAT6dfwzAXW6VBa1q/wGDgAgYkaoIfcYEsMAaXbkzUP8AlKxeGGBcmsnKlC5ImGKKu TINiYopIUhFBeO2L9AolONVMX3k7nbbT6cyZuxjpLbf0zEeLDWR+q36cec7Dj2fOOXNmagoGg4Ig QAhDoRDHcadOnXr3HxoYIMEqncC2xLCmB8OaHgxrejCs6cGwpgfDmh4Ma3owrOnBsKYHw5oeDGt6 MKzpwbCmB8OaHgxrejCs6cGwpgfDmh4Ma3owrOnBkv+moaGhvb2dhlSlstkuGLWmB8OaHgxrejCs 6cGwpgdL4UcXT7h/fx7bi39bGx0drUge24sN1oaHhyuVx/Zig7VYLFapPLYXG6xJklSpPLYXG6yJ olipPLYXhjU9GNb0sMEahLBSeWwvjFrTwwZrgiAUa8fzfCqV4nneZDKVpWNJkmw2G0EQNptN5SE8 tHAmp4ARpecgSZIFpnBpzYYV/ZMRqKq1dDptNpvb2trcbncZrVEUFQqFWJatqqpSbM8BEvvDe8C9 3+l0lsXa2toaRX1LJlZwwGo9XLnWstlsTU1NZ2cnSZLq60INBEHs3bs3GAwyDGO1WhEts8BO7D16 5MgRHMctlk2unXVgt9sdDsdff+Gp77NWkNF0rHKtYRjW0tJCkiQAgOf5UhIthCTJlpaWd+/eoYdU c43b6/XiOA6Qw4hWcBz3er2LCVpkwpoOVK41l8tFkqR6XxBCmqbr6upUtidJ0ul00jTqBzW7drlw HC+jrxw4jhO7XPGf/9V0lLI1kiQ1pSsIQjgc/vr1a2trq8qziSTJaDSKaIBXVW/d/I5XVf9P4/9D eb1mNpuz2az6iFar1efzDQ4O+v3+9vZ2h8OheIjZbEYvFTEM2zprGIZpXagq15ogCJmM8mDJcVwk EqEoKplM3r179/79+6dPnx4YGKitrfV6vRiG2jQWBAFdzqIoov9zoVDowIEDBEEo5rlpcK3nvvJs IAiCYq2trq5Go9HOzs4bN24cO3ZMnhCvXLnS1NTU39//5cuXw4cPI5YLgiCgSwlCiG5w+fLlFy9e 4DheW1uLno51BC+kDNa+ffvmcDgGBwcvXLjwr68aGxufP3/+4MGDqakpRARFa6IoohucOXOmubn5 6dOnoVCIJEmXy4Wubk3BC1Ee19BnRzqd3rdv37179zwez8+fP+fm5iiK6uvrs9vtcoPx8fFYLCYI AmLzThRF9MgCIVQ8iXbv3n3z5s2lpaVXr17Nzs7u37+/uroafUguePnHtWw2i1h2MAxz69Ytj8ez uLj47Nmzjx8/chzX19cHAFheXh4ZGZmenuY4Dp1ENptVHNdUlsOhQ4euXbsWCoVGRkZisVhtba28 ykMHL2lc27Qc0EHPnj17/vx5mqaHh4eDwSAAwGazxWKx9+/fP3nyhGVVXayIoojeRtY09NhsttbW 1qNHj46NjY2Pj/M8X1dXh1gDQQi1bmIrj2toa+fOnQMATE5Oyr8El5MYGBhYWlqSG0iSJNe/2Wwu FkSxlHQM2FVVVb29vSdPnpycnBwbGyMIotgaqNTZoNi4hrB2/PhxAMCnT5/yT8PFxcXca4qiIpGI xWI5ceJEsSBqxjV9e38ul+vSpUstLS0TExORSKRcwTdYi8fjhS0YhkEEldcTiUSCpunCtYUkSRcv Xrx9+zbDML29vcWCsCy7adc50ul0KXeCrFar2WxOJBKbfstxHLr3QlRNz6biLCwsAAAaGxs5jiv8 luO45ubmmpqaaDSKCKIpY02sra0FAoHHjx/Pzs6WMWypz3lMTEwAALq7u5uamuLxeK4qIYTxeLyp qam7uxsA8Pbt2xI70grP8xMTE48ePfL7/alUqrzBla+u0eUwOjra1dXV0dHR399/586dqakpeXkJ IZQ/dLvdU1NTo6OjiCCK5aapJAVBiEQiL1++XF1dlSRJTXCVkXOUusNH07TP5/N4PB0dHQ8fPvT7 /TMzMwCAtra2np4et9v948cPn8+H3ggqI9FoNBgMTk9Pa9px0EoZ9kUDgYDJZLp69Wp7e/v169fz v/rw4YPP5wsEAqX3ogjLsm/evJmbmys26peRUs9QmUAgEAqFenp6urq66uvrAQDhcHh8fNzv9286 txZ2oSYNxLefP39+/fr19+/fVUYrkfLswQMAaJoeGhoaGhoqV0BN+Hy+39md8aykHpStmUymLX3W SNU0BzRfKmroHWi+6sAUhy2LxbKl9+RFUVS8vYBJ/BY9TQEhxCTNN97+qbVi7iCEZb+hlw/PKxuB yaggbMlKQhCyMIm60bMpymfoysoKQRCpVAq9s6gVSZIEQUilUgRBrKysoBtHwvO4lMhkMop7Sup7 F0Uxk8ngUiISntd6uPIcmkwmo9HowYMHWZZNJpPlEmcymex2u9PpXF5eTiaTCjmwiejSrLf+z3QW z0gWqeRJzASg1ST8YeZWwnNJVvP67pc19OhGURTLsl6vd8+ePeV6aIHneYZh5ufnGYZR055ajbAJ xnuofleNo/QceJ5PMP//vBRm4ms6DreovMST/0IdHZQRJr42P/O+sjnI/Cr1rd6x2WEorzwMCsF+ z+7gDgMD6ys1w5p6sJwyw5p6TDMzM/IDAwsLC+I6cJ3cW/kGXQ5JkuSFIgBAygOs31Td2T+TsYD1 QmtoaMj3IssqVCbLkqXk9OVbk9nh1nJTAYZhue2H/A8BABDC3FsIodxSkqTci8Ja29n8Yy03tMlq 8j0W6pO3jza96paD7Gx3v87QnKB8ZXJZye3yX4N1Kfm1BjaOaDvb2t/DrO42lpDbggAAAABJRU5E rkJggg== "
       height="79"
       width="103" />
  </g>
  <g
     inkscape:groupmode="layer"
     id="layer2"
     inkscape:label="Tegning">
    <g
       style="display:inline"
       transform="matrix(0.70710678,-0.70710678,0.70710678,0.70710678,-296.74758,-254.43512)"
       id="g4875">
      <path
         inkscape:connector-curvature="0"
         style="fill:#e0e0e0;fill-opacity:1;stroke:none"
         d="m 30.84375,408.28125 c 0.317931,0.93371 0.53125,2.0308 0.53125,3.375 -1e-6,1.34792 -0.211822,2.47101 -0.53125,3.40625 l 7.375,-1.15625 0,-4.5 -7.375,-1.125 z"
         id="path4877" />
      <path
         style="fill:#e0e0e0;fill-opacity:1;stroke:none"
         d="m 27.530329,417.7003 0,-12.06994 c 0,0 3.094743,1.37189 3.094741,6.03498 -3e-6,4.66308 -3.094741,6.03496 -3.094741,6.03496 z"
         id="path4879"
         inkscape:connector-curvature="0"
         sodipodi:nodetypes="cczc" />
      <path
         style="fill:#e0e0e0;fill-opacity:1;stroke:none"
         d="m 26.792872,410.51258 0,2.3055 -10.30692,-1.15275 z"
         id="path4881"
         inkscape:connector-curvature="0"
         sodipodi:nodetypes="cccc" />
      <rect
         style="fill:#e0e0e0;fill-opacity:1;stroke:none"
         id="rect4883"
         width="1.8188088"
         height="8.0547237"
         x="38.920944"
         y="407.63797" />
    </g>
  </g>
</svg>
