<?xml version="1.0" encoding="UTF-8" standalone="no"?>
<!-- Created with Inkscape (http://www.inkscape.org/) -->

<svg
   xmlns:dc="http://purl.org/dc/elements/1.1/"
   xmlns:cc="http://creativecommons.org/ns#"
   xmlns:rdf="http://www.w3.org/1999/02/22-rdf-syntax-ns#"
   xmlns:svg="http://www.w3.org/2000/svg"
   xmlns="http://www.w3.org/2000/svg"
   xmlns:xlink="http://www.w3.org/1999/xlink"
   xmlns:sodipodi="http://sodipodi.sourceforge.net/DTD/sodipodi-0.dtd"
   xmlns:inkscape="http://www.inkscape.org/namespaces/inkscape"
   width="32"
   height="32"
   id="svg13093"
   version="1.1"
   inkscape:version="0.92.2 (5c3e80d, 2017-08-06)"
   sodipodi:docname="config.svg"
   inkscape:export-filename="C:\GOn\graphics\GOn version 5.8\Program icons\config.png"
   inkscape:export-xdpi="95.999397"
   inkscape:export-ydpi="95.999397"
   sodipodi:version="0.32"
   inkscape:output_extension="org.inkscape.output.svg.inkscape">
  <defs
     id="defs13095">
    <inkscape:perspective
       sodipodi:type="inkscape:persp3d"
       inkscape:vp_x="0 : 16 : 1"
       inkscape:vp_y="0 : 1000 : 0"
       inkscape:vp_z="32 : 16 : 1"
       inkscape:persp3d-origin="16 : 10.666667 : 1"
       id="perspective37" />
    <linearGradient
       id="linearGradient3789-0">
      <stop
         id="stop3791-5"
         offset="0"
         style="stop-color:#440008;stop-opacity:1;" />
      <stop
         id="stop3793-5"
         offset="1"
         style="stop-color:#880000;stop-opacity:1;" />
    </linearGradient>
    <linearGradient
       inkscape:collect="always"
       xlink:href="#linearGradient3789-0"
       id="linearGradient2999"
       gradientUnits="userSpaceOnUse"
       gradientTransform="matrix(0.22187678,0,0,0.22208472,0.012434,818.64368)"
       x1="34.479824"
       y1="980.94946"
       x2="34.479824"
       y2="1052.0378" />
    <linearGradient
       id="linearGradient3755">
      <stop
         style="stop-color:#440008;stop-opacity:1;"
         offset="0"
         id="stop3757" />
      <stop
         style="stop-color:#880000;stop-opacity:1;"
         offset="1"
         id="stop3759" />
    </linearGradient>
    <linearGradient
       inkscape:collect="always"
       xlink:href="#linearGradient3810"
       id="linearGradient11505"
       gradientUnits="userSpaceOnUse"
       x1="4.6965384"
       y1="56.000687"
       x2="4.6965384"
       y2="72.028633"
       gradientTransform="translate(236.24343,341.46016)" />
    <linearGradient
       id="linearGradient3810">
      <stop
         id="stop3812"
         offset="0"
         style="stop-color:#003807;stop-opacity:1;" />
      <stop
         id="stop3814"
         offset="1"
         style="stop-color:#00710e;stop-opacity:1;" />
    </linearGradient>
    <linearGradient
       inkscape:collect="always"
       xlink:href="#linearGradient3810"
       id="linearGradient3862"
       gradientUnits="userSpaceOnUse"
       gradientTransform="translate(0,980.35587)"
       x1="4.6965384"
       y1="56.000687"
       x2="4.6965384"
       y2="72.028633" />
    <linearGradient
       inkscape:collect="always"
       xlink:href="#linearGradient3789-0-1"
       id="linearGradient3041"
       gradientUnits="userSpaceOnUse"
       x1="1044.2717"
       y1="-4.1182613"
       x2="1052.2717"
       y2="-4.1182613" />
    <linearGradient
       id="linearGradient3789-0-1">
      <stop
         id="stop3791-5-7"
         offset="0"
         style="stop-color:#440008;stop-opacity:1;" />
      <stop
         id="stop3793-5-4"
         offset="1"
         style="stop-color:#880000;stop-opacity:1;" />
    </linearGradient>
    <linearGradient
       inkscape:collect="always"
       xlink:href="#linearGradient3789-0"
       id="linearGradient3016"
       gradientUnits="userSpaceOnUse"
       gradientTransform="matrix(0.22187678,0,0,0.22208472,0.012434,818.64368)"
       x1="34.479824"
       y1="980.94946"
       x2="34.479824"
       y2="1052.0378" />
    <linearGradient
       inkscape:collect="always"
       xlink:href="#linearGradient3789-0-1"
       id="linearGradient3018"
       gradientUnits="userSpaceOnUse"
       x1="1044.2717"
       y1="-4.1182613"
       x2="1052.2717"
       y2="-4.1182613" />
    <linearGradient
       inkscape:collect="always"
       xlink:href="#linearGradient3494"
       id="linearGradient3935"
       gradientUnits="userSpaceOnUse"
       x1="114.31247"
       y1="244.5849"
       x2="114.31247"
       y2="300.44788"
       gradientTransform="matrix(2.9993609,0,0,2.9993609,-351.76913,-735.07411)" />
    <linearGradient
       id="linearGradient3494">
      <stop
         style="stop-color:#ffffff;stop-opacity:0;"
         offset="0"
         id="stop3496" />
      <stop
         style="stop-color:#ffffff;stop-opacity:0.29508197;"
         offset="1"
         id="stop3498" />
    </linearGradient>
  </defs>
  <sodipodi:namedview
     id="base"
     pagecolor="#ffffff"
     bordercolor="#666666"
     borderopacity="1.0"
     inkscape:pageopacity="0.0"
     inkscape:pageshadow="2"
     inkscape:zoom="17.99541"
     inkscape:cx="-0.30218363"
     inkscape:cy="14.338776"
     inkscape:document-units="px"
     inkscape:current-layer="layer1"
     showgrid="false"
     inkscape:window-width="1680"
     inkscape:window-height="987"
     inkscape:window-x="1672"
     inkscape:window-y="23"
     inkscape:window-maximized="1"
     showborder="false"
     inkscape:showpageshadow="false" />
  <metadata
     id="metadata13098">
    <rdf:RDF>
      <cc:Work
         rdf:about="">
        <dc:format>image/svg+xml</dc:format>
        <dc:type
           rdf:resource="http://purl.org/dc/dcmitype/StillImage" />
        <dc:title></dc:title>
      </cc:Work>
    </rdf:RDF>
  </metadata>
  <g
     inkscape:label="Layer 1"
     inkscape:groupmode="layer"
     id="layer1"
     transform="translate(0,-1020.3622)"
     style="display:inline">
    <rect
       ry="5.6576934"
       y="1020.5812"
       x="0.21917807"
       height="31.561846"
       width="31.561441"
       id="rect2996-77"
       style="fill:#ffffff;fill-opacity:1;stroke:#ffffff;stroke-width:0.43835613;stroke-miterlimit:4;stroke-dasharray:none;stroke-dashoffset:0;stroke-opacity:0.16470588;display:inline" />
    <path
       style="fill:#b7193f;fill-opacity:1;stroke:none"
       d="m 21.134272,1023.967 c -0.648174,-0.2685 -1.317391,-0.465 -1.977819,-0.6249 -0.39176,1.0268 -1.464197,3.3263 -3.160618,3.3263 -1.773084,0 -2.815426,-2.3217 -3.174428,-3.2922 -1.331883,0.3349 -2.621428,0.8567 -3.7954495,1.5721 0.457538,1.0409 1.2962615,3.3826 0.1224172,4.5564 -1.26883,1.2688 -3.6846224,0.3351 -4.5982785,-0.09 -0.3494897,0.577 -0.6793393,1.1705 -0.9453426,1.8127 -0.2684907,0.6482 -0.4648858,1.3174 -0.6247693,1.9779 1.026663,0.3917 3.3262058,1.4641 3.3262005,3.1606 1.09e-5,1.773 -2.3217285,2.8154 -3.2921842,3.1743 0.3349105,1.332 0.8567157,2.6215 1.5720968,3.7956 1.0410021,-0.4576 3.3825747,-1.2964 4.5564128,-0.1225 1.2688298,1.2688 0.3350595,3.6846 -0.089436,4.5983 0.576897,0.3495 1.1704456,0.6793 1.8126536,0.9453 0.648173,0.2685 1.317391,0.465 1.977857,0.6248 0.391721,-1.0267 1.464158,-3.3262 3.160579,-3.3262 1.773085,0 2.815427,2.3217 3.174429,3.2922 1.331883,-0.3349 2.621428,-0.8567 3.795449,-1.5721 -0.4575,-1.041 -1.296261,-3.3826 -0.122417,-4.5564 1.268831,-1.2688 3.684622,-0.3351 4.598317,0.089 0.349451,-0.5769 0.679301,-1.1704 0.945304,-1.8126 0.268491,-0.6482 0.464925,-1.3175 0.624769,-1.9779 -1.026662,-0.3917 -3.326206,-1.4641 -3.3262,-3.1606 -1.1e-5,-1.773 2.321729,-2.8154 3.292222,-3.1744 -0.334948,-1.3319 -0.856754,-2.6214 -1.572134,-3.7955 -1.041004,0.4576 -3.382537,1.2963 -4.556414,0.1225 -1.26883,-1.2688 -0.33502,-3.6847 0.08948,-4.5984 -0.576935,-0.3494 -1.170484,-0.6792 -1.812692,-0.9452 z m -3.367384,7.973 c 2.324309,0.9628 3.42631,3.6232 2.463555,5.9475 -0.962793,2.3244 -3.623234,3.4264 -5.947543,2.4636 -2.32431,-0.9627 -3.42631,-3.6232 -2.463517,-5.9475 0.962755,-2.3243 3.623195,-3.4263 5.947505,-2.4636 z"
       id="path3040"
       inkscape:connector-curvature="0" />
  </g>
  <g
     inkscape:groupmode="layer"
     id="layer2"
     inkscape:label="Oplæg"
     style="display:none">
    <image
       transform="translate(0,-1020.3622)"
       style="display:inline"
       y="1021.3622"
       x="1"
       id="image3037"
       xlink:href="data:image/png;base64,iVBORw0KGgoAAAANSUhEUgAAACAAAAAgCAYAAABzenr0AAAABHNCSVQICAgIfAhkiAAABg1JREFU WIXFl22MnFUVx3/nPi/70m23UqzB+AHX1m0T34sftCYmJdUQqGLE2hBFIg1Eg7GkiLA19B0itopt Kon9IsGgQFRaNZpQoURjrCEGorHulpZNVbTs6+zOzM7Mc+85fnhmdmdnpy3sBzmTm0zuvf//+c+5 55x7B95kk8UCH/j92r0h2BaE0SiWPQPrT//m/yZg3x/WrhZsqOeKGFMojnlcLFcOrD899ka53GIE oHw87ohABREh7RI08MnFUF1SwJ6T/Zv3nVzz/gX+g34kjsDMMDVc5DDVda379p7s37r3ZP8tb1jA vufXrNx1ov+lJHVPqNiLu5/tf6h5PQQ+FcVglo8oBu/ZMOv4+TV9O0/0n0865Gicukd3neg/fjEB bXNg1zP9/+55S/R2lwpiMFMM1Mr2sov5tnquSbvljs6lMWZ1EjFKEwENNiBCIXgOLVsRRxILgjEz HahV7JFd1w5+9bICdp949+eTruinXT3RrAMENBhZJZ9IuwVphZpRrRgaoHNJnhtzXozimMdg5c4N gyPNsLhVgJqkpkpQh6jNcYiQdtZJNT//uufGBtIOmZ0y1TnSSFA1RGTBkS+Y2L1x8LFK0f6eVRVD 5oYxf4ihYiCCSZv1Jmy1pISMJ3deO3ih1d+CCAC4WNYXx8L53rfKUkRoOgkQI2RGZdrwQc0JkqRC 2h3hYjCbC70AmFEqhEKSSNtqaFsFuzcOToqz+6ulgKlBUFDDglEc9RTH/DNKWLf/uiHnnHVlNb2x MJqdKk0qYvX9QTE1ylMeF9mXd20crLbz1TYCAJrxPuumnogCGFOjGc65zftvOPPUrNhPnKkAx4Bj A79a/XBR9evdvXGeGgaCI2ThA8DP2/mZjdeOX6662YwPAstU+WjS6d6zpDeaDWml5KlV+OaDm4Ye akfUsHufXvXnnhXJh6Mox1m9DH3VMlM7heNUFMmj+68/89dZAfceW30gTtmedDhEDBc7nBPQnEKc UBjJiBLi/de/HC4l4L7jqz4dJfJ099J6p6qXowgEbeRPQJxc98CmM791ABrss109EXHiiOIIQTBt RFEIamjg9OWc14P6p5DNYRtVoQqCECeO7t4Yn9k2qOeABevON1o9420epUMwNeV1mKmqkdf9XK+A xmlLnV7Vrsi5ATX+Vi0pFizPYhPQuWFmKKx9PQKCyjWRAwvM48AMUUMzY6bsEeOFWQFRIp8pT4VD kxf8S5P/9VNTIxm1Gc2PIYAGIe0Qd/eTq26/rICq3RN3RrNYU6M2o0yPeCYu+POFMf+LWsm+5SLZ MReXFvvGU31pVrNXe9+WrphtQyYURmo+Stx7D3zu7D/a4e76Sd/2OJUDPcvjeviF4I3pcf/HJGXT d246N96KueiLaNuP+4aWrYxXN186GozpCR+Au6NYHjm4+WwVYPsTff0hY0+Uyuae5dE82uCN4rj/ 9cNfOHdDOz9tBWx7/F2bXMTxpcvzJ9f83UalZGSVgCqjQE+USGdHtyPtkLxvNOWeOGNqLCCODd/d cva5ywq46/G+bu/ttd4V8RJzeQdshUgD2XxJGG0rCARRozDmQxzL1d+7+dy/mlcX3AWhZge7lkRL QJAAEiQf2hhAADx5o9L69wCizO1r4EIuomdZFPmaHWz1t+AuCCYrxYHa/B+IGrUZI0ogStuEWoxQ yzuei3NUM94HMJPRVn8LIhBFemdpIsuzWPM2llWUyQu18eqMHyiO+2drpcbtqFj9pqwWleJ49tz0 WPaz6VGP+jq+XvuliawcxXrfZQUcumX4PyLuxsJIRvDKTNFTmvQvxKl7x+EvDT/oYtk4Mx0wDKl/ MKNcCCNHbhvecOS24Zsw+1hhNJvxVaVWUQqjWTlO3Lrvf3F4qtXfRcvwaz9654d8Zvc4YejI1uH7 m9e+8sOrX122Mr6qUaI+C5QLevQHW4dvb8Jf6TPbD9TiRHYcvvWVBc7hEu+Bw7e+8hdgS7s1M8aB qxqtXoNgyGst+FHgjovxN2xx/4ywF2vl+osDw9cMQf+5GKaLRuBSFiVyZ3nKp+UC6wFzjt+5WI4u hutNt/8B/rNGEAufiTEAAAAASUVORK5CYII= "
       height="30"
       width="30" />
    <g
       id="g2460">
      <path
         sodipodi:nodetypes="czcc"
         inkscape:connector-curvature="0"
         id="path2441"
         d="M 19.486327,1.8565826 C 19.486327,1.8565826 18.257843,5.8913178 16,5.8913178 C 13.686599,5.8913178 12.513674,1.937715 12.513674,1.937715 L 19.486327,1.8565826 z"
         inkscape:transform-center-y="0.7879659"
         inkscape:transform-center-x="-0.081788408"
         style="fill:#690004;fill-opacity:1;stroke:none;display:inline" />
      <path
         style="fill:#690004;fill-opacity:1;stroke:none;display:inline"
         inkscape:transform-center-x="-0.081788408"
         inkscape:transform-center-y="0.7879659"
         d="M 12.513471,30.143216 C 12.513471,30.143216 13.741955,26.108481 15.999798,26.108481 C 18.313199,26.108481 19.486124,30.062084 19.486124,30.062084 L 12.513471,30.143216 z"
         id="path2445"
         inkscape:connector-curvature="0"
         sodipodi:nodetypes="czcc" />
    </g>
  </g>
  <g
     inkscape:groupmode="layer"
     id="layer3"
     inkscape:label="Arbejdslag" />
</svg>
