<?xml version="1.0" encoding="UTF-8" standalone="no"?>
<!-- Created with Inkscape (http://www.inkscape.org/) -->

<svg
   xmlns:dc="http://purl.org/dc/elements/1.1/"
   xmlns:cc="http://creativecommons.org/ns#"
   xmlns:rdf="http://www.w3.org/1999/02/22-rdf-syntax-ns#"
   xmlns:svg="http://www.w3.org/2000/svg"
   xmlns="http://www.w3.org/2000/svg"
   xmlns:xlink="http://www.w3.org/1999/xlink"
   xmlns:sodipodi="http://sodipodi.sourceforge.net/DTD/sodipodi-0.dtd"
   xmlns:inkscape="http://www.inkscape.org/namespaces/inkscape"
   width="48"
   height="48"
   id="svg2"
   version="1.1"
   inkscape:version="0.48.0 r9654"
   inkscape:export-filename="C:\Users\emo.GIRITECH\Documents\Shared Graphics\iPad\Icons and Buttons\Apps\mail_portforward_iphone_48x48.png"
   inkscape:export-xdpi="90"
   inkscape:export-ydpi="90"
   sodipodi:docname="mail_portforward_iphone_48x48.svg"
   style="display:inline">
  <sodipodi:namedview
     id="base"
     pagecolor="#ffffff"
     bordercolor="#666666"
     borderopacity="1.0"
     inkscape:pageopacity="0.0"
     inkscape:pageshadow="2"
     inkscape:zoom="4"
     inkscape:cx="10.552521"
     inkscape:cy="22.233433"
     inkscape:document-units="px"
     inkscape:current-layer="g9750-2"
     showgrid="false"
     borderlayer="true"
     inkscape:showpageshadow="false"
     showborder="true"
     inkscape:window-width="1680"
     inkscape:window-height="970"
     inkscape:window-x="-8"
     inkscape:window-y="-8"
     inkscape:window-maximized="1" />
  <defs
     id="defs4">
    <linearGradient
       id="linearGradient4573">
      <stop
         style="stop-color:#440008;stop-opacity:1;"
         offset="0"
         id="stop4575" />
      <stop
         style="stop-color:#880000;stop-opacity:1;"
         offset="1"
         id="stop4577" />
    </linearGradient>
    <linearGradient
       inkscape:collect="always"
       id="linearGradient4561">
      <stop
         style="stop-color:#3d00c0;stop-opacity:1;"
         offset="0"
         id="stop4563" />
      <stop
         style="stop-color:#3d00c0;stop-opacity:0;"
         offset="1"
         id="stop4565" />
    </linearGradient>
    <linearGradient
       inkscape:collect="always"
       id="linearGradient4496">
      <stop
         style="stop-color:#000000;stop-opacity:1;"
         offset="0"
         id="stop4498" />
      <stop
         style="stop-color:#000000;stop-opacity:0;"
         offset="1"
         id="stop4500" />
    </linearGradient>
    <linearGradient
       id="linearGradient3816">
      <stop
         style="stop-color:#ffffff;stop-opacity:0.25882354;"
         offset="0"
         id="stop3818" />
      <stop
         style="stop-color:#ffffff;stop-opacity:0;"
         offset="1"
         id="stop3820" />
    </linearGradient>
    <linearGradient
       id="linearGradient3797">
      <stop
         style="stop-color:#ffffff;stop-opacity:1;"
         offset="0"
         id="stop3799" />
      <stop
         style="stop-color:#ffffff;stop-opacity:0.16470589;"
         offset="1"
         id="stop3801" />
    </linearGradient>
    <linearGradient
       id="linearGradient3789">
      <stop
         style="stop-color:#003399;stop-opacity:1;"
         offset="0"
         id="stop3791" />
      <stop
         style="stop-color:#6699ff;stop-opacity:1;"
         offset="1"
         id="stop3793" />
    </linearGradient>
    <linearGradient
       id="linearGradient3781">
      <stop
         style="stop-color:#440008;stop-opacity:1;"
         offset="0"
         id="stop3783" />
      <stop
         style="stop-color:#232723;stop-opacity:0;"
         offset="1"
         id="stop3785" />
    </linearGradient>
    <linearGradient
       inkscape:collect="always"
       xlink:href="#linearGradient3789"
       id="linearGradient3795"
       x1="34.479824"
       y1="980.94946"
       x2="34.479824"
       y2="1052.0378"
       gradientUnits="userSpaceOnUse" />
    <linearGradient
       inkscape:collect="always"
       xlink:href="#linearGradient3797"
       id="linearGradient3803"
       x1="35.989838"
       y1="51.432434"
       x2="35.989838"
       y2="108.26157"
       gradientUnits="userSpaceOnUse"
       gradientTransform="matrix(1.2057712,0,0,1,-7.3425861,-72)" />
    <linearGradient
       inkscape:collect="always"
       xlink:href="#linearGradient3816"
       id="linearGradient3822"
       x1="34.371315"
       y1="1052.3622"
       x2="34.371315"
       y2="981.34082"
       gradientUnits="userSpaceOnUse"
       gradientTransform="matrix(1,0,0,0.63512546,0,-596.51749)" />
    <clipPath
       clipPathUnits="userSpaceOnUse"
       id="clipPath3997">
      <rect
         ry="3.5977538"
         y="16.596304"
         x="9.3698635"
         height="38.807392"
         width="53.260277"
         id="rect3999"
         style="fill:none;stroke:#ffffff;stroke-width:1.70720434;stroke-miterlimit:4;stroke-opacity:1;stroke-dasharray:none;stroke-dashoffset:0;display:inline"
         transform="matrix(0.70710678,0.70710678,-0.70710678,0.70710678,0,0)" />
    </clipPath>
    <clipPath
       clipPathUnits="userSpaceOnUse"
       id="clipPath4001">
      <rect
         ry="3.5977538"
         y="16.596304"
         x="9.3698635"
         height="38.807392"
         width="53.260277"
         id="rect4003"
         style="fill:none;stroke:#ffffff;stroke-width:1.70720434;stroke-miterlimit:4;stroke-opacity:1;stroke-dasharray:none;stroke-dashoffset:0;display:inline" />
    </clipPath>
    <filter
       id="filter3846"
       inkscape:label="Drop shadow"
       width="1.5"
       height="1.5"
       x="-0.25"
       y="-0.25"
       color-interpolation-filters="sRGB">
      <feGaussianBlur
         id="feGaussianBlur3848"
         in="SourceAlpha"
         stdDeviation="2"
         result="blur" />
      <feColorMatrix
         id="feColorMatrix3850"
         result="bluralpha"
         type="matrix"
         values="1 0 0 0 0 0 1 0 0 0 0 0 1 0 0 0 0 0 0.5 0 " />
      <feOffset
         id="feOffset3852"
         in="bluralpha"
         dx="2"
         dy="2"
         result="offsetBlur" />
      <feMerge
         id="feMerge3854">
        <feMergeNode
           id="feMergeNode3856"
           in="offsetBlur" />
        <feMergeNode
           id="feMergeNode3858"
           in="SourceGraphic" />
      </feMerge>
    </filter>
    <marker
       style="overflow:visible"
       id="DotS0LG"
       refX="0"
       refY="0"
       orient="auto"
       inkscape:stockid="DotS0LG">
      <path
         inkscape:connector-curvature="0"
         transform="matrix(0.2,0,0,0.2,1.48,0.2)"
         style="fill:#000000;fill-rule:evenodd;stroke:#000000;stroke-width:1pt;marker-start:none;marker-end:none"
         d="m -2.5,-1 c 0,2.76 -2.24,5 -5,5 -2.76,0 -5,-2.24 -5,-5 0,-2.76 2.24,-5 5,-5 2.76,0 5,2.24 5,5 z"
         id="path9447" />
    </marker>
    <marker
       style="overflow:visible"
       id="TriangleOutMBVCe"
       refX="0"
       refY="0"
       orient="auto"
       inkscape:stockid="TriangleOutMBVCe">
      <path
         inkscape:connector-curvature="0"
         transform="scale(0.4,0.4)"
         style="fill:#000000;fill-rule:evenodd;stroke:#000000;stroke-width:1pt;marker-start:none"
         d="m 5.77,0 -8.65,5 0,-10 8.65,5 z"
         id="path9450" />
    </marker>
    <marker
       style="overflow:visible"
       id="DotS0LG-1"
       refX="0"
       refY="0"
       orient="auto"
       inkscape:stockid="DotS0LG">
      <path
         inkscape:connector-curvature="0"
         transform="matrix(0.2,0,0,0.2,1.48,0.2)"
         style="fill:#000000;fill-rule:evenodd;stroke:#000000;stroke-width:1pt;marker-start:none;marker-end:none"
         d="m -2.5,-1 c 0,2.76 -2.24,5 -5,5 -2.76,0 -5,-2.24 -5,-5 0,-2.76 2.24,-5 5,-5 2.76,0 5,2.24 5,5 z"
         id="path9447-7" />
    </marker>
    <marker
       style="overflow:visible"
       id="TriangleOutMBVCe-4"
       refX="0"
       refY="0"
       orient="auto"
       inkscape:stockid="TriangleOutMBVCe">
      <path
         inkscape:connector-curvature="0"
         transform="scale(0.4,0.4)"
         style="fill:#000000;fill-rule:evenodd;stroke:#000000;stroke-width:1pt;marker-start:none"
         d="m 5.77,0 -8.65,5 0,-10 8.65,5 z"
         id="path9450-0" />
    </marker>
    <marker
       style="overflow:visible"
       id="DotS0LG-9"
       refX="0"
       refY="0"
       orient="auto"
       inkscape:stockid="DotS0LG">
      <path
         inkscape:connector-curvature="0"
         transform="matrix(0.2,0,0,0.2,1.48,0.2)"
         style="fill:#000000;fill-rule:evenodd;stroke:#000000;stroke-width:1pt;marker-start:none;marker-end:none"
         d="m -2.5,-1 c 0,2.76 -2.24,5 -5,5 -2.76,0 -5,-2.24 -5,-5 0,-2.76 2.24,-5 5,-5 2.76,0 5,2.24 5,5 z"
         id="path9447-4" />
    </marker>
    <marker
       style="overflow:visible"
       id="TriangleOutMBVCe-8"
       refX="0"
       refY="0"
       orient="auto"
       inkscape:stockid="TriangleOutMBVCe">
      <path
         inkscape:connector-curvature="0"
         transform="scale(0.4,0.4)"
         style="fill:#000000;fill-rule:evenodd;stroke:#000000;stroke-width:1pt;marker-start:none"
         d="m 5.77,0 -8.65,5 0,-10 8.65,5 z"
         id="path9450-8" />
    </marker>
    <marker
       inkscape:stockid="DotS0LGp"
       orient="auto"
       refY="0"
       refX="0"
       id="DotS0LGp"
       style="overflow:visible">
      <path
         inkscape:connector-curvature="0"
         id="path9932"
         d="m -2.5,-1 c 0,2.76 -2.24,5 -5,5 -2.76,0 -5,-2.24 -5,-5 0,-2.76 2.24,-5 5,-5 2.76,0 5,2.24 5,5 z"
         style="fill:#e0e0e0;fill-rule:evenodd;stroke:#e0e0e0;stroke-width:1pt;marker-start:none;marker-end:none"
         transform="matrix(0.2,0,0,0.2,1.48,0.2)" />
    </marker>
    <marker
       inkscape:stockid="TriangleOutMBVCe8"
       orient="auto"
       refY="0"
       refX="0"
       id="TriangleOutMBVCe8"
       style="overflow:visible">
      <path
         inkscape:connector-curvature="0"
         id="path9935"
         d="m 5.77,0 -8.65,5 0,-10 8.65,5 z"
         style="fill:#e0e0e0;fill-rule:evenodd;stroke:#e0e0e0;stroke-width:1pt;marker-start:none"
         transform="scale(0.4,0.4)" />
    </marker>
    <marker
       style="overflow:visible"
       id="DotS0LGL"
       refX="0"
       refY="0"
       orient="auto"
       inkscape:stockid="DotS0LGL">
      <path
         inkscape:connector-curvature="0"
         transform="matrix(0.2,0,0,0.2,1.48,0.2)"
         style="fill:#880000;fill-rule:evenodd;stroke:#880000;stroke-width:1pt;marker-start:none;marker-end:none"
         d="m -2.5,-1 c 0,2.76 -2.24,5 -5,5 -2.76,0 -5,-2.24 -5,-5 0,-2.76 2.24,-5 5,-5 2.76,0 5,2.24 5,5 z"
         id="path3993" />
    </marker>
    <marker
       style="overflow:visible"
       id="TriangleOutMBVCe8K"
       refX="0"
       refY="0"
       orient="auto"
       inkscape:stockid="TriangleOutMBVCe8K">
      <path
         inkscape:connector-curvature="0"
         transform="scale(0.4,0.4)"
         style="fill:#880000;fill-rule:evenodd;stroke:#880000;stroke-width:1pt;marker-start:none"
         d="m 5.77,0 -8.65,5 0,-10 8.65,5 z"
         id="path3996" />
    </marker>
    <marker
       inkscape:stockid="DotS0LGpt"
       orient="auto"
       refY="0"
       refX="0"
       id="DotS0LGpt"
       style="overflow:visible">
      <path
         id="path10357"
         d="m -2.5,-1 c 0,2.76 -2.24,5 -5,5 -2.76,0 -5,-2.24 -5,-5 0,-2.76 2.24,-5 5,-5 2.76,0 5,2.24 5,5 z"
         style="fill:#440008;fill-rule:evenodd;stroke:#440008;stroke-width:1pt;marker-start:none;marker-end:none"
         transform="matrix(0.2,0,0,0.2,1.48,0.2)"
         inkscape:connector-curvature="0" />
    </marker>
    <marker
       inkscape:stockid="TriangleOutMBVCe8q"
       orient="auto"
       refY="0"
       refX="0"
       id="TriangleOutMBVCe8q"
       style="overflow:visible">
      <path
         id="path10360"
         d="m 5.77,0 -8.65,5 0,-10 8.65,5 z"
         style="fill:#440008;fill-rule:evenodd;stroke:#440008;stroke-width:1pt;marker-start:none"
         transform="scale(0.4,0.4)"
         inkscape:connector-curvature="0" />
    </marker>
    <marker
       inkscape:stockid="DotS0LGptv"
       orient="auto"
       refY="0"
       refX="0"
       id="DotS0LGptv"
       style="overflow:visible">
      <path
         id="path4195"
         d="m -2.5,-1 c 0,2.76 -2.24,5 -5,5 -2.76,0 -5,-2.24 -5,-5 0,-2.76 2.24,-5 5,-5 2.76,0 5,2.24 5,5 z"
         style="fill:#880000;fill-rule:evenodd;stroke:#880000;stroke-width:1pt;marker-start:none;marker-end:none"
         transform="matrix(0.2,0,0,0.2,1.48,0.2)"
         inkscape:connector-curvature="0" />
    </marker>
    <marker
       inkscape:stockid="TriangleOutMBVCe8qZ"
       orient="auto"
       refY="0"
       refX="0"
       id="TriangleOutMBVCe8qZ"
       style="overflow:visible">
      <path
         id="path4198"
         d="m 5.77,0 -8.65,5 0,-10 8.65,5 z"
         style="fill:#880000;fill-rule:evenodd;stroke:#880000;stroke-width:1pt;marker-start:none"
         transform="scale(0.4,0.4)"
         inkscape:connector-curvature="0" />
    </marker>
    <marker
       inkscape:stockid="DotS0LGptv"
       orient="auto"
       refY="0"
       refX="0"
       id="DotS0LGptv-9"
       style="overflow:visible">
      <path
         id="path4195-9"
         d="m -2.5,-1 c 0,2.76 -2.24,5 -5,5 -2.76,0 -5,-2.24 -5,-5 0,-2.76 2.24,-5 5,-5 2.76,0 5,2.24 5,5 z"
         style="fill:#880000;fill-rule:evenodd;stroke:#880000;stroke-width:1pt;marker-start:none;marker-end:none"
         transform="matrix(0.2,0,0,0.2,1.48,0.2)"
         inkscape:connector-curvature="0" />
    </marker>
    <marker
       inkscape:stockid="TriangleOutMBVCe8qZ"
       orient="auto"
       refY="0"
       refX="0"
       id="TriangleOutMBVCe8qZ-3"
       style="overflow:visible">
      <path
         id="path4198-7"
         d="m 5.77,0 -8.65,5 0,-10 8.65,5 z"
         style="fill:#880000;fill-rule:evenodd;stroke:#880000;stroke-width:1pt;marker-start:none"
         transform="scale(0.4,0.4)"
         inkscape:connector-curvature="0" />
    </marker>
    <linearGradient
       inkscape:collect="always"
       xlink:href="#linearGradient4496"
       id="linearGradient4502"
       x1="312.99448"
       y1="75.544235"
       x2="343.37827"
       y2="75.544235"
       gradientUnits="userSpaceOnUse" />
    <linearGradient
       inkscape:collect="always"
       xlink:href="#linearGradient4496"
       id="linearGradient4504"
       gradientUnits="userSpaceOnUse"
       x1="312.99448"
       y1="75.544235"
       x2="343.37827"
       y2="75.544235" />
    <linearGradient
       inkscape:collect="always"
       xlink:href="#linearGradient4496"
       id="linearGradient4506"
       gradientUnits="userSpaceOnUse"
       x1="312.99448"
       y1="75.544235"
       x2="343.37827"
       y2="75.544235" />
    <linearGradient
       inkscape:collect="always"
       xlink:href="#linearGradient4496"
       id="linearGradient4508"
       gradientUnits="userSpaceOnUse"
       x1="312.99448"
       y1="75.544235"
       x2="343.37827"
       y2="75.544235" />
    <linearGradient
       inkscape:collect="always"
       xlink:href="#linearGradient4496"
       id="linearGradient4510"
       gradientUnits="userSpaceOnUse"
       x1="312.99448"
       y1="75.544235"
       x2="343.37827"
       y2="75.544235" />
    <linearGradient
       inkscape:collect="always"
       xlink:href="#linearGradient4496"
       id="linearGradient4512"
       gradientUnits="userSpaceOnUse"
       x1="312.99448"
       y1="75.544235"
       x2="343.37827"
       y2="75.544235" />
    <linearGradient
       inkscape:collect="always"
       xlink:href="#linearGradient4496"
       id="linearGradient4515"
       gradientUnits="userSpaceOnUse"
       x1="312.99448"
       y1="75.544235"
       x2="343.37827"
       y2="75.544235"
       gradientTransform="matrix(0.71422332,0,0,0.71422332,196.01611,66.616447)" />
    <linearGradient
       inkscape:collect="always"
       xlink:href="#linearGradient4496"
       id="linearGradient4521"
       gradientUnits="userSpaceOnUse"
       x1="312.99448"
       y1="75.544235"
       x2="343.37827"
       y2="75.544235" />
    <linearGradient
       inkscape:collect="always"
       xlink:href="#linearGradient4496"
       id="linearGradient4523"
       gradientUnits="userSpaceOnUse"
       x1="312.99448"
       y1="75.544235"
       x2="343.37827"
       y2="75.544235" />
    <linearGradient
       inkscape:collect="always"
       xlink:href="#linearGradient4496"
       id="linearGradient4525"
       gradientUnits="userSpaceOnUse"
       x1="312.99448"
       y1="75.544235"
       x2="343.37827"
       y2="75.544235" />
    <linearGradient
       inkscape:collect="always"
       xlink:href="#linearGradient4496"
       id="linearGradient4527"
       gradientUnits="userSpaceOnUse"
       x1="312.99448"
       y1="75.544235"
       x2="343.37827"
       y2="75.544235" />
    <linearGradient
       inkscape:collect="always"
       xlink:href="#linearGradient4496"
       id="linearGradient4530"
       gradientUnits="userSpaceOnUse"
       x1="312.99448"
       y1="75.544235"
       x2="343.37827"
       y2="75.544235" />
    <linearGradient
       inkscape:collect="always"
       xlink:href="#linearGradient4496"
       id="linearGradient4533"
       gradientUnits="userSpaceOnUse"
       x1="312.99448"
       y1="75.544235"
       x2="343.37827"
       y2="75.544235"
       gradientTransform="matrix(1.1166667,0,0,1.1166667,-21.149999,-1.9812508)" />
    <linearGradient
       inkscape:collect="always"
       xlink:href="#linearGradient4496"
       id="linearGradient4536"
       gradientUnits="userSpaceOnUse"
       gradientTransform="matrix(1.1166667,0,0,1.1166667,-21.149996,-1.9812509)"
       x1="312.99448"
       y1="75.544235"
       x2="343.37827"
       y2="75.544235" />
    <linearGradient
       inkscape:collect="always"
       xlink:href="#linearGradient4561"
       id="linearGradient4567"
       x1="319.9968"
       y1="75.544235"
       x2="343.37589"
       y2="75.544235"
       gradientUnits="userSpaceOnUse" />
    <linearGradient
       inkscape:collect="always"
       xlink:href="#linearGradient4573"
       id="linearGradient4579"
       x1="322.69742"
       y1="65.924934"
       x2="322.69742"
       y2="85.015373"
       gradientUnits="userSpaceOnUse" />
    <linearGradient
       inkscape:collect="always"
       xlink:href="#linearGradient4573"
       id="linearGradient4581"
       gradientUnits="userSpaceOnUse"
       x1="322.69742"
       y1="65.924934"
       x2="322.69742"
       y2="85.015373" />
    <linearGradient
       inkscape:collect="always"
       xlink:href="#linearGradient4573"
       id="linearGradient4583"
       gradientUnits="userSpaceOnUse"
       x1="322.69742"
       y1="65.924934"
       x2="322.69742"
       y2="85.015373" />
    <marker
       inkscape:stockid="TriangleOutMV"
       orient="auto"
       refY="0"
       refX="0"
       id="TriangleOutMV"
       style="overflow:visible">
      <path
         inkscape:connector-curvature="0"
         id="path13183"
         d="m 5.77,0 -8.65,5 0,-10 8.65,5 z"
         style="fill:#440008;fill-rule:evenodd;stroke:#440008;stroke-width:1pt;marker-start:none"
         transform="scale(0.4,0.4)" />
    </marker>
    <linearGradient
       inkscape:collect="always"
       xlink:href="#linearGradient3789"
       id="linearGradient3125"
       gradientUnits="userSpaceOnUse"
       x1="34.479824"
       y1="980.94946"
       x2="34.479824"
       y2="1052.0378" />
    <linearGradient
       inkscape:collect="always"
       xlink:href="#linearGradient3816"
       id="linearGradient3127"
       gradientUnits="userSpaceOnUse"
       gradientTransform="matrix(1,0,0,0.63512546,0,-596.51749)"
       x1="34.371315"
       y1="1052.3622"
       x2="34.371315"
       y2="981.34082" />
    <linearGradient
       inkscape:collect="always"
       xlink:href="#linearGradient3797"
       id="linearGradient3129"
       gradientUnits="userSpaceOnUse"
       gradientTransform="matrix(1.2057712,0,0,1,-7.3425861,-72)"
       x1="35.989838"
       y1="51.432434"
       x2="35.989838"
       y2="108.26157" />
    <linearGradient
       inkscape:collect="always"
       xlink:href="#linearGradient3797"
       id="linearGradient3096"
       gradientUnits="userSpaceOnUse"
       gradientTransform="matrix(0.53714929,0,0,0.44581974,198.63946,46.561274)"
       x1="35.989838"
       y1="51.432434"
       x2="35.989838"
       y2="108.26157" />
    <linearGradient
       inkscape:collect="always"
       xlink:href="#linearGradient3816"
       id="linearGradient3099"
       gradientUnits="userSpaceOnUse"
       gradientTransform="matrix(0.44548194,0,0,0.28315147,201.91045,-187.27898)"
       x1="34.371315"
       y1="1052.3622"
       x2="34.371315"
       y2="981.34082" />
    <linearGradient
       inkscape:collect="always"
       xlink:href="#linearGradient3789"
       id="linearGradient3102"
       gradientUnits="userSpaceOnUse"
       x1="34.479824"
       y1="980.94946"
       x2="34.479824"
       y2="1052.0378"
       gradientTransform="matrix(0.44548194,0,0,0.44581974,201.91045,-358.40452)" />
    <filter
       id="filter3104"
       inkscape:label="Drop shadow"
       width="1.5"
       height="1.5"
       x="-.25"
       y="-.25">
      <feGaussianBlur
         id="feGaussianBlur3106"
         in="SourceAlpha"
         stdDeviation="1.33"
         result="blur" />
      <feColorMatrix
         id="feColorMatrix3108"
         result="bluralpha"
         type="matrix"
         values="1 0 0 0 0 0 1 0 0 0 0 0 1 0 0 0 0 0 0.4 0 " />
      <feOffset
         id="feOffset3110"
         in="bluralpha"
         dx="1.33"
         dy="1.3"
         result="offsetBlur" />
      <feMerge
         id="feMerge3112">
        <feMergeNode
           id="feMergeNode3114"
           in="offsetBlur" />
        <feMergeNode
           id="feMergeNode3116"
           in="SourceGraphic" />
      </feMerge>
    </filter>
  </defs>
  <metadata
     id="metadata7">
    <rdf:RDF>
      <cc:Work
         rdf:about="">
        <dc:format>image/svg+xml</dc:format>
        <dc:type
           rdf:resource="http://purl.org/dc/dcmitype/StillImage" />
        <dc:title></dc:title>
      </cc:Work>
    </rdf:RDF>
  </metadata>
  <g
     inkscape:label="Layer 1"
     inkscape:groupmode="layer"
     id="layer1"
     transform="translate(0,-1004.3622)"
     style="display:inline" />
  <g
     inkscape:groupmode="layer"
     id="layer4"
     inkscape:label="Glass effect lower"
     style="display:inline"
     transform="translate(0,-24)" />
  <g
     inkscape:groupmode="layer"
     id="layer2"
     inkscape:label="Glass effect upper"
     style="display:inline"
     transform="translate(0,-24)" />
  <g
     inkscape:groupmode="layer"
     id="layer3"
     inkscape:label="pictogram"
     style="display:inline"
     transform="translate(0,-24)" />
  <g
     inkscape:groupmode="layer"
     id="layer5"
     inkscape:label="Portforward"
     transform="translate(0,-24)">
    <g
       style="display:inline"
       id="g9750-2"
       transform="matrix(1.4943914,0,0,1.4943914,-301.70045,-93.51766)">
      <rect
         style="fill:url(#linearGradient3102);fill-opacity:1;stroke:#ffffff;stroke-width:0.43954599;stroke-miterlimit:4;stroke-opacity:0.16470588;stroke-dasharray:none;stroke-dashoffset:0;display:inline"
         id="rect2996"
         width="31.635323"
         height="31.659309"
         x="202.13014"
         y="78.880157"
         ry="5.6751647" />
      <path
         style="fill:url(#linearGradient3099);fill-opacity:1;stroke:none;display:inline"
         d="m 204.17962,90.418791 c -1.00727,0 -1.8343,0.701883 -2.04643,1.64396 l 0,12.803389 c 0,3.14404 2.52432,5.67027 5.66597,5.67027 l 20.29728,0 c 3.14165,0 5.66597,-2.52623 5.66597,-5.67027 l 0,-12.803389 c -0.21213,-0.942077 -1.03916,-1.64396 -2.04643,-1.64396 l -27.53636,0 z"
         id="rect3812"
         inkscape:connector-curvature="0" />
      <path
         style="fill:url(#linearGradient3096);fill-opacity:1;stroke:#ffffff;stroke-width:0.48935851;stroke-opacity:0.07051284;display:inline"
         d="m 207.79916,78.883205 c -3.14165,0 -5.66597,2.526228 -5.66597,5.67027 l 0,7.397821 c 4.32949,1.735708 9.82612,2.786373 15.81461,2.786373 5.98849,0 11.48512,-1.050665 15.81461,-2.786373 l 0,-7.397821 c 0,-3.144042 -2.52432,-5.67027 -5.66597,-5.67027 l -20.29728,0 z"
         id="path3779"
         inkscape:connector-curvature="0" />
      <rect
         ry="3.2050393"
         y="18.714323"
         x="12.276687"
         height="34.571354"
         width="47.446629"
         id="rect3840-4"
         style="fill:#ffffff;fill-opacity:0.8;stroke:#404040;stroke-width:1.52085364;stroke-miterlimit:4;stroke-opacity:1;stroke-dasharray:none;stroke-dashoffset:0;display:inline;filter:url(#filter3846)"
         transform="matrix(0.44548194,0,0,0.44581974,201.91045,78.660295)" />
      <path
         inkscape:connector-curvature="0"
         style="fill:none;stroke:#404040;stroke-width:1.12253034;stroke-miterlimit:4;stroke-opacity:1;stroke-dasharray:none;stroke-dashoffset:0;display:inline"
         d="M 26.625,36 -2.9375,65.53125 c -2.6975772,2.697577 -2.6975772,7.052423 0,9.75 l 34.0625,34.0625 c 2.697577,2.69758 7.052423,2.69758 9.75,0 l 34.0625,-34.0625 c 2.697577,-2.697577 2.697577,-7.052423 0,-9.75 L 45.375,36 l -4.5,4.5 c -2.697577,2.697577 -7.052423,2.697577 -9.75,0 l -4.5,-4.5 z"
         id="rect3911-5"
         clip-path="url(#clipPath4001)"
         transform="matrix(0.39685517,0,0,0.39715609,203.66101,80.412187)" />
      <rect
         style="fill:none;stroke:#404040;stroke-width:1.12253034;stroke-miterlimit:4;stroke-opacity:1;stroke-dasharray:none;stroke-dashoffset:0;display:inline"
         id="rect3911"
         width="61.946373"
         height="61.946373"
         x="-6.6337185"
         y="-4.4009666"
         ry="6.8861918"
         transform="matrix(0.28061897,-0.28083176,0.28061897,0.28083176,203.66101,80.412187)"
         clip-path="url(#clipPath3997)" />
      <g
         transform="matrix(0.44548194,0,0,0.44581974,201.91045,78.660295)"
         style="display:inline;filter:url(#filter3104)"
         id="g4227">
        <path
           transform="matrix(0.74273845,0,0,0.698482,-37.26461,-7.182747)"
           d="m 140.3125,94 c 0,6.66193 -5.07877,12.0625 -11.34375,12.0625 -6.26498,0 -11.34375,-5.40057 -11.34375,-12.0625 0,-6.661935 5.07877,-12.0625 11.34375,-12.0625 6.26498,0 11.34375,5.400565 11.34375,12.0625 z"
           sodipodi:ry="12.0625"
           sodipodi:rx="11.34375"
           sodipodi:cy="94"
           sodipodi:cx="128.96875"
           id="path8879"
           style="fill:#e0e0e0;fill-opacity:1;stroke:#333333;stroke-width:1.66604102;stroke-miterlimit:4;stroke-opacity:1;stroke-dasharray:none;display:inline"
           sodipodi:type="arc" />
        <path
           style="fill:none;stroke:#333333;stroke-width:4;stroke-linecap:butt;stroke-linejoin:miter;stroke-miterlimit:4;stroke-opacity:1;stroke-dasharray:none;marker-end:none;display:inline"
           d="m 52.238788,58.474868 8.032355,-4.2e-4"
           id="path4750"
           inkscape:connector-curvature="0"
           sodipodi:nodetypes="cc" />
        <path
           inkscape:connector-curvature="0"
           id="path4222"
           d="m 57.5625,52.4375 0,6 0,6 7.9375,-6 -7.9375,-6 z"
           style="fill:#333333;fill-opacity:1;stroke:none" />
      </g>
    </g>
  </g>
</svg>
