<?xml version="1.0" encoding="UTF-8" standalone="no"?>
<!-- Created with Inkscape (http://www.inkscape.org/) -->

<svg
   xmlns:dc="http://purl.org/dc/elements/1.1/"
   xmlns:cc="http://creativecommons.org/ns#"
   xmlns:rdf="http://www.w3.org/1999/02/22-rdf-syntax-ns#"
   xmlns:svg="http://www.w3.org/2000/svg"
   xmlns="http://www.w3.org/2000/svg"
   xmlns:xlink="http://www.w3.org/1999/xlink"
   xmlns:sodipodi="http://sodipodi.sourceforge.net/DTD/sodipodi-0.dtd"
   xmlns:inkscape="http://www.inkscape.org/namespaces/inkscape"
   width="48"
   height="48"
   id="svg2"
   version="1.1"
   inkscape:version="0.48.0 r9654"
   inkscape:export-filename="C:\Users\emo.GIRITECH\Desktop\Current Projects\iPad\Icons\Apps\token_validate_iphone_48x48.png"
   inkscape:export-xdpi="90"
   inkscape:export-ydpi="90"
   sodipodi:docname="token_validate_iphone_48x48.svg"
   style="display:inline">
  <defs
     id="defs4">
    <linearGradient
       id="linearGradient3816">
      <stop
         style="stop-color:#ffffff;stop-opacity:0.25882354;"
         offset="0"
         id="stop3818" />
      <stop
         style="stop-color:#ffffff;stop-opacity:0;"
         offset="1"
         id="stop3820" />
    </linearGradient>
    <linearGradient
       id="linearGradient3797">
      <stop
         style="stop-color:#ffffff;stop-opacity:1;"
         offset="0"
         id="stop3799" />
      <stop
         style="stop-color:#ffffff;stop-opacity:0.16470589;"
         offset="1"
         id="stop3801" />
    </linearGradient>
    <linearGradient
       id="linearGradient3789">
      <stop
         style="stop-color:#440008;stop-opacity:1;"
         offset="0"
         id="stop3791" />
      <stop
         style="stop-color:#880000;stop-opacity:1;"
         offset="1"
         id="stop3793" />
    </linearGradient>
    <linearGradient
       id="linearGradient3781">
      <stop
         style="stop-color:#440008;stop-opacity:1;"
         offset="0"
         id="stop3783" />
      <stop
         style="stop-color:#232723;stop-opacity:0;"
         offset="1"
         id="stop3785" />
    </linearGradient>
    <linearGradient
       inkscape:collect="always"
       xlink:href="#linearGradient3789"
       id="linearGradient3795"
       x1="34.479824"
       y1="980.94946"
       x2="34.479824"
       y2="1052.0378"
       gradientUnits="userSpaceOnUse" />
    <linearGradient
       inkscape:collect="always"
       xlink:href="#linearGradient3797"
       id="linearGradient3803"
       x1="35.989838"
       y1="51.432434"
       x2="35.989838"
       y2="108.26157"
       gradientUnits="userSpaceOnUse" />
    <linearGradient
       inkscape:collect="always"
       xlink:href="#linearGradient3816"
       id="linearGradient3822"
       x1="34.371315"
       y1="1052.3622"
       x2="34.371315"
       y2="981.34082"
       gradientUnits="userSpaceOnUse"
       gradientTransform="matrix(1,0,0,0.63512546,0,383.84469)" />
    <filter
       id="filter3033"
       inkscape:label="Drop shadow"
       width="1.5"
       height="1.5"
       x="-0.25"
       y="-0.25"
       color-interpolation-filters="sRGB">
      <feGaussianBlur
         id="feGaussianBlur3035"
         in="SourceAlpha"
         stdDeviation="2"
         result="blur" />
      <feColorMatrix
         id="feColorMatrix3037"
         result="bluralpha"
         type="matrix"
         values="1 0 0 0 0 0 1 0 0 0 0 0 1 0 0 0 0 0 0.5 0 " />
      <feOffset
         id="feOffset3039"
         in="bluralpha"
         dx="2"
         dy="2"
         result="offsetBlur" />
      <feMerge
         id="feMerge3041">
        <feMergeNode
           id="feMergeNode3043"
           in="offsetBlur" />
        <feMergeNode
           id="feMergeNode3045"
           in="SourceGraphic" />
      </feMerge>
    </filter>
    <linearGradient
       inkscape:collect="always"
       xlink:href="#linearGradient3789"
       id="linearGradient3021"
       gradientUnits="userSpaceOnUse"
       x1="34.479824"
       y1="980.94946"
       x2="34.479824"
       y2="1052.0378" />
    <linearGradient
       inkscape:collect="always"
       xlink:href="#linearGradient3816"
       id="linearGradient3023"
       gradientUnits="userSpaceOnUse"
       gradientTransform="matrix(1,0,0,0.63512546,0,383.84469)"
       x1="34.371315"
       y1="1052.3622"
       x2="34.371315"
       y2="981.34082" />
    <linearGradient
       inkscape:collect="always"
       xlink:href="#linearGradient3797"
       id="linearGradient3025"
       gradientUnits="userSpaceOnUse"
       x1="35.989838"
       y1="51.432434"
       x2="35.989838"
       y2="108.26157" />
    <linearGradient
       inkscape:collect="always"
       xlink:href="#linearGradient3816"
       id="linearGradient3030"
       gradientUnits="userSpaceOnUse"
       gradientTransform="matrix(0.66666,0,0,0.42341274,-0.02057539,-373.61474)"
       x1="34.371315"
       y1="1052.3622"
       x2="34.371315"
       y2="981.34082" />
    <linearGradient
       inkscape:collect="always"
       xlink:href="#linearGradient3789"
       id="linearGradient3033"
       gradientUnits="userSpaceOnUse"
       x1="34.479824"
       y1="980.94946"
       x2="34.479824"
       y2="1052.0378"
       gradientTransform="matrix(0.66666,0,0,0.66666,-0.02057539,-629.50864)" />
    <linearGradient
       inkscape:collect="always"
       xlink:href="#linearGradient3797"
       id="linearGradient3833"
       gradientUnits="userSpaceOnUse"
       x1="35.989838"
       y1="51.432434"
       x2="35.989838"
       y2="108.26157"
       gradientTransform="matrix(0.80383943,0,0,0.66666,-4.9155838,-47.939909)" />
    <linearGradient
       inkscape:collect="always"
       xlink:href="#linearGradient3816"
       id="linearGradient3839"
       gradientUnits="userSpaceOnUse"
       gradientTransform="matrix(0.66666,0,0,0.42341274,-0.02057539,-397.61474)"
       x1="34.371315"
       y1="1052.3622"
       x2="34.371315"
       y2="981.34082" />
  </defs>
  <sodipodi:namedview
     id="base"
     pagecolor="#ffffff"
     bordercolor="#666666"
     borderopacity="1.0"
     inkscape:pageopacity="0"
     inkscape:pageshadow="2"
     inkscape:zoom="8"
     inkscape:cx="24.676372"
     inkscape:cy="28.634401"
     inkscape:document-units="px"
     inkscape:current-layer="layer4"
     showgrid="false"
     borderlayer="true"
     inkscape:showpageshadow="false"
     showborder="true"
     inkscape:window-width="1074"
     inkscape:window-height="919"
     inkscape:window-x="219"
     inkscape:window-y="11"
     inkscape:window-maximized="0" />
  <metadata
     id="metadata7">
    <rdf:RDF>
      <cc:Work
         rdf:about="">
        <dc:format>image/svg+xml</dc:format>
        <dc:type
           rdf:resource="http://purl.org/dc/dcmitype/StillImage" />
        <dc:title></dc:title>
      </cc:Work>
    </rdf:RDF>
  </metadata>
  <g
     inkscape:label="Layer 1"
     inkscape:groupmode="layer"
     id="layer1"
     transform="translate(0,-1004.3622)"
     style="display:inline">
    <rect
       transform="translate(0,980.3622)"
       style="fill:url(#linearGradient3033);fill-opacity:1;stroke:#ffffff;stroke-width:0.65752769;stroke-miterlimit:4;stroke-opacity:0.16470588;stroke-dasharray:none;stroke-dashoffset:0;display:inline"
       id="rect2996"
       width="47.341995"
       height="47.341995"
       x="0.30818844"
       y="24.388386"
       ry="8.4864016" />
  </g>
  <g
     inkscape:groupmode="layer"
     id="layer4"
     inkscape:label="Glass effect"
     style="display:inline"
     transform="translate(0,-24)">
    <path
       style="fill:url(#linearGradient3839);fill-opacity:1;stroke:none;display:inline"
       d="M 3.375 17.625 C 1.8795544 17.625 0.64210146 18.670642 0.3125 20.0625 L 0.3125 39.25 C 0.3125 43.951466 4.0797835 47.71875 8.78125 47.71875 L 39.15625 47.71875 C 43.857716 47.71875 47.65625 43.951466 47.65625 39.25 L 47.65625 20.15625 C 47.362877 18.715276 46.092634 17.625 44.5625 17.625 L 3.375 17.625 z "
       transform="translate(0,24)"
       id="rect3812" />
    <path
       style="fill:url(#linearGradient3833);fill-opacity:1;stroke:#ffffff;stroke-width:0.73204345000000004;stroke-opacity:0.07051283999999999;display:inline"
       d="M 8.78125 0.375 C 4.0797835 0.375 0.3125 4.1735335 0.3125 8.875 L 0.3125 19.9375 C 6.7917287 22.533293 15.006477 24.09375 23.96875 24.09375 C 32.931023 24.09375 41.177021 22.533293 47.65625 19.9375 L 47.65625 8.875 C 47.65625 4.1735335 43.857716 0.375 39.15625 0.375 L 8.78125 0.375 z "
       transform="translate(0,24)"
       id="path3779" />
  </g>
  <g
     inkscape:groupmode="layer"
     id="layer3"
     inkscape:label="pictogram"
     style="display:inline"
     transform="translate(0,-24)"
     sodipodi:insensitive="true">
    <image
       y="12"
       x="12"
       id="image3014"
       xlink:href="data:image/png;base64,iVBORw0KGgoAAAANSUhEUgAAADAAAAAwCAYAAABXAvmHAAAABHNCSVQICAgIfAhkiAAAFDpJREFU aIG1eXmQXNV57+8759zbt/fpnl2j0T6SkBiiBSE7gNmMMQEqZkmM5RC8JXkPxyTvOSnbqUrsxBX8 qvxsbMdxgkEmXjBgzOLYYQ2xbIEQizZA+2gkzUiaGU3P0nv3ved8X/7osWxS8bMKHqfq1O1b95y+ v9+3f+cSznLcdtttYGaICAVBIKVSCc45KKXWKqVuM8a8z4/5iWQ8wYlkspBOp/5FKf318YmJqXgs wCWXvAthFHr5trx17MR4BuvXn3+2r/+1g85m0TXXXIO+vj4QtZaLCADcJCK3AriAiHLGGBOLxZBM JpFOp5BOpcN0Oj3m+/42z/cfJuBx3/cb8/vmg4WViHC5XMYll176lgios1lUqVSQTCahtQYRZbXW z2qtHzLGXGuM6VJKedRiR8xM1loKozDWDMNFRLQpCGIP53K5ffn2/KcPDR1MWGs5CAIYo/HgAw+8 JQLmbBcSEWWzWanVat/VWl/eaDRCItLMrEQEzjlEUQQignMO9XoDpVJZZoJA0uk0stns4nw+/4Xu 7p5bFdEfzs7OvkykSCklbyuBO++8E9u2bVNDQ0PsnHv3mjVrrhsdHbW+73tERMwsRERKKURRiChs AiAopUCKoJUm3/cplU5JR3tH1NnZuTKZTD5y6NDBheeuXs1KnZURvHkCRISbb74ZCxcuxI9+9KM/ LpVKMjQ0JF1dXRSLxcTzPPI8D5F1YCh4vg/P8+D5PrTRRCA4djI1W8HpqaLWR47WLNPdzlk+PDJG l1+48e3VwIkTJ7B7924eHByMd3V1Xbx3717UajU1PT0tiUSCcm1tsEJoS/jozwdI+Bq+URCxsByC hcAgciycjmndl5axp3YO/11/LoF3n9sjP6S1bwX/bybQ09ND1WpVdu7cufiCCy7omZycBBFRZC3V azVETrBqQTs2/XYPejty8IyGpxWMVhDSEKXBpECAMlpbsc2lFw20/Ql5wV1NVurjxc38xbeTQKVS oXw+L4lEYmG1WpVqtSpEROwc6s4ho4Hr1/cgGxg4L4WgvRvMFhEpCCmIUgARCAQGoMRJoxHeGu9Y dRdPDgsw+Rbgn0UYrdVq1Gw2MTs7m69Wq2g0GsLMxM6hVg9xzvw2dGTjaEQOUWkSrlGF9nxoraC1 hlYaSmkoIiFhRUrBxFPnTvx0c8fUy48KeYmzykVvmkAYhlIsFlEulxPNZpOcc8LM4tghshHSgQFz yw+ZBY2pU3CNGqAUIAyIAwkDwkQQAEKkvXTQ19+fWrEeFKTfCv7fbEKnTp1CGIaoVqthOp0WYYZz DtYxnHUQYTALnDAYAmdD1CdPIGjvgZfIACKAOAAAiZAIWEiRmHiHgCCkCMCbjkS/kcDIyAg558DM Zd/3YVnICFNHJsDJqQilWhOOHSwr2FZtBLIRGoVT4HQdXjoPZTxABAwhMLiVraMkKQ2Kmm/JhH4j gUKhINVqFYkgdiSVSpFntPrDK1bIQG8WI5NlIuWh2mhCaw/WKqg5hwUIXCwgqpVhklmYeBpkPIFS 5KylsF4DSIHJvL15AADncjmsGlyz7+CB/cc70rEFffmAp4pl1ZdPIh4PUKuHCAKCVgoAQQRgYWil YLmBsFkHaBLKD0jH0xzWStJsNgggMPTbqwERARGp3bt2RcL2LhXoO8YL0xz4vi7XtTAUBb5AqV9W qswMx7+IQAQigrAF12viZgpkoyZCJzWCwDYbb68GlFKo1WqsiFBu8tcaob1177HCig3Lu2wYWZNI QBphk4hanigicMwwTkMr9UsCAoiIOBYVNkM0a7XTpBSMJ28vgcOHD2PJkiUgpYiIq/VQbnjxUPHZ eW2xnt4uzY5FuSgCADgROMewxsFoDa0ViFoEIAIWgWORqFkv14unR8RZxLK9bwX/2ZXTcxWjtCUM NUK7r2+hd+GeY7NPBb5eks60sXOsbL0BxwxnHCJjWgTmKtI5AsIi7Jh1VK8divWtmbKVAjWrM/Kx tcA9u375uke+eAOl8p0Iq6dx9LUd+MTdI3xtD6SzC7j31Tdi02dDYHp6Gvl8HgTghg0d6qZ3Lp6u N6J3NJuN8xLxwPlBoGqVKgQAM8MKg52DZQdrLSJrEUURRZF1YdjQjVr1+2Gt/EwUhTqbTsqhg3uw IgnFU5DLF0NS7Z0ST7dLvVqVY4ePSWqsikoFSKZBlw4Ca9qBHWNzbM+GAAAMDQ1h3eIMUnHDv/uZ TaQIcWO0FAoFAEDEDuVqFdV6A9VaHZVaDZVaHZVaHdVaXSq1ulTrdV0uV1AuTj9UnJ5ApVziP/3L 72DlKlCjAo4AMGP95KlTf3LswIHPjwwd++zsdOmDjrF8qgkkMwnZtgVqqgDMn8N11h0ZAKxdlEGp Xgdwg4C+lFNkqFav09TUFJKpFAqFSUSRheeZVgTSZ/LCXFvgVNSovQx4LxERaqNbZe1i4PEfQtq7 9Qc+/Tcf+YvlgyvX5doE8XgIZ+uoVt6LybFCtP3ftz6z/dmDn184H9s1ASfmMJ1VDH7Pxz4L4/m4 3D1BszWHZ7ceyF55yar9kbM9EGFxTvX09sIJMFWYhO95MJ6BIgWlSAgEITgXhiaqlX5He/4TJFY5 l+YTJ2e8fMbf/IHb//SW/t4JKPecKIw5ZxuABRPHfOfmwemleGnbEX7w7if+si2f+LIJoC6+cgH/ P33gxr/6FvLzl0ApTU/f8zl92YbV3J2OobMze1sm0DdGjh2LKBBRpVJGPAgQjydQrdURRpFE1lIY RYisDRuNht+oVn4QiXyhUqmoyfFJqHi39HQH93/sM5/c1JV6OIqnnqUgHSooKM8zVK9as/25QnHk 8PC0Kx1ML1/Rj0Url1y199WjpWw+9cLpk9P/fRa86W++j0Qshpmpccwc36VimW4WZjQQLM3FzafO TRU+vLLxipqog8qNkHgulDsbIRFPQGmNehgCzEIERCRkms0dYbN2ufLi5QV9bapuO9zhV1+47X/f 8cV/7Mk+GmV6jxvYBEW1unBkuTobqu9989QzkYo+evfm6uzyPvz5X9ye/7uBwQ3ulR1TeOihfRtm p2q736CBqz+5GZdt+iTq1SJu3NirXj9WEBOkRWlvcTyd/1wmRt8MEvF3UrJTLaIxaG6SFYhlIQGg lEYYRQjDJoidgLQ0LUW501NfzQ7+9s2VcrFemxilU24JB53LMpdd+ls/XLmymUy3byGlMso1asJR RL52OPhaST347an3Nyt88G8fGQwv33Tuz4e3T96ycL5rz7Z36cKpsfk3f/iC+8848e/+9YOYHhvD yWPDSCQ8enL3BFfK1Vx7d/+nFp8z+PHevv4UVwsojBx0J06eVMN6Ga3wXpZIYqQIqEcOjgXG96CV hrE1pJaeD9nwP6jwyovZkVRqQfuy64djP/gw1Q49Lq/uePw9N27+RrenfmxNkNKuWhPiiMRFcI7F 0ww/Rt1tbcBTP5qCNJP+6kQiEbTloRoka9Z1XfGvr3X3aQC45jP3AxCEhRlkOvMURqG0Jbz35xeu euy8d1x89bwF8/10ImbznTnqXTigOtvzmJY0xaunKGsnAS8ORQKjCDGjERiNTOCTElDvxZt017oL 1oWV2h8dGTpakVU3bf+9iz0kM7H/ueb81RtSqRfY+NCImsQ2AkcWUSNEJqlgtLq4HsrIs/dN5bu9 2a9fd9M565K5nDjESZoF7x/+eutxAwAz00UsXX0u4qk4cdQUicyXg77B/7Vi9TlQClaxaADGhSKe UZi/aBG1d/dgrKMN8R3fQGbmKPx4HKFjQARGKSR8I+XyOE4feAnnXnE1Jy/YmGjLt3/1tVf3bBxr u/6DmfTX24xpkFJNkNXCLiSxEcAMsFakY/Lea3MLjh6jh6+7IY6e/nZ4QUqYYkqJ5nhccP5a2mDe ++kHMHFqHLMnh2nBvA45PlH/6jnrL7x96YrFlh0UOTbKKFEEaVUGDOeAZOBh3sBqFGO3I/3ad8Cj e6AEIOPBKAVXL1HnkvMwWi1Ks87aM0oGViy3QRBs+ref7qZLKjMEiYQjR+JbIrYgaBDFQSYmkBgJ xXlgMAVlkmQ5YFGB9vwEQscgNBA2pKwXnH8dVqxeoZqRSHF29kMLVq7/wvJVA1ZYtLAoT5FoBTIK ZBTBKEArwGiNuG/gJbOI9w8i396JKGxCogbYWWSWrMfaGz6BQ0PDlO4dED/wyVqodLZN2jq7zhs9 tGv5xuWe9tRJFcQtiQsgSEKQgiBFpNMgP0uiMsQqRSqWVTqWEfJziJoNmhp+jj57b/gFI8Jq/Ph+ bkSxzs7+ZV9etGwpK4IKrZBRJEStY9vWFMzlVQACpRWymSRcfB76512H/sGLMFMYB1yEroUD6Ovp ho+foVaeoXRbSppgYkc0vz/HMyuu9Y8fexCrVy+GYBhQSZD4IB2DUgGEEoBOAiYJ0gmQjsOLJVCu J5maO9TJkfL401vwhJm3dEA3aiHXx0Y+0b94aS6b9myzyYa5Bb51lN4q9kUIRK17IgEJoBRBx+Ko Gx8DfXF09/SASLU0pRWCmI9aeRZKL5j7OyGtQJn5vyUTQw9jbXoV6pVpSmQTcM0YSAVQlISoJKAT LfAmIcZPIuI42bDE1ZMv6Cefxr3LjqJhJkb3RQsy8UD1D3yku6dbmEVFjoQAAsmZbwKY04K0CgNA CKJaDYwhQdlpFB2hK86wTHMfQ4B4zMdMtdzay0zaKFQqdVK7v433fOh3wJWfY+LEPCxIxmACA+ti IJ0G9JzkTVKUF6eGTaFSjWyydJf38GMnhnMrzR0HR0WpalXjhX1jF2bznX2ZlOHIQllumYrIXCeF udORM78JAmm1jyC4uYenqkBoGcwOzAwACOIBnLVgACIMxBRO/OTruO7KXgSxYfzTHXtRLpcQlmrS CHOgxGKRWJ+I1yPs9UqoeqVY73BhZdKmp+80P/ne1qm9p7tumBy2lRV9gEl1LkY823FlW75NjBKu W9HOEYkWCOiN4AXgM5PAAhALnCIYAiqWMNUgdAYOVgREQMzzAEdgK/AyPvb/5AFctDTEojUx3POp n6Ojrxtr1gwB9UkaHXonUu0jkuldqSyyAFVB4RTFSnswvn8L7r9vevvWF+kjPQtK+2NOUaMJNu+4 YiNe2bL9/GwmCRZQ05KIEPEbwP43kwEHgBQBDAAMFoXxukLOi8AsECF4ngc0BDpFGNn6IhY2duEd 167EE//8Y0zPAH/2xw6o75Whk7fQI/cdkQ9/6JD698cfk1xHiqKwifJsafrwQd7x9HZ8d/qkvm9g mePRFxtq9UWKqxWB6a0+FwSJtkWpZEDOEUVOSJGAmcBqLq8owAmgBFAMOAJI0LInBrQSCLd8YyZU KDaBpHZwzAAEfiqHwokpyK778b6Pr8eep57Dtv8Ylds+tYpi1e9wUf8+vnfPiLv+5vnmX3944PWJ auMmf6Tq3f9N8E5gzEN65j1La/CMQxSBBjYQewb4+ycZ6rZb7lyVSCRyvqdgnZB1LRs/I2UBHLek 7n7l3vLcPQPWESJHsCwIHWGyoSDOIooieF4MljyMPX4XbrxpEBPHD+HhzS/L9beuoW7zqETmXer7 36qry65qN8WxbdWdR6d///gRPjh9nF53wD4AM90oUybuNBGQSECsFXxpS8vHTPeGjefFYn5gtKAZ ClkGFFELmJqTurQAEwHU2nfmMJMJUAQoatk8C1BoGnQbRjxqQsUzGP3xP+KjNw4imSrjq59/SjZc tprWLnvJHdtb1d969NSuZmVY93Z7i5585MRHFyzD/poWbQhyyYWEPc+LXL0OAsBtKQNbftn8twik Mu1LgyBmlGpJ3XIr0zoGlGuZi6JW8/yrzcMvnFur1nMCQREgEJRYo9RgpNIJTOzdinetSmPZYFLu +dyD6OifR9dcWbCTQ/vMXU8OnP7BzxddtrDPK+55+HAnxs3kXbss3f0JuKOHga893xLT3Tt/bc8F Q0p1GKOBVlgkxwTHAkstTVg3J/lf3fWLiKRaEldnMnXLD5oWaGZyOPDyf0BVT+GqWzbK4/c+RLNF kfd/wNjXfvZv5mcvx2fGXsxcf8WiE0XOJTG+6+Bk3zzQ0nFIWxK448lfD/oNBKJaaX4URb5niLUS 5UQkYgUikCJpHdPSGxu3Od+Fll+YkJwhABHAUzhy4jQqWx/DNR+8BK9u3UqvPD8k73v/atz12IQZ Un//fCOp/6j9oqn9qegAqYNPCy3K4u7tRQGA3/s/ZwceAFQ64X/30L79E4ePlVQspiKiOWdmEesg loHICawTRE4QcusaOUF4ZqI1rUjEgrDZkCPPflfedfU6VApH5bF/2SLX3vxOOfL61ujbL6/8+PPP bLkorSv7j57/ByrbHBcog83bi2eP+lcJZDt7fjB1Yujdz2356at79o561jpyIOdAzgpxxMTWQSIL aYGcuzpI5CARE1smdtLaI1q7mckq9Zhhas+Hcv/XHuU1F60L52UOYfz4xIHDD5S+8aWPHocN2il3 +jAfaabw5W1vDjwA6IUbb9Daj03ke1L3Hnl9X7VRK62IwqhNhFRraCJNBEVEoNYHlTl7ERA5BkU2 olqtoUqzRVUoFNXJyVrFHXq0OrFrZ9xLd6q1g2J2P/8C7T3QvP/00JFnopmamplsciU1gAe/+X/f NHgAoItuvw+NWkUl2hZzWB1BW1d7cnp88qpUruuaRDp7fjKV7o/F/LTveSaeiLcyq4tgwxqEXcRR WAsb1UKtUjxaLc2+akdfeik3+pOfJSvHrw7isa8sWb1y55HXdj13ehJPF4t48fEJhG8J8X8ZxlkL iGO2DZAyJpYKqgA9EkukH/nKX12KZUSJxVfdfk4y3bYwk+/Meb4vNmxweXq8UJw6PXr8p5uHAZTv Oy547onn0X7HLSgPAMUE7js1Uf/xV7buKsiO5aD1h7BpBdA3AZz8/0jgPwE+GevrCu9DoAAAAABJ RU5ErkJggg== "
       height="48"
       width="48"
       style="filter:url(#filter3033)"
       transform="matrix(0.66666,0,0,0.66666,-0.02057539,24.059611)" />
  </g>
</svg>
