<?xml version="1.0" encoding="UTF-8" standalone="no"?>
<!-- Created with Inkscape (http://www.inkscape.org/) -->

<svg
   xmlns:i="http://ns.adobe.com/AdobeIllustrator/10.0/"
   xmlns:dc="http://purl.org/dc/elements/1.1/"
   xmlns:cc="http://creativecommons.org/ns#"
   xmlns:rdf="http://www.w3.org/1999/02/22-rdf-syntax-ns#"
   xmlns:svg="http://www.w3.org/2000/svg"
   xmlns="http://www.w3.org/2000/svg"
   xmlns:xlink="http://www.w3.org/1999/xlink"
   xmlns:sodipodi="http://sodipodi.sourceforge.net/DTD/sodipodi-0.dtd"
   xmlns:inkscape="http://www.inkscape.org/namespaces/inkscape"
   width="1024"
   height="768"
   id="svg2"
   version="1.1"
   inkscape:version="0.48.0 r9654"
   sodipodi:docname="iPad mockup screen 3-1.svg"
   inkscape:export-filename="C:\Users\emo.GIRITECH\Documents\Shared Graphics\iPad\GUI Mockup\iPad mockup screen 3-1.png"
   inkscape:export-xdpi="90"
   inkscape:export-ydpi="90"
   style="display:inline">
  <defs
     id="defs4">
    <linearGradient
       id="linearGradient3878">
      <stop
         style="stop-color:#440008;stop-opacity:1;"
         offset="0"
         id="stop3880" />
      <stop
         style="stop-color:#880000;stop-opacity:1;"
         offset="1"
         id="stop3882" />
    </linearGradient>
    <clipPath
       clipPathUnits="userSpaceOnUse"
       id="clipPath3010">
      <rect
         style="opacity:0.3;fill:#ff00ff;fill-opacity:1;stroke:none"
         id="rect3012"
         width="68.005577"
         height="29.145313"
         x="838.0506"
         y="591.72302"
         ry="0"
         transform="matrix(0,1,-1,0,0,0)" />
    </clipPath>
    <clipPath
       clipPathUnits="userSpaceOnUse"
       id="clipPath3827">
      <rect
         ry="0"
         y="383.23294"
         x="325.96527"
         height="29.912291"
         width="53.688667"
         id="rect3829"
         style="opacity:0.3;fill:#ff00ff;fill-opacity:1;stroke:none"
         transform="matrix(0,1,-1,0,0,0)" />
    </clipPath>
    <clipPath
       clipPathUnits="userSpaceOnUse"
       id="clipPath4456">
      <rect
         style="opacity:0.3;fill:#ff69ff;fill-opacity:1;stroke:none"
         id="rect4458"
         width="84.750999"
         height="29.912117"
         x="678.77496"
         y="423.88284"
         transform="matrix(0,1,-1,0,0,0)" />
    </clipPath>
    <clipPath
       clipPathUnits="userSpaceOnUse"
       id="clipPath4633">
      <rect
         style="opacity:0.28365383;fill:#1fffff;fill-opacity:1;stroke:none"
         id="rect4635"
         width="1013.4327"
         height="479.61649"
         x="22.498003"
         y="200.43675"
         ry="5.048595"
         transform="matrix(0,1,-1,0,0,0)" />
    </clipPath>
    <clipPath
       clipPathUnits="userSpaceOnUse"
       id="clipPath3832">
      <rect
         style="fill:none;stroke:#000000;stroke-width:0.99101979;stroke-linecap:round;stroke-linejoin:miter;stroke-miterlimit:4;stroke-opacity:1;stroke-dasharray:none;stroke-dashoffset:0"
         id="rect3834"
         width="33.258976"
         height="28.88398"
         x="-204.00449"
         y="282.12048" />
    </clipPath>
    <linearGradient
       gradientUnits="userSpaceOnUse"
       y2="15.01789"
       x2="12.767467"
       y1="-0.067989945"
       x1="12.767467"
       id="linearGradient4409"
       xlink:href="#linearGradient4403"
       inkscape:collect="always" />
    <linearGradient
       gradientUnits="userSpaceOnUse"
       y2="30.05349"
       x2="14.857717"
       y1="0.02929718"
       x1="14.857717"
       id="linearGradient4395"
       xlink:href="#linearGradient4389"
       inkscape:collect="always" />
    <linearGradient
       gradientUnits="userSpaceOnUse"
       y2="30.05349"
       x2="14.857717"
       y1="0.02929718"
       x1="14.857717"
       id="linearGradient4387"
       xlink:href="#linearGradient4381"
       inkscape:collect="always" />
    <clipPath
       id="clipPath3832-7"
       clipPathUnits="userSpaceOnUse">
      <rect
         y="282.12048"
         x="-204.00449"
         height="28.88398"
         width="33.258976"
         id="rect3834-7"
         style="fill:none;stroke:#000000;stroke-width:0.99101979;stroke-linecap:round;stroke-linejoin:miter;stroke-miterlimit:4;stroke-opacity:1;stroke-dasharray:none;stroke-dashoffset:0" />
    </clipPath>
    <linearGradient
       id="linearGradient4381">
      <stop
         id="stop4383"
         offset="0"
         style="stop-color:#cccccc;stop-opacity:1;" />
      <stop
         id="stop4385"
         offset="1"
         style="stop-color:#cccccc;stop-opacity:1;" />
    </linearGradient>
    <linearGradient
       id="linearGradient4389">
      <stop
         id="stop4391"
         offset="0"
         style="stop-color:#000000;stop-opacity:1;" />
      <stop
         id="stop4393"
         offset="1"
         style="stop-color:#cccccc;stop-opacity:1;" />
    </linearGradient>
    <linearGradient
       id="linearGradient4403">
      <stop
         id="stop4405"
         offset="0"
         style="stop-color:#ffffff;stop-opacity:0.51785713;" />
      <stop
         id="stop4407"
         offset="1"
         style="stop-color:#ffffff;stop-opacity:0.02678571;" />
    </linearGradient>
    <linearGradient
       inkscape:collect="always"
       xlink:href="#linearGradient3878"
       id="linearGradient3884"
       x1="486.33426"
       y1="205.31226"
       x2="486.33426"
       y2="670.62982"
       gradientUnits="userSpaceOnUse"
       gradientTransform="translate(0,-12)" />
    <linearGradient
       inkscape:collect="always"
       xlink:href="#linearGradient3878"
       id="linearGradient3906"
       gradientUnits="userSpaceOnUse"
       gradientTransform="translate(0,-12)"
       x1="486.33426"
       y1="205.31226"
       x2="486.33426"
       y2="670.62982" />
    <linearGradient
       gradientUnits="userSpaceOnUse"
       y2="300.72781"
       x2="103.41205"
       y1="244.7652"
       x1="103.41205"
       id="linearGradient3875"
       xlink:href="#linearGradient3869"
       inkscape:collect="always" />
    <linearGradient
       gradientTransform="translate(376.31256,75.682973)"
       y2="166.62549"
       x2="-10.10096"
       y1="-101.06533"
       x1="-10.10096"
       gradientUnits="userSpaceOnUse"
       id="linearGradient3865"
       xlink:href="#linearGradient3494"
       inkscape:collect="always" />
    <linearGradient
       gradientTransform="matrix(2.9907761,0,0,2.9907761,-350.0687,-732.10421)"
       y2="300.5159"
       x2="131.39745"
       y1="244.53461"
       x1="131.39745"
       gradientUnits="userSpaceOnUse"
       id="linearGradient3863"
       xlink:href="#linearGradient3877"
       inkscape:collect="always" />
    <linearGradient
       y2="300.5159"
       x2="131.39745"
       y1="244.53461"
       x1="131.39745"
       gradientUnits="userSpaceOnUse"
       id="linearGradient3856"
       xlink:href="#linearGradient3204"
       inkscape:collect="always" />
    <linearGradient
       y2="300.5159"
       x2="131.39745"
       y1="244.53461"
       x1="131.39745"
       gradientUnits="userSpaceOnUse"
       id="linearGradient3849"
       xlink:href="#linearGradient3204"
       inkscape:collect="always" />
    <linearGradient
       gradientUnits="userSpaceOnUse"
       y2="166.62549"
       x2="-10.10096"
       y1="-101.06533"
       x1="-10.10096"
       id="linearGradient3500"
       xlink:href="#linearGradient3494"
       inkscape:collect="always" />
    <linearGradient
       gradientUnits="userSpaceOnUse"
       y2="300.5159"
       x2="131.39745"
       y1="244.53461"
       x1="131.39745"
       id="linearGradient3484"
       xlink:href="#linearGradient3204"
       inkscape:collect="always" />
    <linearGradient
       gradientUnits="userSpaceOnUse"
       y2="314.00009"
       x2="91.407005"
       y1="0"
       x1="91.407005"
       id="linearGradient3472"
       xlink:href="#linearGradient3789"
       inkscape:collect="always" />
    <linearGradient
       id="linearGradient3358">
      <stop
         style="stop-color:#440008;stop-opacity:1;"
         offset="0"
         id="stop3360" />
      <stop
         style="stop-color:#880000;stop-opacity:1;"
         offset="1"
         id="stop3362" />
    </linearGradient>
    <inkscape:perspective
       sodipodi:type="inkscape:persp3d"
       inkscape:vp_x="0 : 420.94501 : 1"
       inkscape:vp_y="0 : 1000 : 0"
       inkscape:vp_z="595.28003 : 420.94501 : 1"
       inkscape:persp3d-origin="297.64001 : 280.63 : 1"
       id="perspective28" />
    <foreignObject
       id="foreignObject5"
       height="1"
       width="1"
       y="0"
       x="0"
       requiredExtensions="http://ns.adobe.com/AdobeIllustrator/10.0/">
      <i:pgfRef
         xlink:href="#adobe_illustrator_pgf" />
    </foreignObject>
    <linearGradient
       y2="1051.9417"
       x2="22.086903"
       y1="980.85535"
       x1="22.086903"
       gradientUnits="userSpaceOnUse"
       id="linearGradient2520"
       xlink:href="#linearGradient3204"
       inkscape:collect="always" />
    <inkscape:perspective
       sodipodi:type="inkscape:persp3d"
       inkscape:vp_x="0 : 526.18109 : 1"
       inkscape:vp_y="0 : 1000 : 0"
       inkscape:vp_z="744.09448 : 526.18109 : 1"
       inkscape:persp3d-origin="372.04724 : 350.78739 : 1"
       id="perspective2501" />
    <inkscape:perspective
       sodipodi:type="inkscape:persp3d"
       inkscape:vp_x="0 : 526.18109 : 1"
       inkscape:vp_y="0 : 1000 : 0"
       inkscape:vp_z="744.09448 : 526.18109 : 1"
       inkscape:persp3d-origin="372.04724 : 350.78739 : 1"
       id="perspective2565" />
    <inkscape:perspective
       sodipodi:type="inkscape:persp3d"
       inkscape:vp_x="0 : 526.18109 : 1"
       inkscape:vp_y="0 : 1000 : 0"
       inkscape:vp_z="744.09448 : 526.18109 : 1"
       inkscape:persp3d-origin="372.04724 : 350.78739 : 1"
       id="perspective2515" />
    <linearGradient
       gradientUnits="userSpaceOnUse"
       y2="1051.9417"
       x2="22.086903"
       y1="980.85535"
       x1="22.086903"
       id="linearGradient3283"
       xlink:href="#linearGradient3204"
       inkscape:collect="always" />
    <inkscape:perspective
       sodipodi:type="inkscape:persp3d"
       inkscape:vp_x="0 : 526.18109 : 1"
       inkscape:vp_y="0 : 1000 : 0"
       inkscape:vp_z="744.09448 : 526.18109 : 1"
       inkscape:persp3d-origin="372.04724 : 350.78739 : 1"
       id="perspective2477" />
    <inkscape:perspective
       sodipodi:type="inkscape:persp3d"
       inkscape:vp_x="0 : 36 : 1"
       inkscape:vp_y="0 : 1000 : 0"
       inkscape:vp_z="72 : 36 : 1"
       inkscape:persp3d-origin="36 : 24 : 1"
       id="perspective2545" />
    <linearGradient
       id="linearGradient3816">
      <stop
         style="stop-color:#ffffff;stop-opacity:0.25882354;"
         offset="0"
         id="stop3818" />
      <stop
         style="stop-color:#ffffff;stop-opacity:0;"
         offset="1"
         id="stop3820" />
    </linearGradient>
    <linearGradient
       id="linearGradient3797">
      <stop
         style="stop-color:#ffffff;stop-opacity:1;"
         offset="0"
         id="stop3799" />
      <stop
         style="stop-color:#ffffff;stop-opacity:0.16470589;"
         offset="1"
         id="stop3801" />
    </linearGradient>
    <linearGradient
       id="linearGradient3789">
      <stop
         style="stop-color:#050505;stop-opacity:1"
         offset="0"
         id="stop3791" />
      <stop
         style="stop-color:#787878;stop-opacity:1"
         offset="1"
         id="stop3793" />
    </linearGradient>
    <linearGradient
       id="linearGradient3781">
      <stop
         style="stop-color:#440008;stop-opacity:1;"
         offset="0"
         id="stop3783" />
      <stop
         style="stop-color:#232723;stop-opacity:0;"
         offset="1"
         id="stop3785" />
    </linearGradient>
    <linearGradient
       inkscape:collect="always"
       xlink:href="#linearGradient3797"
       id="linearGradient3803"
       x1="35.989838"
       y1="51.432434"
       x2="35.989838"
       y2="108.26157"
       gradientUnits="userSpaceOnUse" />
    <filter
       id="filter3033"
       inkscape:label="Drop shadow"
       width="1.5"
       height="1.5"
       x="-0.25"
       y="-0.25"
       color-interpolation-filters="sRGB">
      <feGaussianBlur
         id="feGaussianBlur3035"
         in="SourceAlpha"
         stdDeviation="2"
         result="blur" />
      <feColorMatrix
         id="feColorMatrix3037"
         result="bluralpha"
         type="matrix"
         values="1 0 0 0 0 0 1 0 0 0 0 0 1 0 0 0 0 0 0.5 0 " />
      <feOffset
         id="feOffset3039"
         in="bluralpha"
         dx="2"
         dy="2"
         result="offsetBlur" />
      <feMerge
         id="feMerge3041">
        <feMergeNode
           id="feMergeNode3043"
           in="offsetBlur" />
        <feMergeNode
           id="feMergeNode3045"
           in="SourceGraphic" />
      </feMerge>
    </filter>
    <inkscape:perspective
       sodipodi:type="inkscape:persp3d"
       inkscape:vp_x="0 : 526.18109 : 1"
       inkscape:vp_y="0 : 1000 : 0"
       inkscape:vp_z="744.09448 : 526.18109 : 1"
       inkscape:persp3d-origin="372.04724 : 350.78739 : 1"
       id="perspective2447" />
    <inkscape:perspective
       id="perspective10"
       inkscape:persp3d-origin="372.04724 : 350.78739 : 1"
       inkscape:vp_z="744.09448 : 526.18109 : 1"
       inkscape:vp_y="0 : 1000 : 0"
       inkscape:vp_x="0 : 526.18109 : 1"
       sodipodi:type="inkscape:persp3d" />
    <linearGradient
       id="linearGradient3277">
      <stop
         id="stop3279"
         offset="0"
         style="stop-color:#440008;stop-opacity:1;" />
      <stop
         id="stop3281"
         offset="1"
         style="stop-color:#880000;stop-opacity:1;" />
    </linearGradient>
    <linearGradient
       id="linearGradient3321">
      <stop
         id="stop3323"
         offset="0"
         style="stop-color:#ffffff;stop-opacity:0.39500001" />
      <stop
         id="stop3325"
         offset="1"
         style="stop-color:#ffffff;stop-opacity:0" />
    </linearGradient>
    <linearGradient
       id="linearGradient3204">
      <stop
         style="stop-color:#5c5c5c;stop-opacity:1;"
         offset="0"
         id="stop3206" />
      <stop
         style="stop-color:#bdbdbd;stop-opacity:1;"
         offset="1"
         id="stop3208" />
    </linearGradient>
    <linearGradient
       id="linearGradient3494">
      <stop
         id="stop3496"
         offset="0"
         style="stop-color:#ffffff;stop-opacity:0;" />
      <stop
         id="stop3498"
         offset="1"
         style="stop-color:#ffffff;stop-opacity:0.29508197;" />
    </linearGradient>
    <linearGradient
       id="linearGradient3869"
       inkscape:collect="always">
      <stop
         id="stop3871"
         offset="0"
         style="stop-color:#6a1513;stop-opacity:1" />
      <stop
         id="stop3873"
         offset="1"
         style="stop-color:#962b20;stop-opacity:1" />
    </linearGradient>
    <linearGradient
       id="linearGradient3877">
      <stop
         id="stop3879"
         offset="0"
         style="stop-color:#320c0b;stop-opacity:1" />
      <stop
         id="stop3881"
         offset="1"
         style="stop-color:#673832;stop-opacity:1" />
    </linearGradient>
    <linearGradient
       inkscape:collect="always"
       xlink:href="#linearGradient3877"
       id="linearGradient4142"
       gradientUnits="userSpaceOnUse"
       gradientTransform="matrix(2.9907761,0,0,2.9907761,-350.0687,-732.10421)"
       x1="131.39745"
       y1="244.53461"
       x2="131.39745"
       y2="300.5159" />
    <linearGradient
       inkscape:collect="always"
       xlink:href="#linearGradient3869"
       id="linearGradient4144"
       gradientUnits="userSpaceOnUse"
       x1="103.41205"
       y1="244.7652"
       x2="103.41205"
       y2="300.72781" />
    <linearGradient
       inkscape:collect="always"
       xlink:href="#linearGradient3869"
       id="linearGradient4147"
       gradientUnits="userSpaceOnUse"
       x1="103.41205"
       y1="244.7652"
       x2="103.41205"
       y2="300.72781"
       gradientTransform="translate(971.32461,233.0075)" />
    <linearGradient
       inkscape:collect="always"
       xlink:href="#linearGradient3878"
       id="linearGradient4158"
       gradientUnits="userSpaceOnUse"
       gradientTransform="translate(0,-9.8761616)"
       x1="486.33426"
       y1="205.31226"
       x2="486.33426"
       y2="670.62982" />
    <linearGradient
       inkscape:collect="always"
       xlink:href="#linearGradient3878"
       id="linearGradient3121"
       gradientUnits="userSpaceOnUse"
       gradientTransform="translate(0,-9.8761616)"
       x1="486.33426"
       y1="205.31226"
       x2="486.33426"
       y2="670.62982" />
  </defs>
  <sodipodi:namedview
     id="base"
     pagecolor="#ffffff"
     bordercolor="#666666"
     borderopacity="1.0"
     inkscape:pageopacity="0.0"
     inkscape:pageshadow="2"
     inkscape:zoom="0.97786458"
     inkscape:cx="352.46871"
     inkscape:cy="384"
     inkscape:document-units="px"
     inkscape:current-layer="svg2"
     showgrid="false"
     inkscape:window-width="1680"
     inkscape:window-height="970"
     inkscape:window-x="-8"
     inkscape:window-y="-8"
     inkscape:window-maximized="1"
     showguides="true"
     inkscape:guide-bbox="true"
     borderlayer="true" />
  <metadata
     id="metadata7">
    <rdf:RDF>
      <cc:Work
         rdf:about="">
        <dc:format>image/svg+xml</dc:format>
        <dc:type
           rdf:resource="http://purl.org/dc/dcmitype/StillImage" />
        <dc:title></dc:title>
      </cc:Work>
    </rdf:RDF>
  </metadata>
  <g
     inkscape:label="Layer 1"
     inkscape:groupmode="layer"
     id="layer1"
     transform="translate(0,-284.36218)"
     style="display:inline"
     sodipodi:insensitive="true">
    <image
       y="0"
       x="-1052.3622"
       id="image3839"
       xlink:href="data:image/png;base64,iVBORw0KGgoAAAANSUhEUgAAAwAAAAQACAYAAABWJj4AAAAABHNCSVQICAgIfAhkiAAAIABJREFU eJzs3Xd41fXd//HXGdkhZBJIIOwQhizRCqislgIGrBiGiFTRArYibkF719GiYCkuFJEi3BYB0SIi YAUsWKoBAcWwwoohZLICMXuc8/uDH+cmJoFAToZ+no/r4uLkO855c116Xd9nzndYJDnlZo0bN5bV apXNZpPFYpHdbnf9bLPZXD/b7XbZ7XbXsov/vnj7C+8TGhqqxYsXu3tcAACABmG2xSKn5Poj12vL j37+8fqLf7ZcZv3FfyzVfM8rneHqZ778PjWfeZMKFR0drUOHDsmdWrVq5TrGvXD86uHhUe6498Ix 7oWfLyzz8PCQzWaTJJ07d06JiYk6fvy4W+e7wFor7woAAADgitntdoWHh+uXv/ylevXqVSufQQAA AAAADVC3bt0UExPj9vclAAAAAIAGqm/fvm5/T7vb3xEAAACAWzRv3rzKdWvXrq1yXWxsrNauXasj R47ooYceKreOAAAAAAAaKE9PzyrX+fn5XXLfoqIiZWRkVFhOAAAAAAA/QQMGDLjk+ttvv73S5ZcN AD8/P0VFRclqtaq0tFRO5//dNbSq1wEBAeVu4XnhtkYX3+6orKxMeXl5OnPmjEpKSmS30yIAAABA dW3evLla2/04FC551B0REaFmzZopPz9fdrtdXl5eslgsrvWVBYDT6VRwcHC5g31PT095eHi4/nh5 ecnDw0N2u125ublKSEhQTk6O/P39q/0PBgAAAEyWl5dX7mc/Pz85HA7l5ORIkgIDAyvdr8oACAgI UKtWrZSdnS1fX183jvp/rFarQkNDdf3112vz5s18EwAAAABUU2xsbLmfN2/erHXr1mnu3LmSpEcf fbTCNtIlbgMaFRWl3NzcS1544C7+/v7q2LFjhYoBAAAA4F5VBkBAQICKiopcjySuTZ6enoqIiFBJ SUmtfxYAAADwcxUZGSnp/Jk27dq1q3SbKs+38fT0lNPpLHfOf22qq88BAAAAfo7S0tLUs2dPLV68 WFarVVFRUTpy5EiF7XgSMAAAAPAzsGDBAjkcDrVq1UpRUVFyOBx6++23K2zHFbcAAADAz8DWrVv1 hz/8QQMHDlRJSYm++OILHTp0qMJ2BAAAAADwExQbG6spU6bIbrdr3rx5Wrt2rQYPHqwvvvhC3333 XZX7cQoQAAAA8BP0wAMPyM/PT15eXnrggQfk6+urzp07a/bs2QoKCqpyP7cFQExMjAYOHKji4mJJ UtOmTXXdddcpODiYu/sAAAAAbtSyZUt5eXnplVde0UMPPSQvLy9FRUVp0aJF8vLy0vXXX1/lvm45 BWjo0KF6/vnnlZCQoI8++kj9+/fXk08+KbvdLofDoZkzZ2rnzp0KDg52x8cBAAAARjt27JhKS0u1 fft2ZWZm6siRI2rXrp3Wrl2rY8eOqVWrVlXu65ZvAG677TZlZmbq5Zdflo+Pj+699145nU699tpr OnTokOLi4vTDDz+446MAAAAASNq0aZMGDRokq9WqtLQ09evXT3369FHTpk114sSJKver8TcA/v7+ 6tatm+bOnauvv/5anTp1UtOmTfWf//xHK1asUEFBgZ544gk1atRIpaWl8vDwqOlHAgAAAMYbMmSI JGnixIkqKSmRl5eXevXqJUk6cOBAlfvVOAC8vb1lt9v1/fffy2azqU+fPpLO34bIy8tLPj4+cjqd Ki0t5WFfAAAAgJucOnVKp06dcl2DK0lOp1Nbt25VYmJilfvVOABOnTqlAwcO6OGHH5bD4VBcXJwc Dof++9//avDgwZo0aZL27NmjwsJC2Wy2mn4cAAAAAEmjRo2SJFmtVoWGhiovL095eXmX3c8tFwGv X79ejz76qBYsWCBJ+uSTT5Sdna3OnTvL6XRqyZIlaty4sTs+CgAAAICk4OBg3XfffRo4cKC8vLzk cDj0zTffaO7cucrIyKhyP7cEwLJly3Ts2DF16tRJX3zxhdLT0xUUFKQ1a9Zo2bJlKi0tla+vrzs+ CgAAAICkmTNnKiYmRhkZGUpJSVF4eLh69eqlv/71r5owYYIcDkel+7ntScABAQEKCwvTxIkTdeLE CX366adKTU2Vj4+PPD093fUxAAAAgPGaNWummJgY/etf/9JLL70kp9MpSZowYYLuuecexcTEaP/+ /ZXu65YAmDx5siZNmlRu2R133KGHH35YBw8eJAAAAAAAN/Lx8ZEkff75566Df0natm2b7rnnHnl5 eVW5b42fA2CxWHTrrbfqo48+0t133y3p/MF/Zmam7r//fuXk5NT0IwAAAABcJCkpSUlJSYqNjXXF gJeXl2699VYlJSXV7m1AW7RoofDwcC1fvly5ubmSpMOHD2v//v3q3r27ysrKavoRAAAAAH6kuLhY /fr1U9++fXX69GmFhITIbrcrJSVFs2fPliQdP35cc+bMKbdfjb8BSE9PV35+vh5++GEVFRVJkp58 8knddNNN2r179yW/fgAAAABwdWJiYiRJdrtd4eHhstvP/24/KipKXbt2VdeuXdWuXbsK+9X4G4DS 0lLNnDlTDz74oOtK41GjRmnPnj2aPXu2AgMDa/oRAAAAAH5kwIABV7WfWy4C/te//qWtW7eqpKRE Dz74oLKzs1VWVqaWLVsqMzPTHR8BAAAAwA3cEgChoaHq2LGjnE6nnE6nWrRoodjYWIWEhGjx4sXK zs7W2bNn5eHh4Y6PAwAAAHCV3BIAr7/+uqKjoytdN2vWLL355ptav349DwMDAAAA6lmNA8DHx0ft 27fXG2+8ocOHD8tqtcrf319Dhw5VSEiI3n33XZ06dUp+fn7umBcAAABADdQ4AEpKSvSnP/1Jn3/+ ufLz82WxWBQaGqqzZ8/Kx8dHCQkJCggI4PQfAAAAoAFwy12Atm/frhEjRigyMlKenp7y9PSUxWJR RkaGdu7c6Y45AQAAALiBW64BWLBggVq3bl1heUJCgpYuXeqOjwAAAABQDV27dtXx48eVnZ1d6foa B0BwcLBat26tjz/+WK+//rosFouCgoJkt9vlcDgUEhJS048AAAAAUA29e/dWYGCg7Ha7CgsLVVBQ UGGbGj8JOCcnR6dPn9aRI0eUlpamU6dOKTs7W9nZ2crLy5PNZqvpRwAAAAC4DH9/fyUkJKioqEjh 4eFq1qxZpdu55RqAPXv26IEHHlCLFi2UnZ0tb29vWa1WnThxQv/6178UHBxc048BAAAAUIXevXvr +PHjSk1N1d69e9W9e3c1b95cWVlZysvLK7etW64B6N+/vyRp9OjR5ZYnJCRo1apVBAAAAABQS3r0 6KHGjRvLbrcrJydHJ06cUG5urho3bqyWLVtq//795bZ3SwDExcWprKxMkuR0OhUYGCir1aqysjIO /gEAAIBa0rZtW3377bfq37+//P391bx5c+3fv1+ZmZkKCAio9FlcVx0AzZs3V3h4uJxOpySV+7tR o0ay2WwqKCjQqVOnrvYjAAAAAFThzTff1JYtW3T06FHt379fPXv2VGhoqCTp5MmTio6OVkBAQIX9 rjoAYmNjdd99911ym4SEBN1///3y9/e/2o8BAAAA8CObN29WQUGBBg4cqJUrV+rcuXOyWCyuh+8W FBTIYrFUekOeqw6ALVu26Pjx43I4HBo8eLA6deqktWvX6sCBA7rhhhs0bNgwrVmzRr6+vlf/LwMA AADgVlcdAImJiTpw4IDsdrumT5+u6dOna/PmzfLw8NCuXbvUsmVL3Xjjjfrss8/cOS8AAABgvAED BrhOAZKkxo0by+l0qqSkRJLk4+Mjp9Ppuk73YjV+DkBQUJD8/Pz061//WlarVU6nUxEREYqJiVHb tm1dQwAAAABwn9///vfatWuXJKlTp06yWCyu62/DwsIknX9m14/V+C5AJ0+e1O7duxUbG6shQ4bo xIkTioiIkCR9+umnnAIEAAAA1JKjR4+qR48e8vb2Vm5urlJTUyVJTZs2lcViqfAMAMlNtwF9+OGH ddddd+m6665TYGCgvv32W23YsEEbNmyo9MpjAAAAAO7x7bffuh4ElpOToyZNmsjf3195eXk6duxY he3dEgA5OTmaN2+epPO3AQ0NDZXdbpevr68sFos7PgIAAABAFeLj4+Xv7y8/Pz916dJFNptNqamp lX4DUONrAAAAAADUv9zcXHXt2lVeXl7KyspSRkZGpb+MJwAAAACAn4n4+HilpaXp+++/V0FBgeth vRdzyylAAAAAABqGhISES67nGwAAAADAIAQAAAAAYJAqA6C4uFgWi6XS84ZqQ119DgAAAGCyKgMg JydHXl5elT4+2N2Ki4uVnp4uDw+PWv8sAAAAwGRVBkBKSor8/f1VXFxc60Pk5ubqwIED8vPzq/XP AgAAAEx2yW8AkpOT5evrq/z8fJWWlrr9NB2Hw6FTp07p66+/VllZGd8AAAAAALXskrcBTU9P17lz 5xQVFaXS0lIVFhaWi4CqXlutVtlsNtcfDw8P2Ww22e1215+ysjLl5eXpzJkzcjgc8vHxqYV/HgAA AICLXfY5AHl5eTpw4MAVvWnjxo1dEWCxWGS328tFwYWfL8QAv/kHAAAA6ga3AQUAAAAMQgAAAAAA BiEAAAAAAIMQAAAAAIBBCAAAAADAIAQAAAAAYBACAAAAADAIAQAAAAAYhAAAAAAADEIAAAAAAAYh AAAAAACDEAAAAACAQQgAAAAAwCAEAAAAAGAQAgAAAAAwCAEAAAAAGIQAAAAAAAxCAAAAAAAGIQAA AAAAgxAAAAAAgEEIAAAAAMAgBAAAAABgEAIAAAAAMAgBAAAAABiEAAAAAAAMQgAAAAAABiEAAAAA AIMQAAAAAIBBCAAAAADAIAQAAAAAYBACAAAAADAIAQAAAAAYhAAAAAAADEIAAAAAAAYhAAAAAACD EAAAAACAQQgAAAAAwCAEAAAAAGAQAgAAAAAwCAEAAAAAGIQAAAAAAAxCAAAAAAAGIQAAAAAAgxAA AAAAgEEIAAAAAMAgBAAAAABgEAIAAAAAMAgBAAAAABiEAAAAAAAMQgAAAAAABiEAAAAAAIMQAAAA AIBBCAAAAADAIAQAAAAAYBACAAAAADAIAQAAAAAYhAAAAAAADEIAAAAAAAYhAAAAAACDEAAAAACA QQgAAAAAwCAEAAAAAGAQAgAAAAAwCAEAAAAAGIQAAAAAAAxCAAAAAAAGIQAAAAAAgxAAAAAAgEEI AAAAAMAgBAAAAABgEAIAAAAAMAgBAAAAABiEAAAAAAAMQgAAAAAABiEAAAAAAIMQAAAAAIBBCAAA AADAIAQAAAAAYBACAAAAADAIAQAAAAAYhAAAAAAADEIAAAAAAAYhAAAAAACDEAAAAACAQQgAAAAA wCAEAAAAAGAQAgAAAAAwCAEAAAAAGIQAAAAAAAxCAAAAAAAGIQAAAAAAgxAAAAAAgEEIAAAAAMAg BAAAAABgEAIAAAAAMAgBAAAAABiEAAAAAAAMQgAAAAAABiEAAAAAAIMQAAAAAIBBCAAAAADAIAQA AAAAYBACAAAAADAIAQAAAAAYhAAAAAAADEIAAAAAAAYhAAAAAACDEAAAAACAQQgAAAAAwCAEAAAA AGAQAgAAAAAwCAEAAAAAGIQAAAAAAAxCAAAAAAAGIQAAAAAAgxAAAAAAgEEIAAAAAMAgBAAAAABg EAIAAAAAMAgBAAAAABiEAAAAAAAMQgAAAAAABiEAAAAAAIMQAAAAAIBBCAAAAADAIAQAAAAAYBAC AAAAADAIAQAAAAAYhAAAAAAADEIAAAAAAAYhAAAAAACDEAAAAACAQQgAAAAAwCAEAAAAAGAQAgAA AAAwCAEAAAAAGIQAAAAAAAxCAAAAAAAGIQAAAAAAgxAAAAAAgEEIAAAAAMAgBAAAAABgEAIAAAAA MAgBAAAAABiEAAAAAAAMQgAAAAAABiEAAAAAAIMQAAAAAIBBCAAAAADAIAQAAAAAYBACAAAAADAI AQAAAAAYhAAAAAAADEIAAAAAAAYhAAAAAACDEAAAAACAQQgAAAAAwCAEAAAAAGAQAgAAAAAwCAEA AAAAGIQAAAAAAAxCAAAAAAAGIQAAAAAAgxAAAAAAgEEIAAAAAMAgBAAAAABgEAIAAAAAMAgBAAAA ABiEAAAAAAAMQgAAAAAABiEAAAAAAIMQAAAAAIBBCAAAAADAIAQAAAAAYBACAAAAADAIAQAAAAAY hAAAAAAADEIAAAAAAAYhAAAAAACDEAAAAACAQQgAAAAAwCAEAAAAAGAQAgAAAAAwCAEAAAAAGIQA AAAAAAxCAAAAAAAGIQAAAAAAgxAAAAAAgEEIAAAAAMAgBAAAAABgEAIAAAAAMAgBAAAAABiEAAAA AAAMQgAAAAAABiEAAAAAAIMQAAAAAIBBCAAAAADAIAQAAAAAYBACAAAAADAIAQAAAAAYhAAAAAAA DEIAAAAAAAYhAAAAAACDEAAAAACAQQgAAAAAwCAEAAAAAGAQAgAAAAAwCAEAAAAAGIQAAAAAAAxC AAAAAAAGIQAAAAAAgxAAAAAAgEEIAAAAAMAgBAAAAABgEAIAAAAAMAgBAAAAABiEAAAAAAAMQgAA AAAABiEAAAAAAIMQAAAAAIBBCAAAAADAIAQAAAAAYBACAAAAADAIAQAAAAAYhAAAAAAADEIAAAAA AAYhAAAAAACDEAAAAACAQQgAAAAAwCAEAAAAAGAQAgAAAAAwCAEAAAAAGIQAAAAAAAxCAAAAAAAG IQAAAAAAgxAAAAAAgEEIAAAAAMAgBAAAAABgEAIAAAAAMAgBAAAAABiEAAAAAAAMQgAAAAAABiEA AAAAAIMQAAAAAIBBCAAAAADAIAQAAAAAYBACAAAAADAIAQAAAAAYhAAAAAAADEIAAAAAAAYhAAAA AACDEAAAAACAQQgAAAAAwCAEAAAAAGAQAgAAAAAwCAEAAAAAGIQAAAAAAAxCAAAAAAAGIQAAAAAA gxAAAAAAgEEIAAAAAMAgBAAAAABgEAIAAAAAMAgBAAAAABiEAAAAAAAMQgAAAAAABiEAAAAAAIMQ AAAAAIBBCAAAAADAIAQAAAAAYBACAAAAADAIAQAAAAAYhAAAAAAADEIAAAAAAAYhAAAAAACDEAAA AACAQQgAAAAAwCAEAAAAAGAQAgAAAAAwCAEAAAAAGIQAAAAAAAxCAAAAAAAGIQAAAAAAgxAAAAAA gEEIAAAAAMAgBAAAAABgEAIAAAAAMAgBAAAAABiEAAAAAAAMQgAAAAAABiEAAAAAAIMQAAAAAIBB CAAAAADAIAQAAAAAYBACAAAAADAIAQAAAAAYhAAAAAAADEIAAAAAAAYhAAAAAACDEAAAAACAQQgA AAAAwCAEAAAAAGAQAgAAAAAwCAEAAAAAGIQAAAAAAAxCAAAAAAAGIQAAAAAAgxAAAAAAgEEIAAAA AMAgBAAAAABgEAIAAAAAMAgBAAAAABiEAAAAAAAMQgAAAAAABiEAAAAAAIMQAAAAAIBBCAAAAADA IAQAAAAAYBACAAAAADAIAQAAAAAYhAAAAAAADEIAAAAAAAYhAAAAAACDEAAAAACAQQgAAAAAwCAE AAAAAGAQAgAAAAAwCAEAAAAAGIQAAAAAAAxCAAAAAAAGIQAAAAAAgxAAAAAAgEEIAAAAAMAgBAAA AABgEAIAAAAAMIi9vgfAz8PSpUvd/p5dunRR9+7d3f6+AAAAJiMA4BZ33XWX29/z6aefJgAAAADc jFOAAAAAAIPwDQDc4pFHHrnsNitWrFB6ero6dOigW265pcrtXn75ZTmdTneOBwAAgP+PAIBb/O1v f7vsNtu2bVN6erq6det2ye1fffVVlZWVuXM8AAAA/H+cAgQAAAAYhAAAAAAADEIAAAAAAAYhAAAA AACDEAAAAACAQQgA1JnCwkJJUl5eXpXblJaWyuFwSJJsNludzAUAAGASAgB1JjMzU5KUkpJS5Tb7 9+93PQMgJCSkTuYCAAAwCQGAOhEfH6/09HRJ0r59+3T48OFKt9u5c6frdbNmzepkNgAAAJMQAKhV 586d00cffaThw4e7ljkcDk2aNEmnTp0qt+3u3bv1+OOPS5KsVqv69+9fl6MCAAAYgScBwy1mzJih /fv3Kzs7W7m5ufrhhx+Um5urEydOuM7pl6Tbb79dq1ev1pYtW9ShQwdde+21ioiI0J49e7Rnzx6V lJRIkkaOHKmwsLD6+ucAAAD8bBEAcItZs2Zddpv+/ftr5cqVWrhwoaZMmaIzZ85o48aNFbbr1auX lixZUgtTAgAAgABArbFarfL391dUVJQGDBigP/7xj7JarZo8ebIKCwu1aNEi7d2713XRb0BAgG66 6SYtWrRIfn5+9Tw9AADAzxMBALfw8PDQ//zP/2jEiBFq3ry5GjVqJE9Pzyq3nzZtmqZNm6ZTp07p q6++UosWLdS1a1du/QkAAFDLCAC4xaFDh9SqVasr3i80NFQjRoxw/0AAAAB1LDg4WHa7XWfOnGnQ v9QkAOAWV3PwDwAA8FNmtVo1ZcoU3XXXXerQoYOCgoIkSbm5uTp69Kj+/e9/65133pHFYqnnScsj AFArEhMTdfDgQR06dEgpKSmKjIxUdHS0oqOj1blz5wb3PwIAAMCVuOaaa7R48WJde+21Fdb5+/ur W7du6tatm8aMGaP/+Z//0Y4dO+Tv718Pk1ZEAMCtEhMTNXXqVG3atKnKba699lrNnTtXN998cx1O BgAA4B6BgYFau3atoqKiyi0vLi6Ww+GQt7e3a1lERIQWLFigESNG6MSJE+XW1RceBAa3ef3119W1 a9dLHvxL0q5du9SvXz/ddddd5Z4RAAAA8FPw5ptvug7+s7KydM8996h58+auMx169+6tKVOm6Lvv vpMk2e12zZs3TwUFBa67H9YnAgBusW3bNj3yyCMqKSmRxWJRbGysXnnlFa1fv961zSuvvKKHHnpI oaGhkqSlS5dq5syZ9TUyAADAFfP29taoUaMkSWfOnFH37t21ZMkSpaWluU5xPnPmjP7zn/9o3Lhx +uyzzyRJbdq00c0336yCgoJ6m/0CAgA1VlJSojvvvFOlpaUKCwvTN998o08++UTTpk3T0KFDXduN GTNGL7/8shITEzV8+HBJ0rPPPqutW7fW1+gAAABXpEuXLrLbz59F/+KLLyozM/OS2z///PMqKSmR JHXq1EnFxcW1PuPlEACosb179yopKUmStGLFCnXv3v2S24eEhGjZsmVq166dHA6H3nvvvboYEwAA oMYuPu8/Pj7+stvn5eXp8OHDkqSOHTu6YqA+EQCosW+++UbS+XvfDhw4sFr7+Pv7a+LEieX2BwAA aOi+/vpr1+uLH3o6a9YsrVq1SjNmzFBeXl65fS5c+FtcXNwg7oRIAKDGLvz2v0OHDle0X8eOHSVJ CQkJDeKCGAAAgMtJTU3V0aNHJancqc7t27dXjx491LZtW5WVlbmWh4WFuZ6XlJyc7Dp9qD4RAKix pk2bSjr/H/WVOHTokCSpRYsWDaKGAQAAquPvf/+7JGnatGmaPHmyPDw8Kt2uSZMmmj17tqzW84fc O3bskJeXV53NWRUCADXWuXNnSVJGRob27NlT7f22bNkiSerXr19tjAUAAFArZs2apUWLFsnT01Nv vfWWEhMTdc0115TbJigoSBs2bFDPnj0lnb8N+tatW+Xj41MfI5dDAKDGBg4cqL59+0qSxo8fX+G8 t8o8++yz+vTTTyWJB4IBAICflKSkJNe1jNL5W3y2b9++3DZ2u931zUB6erqmT5+uoKCgOp2zKgQA 3GLWrFmSzp/P37ZtW7311lsVttm1a5deeOEF9evXT88995wkqW/fvhozZkydzgoAAFATrVu3rtbp y3l5eVq9erVuu+02nTlzpspThepa/V+FgJ+FG2+8UdOmTdOrr76qrKws/fGPf9SUKVPKbRMbG1vu 57Zt22r16tUN4lw4AACA6nrxxRe1ceNG5ebmllseHh6u3Nxc+fn56cyZM+rbt6+cTqdsNluDuPj3 Ar4BgNu88sorWrFihVq0aHHJ7QICAnTfffdp48aNrqcCAwAA/FTMmDFD69ev1yOPPKLg4GDt2rVL O3bs0N69e5WSkiKbzaaysjKVlJQ0yBudNJwUwc/CmDFjNHr0aO3cudO1bPLkyfLy8lJwcLA6duyo 2NhY+fr61uOUAAAAVy8lJUVRUVEaO3asxo4dq7S0NL377rtat26dUlNTG9Rv+yvTsKfDT5LFYtF1 113n+rmy6wEAAAB+qlq3bq2BAwfq7rvv1siRIxUZGakZM2ZoxowZ2rFjh1auXKkNGzY0iKf+VoZT gAAAAIAr4HA4tGnTJo0fP17NmjXT5MmTFR8fL0m67rrr9Ne//lXbt2/XX/7yF11zzTUNLgQIALjV kSNHtHz5ci1cuFDbtm1TaWlpfY8EAABQa86dO6e3335bffr00aBBgzR//nxlZWXJ29tbI0eO1D/+ 8Q999tlnmjBhggIDAxvEsREBALcoLCzUtGnTFB0drXHjxmnSpEnq3bu3+vTpoyNHjri2O3v2rJ58 8kl9+OGHOnXqVD1ODAAA4F5JSUmaM2eOBgwYoEmTJmn9+vUqLi5WRESEHnjgAb366qs6efJkfY/J NQBwj+nTp+u1116rsHzHjh2KjY1VQkKCPD09lZ+fr5deekmS1LRpU61du1bXXnttXY8LAABQa8rK yvTf//5XX375pUJCQjR06FCNGDGiwdz6nABAjR06dEivv/66pPP3v33qqacUGBioDz/8UJ988okO HjyoN998Uw899JA8PDzk6+ur/Px8ZWZmqn///kpKSlJYWFg9/ysAAACu3C9/+Uv95je/UceOHdW5 c2cFBATo6NGjOnr0qA4cOKDly5dr5cqV+uijjxQZGakmTZrU98icAoSa+/rrr+VwOCRJy5cv14MP PqgJEyZo9erVGjZsmCRp3bp1kqSwsDBlZWXp73//u2w2m3Jzc7lLEAAtoMDyAAAgAElEQVQA+MkJ CgrS4sWLtXHjRv3hD3/QwIEDFR4eLh8fH3Xp0kW33nqrpk+frrVr16pDhw4qKipSVlaWbDZbfY9O AKDmjh8/Lun8KT39+vVzLbdarRo/frwk6auvvnJFgr+/v+6991499NBDkqQPPvigjicGAAC4en5+ ftq5c6fuvvvuCuucTme5n1u0aKEVK1boxhtvVH5+fh1NeGkEAGqsW7duks4HgNVa/j+pX/3qV5Kk /Px8ZWRklFs3YMAASdL3339fB1MCAAC4x5///Ge1adNGkvTDDz/ohRdeUPfu3dWlSxd16NBBv/zl LzVt2jTt27fPtc/zzz8vSa5fiNYnAgA11qdPH1ksFiUkJOjcuXPl1oWGhio0NFSSlJycXG5dZGSk JCk3N7fBFDEAAMCl+Pj46MEHH5Qk5eTk6Prrr9fTTz+t7777Tnl5eSorK9Px48e1ceNGjR49Whs3 bpQkhYSEaNSoUcrNza3P8SURAHCDwMBAde3aVQ6HQ1u3bq2wPjo6WlLFALhwG1A/Pz/5+vrW+pwA AAA1FR0d7TqP/y9/+YsSExMvuf0zzzzjehBY+/btG8RDwQgAuMWbb74pDw8PTZ06VSdOnCi37sJt Pg8ePFhu+eeffy7p/74JAAAAaOg6dOjgev3VV19ddvv8/HzXM5HatGnDg8Dw89GnTx+98sorSk5O 1pAhQ/SPf/xD6enpcjqduuOOOyRJ8+bNU0pKikpLS7Vu3Tq98cYbkqTBgwfX5+gAAADVVlhY6Hrt 5+dXrX18fHwkSUVFRbJYLLUy15XgOQBwi82bN+uzzz6TxWLRt99+qwkTJlTYJjs7Wy1btpSHh0e5 r79+97vf1eWoAAAAV+3iU36GDBmiDRs2XHL7yMhItWzZUpJ09OhReXh41Op81cE3AKix9PR0DRs2 TGvWrKlw66vKXDj4t1gsmj9/vrp27VrbIwIAALhFUlKScnJyJEnTpk3T6NGjq9w2ODhYc+fOdf3W f9++fQ0iAPgGADX2zTffuL4OGzFihAIDAy+5vdVqVadOnTRgwAD16tWrLkYEAABwi9LSUj311FOa N2+erFar3n//fU2dOlUffPCBcnJyVFhYqBYtWqhLly4aNWqU6/SfQ4cOafXq1a67I9YnAgA1duEO Ph07dtTHH39cz9MAAADUrvnz52vYsGEaNmyYJOnGG2/UjTfeWOX2OTk5euyxx9SoUaMGcQ0ApwCh xn7xi19oyZIlmjlzZn2PAgAAUOscDodiY2M1efJk1+lAVdmwYYMGDx6stLQ0eXp61tGEl8Y3AKgx Pz8//fa3v610XUFBgdLS0tS0aVP5+/vX8WQAAAC1w+l06u2339Ynn3yiAQMGqGPHjurevbsCAgKU lJSk77//XgcPHlRCQoK8vb1ltzecw+6GMwl+Nj755BO99tprSkxMVFpamuvC4PDwcEVHR+u+++7T uHHjGtT/CAAAAFcjIyNDy5YtkyS1atVKVqtVdrtdNptNFoulwfzW/2IcgcFtEhMT9fvf/16bN2+u dH1WVpaysrK0detWPfPMM/rrX/+quLi4Op4SAACgZqq6g2HTpk1lsVhks9lks9mUk5Oj06dPy2pt WGfdEwBwi1OnTunXv/61UlJSXMtat26tNm3aKCIiQtnZ2Tp27JiOHDmigoICJScna+zYsfroo480 fPjwepwcAADgynz33XfV2u7999/X9OnTFRQUVMsTXRkCADXmdDo1ZswY18H/8OHDNWPGDPXu3bvC tqdPn9bLL7+sl19+Wfn5+Ro7dqzi4+N5FgAAAEAdIQBQYwcPHtS///1vSdKoUaO0YsWKKr/qCgkJ 0V/+8hf16NFDo0aNUn5+vlauXEkAAACAn4y33nqrwjKLxaL27durR48eCgoK0vr167Vx40Z5eXnV w4SXRgCgxr766ivX6/nz51frPLfbb79dv/nNb/TRRx9p27ZttTkeAACAW91///2VLm/VqpXCwsK0 fPly3XzzzZozZ06DvOlJw7oiAT9J6enpkqQ2bdooJCSk2vv17dtXkrR3795amQsAAKCunT59Wp9+ +qn8/f0VFxengoKC+h6pAgIANXbddddJkjw8PK5ovwvbd+vWze0zAQAA1Jfg4GBJUv/+/VVcXFzP 01TU8L6TwE/ODTfcIIvFooMHDyotLU2RkZHV2u+LL76QJA0YMKA2xwMAAHCryZMnV7o8LCxMHTt2 1NixYyVJhYWFdTlWtREAqLHGjRtr3Lhxeu+99zRq1Ch9/vnn8vHxueQ+K1eu1KpVq+Tp6anY2Ng6 mhQAAKDmKrsIuDKbN29ukBcBcwoQ3GL+/PkaOHCg4uPj1bNnT73zzjuVVm9ycrKmTJmi8ePHy8PD QytXrlSXLl3qYWIAAIDaEx8fr4ULF8rPz6++R6mAbwDgFuPHj5e3t7dsNpsSExN177336r777lN4 eLiaN2+ugoICpaSk6IcffnDt4+Pjo8cee0yPPfZYpe85btw4Pffcc3X1TwAAAKiWRx99tNLlAQEB ys3NVXJyshISEmS322WxWOp4ussjAOAWa9asqbDM6XQqMzNTmZmZle5TUFCgI0eOVPmeJ06ccNt8 AAAA7jJ37txKl7dq1UpWq1V2u102m62Op6o+AgBuMXLkSLe/Z48ePdz+ngAAAKYjAOAW//znP+t7 BAAAAFQDFwEDAAAABuEbANQLp9OpL7/8UkuXLlVxcbHeeeed+h4JAADACAQAqm3v3r2aN2+eJGnW rFkKDAy84vdITEzU0qVL9d577yk5OVmSdOutt7pzTAAAAFwCAYBq+/LLL7VgwQIFBARU+wEYkpSZ makVK1Zo6dKl2rVrV4X1DfH2WAAAAD9XBACqrXHjxpKk/Px85efny9fXt8ptc3NztXr1ai1dulSb Nm1SWVlZufXe3t4aMmSI4uLiNHz48FqdGwAAoC54enrKbrerpKSkvke5JAIA1Xbhib2lpaWaNGmS /va3vyk8PNy1vrS0VJs2bdLSpUu1evVq5eXlldvf19dXQ4cOVVxcnGJjY+Xv71+n8wMAALiTzWbT xIkTNXr0aLVv314tWrSQxWJRenq6kpKStHPnTi1evLjBne1AAKDaunTpori4OH344Yd677339MEH HyguLk5xcXHasmWLVqxYUeHhXf7+/ho2bJhGjRqlYcOGXfJbAwAAgJ+KX/ziF1q4cKGuueaaCusi IyMVGRmpm266SWPGjNEzzzyjbdu2qVGjRvUwaUUEAK7I4sWL1axZMy1YsEDFxcVatmyZli1bVm6b gIAAxcbGKi4uTkOGDJGPj089TQsAAOB+YWFh+vjjj8udCVGViIgILVy4UHfeeacOHDjQIH4ZynMA cEX8/f312muvKSkpSY8//riCg4MrbPPrX/9aY8eO1bBhwzj4BwAAPzsLFy50Hfynp6dr2rRpiomJ UYcOHRQTE6NBgwbp8ccf1759+1z7zJkzRyUlJXI4HPU1tgsBgKsSGRmpl156SampqXrnnXfUu3dv 17oPPvhAI0aMUJMmTTR+/Hh9/PHHKiwsrMdpAQAA3MPX19d1A5O0tDT17NlTr732mg4ePKji4mKV lJQoNTVV69at0x133KEvvvhCktSsWTP17du3QRwTEQCoER8fH91zzz366quvtG/fPj366KNq2rSp JCknJ0fvvfeefvOb36hJkya68847tXr16gbxHz4AAMDV6Ny5s6zW84fQL774orKysqrctqysTLNn z3b9HBMT0yDuEEQAwG06deqkOXPmuKp3zJgxrlOAfvjhBy1btky33XabwsLCdMcdd2jVqlUqKCio 56kBAACqLzo62vV67969l90+PT3ddWfEiIgIlZaW1tps1UUAwO1sNpuGDRumFStWKCsrS4sXL9ag QYNctZybm6sVK1bo9ttvV1hYmP785z/X88QAAADVk5qa6nrdpk2by24fEBAgPz8/SdLhw4fl4eFR a7NVFwGAWtWoUSPdfffd2rRpk44fP645c+aoR48ervV5eXmVPh0YAACgIdq/f7/r9fTp0xUQEHDJ 7SdOnOh6vW/fPnl6etbabNVFAKDORERE6NFHH9U333yjffv2acaMGYqKiqrvsQAAAKrt5MmT+sc/ /iHp/OlAhw8f1hNPPFFhuzZt2mjRokW6++67JZ0/HXrv3r0EAMzVqVMnvfDCC0pOTtbcuXPrexwA AIBqe/zxx5WZmSlJatKkiR5++OEK2/Tq1Us33HCDJMnhcOgPf/iD7Ha765To+lT/E8BoFoulWufP AQAANBRZWVnq0aOH/vOf/1x229LSUv3pT3/Srl275O3tXQfTXR5PAgYAAACuUGZmpvr376/rr79e AwcOrLA+JSVFb7zxhlatWqWTJ0+6LgRuCAgAAAAA4Co4nU5t375d27dvr7Bu27Zt2r59uzw8PGS3 N6xD7oY1DQAAANDALV26tNLlF07xsVgsslgs5V5bLBZ9+OGH2r9/f71/G0AAAAAAAFfgzjvvvKr9 vvzySyUkJLh5mivHRcAAAACAQfgGAAAAALgC7dq1q3R5RESELBaL63afF15f+DsnJ0e+vr51PG1F BAAAAABwBY4ePVrp8rKyMlmtVtntdtlsNlksFnl4eLiW8RwAGG/NmjUaM2aM5syZU9+jAAAAGINv AFBvEhMTtXLlShUVFemxxx6r73EAAACq5f333690uZeXV7k7AO3YsUNr167VrFmzVFpaqvXr1ys+ Pl7+/v51OW4FBADcJiMjQ5s2bdLevXurtf2Fe+bu27dPTz75ZLl1zz77rHx8fNw+IwAAQE2NHj26 WtsVFxdr3bp1Gjx4sKTzxzzVeXpwbSMA4BbTpk3Ta6+9dlX7HjlyRC+99FK5ZdOnTycAAAAAagEB gBo7ffr0VR/8AwAA/NR07Nix0uXNmjUrdxegvLw8lZWVaeTIkZKkH374oc5O/7Hb7SorK5PT6ay4 rk4mwM/akSNHXK8feOABTZ06VZ6enpfd76233tLs2bP1q1/9Sm+//Xa5dY0bN3b7nAAAAO6QmJhY YZnValVhYWGldwFKTk6u87sArVixQosWLdKnn35aYR0BgBq7+GD/2WefVUhISLX2Cw4OliT5+vqq VatWtTEaAABArfDy8tJTTz2lwYMHq0OHDmrUqJFSUlKUmJio119/XUePHpWHh0e9zljV8RUBgBrr 0KGDJkyYIElX9HCLzp07a8KECerZs2dtjQYAAOB24eHh+vzzz9W5c+dyy9u0aaM2bdpo6NChmj17 thYsWFCrZzXMnDmzynWNGjVSbGysMjIytHr16nLrCADUmK+vr/73f//3ive75ZZbdMstt9TCRAAA ALVn1qxZroP/goICnT17Vs2aNVNhYaG8vb1lsVj0xBNPKD4+XocPH5a3t3etzNGnT59Lrvf09NRv f/tbAgC1Lzc3V6tWrdKhQ4d05MgRpaamKjIyUu3atVO7du00ZMgQNWvWrL7HBAAAuGIhISH67W9/ K0l699139bvf/U5Tp07VnDlzNH36dJ0+fVpvvPGGAgICdPfdd+uRRx6ptQB46qmnLrtNSUlJhWUE ANymrKxMixYt0jPPPKPMzMwqt/P19dXDDz+sJ554QgEBAXU4IQAAQM106dJFFotFTqdT06dPV3Fx sWudw+HQ5s2btXr1ak2YMEGdO3eu9ADcXeLj469qv7q5DBlGGD16tCZPnlzh4D8wMND1RDxJys/P 18yZMxUTE6PU1NS6HhMAAOCqXfhtfklJifLy8ird5sKtN8vKyupsrivBNwBwi3nz5mnVqlWSzl8Y M2XKFI0dO1atWrWSt7e3SkpKlJaWpo0bN+rtt9/Wzp07lZGRobFjx2rLli2y2/lPEQAANHx79uyR dP78+qlTp5a7ENdqtWrAgAG69dZbJUnffvttrd8JKCYmRt26dVNMTIzatWsnSTp37py2bdumzz// XBkZGRX2sUiq+HSAGmrcuLGsVqvr/qcX7nlqs9lks9lcP1+4H+qFZRf/ffH2F94nNDRUixcvdve4 qKFz584pPDxcRUVF6tChg7788svL3gr0mWee0fPPPy9JeuGFFzRjxoy6GBUAgAZttsUip+T6I9dr y49+/vH6i3+2XGb9xX8s1XzPK53h6me+/D41n3mTChUdHa1Dhw7pamzfvl3XX3+9pPO32oyLi9Oc OXNUXFzsuj260+nUuHHjtHv3bvn4+JR7DsCFY96Ll3l4eJRb7uHhIavVqjZt2ujpp5+udI7bbrtN U6dOLXemxcXy8vL00EMPlXtmk8QpQHCD3bt3q6ioSJK0Zs2aaj0H4LnnntOYMWMkSRs3bqzV+QAA ANxp/Pjxys3NlaRyB98XPxvpT3/6k7Zv3y4vL69amcHT01P333+/MjMzNX36dN17771au3atysrK 9Pzzz+u5555TSUmJ7rvvvgr7EgCosW+//VaSFBkZqejo6GrvN3To0HL7AwAA/BQcPnxYMTExmj9/ vkpLS13Lc3Nz9c9//lN33HGHli9fLh8fn1qboXXr1vLw8NCaNWu0fft2JSUl6a233pLValWPHj20 ZcsWbdiwQZ06daqwLydeo8ays7MlSW3btr2i/WJiYiRJZ8+eVWZmppo2ber22QAAAGpDWlqafv/7 30uSXn31Vb388suKiopyneZ+8bcBteHkyZOSpEGDBmn37t06d+6cbr/9dlksFpWUlKhRo0bq2bOn Dh48WGFfAgA1ds0110iSEhIS5HQ6qzwP7ce+++47SedvC9qkSZNamw8AAMCdunbtWunypk2bymKx uK5hzcnJ0enTp2W1uv+kmzNnzuiLL75Qv379NH/+fNfy0tJS12/+27Vrp5deeqnCvgQAaqxbt26S zv8mPz4+/rJPpbvg3//+t6Tz99Otjf8xAAAAasOFX2Jezvvvv6/p06crKCioVuZ48cUXlZSUpP79 +ysoKEjJyclasmSJDh48qHbt2unJJ5/U119/XWE/AgA11rZtWzVv3lypqakaPny41q9fr1/84heX 3Of555/X+++/L0m65ZZb6mJMAACAn5WioiK9++67evfddyus+/Gdfy5GAKDGrFarPvjgA/Xr109n zpzRjTfeqEGDBmn06NHq2rWrIiIi5OXlpRMnTmj37t1aunSp1q9fL0nq2LGjnnzyyXr+FwAAAFTf W2+9VWGZxWJR+/bt1aNHDwUFBWn9+vXauHFjrd0FSJLr1J/HHnusyoeSVYYAgFvccMMNmjdvniZP nqzS0lJ99tln+uyzzy65T1BQkJYsWVKr/2MAAAC42/3331/p8latWiksLEzLly/XzTffrDlz5tTq w04v3FDFZrNd0X6ceA23+d3vfqfvvvtOo0ePvuw5/ePGjVNiYqLrIRoAAAA/B6dPn9ann34qf39/ xcXFqaCgoNY+64knntATTzyh/Pz8K9qPbwDgVtdcc43ef/99HT582HVP2u+//175+fmKjo5WdHS0 unXrVuXV8wAAAD91wcHBkqT+/fvrxRdfrLXP2bFjh6Tzp2OHhIQoMDBQFotF2dnZys7OlsPhqHQ/ AgC1on379mrfvn19jwEAAOB2kydPrnR5WFiYOnbsqLFjx0qSCgsLa3WORo0aafLkybr55pvVqFGj cuvOnj2rtWvX6p133pHT6Sy3jgAAAAAArkBlFwFXZvPmzbV6reOLL76ozp07q7S0VCkpKcrLy5PT 6ZSvr68iIiI0fvx4Wa1WLVy4sNx+BAAAAADgZvHx8Vq4cKH8/Pxq5f1DQkLUuXNnbd26VTNnzlRR UVG59V5eXlqyZIluuukmAgAAAACoiUcffbTS5QEBAcrNzVVycrISEhJkt9tlsVhqZYaAgABJ0oED Byoc/EvnnxGQnJzsulPQxQgAAAAA4ArMnTu30uWtWrWS1WpVy5Yt1b9/fx07dkypqany9PR0+wzH jh1Tfn6+Jk6cqHbt2rluuuJ0OuXj46PWrVvrhhtu0Pbt2yvsSwAAAAAAbjRo0CA9/fTTmj9/vubM mVMrAeBwOPTMM8/oueee08CBAyvdJisrS6+88kqF5QQAAAAAcAV69+6tBx54QJ06dSq3/MJDv0JC QiRJo0aN0s033yyLxaLly5fr448/dp264w47d+7UyJEjdf311ysqKqrcbUC///57bd++XWVlZRX2 IwAAAACAarJYLFqxYoWioqIuu21oaKhCQ0Mlnb9FaGUH4zXVvXt3BQQE6L333lNUVJQ8PDyUkZFx yYeDEQAAAABANQUHB7sO/h0Oh3Jzc13rLlzw6+npKS8vLxUXF6uoqEgWi8X1tzvdcccdmjRpknbs 2KF169Zp5MiRuvXWWyVJOTk5ysjI0K5du7gLEAAAAHC1Gjdu7HodERGhrKws188XLgKeOHGinn76 aS1atEhz5sxR48aNZbfb3Xr6jyQNHz5cp06d0vr16yVJJ0+elCT997//VVFRkXr16qUePXpU2M/q 1imAHyktLVVGRkaVj6IGAAD4KTl79qz++f/Yu+/wqMr8/eP3TCYFUoAQIiGUYOidBBAQMIooRTqi wIoNcVF0dVex7lflp6uioKxYiLCsirJIEZGmIFjoJSR0AkIgIaRACKGlz+8PYCSmEMgkgzzv13XN 7syZ85zzUfC6nnvOU+bN06xZswp0/i916NAhLVu2TLGxsY55Ac4WEhKioKAgff311/rpp58kSV99 9ZWysrKUlZWl119/Xdu2bSuyLU8A4HRr1qzRxIkTtWPHDh08eFC5ubny8PBQSEiIQkND1b9/fz38 8MPl9h8EAABAeUlLS9OQIUNKPOfnn3/W6tWrZbFYVKlSpXKp4+IY/w4dOmjhwoXKyspSly5d5Onp edl70gOD0yQkJGjs2LH69ttvC32XnZ2t2NhYxcbGaunSpXrvvff09ttvO8apAQAAoPRSUlK0a9cu tWvXTgsXLlRGRoZjwvG6detKbMsQIDhFZmam+vXrV6DzHxQUpI4dO+rOO+9UvXr1Cpy/d+9eDRgw QPPnz6/oUgEAAK4Lr732mjZt2iQPDw8FBATIbrdr7ty5Wrx4saTzIeHo0aOF2vEEAE7x2GOPaevW rZKkAQMG6LnnnlPHjh0LnJORkaHt27frm2++0aRJk2S32/XQQw+pTZs2uvHGG11RNgAAwJ9WSkqK xo0bp6pVq8rf319JSUkFlv+cMmVKke14AoAyO3v2rD7//HNJ0v3336/58+cX6vxLkp+fn26++Wa9 ++67WrBggby9vXXy5Em99tprFV0yAADAdSM9PV0HDhwoce3/SxEAUGbR0dGOjS0mTJhQqjVu+/Xr p4EDB0qSNm7cWK71AQAA4HcEAJTZ9u3bJUn16tVTYGBgqdv16tVLkhQbG6tTp06VS20AAAAoiACA MqtRo4Yk6cyZM1fU7uJGGvn5+crJyXF6XQAAAK5w5513avbs2Ro8eHCph+VUJCYBo8waNmwoSTp2 7JjWr19f5Pj/okRFRUk6HwT8/f3LrT4AAABn6tq1a5HHa9SoIavVqjZt2qhly5aKi4vTnj17dPLk SaWmpl4zeyBdG1XgT61p06Zq0KCB9u/fr/vuu0+RkZG69dZbS2yzadMmvfPOO5Kkdu3aVUSZAAAA TvHLL7+U6ry+ffuqb9++kqQFCxboueeec4yccCWGAKHMbDab/vWvf0mS9u/fr9tuu02dO3fW+vXr C527Zs0a3XrrrerQoYNj3P9LL71UofUCAABUtAEDBqhjx446d+6cq0vhCQCcY8iQIRo/frxeffVV 5efna926dZozZ06h4UBfffWVfvrpJ8fnv//975d9WgAAAHAteeutt4o87u3tLYvFolatWqlbt26K iorSzp07NWLECFmtVjVo0EDR0dEVXG1hBAA4hcVi0T//+U917txZEydOLNDJ/yObzaZ27drp2Wef 1aBBgyquSAAAACd44YUXijweEhIiq9WqkSNHqlu3btqwYYPeffddtW3bVi1atJC/v79j6XRXIgDA qbp3767u3bsrMzNTKSkphb5/5plnNGHCBHl7e7ugOgAAgPK3du1aPfPMM9q3b5+8vLz07rvvysfH R/Hx8fLx8XF1eQQAlA8vLy/VrVtXeXl5SklJUWBgoNzc3FS/fn1XlwYAAOAUrVq10qhRo9S0aVMF BATo8OHDioqK0v/+9z8dPnxYVqtV7u7u2rZtm2w2m+Plaq6vANedZcuW6cMPP1RsbKwOHjyonJwc ubu7KyQkRKGhoRo8eLAefPBBubm5ubpUAACAK2axWPThhx/q0UcfldX6+5o6bdq0Ub9+/TRmzBg9 8cQT2rp1q9zd3V1YadFYBQhOs3fvXvXo0UO9evXSokWLFBsb69jgKycnR/v27dOyZcv0yCOPqGXL llq8eLGLKwYAALhyTz/9tMaMGVOg83+pG264QZGRkfLz87smxvz/EQEATnHy5En16tVLK1ascBxr 0aKF+vbtq0ceeUQDBw5Uu3bt5OHhIUnavXu3+vbtq6VLl7qqZAAAgCvm4eHhWP48OTlZb7zxhiIi IlSnTh397W9/04IFCyRJVatW1dNPP60zZ864stwiMQQITjFq1CgdPHhQkjR8+HC98MILatGiRaHz UlNTNWPGDL3xxhvKyMjQfffdp+joaNWuXbuiSwYAALhiTZo0kaenpyRp2LBhWrVqleO7hQsXatGi RfLw8FDv3r3VokULx2iIawlPAFBmhw4d0ty5cyVJDz74oL788ssiO//S+S2yx40bp6VLl8rHx0fH jx/Xa6+9VpHlAgAAXLWGDRtKkux2u1avXl3kOZs3b5Yk3XjjjQwBwvXp4oYWbm5umjJlSqnadO7c WU888YSk3/8jAQAAuNbFx8dLOj8RuFmzZkWeczEkJCYmFjtPwJWuvYrwp3MxADRr1kyVK1cudbvO nTtLknbu3Kns7OxyqQ0AAMCZdu7cKbvdLkmaNWuW7r//ftWuXTZXFBgAACAASURBVFtubm5q3bq1 nnzySd1zzz2SpF27dl2TqwAxBwBldnFDCy8vrytq5+vrK+n8CkEZGRkKCAhwem0AAADOdObMGU2Z MkVPPPGEmjZtqv/+97+SpLNnzxb4ITQ7O1sff/zxFf04WlF4AoAya926taTzTwLOnTtX6nZr1qyR dH6pLDr/AADgz+LZZ5/Vzz//XODYHzv/L7zwgg4cOHBNPgEgAKDMLgaAnJwcffjhh6Vqc+bMGcfE 4YvtAQAA/gyysrJ066236t5779XKlSt19OhRZWdna+/evZo1a5YiIiK0aNGiKx4dUVEYAoQyq1Gj hnr37q0lS5bo2Wef1bFjx/Tss8+qevXqRZ5//Phx9enTR1u3bpUkjR07tiLLBQAAKDO73a7Zs2dr 9uzZks5PCq5Xr56sVqtsNpvc3NxcXGHxCABwipkzZ6p9+/b67bff9Pbbb2vSpEnq3r27WrZsqeDg YHl6eiolJUXR0dFatmyZY6jQ8OHD1bdvXxdXDwAAUHoXFzL5o8DAQFksFrm5uclqtSo9PV1Hjhxx bIR6rSAAwCmqVaumBQsW6J577tGuXbuUk5OjZcuWadmyZcW26d+/vz744IMKrBIAAKDsLs5jvJx5 8+bpmWeeueYCAHMA4DQtWrTQjh07NGfOHIWFhclisRQ6x2KxqHHjxvrmm2+0YMEC+fv7u6BSAAAA c/EEAE5lsVg0ZMgQDRkyRJmZmYqLi9OBAwd07tw5NWzYUA0bNlSlSpVcXSYAAMBVK2oEg7+/v1q3 bq3mzZsrLy9Pn3zyiTZs2HBNTgQmAKDceHl5qUmTJmrSpImrSwEAAHCaJ598ssjjISEhevTRR/X8 889r2LBh+vrrr6/JycAMAQIAAACcZNasWbLb7apevbqGDRt2RXskVRSeAMApIiMjr7ptSEiI7rjj DidWAwAA4BqnT59WamqqvL291blzZ2VnZ7u6pEIIAHCKRx999Krb9u/fnwAAAACuG127dpWbm5ss Fkux+yK5EkOAAAAAAIPwBABO8euvv5b4fVZWllJTU3Xo0CFNmTJFCQkJatGihRYuXKgqVapUUJUA AAAgAMApunTpUupz//a3v+nee+/Vt99+q1dffVWfffZZOVYGAACASzEECBXOy8tL06ZNU2BgoD7/ /HPNmDHD1SUBAAAYgwAAlwgICNBjjz0mSVq6dKmLqwEAADAHAQAuExISIknasGGDawsBAAAwCAEA LrN//35JUkpKiux2u4urAQAAMAOTgOESiYmJmjVrliSpbdu2slgsLq4IAACgdGbPnl3kcU9PT1ks Fke/ZtOmTVq0aJHeeust5ebmasmSJVq3bp18fHwqstxCCABwiiVLllz2HLvdroSEBMXExGjhwoU6 cuSIJKl9+/blXR4AAIDTDB06tFTnZWdna/HixY4NT3fu3KlffvmlPEsrFQIAnKJPnz5X1S40NFTP PPOMk6sBAABAcQgAcJmbbrpJ8+bNU3BwsKtLAQAAKLWmTZsWeTwoKEgWi0U2m01Wq1VnzpxRXl6e Bg0aJEk6deqUy4f/SAQAOMm0adNKdV6lSpVUvXp1NW3aVHXr1i3nqgAAAJxvz549RR7PzMyU1WqV zWaTm5ubLBaL3N3dFRcXJ5vN5ggGrkYAgFM8/PDDri4BAAAApUAAAAAAAK5AUlJSkcdL+nXfYrHo 9ddf188//yw/P7/yKq1UCAAAAADAFbjhhhuuqp2np+c1sfcRAQBO0aNHj6tu27lzZ7322mtOrAYA AADFIQDAKVasWHHVbb29vZ1YCQAAQPmqUaNGoWO//PKLmjZtqsWLF+u5556Tr6+vLBaLgoKCNG/e PBdUWTwCAJyiZs2aJX6fnZ2tEydOFHjsFRQUpPr166tJkyblXR4AAIDTHDt2rNCx3NxcSef7PGlp acrPz5fFYrkmf+gkAMApjh49etlzcnNzdfjwYb3zzjuaNm2asrKy9Nlnn6lBgwYVUCEAAEDFs1gs ri6hENcvRApj2Gw23Xjjjfr444/19ttvKy0tTXfddZfS09NdXRoAAECZnDlzRpLUqlUr5eXlOY43 bNjQ8T4rK+uaCAQEALjEU089pS5dumjv3r2aOHGiq8sBAAAok7i4OElSaGiohg0bJkkKDg7W0KFD HeccPnxYNpvrB+C4vgIYyWq1atCgQVq9erXWrVvn6nIAAADKZM2aNbr33nslSe+//77OnTsnLy8v xy/+GRkZio2NdfkeABJPAOBCVapUkSRt2rTpmlgTFwAA4GpNmzZNiYmJjs+VKlUqMNznvffek8Vi KXGzsIri+gpgrE2bNklSgXQMAADwZ5SZmam+fftq4cKFSk1NlXR+AZR9+/Zp7Nixmjt3rnx9fV1c 5XkMAYJLzJkzRzNmzJAktW/f3sXVAAAAlF1aWpqefvpp2Ww2+fn5OSb9urm5qVKlSq4uz4EAAKd4 4IEHSnVeQkKCYmJiCqyf261bt3KqCgAAwPkCAgL07rvvqkuXLkpJSdGCBQs0YcIESVL//v21ZcsW JSUlyWazyd3d3cXVFkYAgFN89tlnV9Xu/vvv1zPPPOPkagAAAMqHxWLRd999p44dO0o6v+pPp06d VKVKFX3wwQd6+OGHNWnSJC1YsEBPPPGEqlev7uKKC2MOACqcn5+fbrrpJk2cOFH/+c9/ronJMAAA AKXRunVrR+c/NzdXOTk5kqTRo0c73kvSgAEDNGjQIJ07d84ldZaEJwBwipMnT5b4vcVikd1uV6VK la7JR2EAAAClERgYKElKTU1Vy5Yt5evrq0WLFqlx48Zq3bq1XnzxRX3wwQeqW7eubr/9dn377bfy 9vZ2cdUF8dMrnMLPz6/El6+vr/z8/Oj8AwCAP7WNGzcqPz9fhw4dUnJysvbv36+ZM2dKktq2bast W7Zo3rx5kqQGDRooNzfXleUWiQAAAAAAlFJ6erq+//57hYeHKzg4WJK0evVqSVLz5s2Vl5en7Oxs SdK5c+euyaXOGQIEp0tISNCMGTO0d+9excbG6vDhwwoODlajRo3UqFEjDR8+XI0bN3Z1mQAAAFfl 5Zdf1i233KIff/xRkZGRSk5OVlZWlu6++24dOXLEsSPwpk2b5OHh4eJqCyMAwGmys7M1adIkvf76 6zpz5kyB75KTkxUVFSVJ+te//qW//vWvevXVV6/JmfEAAAAl2bJliySpcePGmjhxouO4p6enXn75 ZcfnzZs3X5PDnxkCBKew2+3q16+fXnjhhQKdfx8fH8f7i4/AcnNzNWXKFLVq1UopKSkVXisAAEB5 W79+vVatWiVPT09Xl1IITwDgFJMnT9b3338vSWrWrJmee+453X777apVq5aj4x8bG6uUlBRNnjxZ X3/9tRITEzVixAh9//33LAUKAAD+NPbs2aNZs2bp7NmzstvtjuN+fn7Kzc3Vvn37tH37dnl4eDAH ANenkydP6vnnn5ckRUREaPny5bLZCv/V8vHxUYMGDdS5c2dFREToscce04oVKxQZGam//vWvFV02 AADAVWnVqlWBNf8vCgkJkdVqlc1mk5ub2zXZ+ZcYAgQniIqKUlZWliRp1qxZRXb+/2jMmDHq06eP JGnVqlXlWh8AAIAzXez8W61WNW7cWH379tXgwYPVpEkTeXl5FXgqcC3iCQDK7OJEmPr166tmzZql bnfXXXdp8eLFjsnBAAAAfxY9e/bUu+++q+bNmxc4npmZqRkzZmjq1KmOH0ivNTwBQJmdPn1aklSj Ro0ranfx/MOHD1/zSRkAAOCiAQMGaMmSJYU6/5Lk5eWlMWPG6PPPP1dWVtY12cchAKDMateuLUna uXOn8vPzS91u48aNkqTw8PBrdowcAADApTw8PPTZZ585+i6pqamaN2+eJk+erG3btikvL0/S+XkC jz/+eKGl0a8FBACUWUREhGw2m86cOaMvvviiVG0yMjK0cOFCSVK3bt3KszwAAACnadu2rfz8/CSd 39soMDBQQ4YM0VNPPaX+/furR48eSktLkyR17NjRsSvwtYQAgDJr0KCBRo0aJUkaO3asli5dWuL5 SUlJuvPOO7Vnzx5JUq9evcq9RgAAAGe4dOnyyZMnF/r+0KFDjgVOqlWrxhAgXL/+7//+T5UrV9bp 06fVu3fvIjv1r776qtq2batatWpp/fr1kqR//vOfuuWWWyq6XAAAgKsSFRWlzMxMSZK/v3+R59Sv X1+StGHDBnYCxvUrKChICxYsUGBgoCRp06ZNhc6ZOnWqoqOjHUl42LBhGj9+fIXWCQAAUBZZWVka OXKkcnNzFRkZqfbt2zueClitVj300EMKCwvT/v379d5778nHx8fFFRfGMqBwmh49eigmJkYTJkzQ ihUrijzHy8tLAwcO1AMPPKDbb7+9gisEAAAou4ceekjHjx9X165dtXHjRqWlpSk+Pl4NGjSQt7e3 pPMboM6dO7fAQicTJ07Upk2bXB4KCABwqpo1a2rSpEkFxrutWLFCnp6e8vf3V/369VWpUiUXVggA AFA2PXv2LPDZ39+/0HCgmjVrFtofydvb+4pWTCwvBACUi0vTbvfu3V1YCQAAgHNdXOrzSl0LnX+J AIBycvbsWe3bt0+xsbE6evSoateurdDQUIWGhrr8sRcAAEBZ2GxFd6FDQkJktVpls9nk5uYmi8Ui d3d3xzGbzeYYIuRKBAA41bFjx/T666/r448/Lnbd29tuu00TJkxQeHh4BVcHAAAAVgGC03z33XcK DQ3V5MmTS9z0YuXKlWrfvr3uu+++a3JzDAAAgOsZTwDgFHv37tWIESN06tQpSVK9evU0YMAA1atX T1WqVNHu3bu1fft2bdu2TUePHpXdbtfMmTPl7+9f5CYaAAAAKB8EADjF0KFDderUKbm7u2vGjBka NmxYgZ3yLrVhwwbdfffdio+P17///W9FRERo4MCBFVwxAACAmRgChDJLSkrStm3bJEmffvqpRowY UWznX5JuuukmRUVF6cYbb5QkTZ8+vULqBAAAAAEATrB582ZJkru7u+65555StQkICNCgQYMKtAcA AED5IwCgzBISEiRJ9evXl5eXV6nb3XbbbZKk5ORkJScnl0ttAAAAKIgAgDK7OJTn8OHDV7QxRkZG hqTzm4ZVqVKlXGoDAABAQQQAlFnjxo0lSZmZmfr4449L3W7RokWSpFq1al3RkwMAAABcPQIAyqxe vXrq16+fJOkf//iHxowZo7i4uGLPT0xM1Lhx4zRz5kxJ0l133VURZQIAAEAEADjJm2++KS8vL2Vn Z+uTTz5Rw4YNNXXq1ELnffDBBwoJCdE777wjSfL09NRLL71U0eUCAAAYiwAAp2jWrJnWrl2r0NBQ SVJubq5iY2MLnbdnzx7l5ORIkoKCgvT999+rTp06FVorAACAydgIDE7Ttm1bRUVFad68eVq2bJmq VatW6JyqVauqX79+ioiI0IgRIxQYGOiCSgEAAMxFAIBT+fn56cEHH9SDDz5Y5PdvvPFGBVcEAACA SzEECC4zYcIEWSwWDRw40NWlAAAAGIMAAJez2+2uLgEAAMAYDAGCUyQlJWnOnDlavny5duzYUapO /cmTJyVJy5cvV/369Qt8Fx0dzeZgAAAA5YAAgDLLz89X7969tXXr1qtqf/bs2UL7BuTn5zuhMgAA APwRAQBldvjw4QKd/9atW8vd3f2y7ZKSkpSQkKCqVauqQYMGBb6z2firCQAAUB7oZaHMEhMTHe+X LFmiXr16lardhAkT9Nxzz+mWW27RggULyqs8AAAAXIJJwCizgIAAx/suXbq4sBIAAABcDk8AUGYN GjTQd999J0ny8vIqdbvBgwerWbNmqlmzZnmVBgAAgD8gAKDMrFar7rrrrituFxoaqtDQ0HKoCAAA AMVhCBAAAABgEAIAAAAAYBACAAAAAGAQAgAAAABgEAIAAAAAYBACAAAAAGAQAgAAAABgEAIAAAAA YBACAAAAAGAQAgAAAABgEAIAAAAAYBACAAAAAGAQAgAAAABgEAIAAAAAYBACAAAAAGAQAgAAAABg EAIAAAAAYBACAAAAAGAQAgAAAABgEAIAAAAAYBACAAAAAGAQAgAAAABgEAIAAAAAYBACAAAAAGAQ AgAAAABgEAIAAAAAYBACAAAAAGAQAgAAAABgEAIAAAAAYBACAAAAAGAQAgAAAABgEAIAAAAAYBAC AAAAAGAQAgAAAABgEAIAAAAAYBACAAAAAGAQAgAAAABgEAIAAAAAYBACAAAAAGAQAgAAAABgEAIA AAAAYBACAAAAAGAQAgAAAABgEAIAAAAAYBACAAAAAGAQAgAAAABgEAIAAAAAYBACAAAAAGAQAgAA AABgEAIAAAAAYBACAAAAAGAQAgAAAABgEAIAAAAAYBACAAAAAGAQAgAAAABgEAIAAAAAYBACAAAA AGAQAgAAAABgEAIAAAAAYBACAAAAAGAQAgAAAABgEAIAAAAAYBACAAAAAGAQAgAAAABgEAIAAAAA YBACAAAAAGAQAgAAAABgEAIAAAAAYBACAAAAAGAQAgAAAABgEAIAAAAAYBACAAAAAGAQAgAAAABg EAIAAAAAYBACAAAAAGAQAgAAAABgEAIAAAAAYBACAAAAAGAQAgAAAABgEAIAAAAAYBACAAAAAGAQ AgAAAABgEAIAAAAAYBACAAAAAGAQAgAAAABgEAIAAAAAYBACAAAAAGAQAgAAAABgEAIAAAAAYBAC AAAAAGAQAgAAAABgEAIAAAAAYBACAAAAAGAQAgAAAABgEAIAAAAAYBACAAAAAGAQAgAAAABgEAIA AAAAYBACAAAAAGAQAgAAAABgEAIAAAAAYBACAAAAAGAQAgAAAABgEAIAAAAAYBACAAAAAGAQAgAA AABgEAIAAAAAYBACAAAAAGAQAgAAAABgEAIAAAAAYBACAAAAAGAQAgAAAABgEAIAAAAAYBACAAAA AGAQAgAAAABgEAIAAAAAYBACAAAAAGAQAgAAAABgEAIAAAAAYBACAAAAAGAQAgAAAABgEAIAAAAA YBACAAAAAGAQAgAAAABgEAIAAAAAYBACAAAAAGAQAgAAAABgEAIAAAAAYBACAAAAAGAQAgAAAABg EAIAAAAAYBACAAAAAGAQAgAAAABgEAIAAAAAYBACAAAAAGAQAgAAAABgEAIAAAAAYBACAAAAAGAQ AgAAAABgEAIAAAAAYBACAAAAAGAQAgAAAABgEAIAAAAAYBACAAAAAGAQAgAAAABgEAIAAAAAYBAC AAAAAGAQAgAAAABgEAIAAAAAYBACAAAAAGAQAgAAAABgEAIAAAAAYBACAAAAAGAQAgAAAABgEAIA AAAAYBACAAAAAGAQAgAAAABgEAIAAAAAYBACAAAAAGAQAgAAAABgEAIAAAAAYBACAAAAAGAQAgAA AABgEAIAAAAAYBACAAAAAGAQAgAAAABgEAIAAAAAYBACAAAAAGAQAgAAAABgEAIAAAAAYBACAAAA AGAQAgAAAABgEAIAAAAAYBACAAAAAGAQAgAAAABgEAIAAAAAYBACAAAAAGAQAgAAAABgEAIAAAAA YBACAAAAAGAQAgAAAABgEAIAAAAAYBACAAAAAGAQAgAAAABgEAIAAAAAYBACAAAAAGAQAgAAAABg EAIAAAAAYBACAAAAAGAQAgAAAABgEAIAAAAAYBACAAAAAGAQAgAAAABgEAIAAAAAYBACAAAAAGAQ AgAAAABgEAIAAAAAYBACAAAAAGAQAgAAAABgEAIAAAAAYBACAAAAAGAQAgAAAABgEAIAAAAAYBAC AAAAAGAQAgAAAABgEAIAAAAAYBACAAAAAGAQAgAAAABgEAIAAAAAYBACAAAAAGAQAgAAAABgEAIA AAAAYBACAAAAAGAQAgAAAABgEAIAAAAAYBACAAAAAGAQAgAAAABgEAIAAAAAYBACAAAAAGAQAgAA AABgEAIAAAAAYBACAAAAAGAQAgAAAABgEAIAAAAAYBACAAAAAGAQAgAAAABgEAIAAAAAYBACAAAA AGAQAgAAAABgEAIAAAAAYBACAAAAAGAQAgAAAABgEAIAAAAAYBACAAAAAGAQAgAAAABgEAIAAAAA YBACAAAAAGAQAgAAAABgEAIAAAAAYBACAAAAAGAQAgAAAABgEAIAAAAAYBACAAAAAGAQAgAAAABg EAIAAAAAYBACAAAAAGAQAgAAAABgEAIAAAAAYBACAAAAAGAQAgAAAABgEAIAAAAAYBACAAAAAGAQ AgAAAABgEAIAAAAAYBACAAAAAGAQAgAAAABgEAIAAAAAYBACAAAAAGAQAgAAAABgEAIAAAAAYBAC AAAAAGAQAgAAAABgEAIAAAAAYBACAAAAAGAQAgAAAABgEAIAAAAAYBACAAAAAGAQAgAAAABgEAIA AAAAYBACAAAAAGAQAgAAAABgEAIAAAAAYBACAAAAAGAQAgAAAABgEAIAAAAAYBACAAAAAGAQAgAA AABgEAIAAAAAYBCbqwsAAADAn1vjvn3kExSkPYsW61TiUVeXg8sgAAAAAKDUKlWvriaDB6rxgH7y Dgws8F270aMc73fO+0axP6zQkS1RFV0iLoMAAAAAgFK584P3VbtTx1Kd23zwQDUfPFBHtkRpQ+R0 JRAEnM7T0/Oy52RlZRU6RgAAAAAwjIevryoHB8vnwisvJ1u7Z80u9vya4WG644PJcvPwuOJ7BYeH adDUMG2a/l+t/XhqWcrGHyxbtuyy59x6662FjhEAAAAADNDprTflExws7+Bg2SpX0tnkZJ05mqQz iUeVEh1dbLua4WHqOfXjQsd3z/tGZ48f17aZXyr77DnZJdklBTRqpJCIbqoVHqbg8DDH+e0ffkBB bVpp3qOPO/8fzlC7du0q8nidOnXk6+tbbDsCAAAAgAGCbu6sw0uXafWz43Q2JUX5+fmyyyLpfMe9 OG1GP1Lg86GfftHyZ8Y5Ovx/dCw2VqmxsbLLolrhYeow+mFHEKgdHqba4WGKZziQUzz+eMEwVa1a NY0ePVpNmzZVUlKSpkyZUmQ7lgEFAAAwwLIhQ+VRtYo6/et1VW3UqFRt2owepZqX/Iq/5NHHtOKZ caW+55EtUfrm0ccLTAQePPXD0heNUrHZbBo6dKhmzpyp7t2764svvtADDzygNWvWFHk+AQAAAMAA Z5OTtXbc89o59VN1Gv+a2r/4gjyrVi2xzaW//m+NnKajV/nL/fxHHy8wCbjj6Iev6joorH379po+ fbrGjBmjbdu26YEHHtCMGTOKnPx7EQEAAADAIEkbNmjZ8BE6nZCgXl9+rkZD75bFWrhLWK/7bb+3 2RKlrZHTynTf+ZeM/e94yXKhuHpvvPGGJkyYoNq1a2v+/PmaM2eOatasqbCwMMerKMwBAAAAMICH n6+yM05JkvJzc7X78y8Ut+x7tX3qbwoMa6tfnn+xwPlVQ290vN/99Ryn1LA+cpqj89/+gfu08b9f OOW6purcubMkyWq1atCgQRo0aFChc1gFCAAAwFB3zv6fck6d1rGYGKVERys1ZptOJRzRmhdflndw cKHzG/S9y/E+7seV0oUJw2UR+8MKRwC4miVFUdCcOVcXzAgAAAAABviuVx95BwcroHVr1WjTWk3v H6nME+na+PobqtW1q3Z/NavA+T5BQZKkrPR0p9VwIu6Q432d8DCt03SnXdtEH330kSQpICBA1atX V2Jiok6dOnXZdgQAAAAAA/iGhOhUXJxOHzmig0uWyC7J6ukldx8fWW1uxba73PCfWuFhjpWCNl3B PIHa4UWPT0fpBQYG6vnnn1fbtm0lSXa7XUuXLtV7772n3NzcYtsRAAAAAAzQ5d0J8qhSRce2b9ex 6BilxmzTsd17lHn8uHZ9PvOqrxsUHqbwC8N6ShMADq1br3qdOl71/fC7V155Rc2aNVNSUpIOHjyo 5s2bq3fv3jp16pQ++eSTYtsRAAAAAAywdMhQefj5qXqrlqreqpW6TnpXGXFxWv7w6Aqto3L16hV6 v+tV9erV1axZM/3www968803JUkWi0UzZsxQt27dCAAAAACQsjMylLh6jY6sXqNzx4/rXNqJy7ap G3FLmZcAvVSNRg2ddi2TVatWTZK0c+dOxzG73a49e/aoa9euJbZlHwAAAAADJW3cqNB+fYv9/tCP KyVJ/qXcNfhKxa1bXy7XNUV8fLzy8vJ09913q2vXrqpdu7Z69uypiIgIHTp0qMS2PAEAAAAwgGfV qvJv1kwn9u3T2dRUZaWf1LHtO4o9/8Rvvzk2A2szepQki+yXfH/xfdAVTOatdMnOw0dLuDcuLysr S5999pkeeughjR8/3nHcbrdr2rSSn9gQAAAAAK5zFqtVd86epdPx8fKuFaz83FylxsSoeosWOrzi R6UfPCjZ7QXaZKWfdLxvO/oRp9TRauhgx/vsU6edck2TffHFF4qLi1OPHj0UEBCg+Ph4zZ07V/v2 7SuxHQEAAADgOufh56cziUe1ctRo2SVVDgpS9datFNSpozq99ooOr1ypHTM+K9Bmz9dzdNO4Z5xa R8ruPY7dgKNmzXbqtU3166+/6tdff3V8HjZsmAYNGqS333672DYEAAAAgOtcVnq6fps/3/H5zNGj On30qBrfe6++f+Ah2Ytpt2vW/+Th6ytJhc4pajjQ5Rz8dY0O/rpG6yPZAMwZxowZo1tvvVVW6+/T er29veXm5qb27dtr+vTpWrp0aaF2BAAAAAADxH23SJUCA3Xu2DHZ8/MlSYeWryixzcaJ70k638G3 XzIHwH7JS394j4rh6empoUOHKisrSxkZGY7j+fn5slqtyr/wZ1wUAgAAAIABbpsWqWpNmigvO0fH d+7UsZgYHd242dVl4Sp5eXlJksaPH6+1a9c6jj/66KMKDQ3VuHHjim1LAAAAALjOefn7q1JgoL6J uE0Wd3f5t2iu6q1aqe7t3XVs27ZC54/cvEF7583XwR+W86Z+EgAAHDxJREFUK2lLlAsqxuWcPHlS 3bt3L/RLf2Rk5GXbEgAAAACuc5lpaco8dlz5eXmy5+YqedNmJW3aLLssxbZpPHiQGg8eJEnaGvmp tjJu/5pT1DAfu/3yg7HYCAwAAMAAFptNTe4fKc9L1uIvTkzkpwV++W87+hE9tHm9ek/9SLU7dSzP MlEBeAIAAABggPgVKxTQupUajxiu7IwMpcbEKHHNOh2+sOPvpWIip8muabohPEw1w8PU5sI+AEHh YY6Nv7ZETlP8uvVKYUOvPx0CAAAAgAH2fv6F9ur8aj0+9eopoHVr+darV2KbpC1RStoSpa2R09Rw QH+F9urpCADho0cpfPQoJW6JUuKWKG2OLHn3WVw7CAAAAAAGaDR8mIK63KzDy1fot28WKOPQoRLn APxR7IKF2rtgobyqVlXToUMUNnqUJKlWeJhqhYep3ehR2vH1XP3240odYeJwhapatapCQ0NVo0YN JScn6+DBg0pPTy/2fAIAAADAdc6jShU1GXmftrz5thoOv1enDsfrVHy8/Js3V/yqn67oWpnp6YqK nKYtkdMUFB6msNGjVOvCU4EWQ4eoxdAhkqSNkdO0kYnD5crNzU0PPfSQ7r77brm7uzuO5+bmavr0 6Zo9e3aRk4KZBAwAAHC9s+frzNEkHfn5Z8VM/kB1e9yuzBMn1PqxMWW6bOKWKC169DFNbddRmyOn 6WR8guO7DqNHaezmdRo49UM17tWzrP8EKMLIkSM1fPhwubu7KzExUT/++KPi4+Nls9n06KOPauDA gUW24wkAAADAdS4745SyTqSp8g03KH3/fvmFhCg/J6dUS0aW1ubIadoUOc0xJKj9hSFCweFhCg4P 0x3/7xWtj5ymI1u2Kp4hQmVms9k0fPhw5eTk6K9//asOHDjg+O6GG27QjBkz9NBDD+mbb74p9OdM AAAAADBAtaZNdeunU5W0fr0qBdZQne7dlX0qw+n3SdwSpSNborQxcrraj37YEQAkqeOFUJCwJUrx W6K0jiFCV61evXqy2WxavHhxgc6/JCUnJ+uHH35Q//79dcMNNygpKanA9wQAAAAAA3zXq4+8awWp euvWsufbFdq/r2I+/KRc73l+DsB0VQ2pp4Z33K6bLgSA2uFhqh0eRgAog9zcXEmSn59fkd/bbOe7 +adPny78XfmVBQAAgGtF1YYNdPK3AzqduExxS5fJLl3RKkDFqS676un8EJMsSduKmGJ6Iu6QNkRO 1/rI6arTob06PPyAal94KoCrc+TIEaWlpenmm29W9+7dtXLlSsdQn5YtW6pr1646evQoAQAAAMBU 7V5+Sd7BwTqxe49So6OVGhOjYzt2KTcz84quEyS7asquMOUX+f3NF44fkUVHZNFGuRX4Pn7jJh3e uEnOm31gptzcXE2cOFEvvviiXn75Ze3evVuJiYmSpJdfflm+vr566623imxLAAAAADDAivsflJun p6o1b66ANq3VdOR98m/WTKcTE5UavU3RH32snBLCQJDsaqN8BZWy6x4su4JlVwfla5OsWveHIICy W7t2rYYPH64RI0Y4hgRJUnR0tH766SetW7euyHYEAAAAAEPkZWUpNSpKKVFR57vxVjdVubG+Alq3 lqzFDwcKll13FPOLf2m0V77Cla9vZFOCE4Yd4XcZGRn6+OOPCxx78803S2xDAAAAADCUPT9f6ft/ 04n9vxX7u3592XVLEZ3/LbLqqCxKlOXCfAI5rtFW+bJK6nBJO6ukwcrVPNkUTwhwik8//bTE73Ny cvTYY48VOk4AAAAAQJFqFtH5XyK3Ap3+okTJKvuF8f/tlK+OynN8N1i5el/uxbTElQgNDS3w2WI5 H6wuTgbOzs4ush0BAAAAAEXqcknn/6gsWnIV4/g3y6ooWdVPuap9ITIMUa7m0A0ts9tuu83x3mq1 qkmTJho/frymTp2q5cuXF9vusv/mvb29VbduXVmtVuXm5hbYSay4935+fnJzc3O83N3d5ebmJpvN 5njl5eXpzJkzSktLU05OjmOtUgAAADhf3TvuUM3OnRS/cqWO/PLrZc+/UXb5XHifJouWlmESb56k +bJprHJklVRbdgXJrkSGAjlNfn6+du3apS1btmjkyJFXHwBq1aqloKAgnT17VjabTZ6eno5HC1LR AcBut8vf379AZ9/Dw0Pu7u6Ol6enp9zd3WWz2XT69Glt27ZNGRkZ8vHxKVQDAAAAysbdx0dtnvm7 dk2brhaPPKJzx47pTHKKfOrUUWp0TJFt6l4ywGeDkzrq38imwTq/Wk095SuRlYHKpH///gU+V61a Vd26dVNaWlqJ7YoNAH5+fgoJCdGJEydUuXJl51T5B1arVQEBAerQoYNWrVrFkwAAAIByYHV315mE I9r/9Ryl79unej3vVMxHn6j9C89pyT3Di2xzcXOvs5KSnBQALl0BqKnsKnqRSpTWU089VeTxRYsW ldiu2N523bp1dfr0aXl4eJStslLw8fFR06ZNFR0drUqVKpX7/QAAAEySdeKEMtPS5Fm1qtJ271Hz Rx5RXmamrNbL/wIf6+RhOutlVUflqypbgZXZBx98UOBzTk6OEhIStHXr1hLbFd6r+QI/Pz9lZWXJ za38H814eHioVq1aysnJKfd7AQAAmKhmp47q+u/JavKXEfL0r6aAVi2Vffq0q8tCGfz888+qXLmy PD09tXjxYm3evFmHDx++bLtinwB4eHjIbrcXGPNfnirqPgAAACZacGt3VWvWTAGtW+lM4lG1f/EF bZ9a8jryuLZNnjxZwcHBkqQ6depo9+7devrpp/XKK6/o11+Ln+jNgHsAAAAD5GVn61h0tFJjYmS3 f35hHf+K/wE2mKE/TlGrVi0FBwcrMjJS1atX1x133KG5c+cqJSVFw4YNKzEAFDsECAAAANeP0MGD NPCnlRry68/qPi1SgWFhJZ5//EI4aOPkDnudC9dLZwnQMklOTtbZs2e1fft2/ec//5GPj48yMzO1 atUqBQYGltiWAAAAAHCds3p4qNUTY7X67//Qov4DdXDhIrV7flyJISD+kvdt/rAb8NW66ZIdgXcT AMokLy9Py5Yt07hx49SzZ08dO3ZMI0eOVIcOHS47D4AhQAAAANc5d29vndi7V6lRW2WXdGDhQp1O PKJWf31EK0aPKbJNjKxqc6HD3lZ2JZVx467asqvjJUHiEL9Dl9mgQYMkSU888YQk6c4775QkTZ06 tcR2Tg0A9erV04033qg6deooJSVFCQkJSktLq5ClRAEAAFC0rBMn5O7jI6u7u/IurLqYvHmLwsc9 W2K7bbKo1YUhO72UpyVy09GrCAHNla/bLvn1P0GWq7oOClq1apV+++035ef/HqwSEhK0evXqEts5 JQD4+fnp5ZdfVvfu3Qsct9vtWrhwoT799FP5+fk541YAAAC4CtETJ6lyzZo6FX9+cE+Ntm2UdTKj xDZRsipQ+ap5IQT0Vp6OyqIoWUv1NKCO7GqnvEITf+cyCMUpxo8ff1XtnPJv/2LnPzExUevXr9eh Q4fUtGlTtWrVSv3791deXp4+/fRT1axZ0xm3AwAAwBU6sXuPat/eXYHt2ylt926d2BurNS++dNl2 v8qqO5SnKhc+B8muPhd+zd8jq85Iju79xf/3l12hxUwenkfn32k+++yzIo//9ttvJYaDMv8JeHt7 q3v37tq/f7969eolb29v1ahRQz/88IM8PDz00Ucf6a677tLkyZNlt7PsEwAAgCt0m/JvuXl66nR8 glqNHavkzZu05qX/u2y7M5Lmy009la+gP3Tqm1zB5OAEWbRBbkpg6I/T1KpVy/Hezc1NFotFWVlZ SkhIKLFdmQNAnTp1JElz5syRzWYrsKFXfn6+Vq5cqfvuu0/VqlVTXl5ecZcBAABAOfGoUkWVagRq cf8B53+QdXNT2DP/UMvRjyjmw49KdY2lclNd2dVe+apyhUuDbpBVG+TGDgBO1qNHD8d7Dw8PDRw4 UKNGjdLy5ctLbFfm6ddJSUmSpD59+ijnwqSSS7Vs2VJnz57V8ePH5ebmVtbbAQAA4ArlZWbqXEqy dGE0hj0vT9unRiqoU8crus4hWTRXblosN22RVfHF/Jp/VBZtlFXfyKYpctdG0Qcsb9nZ2Zo3b57O nj2r4cOHl3humZ8ApKen64cfftAdd9yhJUuWaPDgwY6ZyP/85z/Vpk0bLVq0SN7e3gWeDgAAAKBi 5GVlKfvUafmGhCgjLk6SlHv2rNwrV7qq6x2VRYmyFBj7f/H1+2cLv/iXI4vF4hheb7PZFBwcrMOH D2vs2LGyWkv+jd8pszBeeeUVRUVF6YEHHpCHh4ejmJCQEP3888+aMmWK/P39nXErAAAAXIXVT/9d lks6hgGtWurg0mUurAhXo0qVKnr88ce1aNEiJScna9SoUerUqZO8vb2VlpamtWvX6pNPPinxGk4J ANnZ2fr66681f/582e12R+p48sknde7cOVWpUuWySQQAAADlp1qTJmpy/0hVadBAabt3a8en07Tj 0+muLgtXqHfv3urRo4cWLlyocePGKSwsTAcOHFB8fLwaNGigu+66Sx4eHnrzzTeLvYZTAkClSpV0 //3365ZbbpG/v78OHz6sefPmaf369az/DwAAcA0IG/es4hYvVtzixWp831/U7f1JWv38i0rft7/c 7ukmiSVgnKt169basGGDdu7cqRYtWmjdunV66aWXZLfbZbPZ9NFHH6lNmzYlXsMpAeD1119XRESE MjMzlZSUpLZt2yosLExvvfWWfvzxR4b/AAAAuJC7r68sNjf9Nm++qjRqqOM7dip2zlx1ePklrRr7 ZJFtWitfbZwwin+K3Mt8DfzOy8tLeXl5stvtOnDggE6fPu0Yfp+bm6vs7GwlJiaWeI0yB4CqVasq IiJCc+bM0WuvvSabzaaGDRvqo48+0r333qtvv/2WAAAAAOBC9rw8Wf6wGuPZpCS5V67soopwteLi 4tS/f3+NHTtW+/fvV8+ePZWbm6u9e/eqVatWaty4sd5+++0Sr1HmAFC9enVJ0sqVKyWdn5Gcnp6u Xbt2qV27dqz9DwAA4GK5Z88q++RJ+YaESJL86oeoxSOjlHniRLncL1EWNvwqJ1999ZUiIiI0ePBg x7FevXqpV69ejs+DBg3SihUrir1GmQNAfHy8srOz9fe//12+vr46evSobr75Zt18882KiYmRuzuP fQAAAFzt58fGymqzyebrq9MJR2TPy9PmtycUe36MrIq+8P6Py3oWtexnuPLVSvnyuPB5Ext/lYuU lBTdc889aty4serXr1/kPltpaWklXqPMASA7O1vvvPOOnn/+eU2Y8PtfovT0dL3zzjuqWrVqWW8B AACAMur67/cVPel9ZcTFadd/Zig/P19ZGaecdv3NsmqTrOqvPAXLrgHK1TfOmW6KP8jKytK2bdu0 bdu2q2rvlD+V+fPna8uWLerSpYuqVKmi5ORk/fLLL3Jzc5OHh4czbgEAAICr5O7jI6/q1XUqLk4+ wcG6839fKS8zU+teHa/ENWudeq9v5aYxylWw7OqgPHYBLkdTp04t8viBAwe0e/du9enTR0899ZTO nTtX4HunBIAnn3xSOTk5kiS73a46derovvvuU3JyspYuXcokYAAAABdy8/BQ1ol0SVK93r2096tZ ip09W13emeD0ACBJm2RVe+UrXPkEgHLUqFGjIo/n5eUpNTVVjRo1KnIvLqcEgPvvv7/I49HR0Zo3 bx4BAAAAwIUy09Lk7u2tmp06qvatEdryzrvKTDshW6XyXQWIrn/56tmzZ5HH8/PzlZ+fry+//FJZ WVmFvndKAOjTp49jtR+LxaIOHTrohRde0Ndffy1vb29n3AIAAABlEPX2BLV7+UVlxMUpdWu0fOvU kez5ri4LZRAQEFDk8ezsbKWmpha7GqdTAkBSUpJjAwK73a61a9cqJiZGf/nLX/TTTz+pWrVqzrgN AAAArpLFzU0/PzZWWRkZkqTcrEytH/9GudyrqQgWFWHmzJlFHt+5c6fGjh1bbDunBIAHH3ywwByA G264QeHh4dqxY4csFtaABQAAcCWL1arOE97S8r+MlCwWNXvwAdntdu3+cpbT79VfefJx+lVRlFWr VjneW61W1atXT7Vr19bGjRtLbOeUAFBUwkhNTdWXX34pHx/+CgAAALiSV0CAMn47oKwTJ1T71gjV vaOHjm3bprZPjtWWdycV2aam7Lrhwkr+5//XUmBd/6Let/vDL/8bVXgCKpxn/PjxBT67u7trxowZ l12G3ykB4OGHH3Y8AZAkDw8PxcXFycvLS5XZYhoAAMClstPT5XGhUxh0883aO/NLHVi8RD1nfl5s mxtkV5tiu/yXd0QWVgCqYDk5OUpOTtZNN91U4nlOCQDZ2dnKzc2VdH4IUKVKldSoUSNlZ2crKSmJ vQAAAABcKC87Wyf27FbXf7+v6s2ba0fkp5IkN0/PcrnfEVm0gE3Ayt3EiRMLfPb19VXDhg21evXq Ets55U/miy++KPJ4dHS0Hn/8cVYCAgAAcLGotyaoXq+e2j3jvzqbkqIabdvo2PYdTrt+nCxKlUWJ suiImANaEcLCwgod27Fjh/73v/+V2M4pAeD99993DAGyWq1q3bq1IiIitHTpUoYAAQAAXAPs+fmK W7zEMZAndWu0UrbGFHt+jKyKvthWkv2SOQD2S15FfUbFuOeeewp8zs7OVnp6+mXbOe0JwKXLgC5b tkw1a9ZUp06dtGTJEmfcAgAAAIAkb29vubu7K+X/t3f/MVHfdxzHX3D3FfmhZ50iNZW2s/EYUXRc ayW4GKzUJaxLlqX2D7VxUfFHUkfV5GK0EuMfF5L+tX9QK9E4l6bOOR2xs3WCwRiUeYd0ZLCgTlFB kQoeIoJ33P5QLl6V0/W+B4c+H8kl3++XD9/35/679/fz/bzfbW0yDEMOh0N2u121tbXyer3q7w9f htWUBOC1114LNhoIBAJKT0/X5MmTlZKSEtwbAAAAAAyYU7hc1bvKhnsaI05GRoZcLpeKi4uVmZmp zZs3B9+4WbZsmbxer5xOpxobGwe9hykJwJEjRwa9Pnr0aDNCAAAAYARbd6465Lx61+5hmsnIlpeX J8MwdPv2bTmdTlksFu3Zs0fNzc3KyMjQhx9+qLVr12rdunWD3sOUBODLL78MKQMqSWfOnNGFCxdk s9nMCAEAAIAR7A9v54TsGXi3cPlwTmfEyszM1OnTp3X9+nW98sorOnr0qPbte1jO9eTJk5oyZYrs dnvYe5iSAHz++eey2Wyy2+1KSUmR1+vVxYsXNXr0aDoBAwAAxLBJjmxNdGTruyg/kX+3cHnIJuGe zjtRjfei6urq0syZM2WxWHT27FllZGTIYrHI7/dr1KhRstvtqqioCHsPUxKA3NxcuVyukHKfTU1N Wr9+vXw+H30AAAAAYtDPi9bpZ0sWB8/ropgEnN1VpoCkGb/9jV7PmaPzBw5GLdaLrL6+Xjk5Odq/ f7/a2tqUmZmpw4cP68KFC7Lb7TIMQ319fWHvYUp/5hUrVqi9vV1ffPGwqURZWZmmTJmijRs3Plcp IgAAAAytVIcj5Mf/JIfjiTFpjmzNKlyhtz4oiDje3KJPtGDLJhlJiSrf6FRzzT8jvufL6KuvvtKx Y8dkGIZmzJghSUpJSdGsWbOUmJgoq9X61P4Aj4t4BSAtLU1ZWVn66KOP1NXVpZUrV6q0tFTp6ely OBzPzEAAAAAw9GYUrgge33R7dNPtfmLMDbdHv9xZKkn6RfFWSVJ3W5v+c/hvCkh60NOj7/74p+eK 11B+VFPfy9Obc3P14F6P6v7y18i/xEvI7/erpKREkjRu3DjFxz/5PP9ZVTgjTgC6u7slPdyRfOjQ IUmSw+FQVlaWrl69KquVNtAAAACxJvXRE//2f9XrH6vWDNrEq7ezUwnjxgXPk1NTlf1Y8jDn959I kna8PSdsvLfey1NA0jW3R9PeX6DEn4ynDGiEfuybNhH/Ou/q6lJ5ebkWL14cbDu8c+dO9fb2qri4 WGPHjo00BAAAAKKktbo67N8bDvxZswpXRhxnYA+AJJ1RGV2Dh5Epj+e3b9+uqqoqBQIBlZeXq7W1 VZWVlero6FBiYqIZIQAAADDMyh495be98brefD9frzqyNdkR/n1zxB5TNgH7/X6dP39e8+bN082b N9XZ2Smv1/vUd5IAAAAwsnVeviLPrt1qdXuGeyr4EUxZASgqKtKSJUtCav6vXbtWq1evVkdHB2VA AQAAYkxrdbVezcnRjMKVYXsApD2lOhBGtogf0Y8ZM0ZLly7VqVOn9PHHH2vRokUqKSlRIBDQp59+ ShlQAACAGPTvvfuCxwseVfr5oTRHttJ4xeeFE/EKQGpqqqSHtf9ra2tltVrV0dGh3NxcTZ06VX6/ P+JJAgAAwFxtbrduuj2a5MjWJEe2fn3wgP777be6drJKvXe79NNfFYRs/m2hbv8LI+IE4MqVK+rp 6ZHT6dSmTZt06dIlzZ8/X++8846OHz+uhIQEM+YJAAAAk51YtUbv7SzVJEe2xr7xumYWrtTMQSr+ 1JXtGeLZ4VlKSko0e/bssGM8Ho82bNgQci3iBMDn82nr1q3asmWLpk+frqamJs2dO1e9vb06ePCg kpOTIw0BAACAKDmxao2y1qzW9OW/G3TM31etUau7dghnhecxe/Zs5eXlhR1TWVn5xDVTNgFXVFSo qqpKycnJMgxDZWVlam9vVyAQYAUAAAAgxtWV7tD50h0h3YEH6vSf37X70XHcU/4TseBpP/IlDZoc mNam98GDB+rs7FR8fLyuX7+upUuXKjU1VS6XS2lpaWaFAQAAQJQMVAMKPPYJp9XtkXvXbk37oCDa U4OJTEkAPvvsMxUUFITU/R84zs/P144dO3Ts2DFNmDDBjHAAAACIAS1uj1rcHp0LU0YUsSfiBMBq tWrhwoWqr69Xa2ur4uLiZBiGpk2bpqSkJNXV1enGjRsyDMOM+QIAAACIQMQJgGEYOnfunLZt26Zb t24pPj5eEyZMUEFBgcaPH6+9e/dq4sSJSkpKMmO+AAAAACIQcQLQ09OjoqIiBQIBWSwWBQIP3xb7 5ptvZLVaZbPZIp4kAAAAAHNE3AkYAAAAwMhhWhUgAAAAAEPvWb0AfogVAAAAAOAlQgIAAAAAvEQG TQD6+voUFxcX3NQbbUMVBwAAAHiZDZoAeL1eJSQkyO/3R30SfX19amlpoVcAAAAAEGWDJgDNzc1K SUlRX19f1Cdx9+5dNTQ0KDk5OeqxAAAAgJdZ2BWAy5cvKykpSffu3ZPP5zP9NZ3+/n61t7erpqZG fr+fFQAAAAAgysKWAW1padGdO3eUnp4un8+n+/fvhyQBgx3Hx8fLYrEEP4ZhyGKxyGq1Bj9+v1/d 3d26ffu2+vv7lZiYGIWvBwAAAOBxz+wD0N3drYaGhv/rpjabLZgExMXFyWq1hiQFA+cDyQBP/gEA AIChQSMwAAAAYASqqalRZWVl2DEej+eJayQAAAAAQIwKV5DH6XQGj48fP678/Pwnjp+GBAAAAACI UdeuXXuucRUVFfr6668lSSdOnAg7lgQAAAAAiFGnT59+rnEul0sul+u5xg5aBhQAAADA8Kmrq1Nj Y6Pp92UFAAAAAIgRPp9P33//vRobG3X16tWoxPgfYGI2s3uf1XYAAAAASUVORK5CYII= "
       height="1024"
       width="768"
       transform="matrix(0,-1,1,0,0,0)" />
  </g>
  <g
     inkscape:groupmode="layer"
     id="layer3"
     inkscape:label="Mask 1"
     style="display:inline"
     sodipodi:insensitive="true">
    <rect
       style="fill:#ffffff;fill-opacity:1;stroke:none"
       id="rect4486"
       width="1024"
       height="702.55127"
       x="9.0709122e-008"
       y="65.448738" />
  </g>
  <g
     inkscape:groupmode="layer"
     id="layer6"
     inkscape:label="LeftBar Background"
     style="display:inline"
     sodipodi:insensitive="true">
    <rect
       style="fill:#000000;fill-opacity:1;stroke:none"
       id="rect3047"
       width="54"
       height="752"
       x="0"
       y="17" />
  </g>
  <g
     inkscape:groupmode="layer"
     id="layer5"
     inkscape:label="LeftBar"
     style="display:inline"
     sodipodi:insensitive="true">
    <image
       y="702"
       x="11"
       id="image4777"
       xlink:href="data:image/png;base64,iVBORw0KGgoAAAANSUhEUgAAACAAAAAeCAYAAABNChwpAAAABHNCSVQICAgIfAhkiAAAAPxJREFU SInt1bFNw0AUh/HvHhcQchQJofQpIZSRkGAF6hRZAykZBNEwQTokigzgxgPQZAAP4ALFPvvufDRU 9MlL4bfA99P9izMpJb5Wq+dsOn2/nEzuxNprjni+rpufsvy+gNeX7bYwn8vl081slhuR0THD/y84 58s8f7RX4/Fb7LqTxv9udDuff1gRuQ9No9AHsfbBRu8zvFcB+MMhs8E5lThAaFtUAbFtsVr7AwTn zuAFoiag63QniN7rTtCHoAyIUXeC1PdnAPB1rQYAENX6ABgAA2AAnAugUuxXAhSKgEIMrAGNL7Ex sJZNSnsDC2DHaeaogJ2BxSal/S8oF3eDxum8/QAAAABJRU5ErkJggg== "
       height="30"
       width="32" />
    <g
       id="g4658"
       transform="translate(-2,2)">
      <text
         id="text4163"
         x="28.953613"
         y="139.63333"
         style="font-size:10px;text-align:center;text-anchor:middle;fill:#ffffff;fill-opacity:1;display:inline">
        <tspan
           y="139.63333"
           x="28.953613"
           id="tspan4165"
           sodipodi:role="line"
           style="font-size:10px;font-variant:normal;font-weight:normal;text-align:center;writing-mode:lr-tb;text-anchor:middle;fill:#ffffff;fill-opacity:1;fill-rule:nonzero;stroke:none;font-family:Helvetica;-inkscape-font-specification:Helvetica">Forward</tspan>
      </text>
      <image
         width="32"
         height="30"
         xlink:href="data:image/png;base64,iVBORw0KGgoAAAANSUhEUgAAACAAAAAeCAYAAABNChwpAAAABHNCSVQICAgIfAhkiAAAAO9JREFU SInt0T1Ow0AQhuFvf1LguHTrwh2IMhISOVbkSD6AT4BoOEgOQONuXdDkDK5cjndn5aGhok8GCc8F 3kffGBFB13XHqqrei6J49N4/4IZHRDRN05e19tT3/WDatn2t6/rTGLO7Zfj3pZR4HMcXX5blGzPf Nf5zu6ZpPrxz7inGqNAHnHPPnpn3KnUARLT3KSWtPlJK8FrzAwAz6wJijFB9gfoC6oCcs+4Lcs66 C6zr+s8BIgK/LIsaAACsan0DbIANsAH+CmBW7M8WwKAIGKyInAGQQpxE5GxDCFcROQC44D7vmAFc ROQQQrh+A/jIgYACeEO4AAAAAElFTkSuQmCC "
         id="image4447"
         x="13"
         y="95" />
      <image
         width="32"
         height="30"
         xlink:href="data:image/png;base64,iVBORw0KGgoAAAANSUhEUgAAACAAAAAeCAYAAABNChwpAAAABHNCSVQICAgIfAhkiAAAASxJREFU SInt1jFLw1AUBeBzQxaDq4hY7PMvCAqFCvVXFFzc7BOFgoNaEMFJRHBSqOAggmL/hH3SomjBWV36 Xqk4uEpcEq6LFUcTYx5Czn7P+cZLG4JhM47V9QyQAf4VQCpTWL17HbYGYOay7/tPlaZe2OmCUgd8 ZoyITrTWt1KZgg0AAICIpgFcS2XOVtrPudQB3zIfBMHj0lVva7nVH7IBAACPmbfDMHyoNHXZBmCQ CSK6kMq0pDJTNgCDFAF0pDLHi5fdURuASHH/oLMNoFov5e/TBvSYee1oTjSiHCUB8Ilo13GcvcPZ 3HvU498Czl3XXT8ojvfjFsQCMHOHiKr1Uv4m7nBcwAsz14QQp7VJJPLN/hhARA3P8zb3Z0bekhj+ 6s3e8gyQAWwDPgAAjF0FXQA2sgAAAABJRU5ErkJggg== "
         id="image4541"
         x="12"
         y="95" />
    </g>
    <text
       style="font-size:10px;text-align:center;text-anchor:middle;fill:#ffffff;fill-opacity:1;display:inline"
       y="746.8078"
       x="26.975586"
       id="text4135">
      <tspan
         style="font-size:10px;font-variant:normal;font-weight:normal;text-align:center;writing-mode:lr-tb;text-anchor:middle;fill:#ffffff;fill-opacity:1;fill-rule:nonzero;stroke:none;font-family:Helvetica;-inkscape-font-specification:Helvetica"
         sodipodi:role="line"
         id="tspan4137"
         x="26.975586"
         y="746.8078">Main</tspan>
    </text>
    <image
       y="702"
       x="11"
       id="image4633"
       xlink:href="data:image/png;base64,iVBORw0KGgoAAAANSUhEUgAAACAAAAAeCAYAAABNChwpAAAABHNCSVQICAgIfAhkiAAAAhVJREFU SIntlj1rFFEUhp93khWNWMgSrHbuKErAYOHHf1D8hDQWim0EtdZKtEsj4geYHyDaWqS112IhhaDF BmZmMbqVAYtdks0ci91skmEzM2sWVnAPTHHvvPe8zz0z93BlZowyvJG6jwHGAMDk36yJ43jOzC4B 54BpOhtZA1aAz57nvatUKitFkmmQYxiG4Q1Jz4HjOdIEeC/pge/7v7KEhT9BGIZPJX0oYL6V95aZ 3csTFqpAGIbzkhZT05vAF0nLZrYJzAJngKnu+7fOuTtApkEuQK1Wmy6VSivAkR3T3yTd9n2/2ke7 CBxyzl0H2nmbywXolv5xb4FUbzabszMzM78zlk0WMYcC/4Ckq6nx/RxzippDfgUmoihaZxt03Tk3 Ref79yKKoiuSrvVLkCTJkyAIfu5lkNkH6vX6MXZXqZY2B5B03szm++WQ9ALYE2DknTAToFKpNOg0 la04CUz0ka4BUffJbDwDAdAp9/KO8YE4ji+nRb7vv3TOBc65QNLCMAEws6XU+FWj0Tg8iMm+ANrt 9mtg57FzrVbrUxRFZ9PaMAwPmtmpQQCKtuK7kt6kpnutGGglSXJC0gXgaEp32jn3dV8AXYgFSQ8L iQcAKHwMgyB4JOmmpHrBJT+AZxsbG9+zRAPdBwCq1WqpXC7PSbrI9oUkkbRqZqtmFnuet+T7/kd2 H+HhAAw7/u1OOAb4LwD+AO2jxTGp4cFOAAAAAElFTkSuQmCC "
       height="30"
       width="32" />
    <g
       id="g4690"
       transform="translate(-2,0)">
      <text
         style="font-size:10px;text-align:center;text-anchor:middle;fill:#ffffff;fill-opacity:1;display:inline"
         y="77.252487"
         x="28.65332"
         id="text4159">
        <tspan
           style="font-size:10px;font-variant:normal;font-weight:normal;text-align:center;writing-mode:lr-tb;text-anchor:middle;fill:#ffffff;fill-opacity:1;fill-rule:nonzero;stroke:none;font-family:Helvetica;-inkscape-font-specification:Helvetica"
           sodipodi:role="line"
           id="tspan4161"
           x="28.65332"
           y="77.252487">Back</tspan>
      </text>
      <g
         transform="translate(0,-316)"
         id="g4686">
        <image
           y="349"
           x="13"
           id="image4672"
           xlink:href="data:image/png;base64,iVBORw0KGgoAAAANSUhEUgAAACAAAAAeCAYAAABNChwpAAAABHNCSVQICAgIfAhkiAAAAO9JREFU SInt0T1Ow0AQhuFvf1LguHTrwh2IMhISOVbkSD6AT4BoOEgOQONuXdDkDK5cjndn5aGhok8GCc8F 3kffGBFB13XHqqrei6J49N4/4IZHRDRN05e19tT3/WDatn2t6/rTGLO7Zfj3pZR4HMcXX5blGzPf Nf5zu6ZpPrxz7inGqNAHnHPPnpn3KnUARLT3KSWtPlJK8FrzAwAz6wJijFB9gfoC6oCcs+4Lcs66 C6zr+s8BIgK/LIsaAACsan0DbIANsAH+CmBW7M8WwKAIGKyInAGQQpxE5GxDCFcROQC44D7vmAFc ROQQQrh+A/jIgYACeEO4AAAAAElFTkSuQmCC "
           height="30"
           width="32" />
        <image
           y="349"
           x="13"
           id="image4683"
           xlink:href="data:image/png;base64,iVBORw0KGgoAAAANSUhEUgAAACAAAAAeCAYAAABNChwpAAAABHNCSVQICAgIfAhkiAAAASVJREFU SInt1rFKxEAQBuB/kjTK9RYJmU3lNTbCISf6HCda6IGvIJYHgoV29xKC7yFcIfgANtmVBJHt1yZk rNJfcrnkkPz97P81OwyJCPqM12v7ABgA/xJgrR0ZY6Z9AEhrfe2c+xSR2bpDQRvNxpipiCyJaFJ3 diNAnudRURRPAC6JqNEbjQBZlu2VZXknIvcA9hs1NwVorWdE9Awg3qS4NsAYcwxgSURnbRSvDUjT 9MDzvEcAc2zh2+7+IkqS5IeZbwFMALx1DqjCzB/MfC4iFwC+OgdUUUq9+r4/JqIFANc5AACiKPqN 4/ghCIJDAC+dA6qEYZgx8xWAUxF57xxQhZlXSqkTEbkB8F1nltq+iq21I+fcETOvegHUze4vogEw ALadP2R4XGpYrXaLAAAAAElFTkSuQmCC "
           height="30"
           width="32" />
      </g>
    </g>
    <g
       id="g4723"
       transform="translate(-2,12)">
      <text
         style="font-size:10px;text-align:center;text-anchor:middle;fill:#ffffff;fill-opacity:1;display:inline"
         y="213.26314"
         x="28.94873"
         id="text4167">
        <tspan
           style="font-size:10px;font-variant:normal;font-weight:normal;text-align:center;writing-mode:lr-tb;text-anchor:middle;fill:#ffffff;fill-opacity:1;fill-rule:nonzero;stroke:none;font-family:Helvetica;-inkscape-font-specification:Helvetica"
           sodipodi:role="line"
           id="tspan4169"
           x="28.94873"
           y="213.26314">Refresh</tspan>
      </text>
      <g
         transform="translate(0,-168)"
         id="g4719">
        <image
           y="336"
           x="13"
           id="image4705"
           xlink:href="data:image/png;base64,iVBORw0KGgoAAAANSUhEUgAAACAAAAAeCAYAAABNChwpAAAABHNCSVQICAgIfAhkiAAAAO9JREFU SInt0T1Ow0AQhuFvf1LguHTrwh2IMhISOVbkSD6AT4BoOEgOQONuXdDkDK5cjndn5aGhok8GCc8F 3kffGBFB13XHqqrei6J49N4/4IZHRDRN05e19tT3/WDatn2t6/rTGLO7Zfj3pZR4HMcXX5blGzPf Nf5zu6ZpPrxz7inGqNAHnHPPnpn3KnUARLT3KSWtPlJK8FrzAwAz6wJijFB9gfoC6oCcs+4Lcs66 C6zr+s8BIgK/LIsaAACsan0DbIANsAH+CmBW7M8WwKAIGKyInAGQQpxE5GxDCFcROQC44D7vmAFc ROQQQrh+A/jIgYACeEO4AAAAAElFTkSuQmCC "
           height="30"
           width="32" />
        <image
           y="336"
           x="13"
           id="image4716"
           xlink:href="data:image/png;base64,iVBORw0KGgoAAAANSUhEUgAAACAAAAAeCAYAAABNChwpAAAABHNCSVQICAgIfAhkiAAAAlJJREFU SIntls9rE0EUx79vd1Y96J+w7VaF2lBQEgOtiLWIJ9GTFy8lIiSpJ0Gh1qOXUOjJgzVKsepVEPHi D0hSD7mU1ItERGF/5CIEBEVxmyb7PGQWQotkNikEIQ8WZpm33+9nZ/a9WbptMQYZ2kDdhwD9AuRs 6AMFcBzndKbovLz+vnZkIAAAiIguBUFQzRSdpdTrz4ciC0Qtw5wN4bpukoiSzHwCwNWO6W/MfMey rLXFMSgJRwLIltwJZn5CREkAYOYtItq/S5ToTb1ev/j8cmK7m6byFsyve3MANkNzANsAvB1pTWa+ B+CKijkACJWkTNE5xkx5AAcA/CGihUaj8VAIMQ2gCABE9JaZb+RnrU8qmsoAORu669Jjaf5b07Sp +2fMjxIMzPxF07SbKzMjr6IYKwN4njcNYEreLoTmABAEwQff9yefXYg1ejFXAgiC4CQRAe39Xe2c e3Tu8I9ejcPo+hESUUIOq/lZy1cRTRfs0Wvvvu6qjp4AOkK5XjVNe2EYxs9syb3bNwAzV+QwpvJW MmcSwD5m/t43gK7rIYAhhEh1y5c5xo5newcwTbPMzBsAQETL6YI9/q/cdMEeJ6JlAGDmDdM0y930 lVpxtuROANhEuxf8YuZbzWZzbfX80S2gvexCiJQ0PwjABxB/cHa0a1NSPgvm1705Zg67IdBuxVU5 jkEuOwCfiDIrMyNPVXSVq0AKxsPtkIbH5WUA7WUHEFc1B3o7jvVarXaq1Wolwh7BzBVd1yumaZYX x9CKohcZYK/j//4pHQIMAfYi/gK/JOLqBOU+bgAAAABJRU5ErkJggg== "
           height="30"
           width="32" />
      </g>
    </g>
    <image
       y="15.306103"
       x="-675.72888"
       id="image3094"
       xlink:href="data:image/png;base64,iVBORw0KGgoAAAANSUhEUgAAAc4AAACPCAYAAABzlTvNAAAABHNCSVQICAgIfAhkiAAAGo9JREFU eJztndFx3LjShc+69t3zR7DcCFZbhXfTEXgcgeEIVo7A4wisG4G5Eew4gqXfUbXjCC43g3EE939A U6KomdEQbBAgeb6qKUuy0IRGEA660Wj8BEJmhnPuFwBFQNODMeaHcneS4YCr3wcDfIvbG0LWw8+p O5AK59xLADedL5UDTdSdjxc1Ic+APR7/7q7hiDCxTYoDXsH3u4AfoxsM/9nhHj5seq8awMEAHL+E XMlPqTsQE/FMbuRV9F4xOAI4dP5tADTGGK72lZDfaRPQtDLGvFfujioOeAkvjiX8mC0nfHwDP2Zr AHsD/DvhswmZFYsRTvEgSzxMOGXC7pyiwcPEdKCYhuGc+wzgNqBpmeN7LuHWLfx43abtzSMaeM++ MsD3xH0hC2XEtssT2r9v59xv8JGZLo0xZtBi0Dn36twzZh2qdc69weMVes4U8toCgHMO8CJaA9gb Yzg5XYcNaJOd1++Ad/BjISex7FLAL1Bu3YOI3tETJcpYADslW60jeIenjlMF4OqIk2jL/twzZiec zrl3eFid91cVc6OU1845d4T/Re2NMV9TdipXZDCH/M7vtPsSgniXt/CTxZzGboEHEa3hBZRjlMyJ rXPudkAuysUF7SyEU1xmi2WI5Tk28D+jFRGtANwNDS8sHBvY7tTKcTJEMHcI739OlABK8UJ3Bvgz bXcIuYoNvH48O15l289e+p5s9zg7nb/FDLMhFamNMa9TdyI1I5KC9saYt8rduYqFCeY5GgC39ECJ NuIw1Z0v7Ywxn65o97/Op0c8OFtXzQUS1axOtAckV+LFc0amxjn3iySANPAhtiJph9JzTN2BTAjd C6w0O3ENDnjpgI/wY9hO/fyJKQDsHfC3A35L3RlCetSdj7fikD2HPdP+nmyEUwTzC2QFi+WGZIeS NMyYESGZtM3U+8UOeAOfPb2b8rkZUAI4OOCjHKshJAfq3uf20jdLZKvsfOnk/JtcOJ1zL51za1md h1Cn7kBqJGRTBDSdbNEhXuZf8sxiqudmyA5eQOl9ksmRoyhd2nP1LfYZE93IVoOn20M3QGLhdM79 AUkySNmPjDkwOQhA+IJqkmxaqe5zQL5HS6amgHifqTtCVsepSGV3AX0jXuU5upGtUwvvDZBIOJ1z vznn/oGf2BiSPU+VugOpkT2JEEGqp1h0iDjUWLeXeY6dA/5i6JYkpu59fnLbR7zVovOl6pzByYVT wrIH5F+wIAe4vxl+BKlS7scjOqHZXcznLIAtgJqhWzIRxYmv9efRcwtx2/m4OVOUpgAmPMcpal6B gnktg0tELZSQpKC2mEQUxIOqkc9Yrk98LagYfCRu4MWzZPk+Epmi+0mnDN8eD4JZOOdenagmZjsf t/PH4ZT9SYRTzsUwLDuM1XubnSL9Q9nHuq1GPKca04/lQ+/VXFv+Tvpc4KGO8w2m7/8GXjwtz3yS BHSFE/AieS+cJ6qSVQBgjPkh5VEfEV045YiJjf2cAdR4eosJMOBqsF5h4nZl3/93LJWCjbkT4m0C kZKCEojmXl71mBqx4uV9hxesT8D9z2LhJ5NibEevZAN/5tOy4hCJxLm/zVPh2ve9z1vOhWnv7UcT TknqqJE2XHR/Gwm8MKqEiSSE2p3InqygJTR9g8er/Gs5sug7gLCkoEuDPpgJRbOB3zfdx7wjU8T0 A4AP8rO1NXSnoHK+DxRPos3JeVY8x67XuXHOvemc8+7ONZcW3jdAJOEU0Uhxnu0IuW0EEcN11yCT 93fI5NC59mwr/xYXmjNM60MnRUBTdW9zItGs4Wu/Tn6Li4joeyeF3DFNAZI75y/Q5gKRxKLufd4P 15YAvp4I0/bn3xq921bUhVNEs8a0eyh7+IuKs907ERH/Kq/2fbI4fVPG6oUT4d5PpdiHKUSzgQ9d Jr/2TDzcT84vPu4Q1wNt9zyZMESmYo/HtWe38FGXsvM9Vx1jUz2OMrFoHuFDWoUx5m3OonkKY8x3 Y8wHY8z/wU9Qdef/ZvWzaDPi7KZqlEGyZyvEG887A/yag2h2McAP4/d/SjzNKtSk3fPkOU+iRXnu P2Ru6DolxYkSe9VzD3DO/abmcU4omg18lfzF7I/Iz/LniV/iWrGB7SrFPgD+jyzGHv0B3svM2tMS Qf/dAZ8Rnqj1HAX8+7z6G4DIJOzxeH6xePw3firad+x9vlHxOCcSzSMAa4z5dUmi2cUY8+9Sf7aB hEzSqgXdRSxKLXsdKgP8nrtodjE+nLVFvJt6SpbnIxGo+1+QOaI7jrtzTXUmYvUk6jJaOCcSzTv4 kCxFZeGcKHt1LZVaH/wNJzE8LGsep8DPBjl7WSJe6HYnNX8JCUIug7iGrld5KSnoHMUo4ZS9qArx RPMA4Eb2ApNlyJJJCRWsSuPhcvm0iq0OPloy8+MX4iWXiCee3O8kU3AyHDsgYjVOOBH3nObOGPM7 zzOuh0wKulfQXQge4TNHZy2aLZJ5WyKOeG7Awh8kMifCtcDlcdf0vxAsnM65z4gjmn6iMeZTBNsk b7ZIWNDdAX9Af19zO6f9zGuILJ5bCZUTMpS+HtUXvrfvdVYXvrfpfb4JyqqVA6Mx9oAOALYsbr5a bECbo8bet4Rod2Pt9MjifGYMDPDDPYhnoWz+zvkyg9yeIUMYsujeoSOIAyObNz8N+GYA93VaD9Df 16zhRZN/LCtExlUT0LQyxoxOuHHA39D1NndG6sIumYgFIlbx/pF5EhKqraD/R1IZY15TNFdNsoLu Ehosx9rpsF/LpC9haBvB9K1EAQjJjkHC6ZyLsQek4jGQ2ROSFKRVuF+zvm2DvG4Dio4cVdGuEbwB LwknmXK1cEoobaf8/JqiSUYUdK9GP9sfvA959jm2a9ybkyIJ2slCll4nyZEhHmcF3RDtAWFeBlke NrBdNeahcmZQM8ltt7QM2oHYCDZ3EWwSMoqrhFM8glLxue2Rk9WtzMljRpzdPFceawia12c1iHSB 9lyQRcNO2Sy9TpId13qc2hMCRZO02MB21ZiHRvA27RpDtCe4Q1h29CViFZgnJIhnhVMSggrFZ+5Y DYh0sAFtGmPM2PORocUWTlEv9bzmUGTxsFM2a1mKj+TEReGUMNpO8Xk1KwKRFinoHlJ9qlJ4/E7B RotVtDV7pLxgrWhyA+ZDkIx4rnKQ5h7QEZxgyGOSFHSXc5vFGBsdKgOw0tVTdtAVz1sspN6vJuKJ n1t8HleerBaN54TTKj7rjqX0SI8QL2KvMI7syPZddoq2FoMBvjkvnKWSyRsH/LZWIRCBLOFFsoRf +BVXtAO803KA/30cwHKGozkrnM65d9BblTcM0ZIuMr5CohnX3pl3+rk+Q1Mr7Lent3mRO+hm41v4 86LRkPFRhLbX3OvujFWLcRdqbOB/D2XH9gE+csMxHMAlj3On+BxmxZE+NqCNRkF3zb2yVR8/eQ4D fHU+w7ZQMrlFZOGEH5e7Ee0H1//u44B30o9yrK0L3MCP3zvnF6N3THC7npPJQXKTdqH0jHrABaFk BUgVqjKgaaXweKtgAwAaTjRXobm4KKSo/OJwwEsHfHTAf+HHeTnh47cAagf87YBXEz53tpzLqrWK z9gp2iLLwAa2q8Y8VCZdrTtk6W1eR6Vszyrb69NEtv8E8TAP8HNlMfXzO5TwAvoXi05c5olwyhEU q2T/oHDejiwPG9BGo6B7ObJ9l0rR1mKRJJRK0WTsYynNmMZDPGIH/CLX2VVIK5h9tgAOIujkBKc8 Tu4BkWiMKOiuMZasgg3AJ1QwK/F6RiV09Sgy94auSnhzwB/wXmYZtTfhbABUDviSuiM5ElM4NRI5 yPIIGV9H6GTTaoVpNYVg8ci1Y0dFk6WirUmRvcwv8AtB7XuNY2Ad8A8rNz3mkXCOKLh9ikrJDlkI I7YB9gq1jcuR7btQOIej+Z6VirYmQ8SnxvwKwdzA731SPIW+x6kZpq0UbZFlYAPbVQrPLhVsAAzT hjIL4VTIlD4Z1ZC9z/rc/88AimeHvnCWSnYbFnInJ7ABbTQKugN6Y7tWsrMqJFyrRc77nE/Crx1P c66i2ULxFGJ5nAxlkUeMKOg+OilobDWYHrWSnTVSK9qahQh1RHMO+5nX0BZOWDX3wikTm9Yvt1Ky Q5aDDWynsQgrFWwAvugBIynh1Iq2ZiGc8ON3Ln29Frv2oypdj7NUsnlkmJacwAa00SjoDuhNXAcl O2ulVrRVKtrSpGw/cMBn5NvPsdxlHC6PTrdWrdbkUivZIQthREH3SqkLHNsZIDemaFHomdJHStdp 1Ohuj2Id5NX0i7J3yuSVeLg9JXZoeAP/9/k68nOypCucpZLNWskOWQ5BZzcVaxyXSnbocY7nAJ2F TKFgIwqyr1mNMNGK5d01WwOdTOD7JDq5c7a9WSUWpQPeKCd+zYIXwP35ukLJJicXco8UdA8Rzkrl +YrhJBZ1V0FtfohY8L0Z2f4WYfPpEVKv1gDvx+ynG+CrAd5LP6pQO1ewykShdo9TbfOatWlJDxvY TusPslCywwWhDprvY6xwZDOibYmwiy328IL5SfOcsAH+FQEtEaeAfbHGRCFt4eTkQvrYgDYHpaQg QG9sN0p21o7mHFEq2krFEcDWAG9jFtaQaMkN4szRuwg2s6YVzkLJHoWT3DPiXlfN8I+WV8KxrUOT ugMZcQBwM9UeoQhzCf2xXKztHk9tj7NRskOWgQ1oM7qge49SyU6jZGfV9DNCRzLn85EHAKXy+/Es EcXTKtvLmlY4uSonqiQu6B6DJnUHFoTWPDHXajytaCYZ5/LcLXRvrLFrKsWn7XFq/iLIvAkt36id pcexnR9rfi+TimaLeLpW2WzsS8az4dR9nGOgx0laQg5/x7gcQMUrYak9VbSEs1CyMxVHADa1aLbI 3mqtaHI9wik1alXINMRGJiZlQXcyC7QW2IWSnam4zXABZhVtlYq2suYF5rtPQPLFBrarFPugeUC+ UbJD1sveAH+m7kQfCdlWSuY2EYtSZIVmqLZRtEXmjQ1oEyMpSGtR2CjZIevkCJ26tbGoFG2Viray 5efnv+VqGkVbk+Kc+4z5pLYfjDEfUnfiHBkUdCckN+6mPnYyBCm+30An9F0C+I+Cnaz5GStZITxD e6MAGU9IgkCjWNCd5M+akgiPmMfe/R46XvFcHJBRaGfVkhUzoqC7ZsEDkj9rOo6yzyWL9hkqJTuF kp2soXASTXI5u0lILsxibEu2r8qCZg3l9yicRJOQUE+tWNCdkJxoMjx+cok6dQfmAoWTqDCioHul 2xMyA8rUHZiIuW1BaO09l0p2soXCSbSwAW2OxpjszrYRosTchLNO3YG58ALr2qgnEZCC7kwKIuQx c8sebpTsFEp2suUF6J6T8WwRdnZzFokTJFtyFqbjTLJp71E8a1oo2ckWhmqJBiFJQYcIBd3JPNCq 6JRztCxnUb9Ek7oDc4DCSUYhZzdDDj1Xyl2JSZm6AwtjFYfkZ0qTugNzQFU4NW9aIbMhtNpIpdmJ M8x11U+uI2ePkyyYF8aYb4r2eNPK+rABbaoprqDT3GNa0+32E1Ao2eHCiCRBO1RbKNsjGeOce4Ow xdIcs2kZXtSjSN0BcpY6dQfmQHs7SgOdwaxhY3KMMa+neI4UCaineNZE2IA2Uxd0P0BH9AoAmtGZ VaJ8XyM9TpKE1uNslOxxVb4SRhR0r5S78hxa+2CFkp21o7mdwz1OkgQKJwkltKB7pdmJK2iU7HBs 61BqGTKMAJBEaAtnoWSH5E9INu0+QUH3RslOoWRn7RRKduhtkmS0wllrGZR9PLJg5NhREdA0RVKQ 1j4YPU4dtN5H7m+SZGh7nAAPi6+BEG8zVUH3RsvQGu4ZnAAKJ5k9LwBAwmdaoQ+uzBfMiILulXJX rkL5PkSO7REoLzwaRVuEDKJ7jpPF3sk1hBZ0r5T7MQSO7TwoFW3R4yTJ6ApnrWRzw33ORWMD2qQu 6E7hzINSyxAzaklKYnicQPhRBZIxcnazDGia+vowrbG9UT7AvzZKJTu1kh1CgojhcQIUzqUSWtA9 dYm9WtEWx3YADnijaI5hWpKUe+GUottaA7LgTSmLJCgpaIqC7peQBCGt5DcKZxiloq1a0RYhg+kX ea8VbVtFWyQxUtC9CGha6fYkmFrJzo0DflGytSbUFhwGmLLWMSFP6AunZkjNKtoi6bEBbRrla+vG UCvaotc5ANkXLpTM1Up2CAnmkXDKJKcV0to4594p2SIJmdvZzTPUirZC93rXilW0lXq/nJCT93Fq DkxOMMvABrarFPswCtnnbJTMFcyuHYRVtEXhJMmJLZw3PNO5COZS0P05uCicGAe8g95VYgcD5Dam yAp5IpxyybDmzQM7RVtkYkYUdK90e6JCpWjLOuClor2lYhVtVYq2CAnmlMcJ6A7Qkl7nrAkt6J5d 5qNyuBag13kRCWeXiiYZpiVZcE44tSu9pK4cQ8KZe1JQH9VwLb3Oi2guLGqGaUkunBRO2ZuqFZ9z wwzb+SG/s5D9qZwXSpp924Be50nkrKtVNFkp2iJkFOc8TkB/oN7JsQYyH2xAm0OGSUH3iNdSK5qk 13manaKtowFS3OVKyEnOCqdcOtwoPmsDrhpnw4wLul9DpWiLXmcP2du0iibnMKbIirjkcQL6GbFb Kd1G8scGtDliBgkc4r00iiZ3LMP3CG2hq5TtETKKi8IpXqfm0RQAqMSbIXljA9rsUxd0H0CVub1Z Iuc2S0WTFZOCSG4853EC+l7nBsCe+535soCC7tdwB91FYal8ddbskL1ebW9zp2yPkNE8K5zGmP9A N6wFADfgvkXOhBxByamg+7MY4AcihBRXnihUQa9KEEBvk2TKNR4nECf5wTrnvkSwS0YgkQAb0HSO CyFtr3ODGezxxkBCtNq3xuyU7RGiwlXCKVVg6gjPt865PyLYJeHYwHaVYh8mQbzOnbLZ0gEflW1m jWTRqodo6W2SXLnW4wTipdzfUTyzwga0mVNS0CMMEGMrYreW/U4JTVfQDdE2mGcEg6yEq4XTGPMd 8UIndwzbpkcKut8ENK2UuzI1NoLNaiVXj+0RNmYucSvRAEKyZIjHCWPMJwCHSH2xzrkvzLZNSkhU ocmxoPsQDPAN+nuTGwD1ksXTAV+ge/QE8DVpZz2eyPIZJJyChf7Zzq7tmuc8kxGS3LGUZBgL/XHd iufixrOIplU2e4xgkxB1BgunhGxjlhi7AXBghaFpWWhB96uR0KCNYHoD4LAkzzOSaAI+RMuEIJI9 IR5nW1Go0u3KI9oiCX8xdDsZNqBNnXNB96FIiDCGB72IsK0DXkYUzYqF3MlcCBJO4Rbx9jtbtgAa Zt3GZURB90q3J1lgoZ9lCzyI5yyv15Nwc404onkAC+WTGREsnHL8oEScSabLBj7r9h/n3KvIz1or NqDNLAq6D0VCtlvE2cffwGfbfplThSE5WnOAfvYsIPuazKIlc2KMx9mKZ6xJps8NfOLQ39z/VMcG tJnt2c3nMEDsfXwLv++Z9UJQQrOf4RdImuc0u1h5vwmZDaOEE7hPFioxjXhCnrV3zv3XOfcH90DH IV58EdB0EUlB55D9tl3ERxTwodssvU8JKTeIvIDg0RMyR0YLJ5BEPAE/8dwBOMr5z6y9UMla3aXu xwlsQJuD/M4XjQE+If4+rgXQOOBjDgLqgFcO+Bv61YD63DEZiMyVn7UMGWO+O+dK+ASCmH9wp7Dw BRQAH1aq4TM+k03unYSbEj6cPfV78iwjCrpXuj3JFwO8d/5DG/ExG/hF1a3zi8HJbwURD/MWcfYx +1QG+DDBcwiJgppwAvfiWcAL1xR/gKfYygvOuSN8UkMt/zYxxFTCnRv4n7l9FdrPiUDobRaVZidy ZyLxBB4EdOf8AnAPYB8rcUaSftq/l6kWdpUB3k/0LEKioCqcgE8YEs+zgv41Q0PZ4MHrAwCIV9rg IRv4gOtDzK04tpRnvm8uhOxfVUtNCrrEhOLZ8rAAlAiKvA6hQirJSDd4+JuYOgpyR0+TLAF14QTu s23fOuc+Is99vQIPHmGZrBcJGVHQfXFHUK4lgXi2lOgu/vxCr13wXTpLXfReKbHc0yRLIYpwthhj PjnnasRNZydh2IA2sy/oPhYRzwZpF4RtJAVIH9V5jvac5qrHDVkWKlm1lzDGfINf7a7WU8kUG9Cm Uu7DLJFsW4tps8jnyAFASdEkSyO6cAI+dGuMeYvpiiWQC4wo6F4pd2W2SNixRPyyk3OlghfNxR9b IutjEuFskTBfgYUfnp8BIeG9RRV010BEoQTHc5cjgK0B3rOMHlkqkwoncO99foCU0Jv6+WtHzpeG CGel3JVFYIAfkilaIn7d5tzZAygYmiVLZ3LhbDHGfDfGvIafcOpU/Zghzcj2NqDNUa6SI2cwwDf4 xeAavc8GPiz7ll4mWQPJhLPFGPOtI6BMIDpNAz8hF8aYsYfHbUAb/l6uoON9FljHYvAIf/n0r7Jw IGQVRD2OMgTJvv0mocRb+Al+zUdYDmgrxyhVO2JB92mQcnmvpeDADss7K3yEHxN39DDJGslGOFsk AeUDgA9SuN0i/7NqGhzhvZQ94iXi2IA2qyjoHgPxwloBvcX8x3EDvxCIVgaQkDmQnXB2kSzcr1KM fIuMC6YH0OChjm70gvSd93Ao9DZHIgL6zQFtNGWL9JV8hlDB15hlOJYQZC6cLVLC7095vZdycSXS 1dwcSr/Y/CHB0Y7QBQf3N5WQEK6PpqQpsD6E6EXmCZkrP6XugAayL9q/mSTF7Szd+qENHkQy+cTj nPsHw9+TSiEZiTyDhHLbiEqqW4Xuox8A6jWLpVyxVow008yxNq+MxXKkmVn+7ENYhHCeQwS1wONb Tfo3nAyhW1S7+3EW4ngOeR+agKalJG2RiZDLrNsbTGItArsLuxojblwhZI0sWjiJxzn3GcOvEGuM Mb/G6A8ZjuyPFji98Ct7n9e9z9tISDP1BdmELJFZ7HGS0diANpVyH8gIRPBa0etX5vk0cXcIWTXJ CyCQuMiRHhZ0J4QQJSicy8cGtNmzoDshhJyGwrlgRhR05xEUQgg5A4Vz2YSIJgu6E0LIBZgctGxq DD+TxYvGCSHkAv8Pw6vIPBTO7fIAAAAASUVORK5CYII= "
       height="26.419439"
       width="85.35511"
       transform="matrix(0,-1,1,0,0,0)" />
  </g>
  <g
     inkscape:groupmode="layer"
     id="layer7"
     inkscape:label="Mask 2"
     style="display:inline"
     sodipodi:insensitive="true">
    <rect
       style="fill:#ffffff;fill-opacity:1;stroke:#005a0a;stroke-width:1.50252247;stroke-linecap:butt;stroke-linejoin:miter;stroke-miterlimit:4;stroke-opacity:1;stroke-dasharray:none;stroke-dashoffset:15.94950091"
       id="rect3083"
       width="968.4975"
       height="745.49744"
       x="54.751263"
       y="21.75128" />
  </g>
  <g
     inkscape:groupmode="layer"
     id="layer8"
     inkscape:label="Not Found Screen"
     style="display:inline" />
  <g
     id="g3113"
     transform="translate(-3.8146973e-6,-32.051943)">
    <rect
       ry="26.588549"
       y="195.4361"
       x="206.13185"
       height="462.23169"
       width="665.73633"
       id="rect3097"
       style="fill:url(#linearGradient3121);fill-opacity:1;stroke:none" />
    <text
       sodipodi:linespacing="125%"
       id="text3886"
       y="268.28098"
       x="244.31947"
       style="font-size:40px;font-style:normal;font-weight:bold;line-height:125%;letter-spacing:0px;word-spacing:0px;fill:#e0e0e0;fill-opacity:1;stroke:none;font-family:Sans;-inkscape-font-specification:Sans Bold"
       xml:space="preserve"><tspan
         y="268.28098"
         x="244.31947"
         id="tspan3888"
         sodipodi:role="line">Error</tspan></text>
    <path
       id="path3861"
       d="m 776.89116,207.69823 c -46.22178,0 -83.74173,37.51994 -83.74173,83.74173 0,46.22179 37.51995,83.64827 83.74173,83.64827 46.22178,0 83.64828,-37.42648 83.64828,-83.64827 0,-46.22179 -37.4265,-83.74173 -83.64828,-83.74173 z m -37.75855,31.68353 a 13.459838,13.459838 0 0 1 9.62656,4.20578 l 28.22546,28.78622 28.78621,-28.31891 a 13.459838,13.459838 0 0 1 9.3462,-3.92539 13.459838,13.459838 0 0 1 9.5331,23.17851 l -28.6928,28.22545 28.2255,28.78622 a 13.459838,13.459838 0 1 1 -19.1597,18.87928 l -28.3189,-28.78622 -28.78622,28.31891 a 13.459838,13.459838 0 1 1 -18.87927,-19.15966 l 28.78621,-28.31891 -28.31891,-28.78622 a 13.459838,13.459838 0 0 1 8.22464,-22.9916 13.459838,13.459838 0 0 1 1.40192,-0.0933 z"
       style="opacity:0.15;fill:#ffffff;fill-opacity:1;fill-rule:evenodd;display:inline"
       inkscape:connector-curvature="0" />
    <text
       sodipodi:linespacing="125%"
       id="text3890"
       y="327.64304"
       x="245.87141"
       style="font-size:30.23488808px;font-style:normal;font-weight:normal;line-height:125%;letter-spacing:0px;word-spacing:0px;fill:#e0e0e0;fill-opacity:1;stroke:none;font-family:Sans;-inkscape-font-specification:Sans"
       xml:space="preserve"><tspan
         id="tspan3894"
         y="327.64304"
         x="245.87141"
         sodipodi:role="line">Sorry, but the app has made an error!</tspan></text>
  </g>
</svg>
