<?xml version="1.0" encoding="UTF-8" standalone="no"?>
<!-- Created with Inkscape (http://www.inkscape.org/) -->

<svg
   xmlns:dc="http://purl.org/dc/elements/1.1/"
   xmlns:cc="http://creativecommons.org/ns#"
   xmlns:rdf="http://www.w3.org/1999/02/22-rdf-syntax-ns#"
   xmlns:svg="http://www.w3.org/2000/svg"
   xmlns="http://www.w3.org/2000/svg"
   xmlns:xlink="http://www.w3.org/1999/xlink"
   xmlns:sodipodi="http://sodipodi.sourceforge.net/DTD/sodipodi-0.dtd"
   xmlns:inkscape="http://www.inkscape.org/namespaces/inkscape"
   width="455"
   height="295"
   id="svg2"
   sodipodi:version="0.32"
   inkscape:version="0.48.0 r9654"
   version="1.0"
   sodipodi:docname="GOn_5_config_splash_13.svg"
   inkscape:output_extension="org.inkscape.output.svg.inkscape"
   inkscape:export-filename="/Users/emil/Desktop/Version 13/GOn_5_config_splash_13.png"
   inkscape:export-xdpi="90"
   inkscape:export-ydpi="90">
  <defs
     id="defs4">
    <linearGradient
       id="linearGradient3321">
      <stop
         style="stop-color:#ffffff;stop-opacity:0.39500001"
         offset="0"
         id="stop3323" />
      <stop
         style="stop-color:#ffffff;stop-opacity:0"
         offset="1"
         id="stop3325" />
    </linearGradient>
    <linearGradient
       id="linearGradient3277">
      <stop
         style="stop-color:#440008;stop-opacity:1;"
         offset="0"
         id="stop3279" />
      <stop
         style="stop-color:#880000;stop-opacity:1;"
         offset="1"
         id="stop3281" />
    </linearGradient>
    <inkscape:perspective
       sodipodi:type="inkscape:persp3d"
       inkscape:vp_x="0 : 526.18109 : 1"
       inkscape:vp_y="0 : 1000 : 0"
       inkscape:vp_z="744.09448 : 526.18109 : 1"
       inkscape:persp3d-origin="372.04724 : 350.78739 : 1"
       id="perspective10" />
    <inkscape:perspective
       id="perspective2447"
       inkscape:persp3d-origin="372.04724 : 350.78739 : 1"
       inkscape:vp_z="744.09448 : 526.18109 : 1"
       inkscape:vp_y="0 : 1000 : 0"
       inkscape:vp_x="0 : 526.18109 : 1"
       sodipodi:type="inkscape:persp3d" />
    <filter
       color-interpolation-filters="sRGB"
       y="-0.25"
       x="-0.25"
       height="1.5"
       width="1.5"
       inkscape:label="Drop shadow"
       id="filter3033">
      <feGaussianBlur
         result="blur"
         stdDeviation="2"
         in="SourceAlpha"
         id="feGaussianBlur3035" />
      <feColorMatrix
         values="1 0 0 0 0 0 1 0 0 0 0 0 1 0 0 0 0 0 0.5 0 "
         type="matrix"
         result="bluralpha"
         id="feColorMatrix3037" />
      <feOffset
         result="offsetBlur"
         dy="2"
         dx="2"
         in="bluralpha"
         id="feOffset3039" />
      <feMerge
         id="feMerge3041">
        <feMergeNode
           in="offsetBlur"
           id="feMergeNode3043" />
        <feMergeNode
           in="SourceGraphic"
           id="feMergeNode3045" />
      </feMerge>
    </filter>
    <linearGradient
       gradientUnits="userSpaceOnUse"
       y2="108.26157"
       x2="35.989838"
       y1="51.432434"
       x1="35.989838"
       id="linearGradient3803"
       xlink:href="#linearGradient3797"
       inkscape:collect="always" />
    <linearGradient
       id="linearGradient3781">
      <stop
         id="stop3783"
         offset="0"
         style="stop-color:#440008;stop-opacity:1;" />
      <stop
         id="stop3785"
         offset="1"
         style="stop-color:#232723;stop-opacity:0;" />
    </linearGradient>
    <linearGradient
       id="linearGradient3789">
      <stop
         id="stop3791"
         offset="0"
         style="stop-color:#440008;stop-opacity:1;" />
      <stop
         id="stop3793"
         offset="1"
         style="stop-color:#880000;stop-opacity:1;" />
    </linearGradient>
    <linearGradient
       id="linearGradient3797">
      <stop
         id="stop3799"
         offset="0"
         style="stop-color:#ffffff;stop-opacity:1;" />
      <stop
         id="stop3801"
         offset="1"
         style="stop-color:#ffffff;stop-opacity:0.16470589;" />
    </linearGradient>
    <linearGradient
       id="linearGradient3816">
      <stop
         id="stop3818"
         offset="0"
         style="stop-color:#ffffff;stop-opacity:0.25882354;" />
      <stop
         id="stop3820"
         offset="1"
         style="stop-color:#ffffff;stop-opacity:0;" />
    </linearGradient>
    <inkscape:perspective
       id="perspective2545"
       inkscape:persp3d-origin="36 : 24 : 1"
       inkscape:vp_z="72 : 36 : 1"
       inkscape:vp_y="0 : 1000 : 0"
       inkscape:vp_x="0 : 36 : 1"
       sodipodi:type="inkscape:persp3d" />
    <linearGradient
       inkscape:collect="always"
       xlink:href="#linearGradient3797"
       id="linearGradient2590"
       gradientUnits="userSpaceOnUse"
       gradientTransform="matrix(7.7322138,0,0,4.3483139,-202.44176,-429.17736)"
       x1="35.989838"
       y1="51.432434"
       x2="35.989838"
       y2="108.26157" />
    <linearGradient
       inkscape:collect="always"
       xlink:href="#linearGradient3816"
       id="linearGradient2592"
       gradientUnits="userSpaceOnUse"
       gradientTransform="matrix(1,0,0,0.6351255,0,-596.51749)"
       x1="34.371315"
       y1="1052.3622"
       x2="34.371315"
       y2="981.34082" />
    <inkscape:perspective
       id="perspective2477"
       inkscape:persp3d-origin="372.04724 : 350.78739 : 1"
       inkscape:vp_z="744.09448 : 526.18109 : 1"
       inkscape:vp_y="0 : 1000 : 0"
       inkscape:vp_x="0 : 526.18109 : 1"
       sodipodi:type="inkscape:persp3d" />
    <linearGradient
       inkscape:collect="always"
       xlink:href="#linearGradient3277"
       id="linearGradient3283"
       x1="22.086903"
       y1="980.85535"
       x2="22.086903"
       y2="1051.9417"
       gradientUnits="userSpaceOnUse" />
    <inkscape:perspective
       id="perspective2515"
       inkscape:persp3d-origin="372.04724 : 350.78739 : 1"
       inkscape:vp_z="744.09448 : 526.18109 : 1"
       inkscape:vp_y="0 : 1000 : 0"
       inkscape:vp_x="0 : 526.18109 : 1"
       sodipodi:type="inkscape:persp3d" />
    <inkscape:perspective
       id="perspective2565"
       inkscape:persp3d-origin="372.04724 : 350.78739 : 1"
       inkscape:vp_z="744.09448 : 526.18109 : 1"
       inkscape:vp_y="0 : 1000 : 0"
       inkscape:vp_x="0 : 526.18109 : 1"
       sodipodi:type="inkscape:persp3d" />
  </defs>
  <sodipodi:namedview
     id="base"
     pagecolor="#ffffff"
     bordercolor="#666666"
     borderopacity="1.0"
     gridtolerance="10000"
     guidetolerance="10"
     objecttolerance="10"
     inkscape:pageopacity="0.0"
     inkscape:pageshadow="2"
     inkscape:zoom="1"
     inkscape:cx="227.5"
     inkscape:cy="147.5"
     inkscape:document-units="px"
     inkscape:current-layer="layer6"
     showgrid="false"
     inkscape:window-width="1300"
     inkscape:window-height="945"
     inkscape:window-x="509"
     inkscape:window-y="22"
     inkscape:showpageshadow="false"
     showborder="false"
     showguides="false"
     inkscape:guide-bbox="true"
     inkscape:window-maximized="0">
    <sodipodi:guide
       orientation="0,1"
       position="119.31322,43.085328"
       id="guide2571" />
    <sodipodi:guide
       orientation="0,1"
       position="-5.1545699,64.233871"
       id="guide2573" />
  </sodipodi:namedview>
  <metadata
     id="metadata7">
    <rdf:RDF>
      <cc:Work
         rdf:about="">
        <dc:format>image/svg+xml</dc:format>
        <dc:type
           rdf:resource="http://purl.org/dc/dcmitype/StillImage" />
      </cc:Work>
    </rdf:RDF>
  </metadata>
  <g
     inkscape:groupmode="layer"
     id="layer7"
     inkscape:label="Background"
     style="display:inline">
    <g
       inkscape:label="Layer 1"
       id="g2573"
       transform="matrix(6.4072142,0,0,4.1541279,-3.15972,-4074.5985)"
       style="fill:url(#linearGradient3283);fill-opacity:1;stroke:none;display:inline">
      <rect
         style="fill:url(#linearGradient3283);fill-opacity:1;stroke:none;stroke-width:0.98630136;stroke-miterlimit:4;stroke-dasharray:none;stroke-dashoffset:0;stroke-opacity:0.16470588"
         id="rect2996"
         width="71.013702"
         height="71.013702"
         x="0.49315068"
         y="980.85535"
         ry="0" />
    </g>
  </g>
  <g
     inkscape:groupmode="layer"
     id="layer8"
     inkscape:label="Glass effect lower"
     style="display:none"
     sodipodi:insensitive="true">
    <path
       transform="matrix(6.4084507,0,0,3.9791824,-3.20423,11.07029)"
       style="fill:url(#linearGradient2592);fill-opacity:1;stroke:none;display:inline"
       d="M 5.09375,26.375 C 2.8326667,26.375 0.97617947,27.949365 0.5,30.0625 L 0.5,71.353784 C 0.5,71.353784 71.5,71.353784 71.5,71.353784 L 71.5,30.0625 C 71.023821,27.949365 69.167333,26.375 66.90625,26.375 L 5.09375,26.375 L 5.09375,26.375 z"
       id="rect3812"
       inkscape:connector-curvature="0"
       sodipodi:nodetypes="cccccccc" />
  </g>
  <g
     inkscape:label="Glass effect upper"
     inkscape:groupmode="layer"
     id="layer1"
     transform="translate(-138.21434,-359.14792)"
     style="display:none">
    <g
       id="layer5"
       inkscape:label="Glass effect upper"
       style="display:inline"
       transform="translate(290.93105,473.66039)">
      <path
         style="fill:url(#linearGradient2590);fill-opacity:1;stroke:#ffffff;stroke-width:5.79845619;stroke-opacity:0.07051284;display:inline"
         d="M -152.14981,-114.21707 L -152.14981,13.535349 C -89.827244,30.464617 -10.703673,40.71231 75.5,40.71231 C 161.70368,40.71231 240.82721,30.464617 303.14981,13.535349 L 303.14981,-114.21707 C 303.14981,-114.21707 -152.14981,-114.21707 -152.14981,-114.21707 z"
         id="path3779"
         sodipodi:nodetypes="ccsccs" />
    </g>
    <g
       id="layer3"
       inkscape:label="pictogram"
       style="display:inline"
       sodipodi:insensitive="true"
       transform="translate(30.388688,474.52112)">
      <image
         y="12"
         x="12"
         id="image3014"
         xlink:href="data:image/png;base64,iVBORw0KGgoAAAANSUhEUgAAADAAAAAwCAYAAABXAvmHAAAABHNCSVQICAgIfAhkiAAAFDpJREFU aIG1eXmQXNV57+8759zbt/fpnl2j0T6SkBiiBSE7gNmMMQEqZkmM5RC8JXkPxyTvOSnbqUrsxBX8 qvxsbMdxgkEmXjBgzOLYYQ2xbIEQizZA+2gkzUiaGU3P0nv3ved8X/7osWxS8bMKHqfq1O1b95y+ v9+3f+cSznLcdtttYGaICAVBIKVSCc45KKXWKqVuM8a8z4/5iWQ8wYlkspBOp/5FKf318YmJqXgs wCWXvAthFHr5trx17MR4BuvXn3+2r/+1g85m0TXXXIO+vj4QtZaLCADcJCK3AriAiHLGGBOLxZBM JpFOp5BOpcN0Oj3m+/42z/cfJuBx3/cb8/vmg4WViHC5XMYll176lgios1lUqVSQTCahtQYRZbXW z2qtHzLGXGuM6VJKedRiR8xM1loKozDWDMNFRLQpCGIP53K5ffn2/KcPDR1MWGs5CAIYo/HgAw+8 JQLmbBcSEWWzWanVat/VWl/eaDRCItLMrEQEzjlEUQQignMO9XoDpVJZZoJA0uk0stns4nw+/4Xu 7p5bFdEfzs7OvkykSCklbyuBO++8E9u2bVNDQ0PsnHv3mjVrrhsdHbW+73tERMwsRERKKURRiChs AiAopUCKoJUm3/cplU5JR3tH1NnZuTKZTD5y6NDBheeuXs1KnZURvHkCRISbb74ZCxcuxI9+9KM/ LpVKMjQ0JF1dXRSLxcTzPPI8D5F1YCh4vg/P8+D5PrTRRCA4djI1W8HpqaLWR47WLNPdzlk+PDJG l1+48e3VwIkTJ7B7924eHByMd3V1Xbx3717UajU1PT0tiUSCcm1tsEJoS/jozwdI+Bq+URCxsByC hcAgciycjmndl5axp3YO/11/LoF3n9sjP6S1bwX/bybQ09ND1WpVdu7cufiCCy7omZycBBFRZC3V azVETrBqQTs2/XYPejty8IyGpxWMVhDSEKXBpECAMlpbsc2lFw20/Ql5wV1NVurjxc38xbeTQKVS oXw+L4lEYmG1WpVqtSpEROwc6s4ho4Hr1/cgGxg4L4WgvRvMFhEpCCmIUgARCAQGoMRJoxHeGu9Y dRdPDgsw+Rbgn0UYrdVq1Gw2MTs7m69Wq2g0GsLMxM6hVg9xzvw2dGTjaEQOUWkSrlGF9nxoraC1 hlYaSmkoIiFhRUrBxFPnTvx0c8fUy48KeYmzykVvmkAYhlIsFlEulxPNZpOcc8LM4tghshHSgQFz yw+ZBY2pU3CNGqAUIAyIAwkDwkQQAEKkvXTQ19+fWrEeFKTfCv7fbEKnTp1CGIaoVqthOp0WYYZz DtYxnHUQYTALnDAYAmdD1CdPIGjvgZfIACKAOAAAiZAIWEiRmHiHgCCkCMCbjkS/kcDIyAg558DM Zd/3YVnICFNHJsDJqQilWhOOHSwr2FZtBLIRGoVT4HQdXjoPZTxABAwhMLiVraMkKQ2Kmm/JhH4j gUKhINVqFYkgdiSVSpFntPrDK1bIQG8WI5NlIuWh2mhCaw/WKqg5hwUIXCwgqpVhklmYeBpkPIFS 5KylsF4DSIHJvL15AADncjmsGlyz7+CB/cc70rEFffmAp4pl1ZdPIh4PUKuHCAKCVgoAQQRgYWil YLmBsFkHaBLKD0jH0xzWStJsNgggMPTbqwERARGp3bt2RcL2LhXoO8YL0xz4vi7XtTAUBb5AqV9W qswMx7+IQAQigrAF12viZgpkoyZCJzWCwDYbb68GlFKo1WqsiFBu8tcaob1177HCig3Lu2wYWZNI QBphk4hanigicMwwTkMr9UsCAoiIOBYVNkM0a7XTpBSMJ28vgcOHD2PJkiUgpYiIq/VQbnjxUPHZ eW2xnt4uzY5FuSgCADgROMewxsFoDa0ViFoEIAIWgWORqFkv14unR8RZxLK9bwX/2ZXTcxWjtCUM NUK7r2+hd+GeY7NPBb5eks60sXOsbL0BxwxnHCJjWgTmKtI5AsIi7Jh1VK8divWtmbKVAjWrM/Kx tcA9u375uke+eAOl8p0Iq6dx9LUd+MTdI3xtD6SzC7j31Tdi02dDYHp6Gvl8HgTghg0d6qZ3Lp6u N6J3NJuN8xLxwPlBoGqVKgQAM8MKg52DZQdrLSJrEUURRZF1YdjQjVr1+2Gt/EwUhTqbTsqhg3uw IgnFU5DLF0NS7Z0ST7dLvVqVY4ePSWqsikoFSKZBlw4Ca9qBHWNzbM+GAAAMDQ1h3eIMUnHDv/uZ TaQIcWO0FAoFAEDEDuVqFdV6A9VaHZVaDZVaHZVaHdVaXSq1ulTrdV0uV1AuTj9UnJ5ApVziP/3L 72DlKlCjAo4AMGP95KlTf3LswIHPjwwd++zsdOmDjrF8qgkkMwnZtgVqqgDMn8N11h0ZAKxdlEGp Xgdwg4C+lFNkqFav09TUFJKpFAqFSUSRheeZVgTSZ/LCXFvgVNSovQx4LxERaqNbZe1i4PEfQtq7 9Qc+/Tcf+YvlgyvX5doE8XgIZ+uoVt6LybFCtP3ftz6z/dmDn184H9s1ASfmMJ1VDH7Pxz4L4/m4 3D1BszWHZ7ceyF55yar9kbM9EGFxTvX09sIJMFWYhO95MJ6BIgWlSAgEITgXhiaqlX5He/4TJFY5 l+YTJ2e8fMbf/IHb//SW/t4JKPecKIw5ZxuABRPHfOfmwemleGnbEX7w7if+si2f+LIJoC6+cgH/ P33gxr/6FvLzl0ApTU/f8zl92YbV3J2OobMze1sm0DdGjh2LKBBRpVJGPAgQjydQrdURRpFE1lIY RYisDRuNht+oVn4QiXyhUqmoyfFJqHi39HQH93/sM5/c1JV6OIqnnqUgHSooKM8zVK9as/25QnHk 8PC0Kx1ML1/Rj0Url1y199WjpWw+9cLpk9P/fRa86W++j0Qshpmpccwc36VimW4WZjQQLM3FzafO TRU+vLLxipqog8qNkHgulDsbIRFPQGmNehgCzEIERCRkms0dYbN2ufLi5QV9bapuO9zhV1+47X/f 8cV/7Mk+GmV6jxvYBEW1unBkuTobqu9989QzkYo+evfm6uzyPvz5X9ye/7uBwQ3ulR1TeOihfRtm p2q736CBqz+5GZdt+iTq1SJu3NirXj9WEBOkRWlvcTyd/1wmRt8MEvF3UrJTLaIxaG6SFYhlIQGg lEYYRQjDJoidgLQ0LUW501NfzQ7+9s2VcrFemxilU24JB53LMpdd+ls/XLmymUy3byGlMso1asJR RL52OPhaST347an3Nyt88G8fGQwv33Tuz4e3T96ycL5rz7Z36cKpsfk3f/iC+8848e/+9YOYHhvD yWPDSCQ8enL3BFfK1Vx7d/+nFp8z+PHevv4UVwsojBx0J06eVMN6Ga3wXpZIYqQIqEcOjgXG96CV hrE1pJaeD9nwP6jwyovZkVRqQfuy64djP/gw1Q49Lq/uePw9N27+RrenfmxNkNKuWhPiiMRFcI7F 0ww/Rt1tbcBTP5qCNJP+6kQiEbTloRoka9Z1XfGvr3X3aQC45jP3AxCEhRlkOvMURqG0Jbz35xeu euy8d1x89bwF8/10ImbznTnqXTigOtvzmJY0xaunKGsnAS8ORQKjCDGjERiNTOCTElDvxZt017oL 1oWV2h8dGTpakVU3bf+9iz0kM7H/ueb81RtSqRfY+NCImsQ2AkcWUSNEJqlgtLq4HsrIs/dN5bu9 2a9fd9M565K5nDjESZoF7x/+eutxAwAz00UsXX0u4qk4cdQUicyXg77B/7Vi9TlQClaxaADGhSKe UZi/aBG1d/dgrKMN8R3fQGbmKPx4HKFjQARGKSR8I+XyOE4feAnnXnE1Jy/YmGjLt3/1tVf3bBxr u/6DmfTX24xpkFJNkNXCLiSxEcAMsFakY/Lea3MLjh6jh6+7IY6e/nZ4QUqYYkqJ5nhccP5a2mDe ++kHMHFqHLMnh2nBvA45PlH/6jnrL7x96YrFlh0UOTbKKFEEaVUGDOeAZOBh3sBqFGO3I/3ad8Cj e6AEIOPBKAVXL1HnkvMwWi1Ks87aM0oGViy3QRBs+ref7qZLKjMEiYQjR+JbIrYgaBDFQSYmkBgJ xXlgMAVlkmQ5YFGB9vwEQscgNBA2pKwXnH8dVqxeoZqRSHF29kMLVq7/wvJVA1ZYtLAoT5FoBTIK ZBTBKEArwGiNuG/gJbOI9w8i396JKGxCogbYWWSWrMfaGz6BQ0PDlO4dED/wyVqodLZN2jq7zhs9 tGv5xuWe9tRJFcQtiQsgSEKQgiBFpNMgP0uiMsQqRSqWVTqWEfJziJoNmhp+jj57b/gFI8Jq/Ph+ bkSxzs7+ZV9etGwpK4IKrZBRJEStY9vWFMzlVQACpRWymSRcfB76512H/sGLMFMYB1yEroUD6Ovp ho+foVaeoXRbSppgYkc0vz/HMyuu9Y8fexCrVy+GYBhQSZD4IB2DUgGEEoBOAiYJ0gmQjsOLJVCu J5maO9TJkfL401vwhJm3dEA3aiHXx0Y+0b94aS6b9myzyYa5Bb51lN4q9kUIRK17IgEJoBRBx+Ko Gx8DfXF09/SASLU0pRWCmI9aeRZKL5j7OyGtQJn5vyUTQw9jbXoV6pVpSmQTcM0YSAVQlISoJKAT LfAmIcZPIuI42bDE1ZMv6Cefxr3LjqJhJkb3RQsy8UD1D3yku6dbmEVFjoQAAsmZbwKY04K0CgNA CKJaDYwhQdlpFB2hK86wTHMfQ4B4zMdMtdzay0zaKFQqdVK7v433fOh3wJWfY+LEPCxIxmACA+ti IJ0G9JzkTVKUF6eGTaFSjWyydJf38GMnhnMrzR0HR0WpalXjhX1jF2bznX2ZlOHIQllumYrIXCeF udORM78JAmm1jyC4uYenqkBoGcwOzAwACOIBnLVgACIMxBRO/OTruO7KXgSxYfzTHXtRLpcQlmrS CHOgxGKRWJ+I1yPs9UqoeqVY73BhZdKmp+80P/ne1qm9p7tumBy2lRV9gEl1LkY823FlW75NjBKu W9HOEYkWCOiN4AXgM5PAAhALnCIYAiqWMNUgdAYOVgREQMzzAEdgK/AyPvb/5AFctDTEojUx3POp n6Ojrxtr1gwB9UkaHXonUu0jkuldqSyyAFVB4RTFSnswvn8L7r9vevvWF+kjPQtK+2NOUaMJNu+4 YiNe2bL9/GwmCRZQ05KIEPEbwP43kwEHgBQBDAAMFoXxukLOi8AsECF4ngc0BDpFGNn6IhY2duEd 167EE//8Y0zPAH/2xw6o75Whk7fQI/cdkQ9/6JD698cfk1xHiqKwifJsafrwQd7x9HZ8d/qkvm9g mePRFxtq9UWKqxWB6a0+FwSJtkWpZEDOEUVOSJGAmcBqLq8owAmgBFAMOAJI0LInBrQSCLd8YyZU KDaBpHZwzAAEfiqHwokpyK778b6Pr8eep57Dtv8Ylds+tYpi1e9wUf8+vnfPiLv+5vnmX3944PWJ auMmf6Tq3f9N8E5gzEN65j1La/CMQxSBBjYQewb4+ycZ6rZb7lyVSCRyvqdgnZB1LRs/I2UBHLek 7n7l3vLcPQPWESJHsCwIHWGyoSDOIooieF4MljyMPX4XbrxpEBPHD+HhzS/L9beuoW7zqETmXer7 36qry65qN8WxbdWdR6d///gRPjh9nF53wD4AM90oUybuNBGQSECsFXxpS8vHTPeGjefFYn5gtKAZ ClkGFFELmJqTurQAEwHU2nfmMJMJUAQoatk8C1BoGnQbRjxqQsUzGP3xP+KjNw4imSrjq59/SjZc tprWLnvJHdtb1d969NSuZmVY93Z7i5585MRHFyzD/poWbQhyyYWEPc+LXL0OAsBtKQNbftn8twik Mu1LgyBmlGpJ3XIr0zoGlGuZi6JW8/yrzcMvnFur1nMCQREgEJRYo9RgpNIJTOzdinetSmPZYFLu +dyD6OifR9dcWbCTQ/vMXU8OnP7BzxddtrDPK+55+HAnxs3kXbss3f0JuKOHga893xLT3Tt/bc8F Q0p1GKOBVlgkxwTHAkstTVg3J/lf3fWLiKRaEldnMnXLD5oWaGZyOPDyf0BVT+GqWzbK4/c+RLNF kfd/wNjXfvZv5mcvx2fGXsxcf8WiE0XOJTG+6+Bk3zzQ0nFIWxK448lfD/oNBKJaaX4URb5niLUS 5UQkYgUikCJpHdPSGxu3Od+Fll+YkJwhABHAUzhy4jQqWx/DNR+8BK9u3UqvPD8k73v/atz12IQZ Un//fCOp/6j9oqn9qegAqYNPCy3K4u7tRQGA3/s/ZwceAFQ64X/30L79E4ePlVQspiKiOWdmEesg loHICawTRE4QcusaOUF4ZqI1rUjEgrDZkCPPflfedfU6VApH5bF/2SLX3vxOOfL61ujbL6/8+PPP bLkorSv7j57/ByrbHBcog83bi2eP+lcJZDt7fjB1Yujdz2356at79o561jpyIOdAzgpxxMTWQSIL aYGcuzpI5CARE1smdtLaI1q7mckq9Zhhas+Hcv/XHuU1F60L52UOYfz4xIHDD5S+8aWPHocN2il3 +jAfaabw5W1vDjwA6IUbb9Daj03ke1L3Hnl9X7VRK62IwqhNhFRraCJNBEVEoNYHlTl7ERA5BkU2 olqtoUqzRVUoFNXJyVrFHXq0OrFrZ9xLd6q1g2J2P/8C7T3QvP/00JFnopmamplsciU1gAe/+X/f NHgAoItuvw+NWkUl2hZzWB1BW1d7cnp88qpUruuaRDp7fjKV7o/F/LTveSaeiLcyq4tgwxqEXcRR WAsb1UKtUjxaLc2+akdfeik3+pOfJSvHrw7isa8sWb1y55HXdj13ehJPF4t48fEJhG8J8X8ZxlkL iGO2DZAyJpYKqgA9EkukH/nKX12KZUSJxVfdfk4y3bYwk+/Meb4vNmxweXq8UJw6PXr8p5uHAZTv Oy547onn0X7HLSgPAMUE7js1Uf/xV7buKsiO5aD1h7BpBdA3AZz8/0jgPwE+GevrCu9DoAAAAABJ RU5ErkJggg== "
         height="48"
         width="48"
         style="filter:url(#filter3033)" />
    </g>
    <g
       id="layer4"
       inkscape:label="Glass effect lower"
       style="display:inline"
       transform="matrix(6.4084507,0,0,3.9791824,135.01011,370.21821)" />
  </g>
  <g
     inkscape:groupmode="layer"
     id="layer2"
     inkscape:label="xx Work layer"
     style="display:none">
    <image
       y="0"
       x="0"
       id="image2517"
       height="295"
       width="455"
       sodipodi:absref="/Users/emil/Desktop/GOn_5_man_splash_12.png"
       xlink:href="/Users/emil/Desktop/GOn_5_man_splash_12.png" />
  </g>
  <g
     inkscape:groupmode="layer"
     id="layer6"
     inkscape:label="Text"
     style="display:inline">
    <image
       y="225.44073"
       x="18.397573"
       id="image2479"
       height="28"
       width="90.46154"
       sodipodi:absref="/Users/emil/Desktop/Logo 5.5.png"
       xlink:href="C:\Users\emo.GIRITECH\Documents\Shared Graphics\GOn 5 logo\Logo 5.5.png" />
    <text
       xml:space="preserve"
       style="font-size:30.35328293px;font-style:normal;font-weight:normal;fill:#cccccc;fill-opacity:1;stroke:none;stroke-width:1px;stroke-linecap:butt;stroke-linejoin:miter;stroke-opacity:1;font-family:Bitstream Vera Sans"
       x="119.30823"
       y="251.78406"
       id="text2488"><tspan
         sodipodi:role="line"
         id="tspan2490"
         x="119.30823"
         y="251.78406"
         style="font-size:28.83562088px;font-style:normal;font-variant:normal;font-weight:normal;font-stretch:normal;fill:#cccccc;fill-opacity:1;font-family:Arial;-inkscape-font-specification:Arial">Server Configuration</tspan></text>
    <text
       xml:space="preserve"
       style="font-size:40px;font-style:normal;font-weight:normal;fill:#000000;fill-opacity:1;stroke:none;stroke-width:1px;stroke-linecap:butt;stroke-linejoin:miter;stroke-opacity:1;font-family:Bitstream Vera Sans"
       x="17.493259"
       y="281.88007"
       id="text3262"><tspan
         sodipodi:role="line"
         id="tspan3264"
         x="17.493259"
         y="281.88007"
         style="font-size:9.50000000000000000px;fill:#cccccc;fill-opacity:1">Copyright 2003-2011 by Giritech A/S. All rights reserved</tspan></text>
    <image
       sodipodi:absref="C:\Users\emo.GIRITECH\Documents\Shared Graphics\Install Config Uninstall\version 13\GiritechLogo.png"
       xlink:href="GiritechLogo.png"
       width="102.54079"
       height="51.183647"
       id="image2567"
       x="332.23199"
       y="-6.3840623" />
  </g>
</svg>
