<?xml version="1.0" encoding="UTF-8" standalone="no"?>
<!-- Created with Inkscape (http://www.inkscape.org/) -->

<svg
   xmlns:dc="http://purl.org/dc/elements/1.1/"
   xmlns:cc="http://creativecommons.org/ns#"
   xmlns:rdf="http://www.w3.org/1999/02/22-rdf-syntax-ns#"
   xmlns:svg="http://www.w3.org/2000/svg"
   xmlns="http://www.w3.org/2000/svg"
   xmlns:xlink="http://www.w3.org/1999/xlink"
   xmlns:sodipodi="http://sodipodi.sourceforge.net/DTD/sodipodi-0.dtd"
   xmlns:inkscape="http://www.inkscape.org/namespaces/inkscape"
   width="770"
   height="80"
   id="svg2"
   version="1.1"
   inkscape:version="0.48.0 r9654"
   sodipodi:docname="g_report_banner_current_user_activity.svg"
   inkscape:export-filename="C:\Users\emo.GIRITECH\Desktop\Current Projects\Reports\Report Banners\g_report_banner_current_user_activity.png"
   inkscape:export-xdpi="90"
   inkscape:export-ydpi="90">
  <sodipodi:namedview
     id="base"
     pagecolor="#ffffff"
     bordercolor="#666666"
     borderopacity="1.0"
     inkscape:pageopacity="0.0"
     inkscape:pageshadow="2"
     inkscape:zoom="1.5818182"
     inkscape:cx="385"
     inkscape:cy="40"
     inkscape:document-units="px"
     inkscape:current-layer="layer1"
     showgrid="false"
     inkscape:window-width="1680"
     inkscape:window-height="970"
     inkscape:window-x="-8"
     inkscape:window-y="-8"
     inkscape:window-maximized="1" />
  <defs
     id="defs4">
    <linearGradient
       id="linearGradient3830">
      <stop
         style="stop-color:#440008;stop-opacity:1;"
         offset="0"
         id="stop3832" />
      <stop
         style="stop-color:#880000;stop-opacity:1;"
         offset="1"
         id="stop3834" />
    </linearGradient>
    <linearGradient
       inkscape:collect="always"
       xlink:href="#linearGradient3830"
       id="linearGradient3840"
       x1="0"
       y1="40"
       x2="770"
       y2="40"
       gradientUnits="userSpaceOnUse"
       gradientTransform="matrix(0.1038961,0,0,9.625,0,-770)" />
  </defs>
  <metadata
     id="metadata7">
    <rdf:RDF>
      <cc:Work
         rdf:about="">
        <dc:format>image/svg+xml</dc:format>
        <dc:type
           rdf:resource="http://purl.org/dc/dcmitype/StillImage" />
        <dc:title />
      </cc:Work>
    </rdf:RDF>
  </metadata>
  <g
     inkscape:groupmode="layer"
     id="layer2"
     inkscape:label="Background">
    <rect
       style="fill:url(#linearGradient3840);fill-opacity:1;stroke:none;display:inline"
       id="rect3826"
       width="80"
       height="770"
       x="0"
       y="-770"
       transform="matrix(0,1,-1,0,0,0)" />
  </g>
  <g
     inkscape:label="Layer 1"
     inkscape:groupmode="layer"
     id="layer1"
     transform="translate(0,-972.36218)"
     style="display:inline">
    <image
       y="980.02667"
       x="-24.187101"
       id="image3822"
       xlink:href="data:image/png;base64,iVBORw0KGgoAAAANSUhEUgAAAQAAAAEACAYAAABccqhmAAAABHNCSVQICAgIfAhkiAAAIABJREFU eJzsvVuIZFmWJbavmbn52z0iMjwi453xjsysyqquzsqkR909lCoZpGYQSCAGJJAQCEmoAwYkgTQf 0pegZyShn/GAqSpRoukPdcMwH4OE6B5Jg1CPnnShFvXorMp3ZER4enj4+2Vu5nb1Eb6vr7ts7XPN oyrTb1b6BsfM7z2PfR577bXPOfea2YmcyJdA/vRP/zQ7bh2+bJLneeVf47iVPJETOZHjkxMAOJEv hWTZCQH4PKS2vTo/P3/dzMYbjcaGmVmz2VzN83zKzF7K87zd7/f7jUYj6/f7mZmNm1nbzEYPsmdm llvQvizL8jzPS5fgu+eL8udZllme5xl+z54X6vkH8gR1uT4m9Onbc4Duizz5wb0i04GB5K7X80sD 5Ybto7RHze/fsyzL+geKpPq0SH/QPhNlojSyLBvN8/zP8zx/ev/+fdXHJ0Iixm5AWnt7e+12u733 BehzVBk3s/+v3+83zcz6/X7pZpZltr+/r4ynuB91QJ7nyftKMD3n83hKpcd8UZ3D5B1WlG4vki/L soE+rxLOM4z+VW3163me2+Tk5H/T6XT+YzNbPpJiJxJKq6bGb61Wa6nX62V37tyx8+fPW7vdNrPY sMwODZu/R6Lyo3BZbMjqk9NHZQwrDDyqTZFeeZ5bo9Eo0rA+XIe65/mazabt7+8X6RuNhu3v71uj 0SiMnvNze6N+5rZgG3u9nj169MgWFhZsa2vr33755ZdX/+iP/ui/WltbWzxhAr+8tI5bgUjy57x6 p9FoTF69etWmpqaidANGEQHEEHUmy0oZT9X/L2L8rAcKetuq9g9TtufBsvr9fmH8/X6/MHpP5/U7 OFQBQFW7FMva2tqyp0+f2ujoqE1OTtrCwsJ/9NJLL42dP3/+Pzezz4Zq4ImEUttFwH6/P57n+bh7 sYh+46RjL+cTdVhDQM/J5SsQSXljvn8UQ8BrqI+3x42v0WiEQDcMA+K6mcI3Go2CQfgn9rdfc2bA fcdjxu2J7rHuDkI3btywy5cv2/Ly8v1+v/+3/+RP/mTuwYMHtV3H+jJIbRmAmZ3xLym67ZKa/C/K AFK0XoFNigm8SL2qbjc8BIGorJQ+mA7LcErvn14Pt5m/MxBHgKnYiQJ1T4cANDMzY1NTU9btdm1x cfHvnDlzpv3SSy/9l3bCBAZkYWGhbWaV4X1tGUCr1frQzIrJjlJl0Ef1fFX5UuwjuncUuh+1T3lF tRbh/7uhYjnDrG+4uPdHb+/lezjAwh6c64xCF6UnMx3M759nz561e/fu2YULF2x5efk/NLO//cd/ /McvRX37VZQnT5609/f3J4dJW1sG0O/3J80s41XlX1bYa6ck8u6KDXC+F/X+VXU4A0CvzMakDE+V j2XhNbPnYNBsNovynBWosrEc1lf1BeqPbfX/1U6CfzYaDXv55Zet1Xo+dR8/fvx3zp492/vDP/zD v7+xsbF0sjBoduHChT0z2xtmDtaWAeR5PmtmGa5iw71hyxi4dtTFOBWDY9kcf0eAcBR9FNi48fGn KouNT23ncSzvdagwhw08agOOlVqY5P5U4UrUFwzcZ8+etdu3b9v58+dtaWnpP221Wv/B2NjYzIBy J5KU2jKAPM/bB5/SWwR5pDesCiE4Vubr0eq2CgFSNDlaX1ALeVXrDcgAsDwFHuhZ0Ysj1fY0vqDn +SOvr4SpfdQP2L4UU+A82IYsy+zChQvWbDat0WjYwsLCf3L27Nnl+fn5f2BmmydMYDipLQBkWdZX k0MZkTJURfNVGVRncpJymigEUKLAifXy70z/lT5M3bkcFl7Yw/RYrm/5vQhb4bZG9aDueF19Yl9h e738c+fOWZ7n1uv17OnTp//FqVOnplZXV/9rM1sLO+NECqlzCFB8x8mEghNE0WxlvJGk2EJE76uY hbrHVLiK+rJ+/h0NOQITpv7oPbFt6PXZ+FOAgWUoVhUZeXRasIpNqT5rNBp27tw5e/311+3ll1+2 tbW1/+zMmTP/7ve+971pO5FKqS0AmFnTvyhPxfeU8MRMxaZY/rB1pe5HadloXUdceVeAo4wi5fmZ jvuePhomGr+n5/pVnVEYpgAxCpVU+qgMzOe6IxtoNpt24cIFe+2112xubs6Wl5f/3sTExL//gx/8 4PRABSdSktoCQHbwUIlZmg2kPHZkNPiHaSMwGZZFsB6YF+NtXi1n2q90TrXTxct1z4jXzZ7H97gO gJ7f0yEDGMZovb5U2KA+Me+wkmIKWZYVW4Tnzp2ztbW1v9tut/+dH/7whydMICG1BQBEeD7s4teV RJOV4380SE57lHJSEtF6XG3nkMC/p/SJDMG9PHpeP6/v/ahYQdXCHYc+7I05PYcQRzH0Kpbl11S5 rVbLLl68aK+99pqdP3/eNjY2/u7o6Oi/8cMf/vBkdyCQ2gJAlmXFyCojQTlqnI95FM1VC29ROcMI eng2fOUZlU78P3pvj6vdMPC7OtGHtB/ZiBI+Aoy6qFOIVf0StTsKn1KMIVoTOH/+vN2+fdteeukl W1lZmW80Gv/eCQhoqTMAZPC9+BwmblQTEb0iGyLHvimD8PvRdRWucJihPHjEBqoM09O7l/f1BDzH 73TfV/ijPku1iXXENkaMJdWP3NYIVLEf0PPjWkCv17Ner1f872sCvjC4ubn591qt1t/6/ve/P9Tp uK+S1BYA8oMXSqjFOL9+kC40PJ48ibqkd8HPVF6u16/zNh3rrvRCnXHFPBXzu1fHPB7vmx2ChYcD CBZKL+4Xvo8GGxk5px2GmfGnAkW85gym0WgUpxb9+sjIiF26dMnu3r1rZ8+etfX19e+32+1/a35+ /mRNAKS2AICiFvai+y7K6NSim98bVlLhAHvuYU7rYf2K7g6zSIlAg6v5uN+ODxCxx1WLpgrYogXC FPimdH8R0MWwBcOQbrdb0s/bfe7cObtz547Nzc3Z5ubm35+cnPzX5ufnx8MKvmJSWwBoNBpyFqSA gK9H7AHTHjWej7wderrIwM0Gt9v4wZuoDszvuuMCHj41h3TZ8zA4MdjwGkQKjLjPUowmag+3tSrM 47zOcHq9XmmXg3VpNpt26dIlu3fvns3NzdnW1tY/mJ6e/lvf+9739AsmvmJSWwCIvAHT+mhyVdFr /OTvKk+Vfuh5FFXGepCqonEq78miGAGXic/nq3cGqC27yGNzfVF/cyw/DCgoMFd1s2AfMwiosMt3 B27evGlnzpyxjY2N/7bdbv+bDx48+MqvCdQWAFjY8CMDRElR/KicqIxID2XgaAzqJN0wk9xs8NAL T25Fy7kd0cm+CACiU3q86KjK4HCIy2NR+jJb4rY4uDkDQDaFC4Sq3EuXLhWHhba2tuanpqb+5fn5 +YlQwa+A1BYAcnirbOo598gQMW2KCRwl/vc8qiyM99E7+WfKSLEsvIcv58D/MXTwfHyoJ9J3GJoe eeajhEuKAah4n1mPYlKsW6/XK645ECCTipzDyMiIXbx40W7fvu1M4I/Gx8f/9a9yOFBbAHCpOqhi puPHlKHh/aPE/5wPvQ+nQX3UQaaUKA+G7+fjV3DxOgDrMkyow3WpNQBlwFxuao2GQxFkS8xS+GWm Lvv7+6U1AE/D5x+YDSBQX7x40e7du2dnz561nZ2d7zebzb85Pz8/Vtkxv4ZSWwA4iiFX5Vf3jur9 2ej5emQQPgkjIFCGjpSWH9/1/XykwA4MWK/y/F6+oud4XXnkKhCJ+iFiEZwWy+QHljydGz/rjGVF bAvHw9cE7ty5Y2fOnLHd3d3/bnx8/F/6KoYDtQWA/sHsZA9WRZ85PeeLJuAwwkbAgBBRT/+eioe5 Hj7F52/kNTvcz2dDVdt0LuoAEC9Woq6sT8r7p66nFkSVfu69WV9slwOhp2ev7wwB24VlmllxWOjW rVt2+vRp29nZ+ZN2u/2v/OAHP/hKbRHWFgDM9HaUf+LgKi/1ItSe/+dJZ6YfmFHeTLGFFONggOD6 8zwfOOvP3jBVdhSmKGNXC6RHZUvcBq4L+wbBzswGwM2Zk/c7LwRyKIBjosbL0zebTbt69aq9+uqr dubMGdvb2/ujRqPxLzx48OArAwK1BYBms5nx5HThhaNhJBUS4H2+pkBHUdRIp2E8J57ic8H38Skw 4LLUD4Co+qJQBe9V5VNgwmBRBYBqncMBzo3WmRB+9zoYLNHwESjUAiHq12g0CiZw5swZ29nZ+Uej o6P/6lflsFBtAQAPdbBEngSlKsavoqKeRi1W8Z96Z7769O8ce/NruT0dLvZhWl5LcOPAtQ1mSCo8 SoVBR10jSTE1vu7p1T389SHFatjQfWsQ/8e61SIgb3U2m027cuWK3b59206fPm27u7t/OD4+/s78 /PzogAK/ZlJbAMiy5z+2iYPH8baiwn4vNfm8LHWdj+9y3WxcWB9PWLUgx0aFR3SRErPgef6IZUT9 wHSbwWAYcGAKrVhAqr0crkRenZ9VYDaDMT/Xi2VzGOCf0ZOQzWbTLl++bHfv3vU1gX88Ojr6N3/d FwbrDADSNfGkHDbuT3kivK4MPqqrKqyIrkfPCODCVZ4fruz7U3wYFnBeVZ9qm1pXYSBQohZAub/Y WDnGV+Uxo2FQUMbPgOuGzQuJ2Cfq1KWLgxGeGDx9+rR1Op1/2G63/8VfZyZQWwDo9/u5mZ7cKv5G iUIC/M40XuVDrxfde1HxiY4elR/Y8dX+6Ke3WJcUDec28PqGan9KUnQe0+ALSczK7yVE6u7A5G2P zn+wR1cLgLiTgNfNDhmUApE8f75FeOXKFbt3757Nzs5at9v9h6Ojo7+24UBtAaBx4BbQa0XGHlFi Fp60KkbGMnFCRuWyUUZGpCYqlokTVOVLtYvLUcAVeW3si6OAWsSOuAxcwXdRrx7ncwgq1OHy2ai9 HqT70VkB3hb08pxpOROYmZmxTqfz37dard/7dQSB2gJAJCmaWiVs8BjL4j2cjOiJ2JMyYOA1/M6T k/Pygpc6MBStPaCkgEiljUBDfVbVl2IRKXBCL1xVH3t07Dc2eD4TgPcZjBUgNBoNu3Llit25c8dm Z2et1+v9o0aj8TsPHjxoDzTwSyy1BQA2NOW9jwoG7P34xRh+DbejlDdVdUbxNm7xYbyLJ/xwEuMn 6+73Up4R0+E9Bjq1YOf/K+aAaVP9ju3hNQ02bgUoqj71XXl2pPcMLnxwqNfrDeTn7+122y5dumS3 bt2y2dlZy/P8n2RZ9s6v07Hh2gJAdvDDILxoZVbNAtSAHpRZ+sS0vH1URT+5HPQg6NWjFWoHBqfA XF4qHlfG6frxYhyWH/VRlURgq4DBrLzVhv3A/e7sKmI1aMA4Lmr7D/uz3z98RJjB2PveTDMy7puR kRG7fPmy3bhxw6anp63f7/8PjUbjr83Pz9f2R3WOIrUFgH6/n5m9GOWPvJuK+fwTJ6qixBEQebn8 dB4uZmFapSuvWKcW1VQ4gkCp9I6oumI1DJ7MmviTY3fsD2RAvKjH9B2v8yfqwFQd26Z2Cfb394t3 BjLbUouEChBarZZdvXrV7t275yDwP4+MjPz1X4c1gdoCQHYwA4Z5ki4ylhRNhXoGJpt6263Qb8DL YdiAEx7TuWAIkHq7bspD8X1vSwSAqk0IJKqN+KmYFf7YCD+ghOn39/cHFv+4Lfi/v+QT25WK3RWV Z/DCcADPITBw4J8D2MjIiJ0/f96uX79uMzMz1u12/6d2u/035ufnv9RrArUFAJcoDECJYnNeK0Cj Y0/InkNNfjY8XOHmE2Z+H7fBvCxOq2L+aDEtMhzcaqsCDf8/FedzOcwkOE+WZcW5BTVmWFfEppCm 89ONausPDdfHjB8TdiPGmN/vYVm8Y+DlYz3tdtuuXbtmt2/ftunpadvb2/vHIyMj/9yXGQRqCwDZ wUGgKk+hJmXksXmSo/eLYtEqFuHG74aO99mAcBKnJDI0vsffVdujawo0o7Z6O9WCIdJn9tBmh8DE D/jwYiaOhRstemduCxo+GjHm4zqcpaCOXlfkBHgejI6OFguDp0+ftl6v9780m81//ssaDtQWAKok Wjjyeylv5XkQMKLVdSwf02Fe937MKjgsOGrblMdXTCQCPc6H7Vb38Dt7Q66Lf5gE72NYgEaGAMHs DEEjAkjVBwrM8X8VKrC35/tq4RHLbbVadunSJbt69apNTk7a/v7+/9hoNN588ODBl25hsLYK53me VVF/9DIHeUJaG4HCBx98YKOjozIdpncvr7yg64KTnw/A4KTv9/uln+HG6xgm4Mo2lo3fsWwuC9Nh +Q5MWJa3pdfrlcAM0+L/yHy8DLymxg3bh2PjxsfgvL+/b7u7u6W+Vvrg2k0V0OJ9XKD0exhK8DoO 9vHo6KhdvXrVms2mvffee7axsfHnWZb99QcPHvwfv//7v99NKlEjqTMA7LPRsqCnQYOLVpAPyi29 aOMnP/lJaIQ44MrwUsJ5lZf0/zEP6onXlAdXdXKZfl15VWYP6O2UR3bDwDb5/wguXBb//DjeZz3Y QMfGxuzGjRslvbEuByus240ajdfXFDBU87wMJp4ff0iF+9js8G3D3W7XPvjgA9va2vpfG43Gd+bn 5//8/v37PTlINZPaAkCWZS1FtVF84NDLsRExLWdjGBsbG6CjikUMI2zwCjAiA04ZNrc3SqfuR8bN 8TsbsWJCDCKpFX/Mx2XwM/8MAKjfyMhIqT7F4rx85bE9HRo+enkcJ3/VmrMzDuUYoJwJvPLKK9Zq tewXv/iFbW5u/tMsy/7a/Pz8X9y/f38vHs16SJ0BoM8dbjZI8/EaThyktTz5Me+bb75pExMTxaRF VuHClBOvMaC4V4keghHtLOX3iRn9jp/r5h7NhcMHDi/U5MX2+DWk5PhzW74t50bCrIaNRe2M4P8M jt5m7Ktut2u7u7v20UcfDYCJ14kMQIGDYitI+10vXxfw9iGY4DUEGh9nf3ag2+3aJ598Yuvr6/97 lmXfmZ+f/2f379+vdThQWwAw0yfj2IijwY/Suvj306dPy7rZI/PiHz+zzhOa62W2ovRio8L2RExE sY5Uu1W/qbbyGka73S6BDL+dONIN61SAxm3Aa+Pj49ZqHU5RXPH3MtiLe1l8uhKBx8GVgVKVpxgR 74hkWVYcFsqyzN5//33b3t7+p1mWfXt+fv7/rXM4UNtdgBx+F0AJU1iOIdUWUhXF9nT4iYtp6GFd 8D7qweW5zmhwzGR4UqH3jmi9MvpU/aqtCDqK7qo28b561I/IKrA9Ufqqazym0Sev/qvycPsP8/k1 z4s/Q5bq25GREbty5UrxFGGe5/9Po9F4u84PENUWAMwsizq7SCCQnic1SjRZuUxMjyEBGrCKn1N1 q4nPoBVdS7Wf/1dgwmUooPA8jUbDer1esafu1/L8+fbXMH3Iuvj/Ve3EawqsMC0aKhsuplfbe7wN yOcHFIBgWgcFrifPnx8Wunz5sl2+fNnGx8et3+//eaPR+I26PjtQZwAolo6ZgrG348WpaBJheamJ rFaqU+whZVg4QVQdnM5Fxe14D+tRYUOUh+v3yYyTuNVqFQaMR3hT72lUbWHPq9hMVTkMaByKYRpl sH4fF/5UGvxTjxXjNX4ICdvoC5evvPKK3b171yYnJ63f7/+fjUbjW/Pz8yOimccqtQUANCa14IWi nipLTTJcwMGBU3SRPQveU+VG1zCeRB28vIjJpD5VWMBlq/u8l456OdWtqkMJe3Ve9IvSRWVE6zYO Smiw7BDU/yl2oMKB1M+O4VzBcMivjYyM2IULF+zatWs2PT1teZ7/X41G4+35+fnyZD5mqSUtOZAM 40fseJ6UVRNeFDywuMPPCeB1r9dscBEvqg+NB72Q18/pozhV0XzV5hTgscH7qjfrgn171H5VuvBY cRs4HzMa1AUPBeG4cHquD9dm+IlEv68cB4Y+nAbBmoEbAT/Pc5uZmbG5uTnrdDrW6XT+tyzL3pqf n//R/fv39Y85fsFSWwDIssO3Ah/8H05KZgRVokCEB1q9q9/z8g4AluOfCDB+jfe/qb3SiyNwoESA w5QYmQf2JeoV1av0Ujoo46/qH24777uj9Ho9293dtadPn0pw4LK4PpVHtWuYtvN4Yl2pUMyZbL/f /7/N7JKZPR5IdAxSZwDII9rN+8spcHBB76v29fm7D676GS7lrVVMih6E1x0iY6hiEl4X6saCRsT7 8byWgp/cBymQUWlwHI7CHrAdmK/RaBS/6NtsNotFSF+kVBIxI+VIUjpxWWr9gutRTsXv9Xo9W11d tZ2dHTOzc3YCAGnJD7YBlWFFA6EmoxsAUncfLCxPLcqZ2cCZ/ZSB8sTnuJFFUWFsL/6vwh42fmQW eCbfD7iohUj2aAxyyqjZSLGdivKnjMzLwDq9Xh+7q1ev2tWrV0uxeLfbLfRXjKqqzhR4IxtRIOD5 U2PDZXQ6HXvvvfdsZ2fHGo3G0Sjr5yh1BoA+TmbVyWoQMY1fxzQ4KOoQCVI7XOXFMlEHvs73ozUD nlg4iVW50cRiTxhNUFytVseTvb1KPy4L2xONAfe/qhfZiTJg1WdeBi4MRwbK97ksbm+UVpUTAYC3 i8tDnavA6YuU2u4CNBqNolejwx+pWK3q/2jRDe8rb8Zlsg48SZA9MOvAfMPEpKxvRINVWvZwqh85 n9KNQZLbHnlMXP9QAKLqYb2U7qgTMgK8rvqFAapqa1CVpe45qHE/Rg8UHbfUFgDyPM9w8hxcq6T+ 0UTH7Z5EnclProPTcByoyo8MihkFXsPDJ4ousx48uf07Ll6mdIzCLvzktQIV92N+N84q1hTd8+u4 HuNjyo/zYhkRm1JMhUE60o/LYPBXY0NrTbWhAHUGgP2DTxmPBnmKAeQ9fp84vC1kZqXn3/1eVL7r kYp1caKybqynqleBHBo+T3LuEzY67AfFNFBUH2N7ue04PqmjtVHIpvbYURjEse1eRhSm+f8K1FJj GPUPsxteHOZyUGequzYUoLZrAFmWheAU0UWcuDyBeTXc8+FDLSmDHMY7pUISs3JYwfpE7xlgWosS xZ5cj6eNwo2ImWCZ0ST3ctWBKU4b3VNrA55H3XPjU46hanzUnOF5weJP/Hn6Xq83wKbc6bAOXjbm r5H91xoABryfmgj+HdHYOxnjMcyDRsI/R81eGuvlicZGFk1CxQQigEJdMQ+KotZYD3sqLkOVV1UP XmPa7fWopyE5H+vH9/B+Kp5XoZyi9VyHYkSR8WN5fjrSxY3awUH9fiPOL2QvdZLahgBmNjAJ1Kot elL0CC7c8UhZIyPDgU/9qQU+HHyF9Fg3P2OOEzPqDwamVEyNeSJJ0VfVHvaY2A/8ycbAogDUzAZ2 LDwtgrwCJi6XDZ3DGOVYUAfXo9lsWrPZLI2V2eE7Evh5gGFAty5SWwaQH7wT0OyQAUTeXN3zAVNb MijKW3L6iCKqWN2/o7dBr+nrDfiUoeuMZUbn6D1tdABItYvvM9vxe2iQeP4hejw46i/WQe2oqH73 MhgMeRyxX1V5iiEpY1Qgwge/cA3CaTyfEq0ydKFnbdCgtgCQZVnOxsEeD9EYY0Om9qn+XlhYKJ5+ Q2+Oxo8xH+hX0gMnE04ijo39UBI+WYeTFNNh2WgIaCQRpfW06qAOTu7I2FyYhblgXu5jLjcCouge gwMCpdILxyJaW0EgQg/earVsaWnJXn/99dLaAveVgwOPPQrqo+YKzLHaLALUFgDMLDPTcT97ezcq XjwqCgoGxszsRz/6UZHGBSeuYhHR5ObJh4bAq+E4sVSI4iCmaD4aNNbR6/Uk/WUjxntmVjoxiPpi XiyLAYVX4dFrYt2K0WD7se3YJ2qVP5UHdfL6vW8QZL293W7X/uAP/qAU4jiIpxgksw4WBme8NZD4 mKS2AIAI7P+blSkypnXByewSLSI2Gg1rtwdf1qIMVYE2Tt5o4YoniaLSKAwGUR4GkTx//kOWUVpl yNgG9HzMSJTRcV/yfQZc1oU9OIMhgotiIQxAOD+QXan+Q12zLLNutzuwq2A2+J5Clyi0UePteel6 bVYDawsAjUYjZ8oV0WJGbBaeEF6WmdnXv/71ogwWNhymvGpRMqKmZoPG7XG2oswOfioO53Yq0FET kY3FY30GIQQFbguzBJdms2ndbnfAIJjB9Pt9a7VaxQKae+eRkZESxVbGh+s+bKxYl5fHrIMpfavV sn6/b8+ePSvNCexXFUoqQHGJGAN+PwkBhpB+v58x0qJxuSGYlSmiWvBRLMIHcW5ubiCNikHZCHEM edBxgqrQRNFFLIuBRhloNIcimpraWWC2U1Wu6mM1FtiHSrdU2cxYFMPCPMobR23lUO3ll1+WToLb iPNA6anayW04uF+bRcBabwOalek7UlezMpXlH3lwSRk/L85gev/OFJ+vu47uXdj48dP1wDYxRVXr FWzsHBoxc1ATV+VTTEEZHeoQ1YveVpWvdIjKwjI47FDgpxYCGQxwXUUd4mHdWBe/z2tLUajB/e8s 9SDfCQOokuxgF0DFpW7seE2xAPZuVH6I3lG+lBfE62bl12azqDqwrGFOueEkV3GoSqOAQk1Y10H1 A4cruE+vQiJuA4OEqld5Y24DCl9nRsC6q8XNiFlwn0YgpHTla3WUOjOAzGxwIpmVY1QWNanNBg+b qMkXeUU16Ij+0eozl6EoJuujPJjSl3XEF1XyBOe6IuPn9mJd+MMpCGx40i1qN46B8t6uk5enWIPq iwi8sB8VsLpHRoaR6oeq/qrKj7+fWDepLQMws9zscAIqGu0dzOf5S4UERqaoMn5iOnXdrPyeQJ5I ONlTP6LBlF+FKKo9ESCkJquqn9sZxd0c4ytvHNXJK/2qXm4HgjG3netSQKGOVTMYqcNW3BdVfc3M AM+l+NzEa3WTOgNAaUDR4/OgqKOYVQYQeRGsO/LcbrQ4sGoyKSqOejDFZAaCQMOxM97nmBbrwD7z Mji8UMeQ3XP5tSpvq3TDOhE4UqEA9wfnUUDHxoflpDw3G6QCgdQCMwPjOzTcAAAgAElEQVS7txN/ rgzPZngZdZJaA4CLeyA1EdXEYFrpojw/XudrHO+isNdXRs4SeTbl5ZSh+n1uP+rKaVKA53UhwCAo ePlVLx5RIRMDGYOdovl8PsFFgQXeR5Bxo1TjzKCCouYEbkX64mGKyfk1dRaF3z5VF6mPJoOSR5Ng 2AWWFBVG4T149KyRqDUIHPTI+0TGzN8jEOMyPL3XzWDIZbvuuFbAHhXj46qFTLUzw7pgP0VAzusW 3G4Vovgn/ooR715EYKi+mx16fI/b8YEg7osIDLhMBqth5uQXJXUGgEL8LL7ZIP2NaFwk6j5PGpyg vBOB210OAryglJoQaHRM8dnwua1MUXHCc338AA+KGyV7I2xnRJt5MjMT4q1P/hmuVBwcxe38PAO+ eISBbljQ9zrYIFEH/2FSbwMzmsjIWYZ1WMchdQaA4lkAfyAnmpgviqrKuPr98s9im5Vf76328JXh I6XGe8wa0GMq4ODvnDZFdbnuiDUwNU55L86LJzDZK7MwUCkwVOCOoMQPUVVJ5OlZTxxLZAFYjqpP AULE0KoOgR2H1BkApJc7CsK78GBE1Dzy4H4/0g0H3iVaH2APj3pF9BevpRbPkDVwXdh2zIvMIwIT rgsnvTq1yLRfMRizQTCMmBIvtLF+KU/Mi4UIVGrxE0WtqbCuyFC4X7mMYdaJvmipLQDk8FLQqNNS 1ErlQersgkbPExfT4GIYU/FA/9IE8YmnjsxiHszLOmK7FO1VkzCK85m98KIV6+Q6q+1OLwsPaCmQ 5fFkz8m/vMt9wiER9xVfV3rwwi7PhajfXRQAMdByCCnYQ21QoM4A0FedzV5T5DMz/fSWWgVmT4XU FkEB6S3Wo6iel8vgYmalctWCnRJ+RFc9uaaMgym2Yj9YLy+e4XdmYVHIwv2M5ajFOQ/tsLzoSU/V 59hWVR97XV/JV+OYmk+pT8XuWPD5gTpJbQEgg5eCRih/kK50PfKQmIafs8d62CMiGAwj6L18svGk ZJquFvvYWJGdpMCHJzYvoKn+4X7iPmGj9vyKVbBePA6sIwOQyp8ac94qxT7i9QkGGE+PIYGXhaGC Ai7VR6ofg3lTGxSoLQCgsNGgpLyLTzBmDoqG416458VfnxlmJZdj/WhLkCe+muB8n72wX+c6FJio PlRgoEIE7kcGA2YG3Cbe3nOPr45Mc3tTEq2l4HV8oYd7YNTJv2OI58DBdWHb1ToM66tekQ5pagMA dT4I1FeT0UzH3mpC471SwYmFNJxA0SOi6mEdLE8Zn/pf6c2GrCg6riVwnZwWy4gAMrXGoBgK667G hkMhBES8rvoH2xQBr2IgLrygiTst2J+81qCOdOP1YcaGmQiGfpDuZA2gSnJ4KahZeVstMnBleOgl XXw7j8uMqBsbCIcJPFnxMwII5bEZmNhjoedKechU2irPinlRP2RIXDYDCh4h9hd/cNv4f2Xg6n4q ZFDgrZyH68+/LxhtK/J6BwMf95V6LgV/F7BOJwFrywAig6yaCMpDmtnAoHNaRZFReBKqutRk88+I seDkSYEQPseObeK+SPWfWgH37+odeGrFX4UuCIpMp/0eP+aL/aX2x9W2JF5T3jp6z4Lqa28zjgUK e3rUpSocVfNhWPD+oqW2AGBmAwyAKaGa+Gb6RBk/uONlPnz4cMAwquiuGkim0pgP8/PExnz4yK3r GtFvzKdAI4pV1XduGx/XVUagaDWyBPf8bKhV/aAAMXrQCg243y+/3ox1w7P8/iowT7e9vW1vv/12 OGZqLihBEMVnCAR41AYBagsA+cGLExHFg3QDg8T/+6A49ceHRv7iL/5Cbpdh3akto+i7oo0qLV/3 fGiEaCw4yRiIWE9eyVZ5lF5m+oEW9sbYN1F4oBbQlIGhEUe7LuoaMg9+7Ja9OF7D8vb29uztt98u GakaW8XS8IEh7DdMz9KAX74+bqktABislPLgsdErhI6oOa70NhoNGxsbK20TsddFOuu64IRlr4j6 DAMUEcBgeVHZfh11xfKjPCldXPi5/xRgYBpVHhs/969aeMO6eKxVn+NTgFweswFkLPyCEwwJUaJT gfjzYF42gpgfK+fHsusitQWALMuaB59mpo0chT0Ae4NWq1V4Vnx7zltvvSUpqk8+9Lbo5VQsrPRS 15wi80NECtzcKzLl9jLwHteD6wYMnvwW5egxWvzudXp+71O/ztSad1G476K+8jTYP7iGgG33fsR3 QiLNR0BSkmWZ7e7uFmmQwqOxqrdO49zC++gwXGd1urEOUlsAMLP8KGiJA+UTw8xKsZiowE6dOiWv 80IYU0lP5/fUghnGpGphkg2zaqIyneay2ViZCWE6BUrKEzN953ZEC3zcR+o6A8GwhuHG5t8dLHDt QdXnHhn7xb+jPvh8A/cf6oghpd/HdkTjWicAqM9+BImKw/x/Rf958NDw8VCGonfK46FnVts2agJj zMf7wLwfjl6C86N+qfDHv7O3whCAqTeuC3Ba1T70qkyjsXzsezUuSlAXZRRqnHxsfVz9emrdwNvC bM7r8DmBuqBubPioPwKOAmDVljptA9ZHE5J+v5+b6ZgJHw1GeuUDp7wRAoKioZFXVDGw32PjwfxI P9UE4rgZdWCaiZ4+pVu0wBYBlQMiSor+4xYqhlGK3uN4sP4pQ4l04ROEnhfbE93D8hgk2di5XlUe gxsCU1WbovKPS2oLANlB76qB9J9rNrNiEuOLJ1Jvb/GyeBB5MimW4cJGGlFE9MIR6isPqWJk9sjI JiIGExk//h+BBpengNUXuCLqj/cYbLhOFAQKZkr8Hj71exAMigxOTuvZ8LFu7n/+X7E+Bn2XYcPY 45DaAoBZ+ZHJbrdbfPeJgaI8YTQ5MX3KC1fF/Zw+8qbsnTiNMjq1sKd2KJgFKADjyY+6YVuw79Sj v6myFPDg+skw6xysj6+j8Dh6P6PHVfmRIaKTUOslERCr+cFsQI0hzoWqdyoep9QWALIsK80Ufz2T U0GO5SPKpyYcG48KB6o+/Tu/EMNs8MSciq8ZSLB8bheu/PO6hPJSqBteV7sdbMT+h6cj+cGd1Cu5 VF8rIGF2wHr5NX4HA76jTzEgLkeVqzw/jy0bPeqNfZdiVGptpG5S210A7Hx8RRMaulrxxUmtymTP jQOqAIWRnz2g03s0JDZaVQ6DBeZjcIsO/kSUFI1YeSVut+oPv4bbkP7JdXP/Yn7ejkUdzQYfn2aa bmYD48wGzB6f9cfyIrBRjEgBcsTMvGx+1DgAwNrEBLVlAC5oRDgQuBWEkkL2lLEr1E/RP14xxjxc JsaGqBPrGXljlaeqnQ4m7I1U3QxeqDPeV2/B5fUU7CMGo4gp+I9nIKgj8ONJO24j03AMO1zUCcFU eSlWoa7x04J+nbdNoZ7a0IE6M4DSLoDa5mHE53vquwtP+kgwhlRegstjg1D6KlEHdhgEWC+sBydZ FOeqNiOQ+IKa2itPAZECU06rWBne9/MbfobDY3/8GXGlB+qr9MO68WEnNEwVv3O/qy1O7gNmIgim tJh5wgCqxM9Lq8UkFAUK+F1NQuU92YDRA0VsAfO7EbLhskeMBLcnFdhF3pPDCW6P6hcMUVBnfomF eg6e26D6A/skYm/eXj7DkGVZEWqoPXb01H4CEE/bOXCw8Xr/ICNhgE2tZfDWrOpbXmPBh7sQEMzq 80KQ2gJADqOQQnfKU/qfB5RDhijOxvTKEytvwEbAC1BKT6SauNodLY5xXWjI+On1M+X1T1wVR/DC fLwLEBm6ahemj/oAt3H904EBw7uoH9VagafhvmBKz6GgYl1cDwMKrl3g2ghKClDqIrUFABccHEX3 cQLxgpYLUjFe0PH7hNADngGNVi0EqUmlhFeOfTLhgyzskVQdzC6wD3hBChdP3evy/roCEEW5uS1V QBj1g3t3jvPzvLzXrxb7cPUf28i6cb94GQj0VfOH26LG3/vU9eB5hrrXTeoMAIVuqT15ZbRuBBzn 4gT39H4f6S/XEYGPl6l0wfL9OxsM68OeiicqTviUR+bJq95tiP0RvUgjCrfU/UgfT8Mek+9jP6gT fTw+eHw3oudqLNA4GQzUAiK318//R3OJ8yiAsZMQoFryPC9mQfSyDkWxeFBxsqiXgCoDj7yWMhQ2 6shTIsvg1WGk4NgO/+SwQAEF18/0Fw2FV/OVl8X7EfApj8lj4mXjiT1/ohDHNTopqUBMtcFFlYP9 7nkwbOJ1CuW9eQ0D9UPwiE5H0tyoDR2oLQBkWdZir6IosF9X8bzZ4HZMit6lBo09RETpEEh40ijv r/aKcXKyfpGXYr1Zp2gBVLVTGQSDXBVLSOmC5fmjtNHWG5eDedUJOy6HdeXxUW1n8OL3C3rM72Dj DibPy89IKHBxtcKGfsFSWwCwg3VANSCK2mEaHxw+scaLfFHM7+mUF+b6mAazTswwlL4szE6w3TjZ FIAp7+T5om0vpXcKNBQw8XXWAZ/KREaG+/6cj/vEQ7VhWIoCJxxXBFLeQuU82K/ed85IeE4yK1Jl 5ifbgNWSHRyWiLwCxo5oTEgrqxZecJDwmqKMKebA1NonCTMPM32ohctUFJRBLPJm+MOmCmyQXai+ xX6N1jei/oj6hcOw6BCXCh+8vdguZksR5VZl+yeu5CuHgOU4aGE7cZeEvT3XiTpXzckvWup8EChT naViObPydlDkFVRZig7yAk9Cx2JymJVDD96a8nv4JiBsQ+SFsQyMm5mlYFsZuFJlMxgoxsJ/3F+q PE8TvfeA9/gRdNHgmLkh0KntPawH28a7HDhGqL8DgwP1MAt+fFQbtwUR7Hi+1EFqCwBmVvQ4di6i Nk5cfgQ4iqH9nl9777335LYNGrIafDYYftmESocn0XCS4QKdoreoj+sUGSTmU+sKqIMyXtQTH5n1 h7HQGLksrNvbiIbFfYa6YQzNQIf3FeBxvWo8VZ96uVtbW/bmm2+WnjLk9wvyliqzHWwjg6DQtTY0 oLYAgAwAJyQeU8VJgZNZGTOHBp7/z/7sz0p0namt+t8FJwODRLTizAtK7EW5bcojo7Hw8VasA0GF vb/yiH7f+wyF2RKvS+A4qfLwPhqyAmnl1asEGSCWxTqgvn690+nYt7/97QGA5DbxuCgdsI+4Prhe m0XA2gIA838eGH4yLbWYhoIgkee5TU1NlRaieLD9u9/nwcf/1QISe3E30IM2Jr22AqIohlcghJ/q uqqf02FaBl0XFWIwk8D2c9iG6ZnVKEEdmKkpj8vtZH24Pai75+e5hO1A0PUQgkMYnHN2AgBDSZ8H Br2/PzBipncFzPQ2Fg/i7/3e7w14ZRxEnGQ8kJEhYj1ouBwPYp6IkmM5rosbDjIB/sUjbKNaOFQT WoEC6oTUuNfrWbvdLvTBvmi1WqUYX4U1ylD9vlpHSFF6BUBV/Yz17+7ulowdwyUF+l6f9zuzNwQj rAfAqjaLAHUGgIZZefUUD5D0+/2BeCz6npp0c3NzIYC4cCzt1xTlVRQ2Mkq1GKj+VwDGoIITVa1b cFkKZFCUF2e2wx4edXmRfon63PXh/vf/FXhGfY5tRSPFkIjZBXp7bDvXo9rOoeDB99owgNogUUp8 UJABmOk3raQoLRsXX8f68NMNgWM5zBd5YE/LeiiAUl5G/c+T1fuEjV8BG0/OyPj9E/vC/8cVbr/H YVLUbvzO6TA99rfyptwvEWtJ9aPXgYzB06ScBjNLdkpRfRGLOU75UgAArkYrSmVWpo5qgim6y5PS P5Vn9/oUfTYbfFsRG9EvOxFcH99GVL+9x3qryau2vth4vL/UARk3GnzWgr2v5+VrDAiqfvxkUIsY Ha8toLCH5nAIx00BMeqJ/YpPUiIbxX7xtFymnRwFHkqKHlMDkkJlvsZgoLw0T2Kf5AwyvNKMEu0i +D0vl+8NNFyEAbhF5RSUz9KnVsKx7SxspL1ebwA8+UdOGPCQmitg5RVyFdag3rjO4Z+R/lgP66Pq 4jAiYiP43duc54MvpOW2u2AIwT9cWhep8xpAIRGtx/sqplWUX3lIzsv51L5wZEjKszHoqDScnmNs xTq63e7A/rR6W7L6zn0XASIzDARKtYrOZamwhq9FeqlXuaNhpuYD9hu2MSoHWQuCquuBY8OOgYGX +1U5oLpInRlAZjZ4Qg8lQlT2Qkx7edIzTffJgTSY3z/PdSuPHrERBQiYLtLT2+aCPzyJ5/yRxVSJ orf4Vh3cucAwTMXMaFjMyJQXZvDwOvy8B7eZQZzrwvUKz++vGUNq7rs83O/YNgxheD0C0yE7Y7BA QSDIavROwDoDQJ/pb3EDJgB1rJkdTny1jcNGpRgBej/2RLy9pECI70UeT9FO10+9etuBioELAQ/b qtYxWJRu6mWc+GMsZjawNcftV3Xzrgemx9dnYfncLsyvANcBBF87lqLmXiceqjI7fP08OxMEP2aD yoHg/K1iLschdQaAjCeyotTY0UxNmdJHDAKpLpbF7+lDXZTnZ8+O95XnZx0wDS8mMS1lxoJeKuX5 o7q9jRjyuCf1+Jfjfm6f9xl7dxWS+aeXq37NCftAhRa+GIrXsQ94jx77H50DGn/ELlQfRuPD1yKg qIPUFgDyPM8jCo0Ti9mAiuMxHy/8YD6fcEito/iY9eL/MfZ0QV2jnYFotRvTsQdCvaIdDNbb/8ey mfEw+/FryhurtimjRYN2w+ftXP8VKDxMpMA8z/OB7VceY6Tp3LcItAzsKhRTIQv+z86AQyFIVxsK UFsAyLKspBsPkF/zwVOeDdPzwOKgcpmKfmPZKU/P9VKbSt+xbN6e4omF4vfUVpzZIANgIPE29vv9 gffwq5dsqDYwxVWr3GysKH6SE1mF+l+1O+oXpt7eVgYl7F+M6bF/uO8Y8PiT9cI5yeBjJ9uAQ0mO EyiKN/m+ovkc5+N3XiXGezzQqs4IzKvAidlHBDKcD/VWb9KJjJj7Ms+fH9nFl1mmhPsC+82NiBcG PT2Ct1N2NHLPzy8zUavrfo8Bl/uO+4rZgwvWUQW6w4jn54XBKJw4bqktACjvyn+8IMe0ze/xJPLB 4MeHsayUd4/0ZQrIHj3SketLCS7QMQtwT4wMxevix6hxVyO1oKf6hPueJ3cUhmAfYH5eJGu1WiVw xHuKgXg5DIZYPoIsgjOfLuUx4TWB1PzAvvB8/ALUuoFAbQHA7PAgkKJkyqgij+ADyZMy2l3gvMww olV3lRd19jpwMnH+yHCUx/R7/j+uWnPIgwbPoIBpUAcFWtz32FZVLn9izI79iIt3KfDguYDGxuEQ sy0VRkZt9GuKbSqmgIDF7C/a/aiD1BYAMuj5FMVXNByRG/dzkTp7OuWRVV3MPBSdFG0Y0AsnjvK6 6KV4C8qvR+DBbfL/sQ+xfv4VHV8N590EnNBcF+qMIMD9hv2O3piBBMGDjxP7dW43MhrMw4CE9UWG qPpTgQmzPWYKZjawLlJHEKgtALCogcBPTMcIzN/Ry6C3Ux4kxTQiA/S0XC7r5+kUiCEtxq0//4y2 +rhc/87MgAEN+wVBCMFTgW8ULmCsjx7edWcwYcD2a27AbNQ8LmocU+EWtlv1H5al5l6z2SzWUHis eX4weNQpDPjSAIBZPOEUArO3U4Y2jCHzJFDGyjpimTwhUvQf8+GBFt6fNksf8sEyPK3SS3lGrGuY k4TsCf0aUn0+TswhQqotrAczOq4fWQS2ldvP+/6Y39P5vFJAwQuwzkKwz3lsq+bOcUidAeBwzySg 4jhYfGgE6bN7N7+nBkahsrqmKKnSC0MOTKsMX7XPJzoeY1VhSqQfe18FNEhRuX8QQJB9qPqwPTgO CGJeti+8+XdF7z0v9xFew35VaflAErdT7bwwM/NP/2Pm6GATOYY6GjxLnQGgGB1GZRT2XDhp2TNg eqTWKW+M9aYGmJkHTqhoEihdMQY3K78EVS2G8v+sk4qj/R5+qvKiGBzTIHji+QlvC34iKDJQ4Xeu h8MSNGL05nicGMdW7Rap1XnWDY3ejb3Vakk91dzgLUaYT7VBhTo/DVh0Ent7FJ6QeJ0nBqZHSo0T g1fpuQ6cqExdI8YQfY/iYi6b36MfUWZFX9FAuXxlzPi4MfYbHg9GgEN24W3AvBzTs7i39rz80JXq YzR87D9sB4rqVzWnmEH6d2dL+/v71u12w0d7mXl53fwwktnJQaBKyenVyUylIV0JsXHwcBCZmmJ+ LAcnIFNIpsfK4Dn0YH1Z79RKP09I/DGKFHNhb8pp2EjwVV7+whHWlXUyK3t2vIbxPsfZXKbZ4V45 g47Kg/UoI/YysG/UuyN50TDFdhAw/fXoij3iA0yeV4VfWRS/HYPUFgAyemRSxYeKSSF1w2v+GS1w KXDg0IGBBtOw0fPkjEIMjjWVoabayQDF5UZ1ozSbzeLpNwfA6MEf/ETBnRfeNlQemduLjIIBhcMf 1Wa/zguMzKywbzHMQdbEW60ozEwiwEBQ4bCiTlJbALADmoRUS3Wempw4YXwy84RR8RmHEJHnUt6X J5fyjiy4uMcvnVD0VIU73A7uE46l/TqyJH8oB5/8Uzpg+7lPsL1IkbnPvN0szN48jkf2xg9BpcDR deLFYfxjr8/jr3SNWB2vO6iyuI46SJ3XAGSMyltaKJEB4ERhJsHpOQ3roTxb5HnNrLQazSwDPTw+ CKM8f+RNUR81uVLsgQ0pqiMSBhjuM+wLtU+PedQ1TKu2LNVPhnO9fNpRzQkedwZIpROCnnIGng4f c66b8ZvVnAEoo48eOFEe0gcSKWfVghHmx3LMDncaogdUIq9pdjiB+bfycKJFW5U+2ZiVqBAiEs+H erDX4raj941CI7zGQOkG6P3Pv7fH/RT1uefh5x4YsNSKuwoXmHGxcatyvG4+cYjjjqxCgTgOh7p4 HFJrBmB2aBipDo0mvse0+D9++nfldfGaC28tRR4FdWLvr4yE9VPiYMGeW3koNDzfc+f6kY1E4Yvy xMqDY1+hx3Zm4//jdhr3Ey5Ecr/wD6rgmCpjU44AHQnPCzwBqd7ujOVHbIsBDR2Q6LvaLATUGQD6 ZjYwGGYxlWLjYmPBPV3lMRWiDxvLRbRdbYOpdnD7uC5FoXd3d63b7dr29rbt7OzY3t5esZjnaff3 921zc9OWl5dtd3e3eFzYy0RAcz1826rVahV/7XbbWq2WjY6O2sjIiE1MTFi73baJiQkbHx+3iYkJ a7VaxV65l9fr9Uor57hKH4VW+D+CK3pnTqPKUHlU36PxqzFFiQCcHYEzBfWmozpJnQGgxLMZ3dkr +SeuZPMApdYPikqDU3PsYdS2GKfjUIPZBeZzY/T//W9vb8/29vZsfX3dOp2OdTqd4px9o9Eo7TE3 Gg0bGRkZ8OLj4+PW6XRseXlZAhwbjnvBTqdTRWWLe+12uwCCyclJm56etqmpKZuenraZmZmSB+Uy 2YhdBxwL1lU5Bqbvap7wISs+f4A64HfPy4wR7yGYMlsjMDlhAFWSH4wG0jDsWKawHNvzXrSXVVHn gIeI6sI0KPxyST6sgpOfmUG327WdnR3b3Ny07e3t4tVYGEa4R8a4N6Kj/r3Vatm5c+dsaWnJtre3 i+uqrQxMqp3K83W7Xet2u7a+vj5gHBMTEzY9PW3T09N2+vRpm56etlOnTtnIyIgEFzQoNTaRpPT0 vvJx4J0hFVZFrBM9vWJxPD9w/A6unawBVEmWZQ3uQHWARxk1orSZfCVT0iNjuextcGLjvrVaaPS4 F7+j0e/t7dnm5qZtbGwU9Nw9eJZlNjIyUnh5v8Yv76jow6K+drttp06dsp2dHUltsU/5eyr0icIk rGN7e9u2t7fts88+K9JNTEzYqVOn7NSpU3bmzBk7c+aMjY2NFff5GQKk8+qHOdCYUVd8QAd3Wfy6 6gd+d4Lr40wBy0Gwx/Sp/s2GHcAvQOoMAIW1MyL7vjV7ULUnbja4PeT3GVT4Hv6vvmOdEVNB2tvp dGxvb8/W1tZse3u7eB+fG/vIyEhx1hzr4QUq1k8ZIRtEs9m06elpW1xcLL1sk/NziKTqG6Z+VQZ+ 39nZsZ2dHXvy5EkRppw+fdpOnz5tc3Nzdvbs2QEjU2crlJ7eV41Go/Qr0kzNo37DNjK4c3jl+aLF VN85or6pzX5gbQEgz/NMUXIXXBlGFDYrbx2pGAzRPfL+apJFjMEnJ0+qPH8ew29tbdn6+rrt7OyU qPv4+HhpUqX0Qv0VI1KGyjr7wh2/l4/bVBUScPkKHFRaZWD+6YDw+PHjAhAnJyft/PnzdvPmTZuY mAh1QIBAZob3VPvUpwIvZHXMJKOdG6wXWUtVGPNFS50BYOC14EzHcFCYGvqgKY/N5an/VXzn+TGm UwDji3UrKyvFQprZcxrOR135XAGyhhSN5HZF15ENjI2N2eTkpO3s7AykpRi1dF+Ng/K8VZO7KuTC crrdrq2srNjq6qr94he/sOnpaXv55Zft1VdftZGRkQH91Sk8fiSY2+JlMHtgsHWJXu7J/chnT1hO QoAhRE1GXlgzG/w5KEZanpxMj6sMKvU/7idnWWZbW1u2trZmW1tbhWG32+0BD8ngogwoYgCqLam+ w/vNZtNmZmZseXk5ZA9Vhpyi9awrtreqL1P67+/v29ramq2trdn7779vp0+ftuvXr9vVq1dLi4Vc L3tzJcrQ8ZrqR1WPAiNsP82B2tCAOgNAbnbY8egp+bsPAK/AU3nm5bEXc0nRYhSkdv1+37a3t21l ZaWg1r7vjR6AdeI41OvG0IbZQQoguB1KGo2GTU1NWavVsk6nM5BehRCqvCoHVgVmikWk9MZ73W7X FhcXbWlpyX7605/apUuX7Gtf+9rAicYqkIz0Nhs8v8H51Q4F64pjL3Q6YQBVkud5I8/Lb4t1wVgP 4zPl2Yf1rOp/LINXnnu9nu3s7BTbXnn+fC8cy8E/3or0enjLSJ02jBgMt0mtA/Dk9DAAAUCVmyoj 8rSp9FiHqleBQDR2/rm5uWnvvvuuLS8v26VLl+yVV16RpwRZb7TKDbcAACAASURBVO5brBc/1UJh 1GZuJ2414nqAN2Ug8zFJbQEgy7K+DwLSfBwQ9QCNSgdlSspmplf6HVj8GXmfUDs7O7a6uloMNHps pn68IMnAwJIydNFHpTxqsnOaZrNpU1NTtrKyEubl/1P9NqyHZTrN7eP6OB1Tdbz29OlTe/r0qT16 9MguX75sV65cKVgYlu3peTdBAZ9a2EXwwLKVburAE4zHSQhQJXmeN8wGV7wjhEZEVmGAmoARUGA5 Zof7wp1Ox9bX183MSr+qw1s9qjw+RKSMN6W3AoSUt1Rp8jwvtgNbrVZpG1LlHQZgUt5d6aZi7Qj0 ohhctTHLMltcXLTFxUV7/PixXblyxa5duyYNlk+E8toHXuMHvxQr4XH1NDg/qK0nADCsoFflbR7l UVxScWVEsZHqozH2ej1bX18vzsejsSqvzt4fGUVEd9n4mYKzAVXR7FSYOT4+bmNjY7a5uSn7bxj2 gfmUPtyGiAGgwURtVIyA242ysLBgi4uL9tlnn9n169dtbm4uZETqdKZikinAVkCBgKDOptRFag8A eMiGt/BwUHlBDfOaDU46NFJe1MFJtr29bZ1Op6D6ng8fJ2VB3SLvydfRENRkRL2QckZAkGIH7Xbb pqenbXNzMxnLR3UwOEWiAFm1owpIGAiq4m8f14cPH9qzZ8/s6tWrdvPmTRsbGxsYl4iZKT25DzAv enz2/qJdtVkDqO37API87x98SuSHdCVkd8RFI2KjQuHFIDf0vb09W1lZsf39fRsdHS2t7GMZEQNw 3aKThvzJx4S5LhWHRwaGwtez7PnTfqdPn5aeSQFKlSfnung8OC/mrwJIlihPpP/29rb97Gc/sx/9 6Ef25MmTQgcfTxzXKkHHYmalI9rYRuV0aBG7NgBQWwbABq0GmxfWPL3/jxNcTXI2ZL/W6/Vse3u7 dOBEGTiXre7xaUTUMaKXnkatUaQMA/OmjMTsMAzY2tqqrIP1ju6ldFRgxW1ngFOMCMsbNuzLsswW FhZsbW3NNjY27N69e8V19W4C/h8ZAurh50DwPAg/OxK0qTaxQG0BwA7YCVNhNSFSdDfyJggS/myB PztvZqUtPX7LrPL0XI8DE58UVKvDSly3yAMPS5mVgWTZ86O209PTtr29ndQjpWeKjfD1iPZHjKPK 06vrSgfsu+3tbfvxj39sm5ubdvfu3eJ4MeflLWW8jmlxDikgZIH21gYAahsCmKUXlnhypAyMF3U8 DT7htbe3ZxsbG4Vx8Pvp2ch5AVDpnKLlOHHUZHfwwPtsWKn+ifrT/1qtlk1PT1duaak+jwTXMVIS 6c314DVOi/f5j+viax9++KH95V/+ZWkrlOvn/lfsABelo/4IrtcmBKgzAGQ8IMpIDhLKgedPFUp4 vL+9vV3Ex04NfXCZ/vGz5KgfThp8dBf1Z0BSlBjTRTGmuhd5XCWTk5PFUeWU4ShKnRJ1n8FF6aq8 KBunEsXAuO3choWFBfvxj39sS0tLA/3vf7yyz2CMuptZ6fFls/KToqT/CQAMIX01IXhrRsWJiM5m h8bv3zGtv1Iry7LiVVa8IMfggwPqL+3A63j4x0EB61S7Gfh/NOGVkSj2oWJQFP9/bGysRIOxHVhf BK48NqqPIiNMGWvqehR2cBploHzt6dOn9pOf/MSWlpbMrLxrFLER1e8e/+Nr1RVTxKZJxY9B6gwA mdnhQg3TbxdF9/lgjqfz++7pe72ebW1tWaPRKGi/GmRkAvjHrIJ19O/8tB8CBU9wPtP+ot52mP9b rZbNzMwMlKUoMevOxq7q4nYM2xYFglVGj/n5f9SZdVpZWbGf/exnxevSUiDFgKhAzH82PMUk6iS1 1Sw1WdjTqgmO913QeHd2dmx7e7s43MPHedHoeWKoOtCzm+kHRjhUUBNTnSisMjLsE66PjQD7Nssy m56eLt5CpIxLlVkVWrCO6prSi1ldVRuxLM6D5am+wK3ipaUl+/nPf267u7ul/PzodqQ7M0z+YRXM c5CmNgygtrsA6ElVZzISYxp+d7sbKtL7Tz75xPb39216etomJydtZGSkZJT8O3ysGxorhwiR4bvu LrwGoOrCPMrzKC+t+iSacx4GdLvd0PupeiIDrWIu0f3Is6q0EQNRB7o4fbTC/+TJE5uYmLBvfOMb A/fwuz+tyW1l8GJ2SOXVxvHWFgDsIE5ChMVV/GiAzKw02PwwTrPZtKdPn9r29nbxKC+Xk2VZcdbf X9PlLEF57cj4eeKpMwsMTpiPP1UbU3Q/0gWv+26AP9Wo+lQBWKQX1x2BljKyKtaA5alQKWpvlJ7v ffTRRzY9PW3Xr18f6Hsfo1arFT7ZiSCA/abaWxepLQA4TcIYSp3dP0g7kN8Hid8f2Ol07MmTJwMP aPBft9uVr3HyAXZgaLfbxau5eaGRy+awBNOpo6js5SJ2kGINVYaK7wjwBU3V5iqvHNWlvKTy3lyX uo7gz/rgkW72/Kn2Y/n9ft8++eQTe+mll2x2drZ0D4/5KqbDjJXbgWOf53ltfiigtgCAD9uoBTfv YDdwM731hx3f7/ft2bNn1u12BxbmcNEOvTJ7eC+r2+0O5HG9m82mtdvtAiQcILg+1wnbozyUMiK/ HjGF1IRncJiYmLDR0dHSjgZKKjTAMhUDUnpG6VGnVD9gfh8jdWjKTIcFihn4vbW1Nfv444/tjTfe KOpE9oaPEkfAq34MhHSrDRWoLQDk8Djwwf8D23NubP6/Iy8aNE609fV1W1paKr0SOorDFaXj++qt Mfv7+8XLQvy6p/df4PVf12m1WsW78V2Uh2QvExlNlUQAMTo6apOTk7axsTGQrsr7R94a61DGHgEC 50Ow5PFNra5zXeqFMeidMa0/Tnz69OmBdvHTfwzImIbzQrtOAGAYQZRn+u9bds4QHHUZ3ZFy449W oOdAUaFFKr5k78vAweyh33/+ewCK8jswIEDgZEvVH4HFMCGFPxy0uLgYPhWn8nOfRUasjE6Vw3Vx X6LRq36OmIOqm4EdwWBvb88eP35cPDDFZbKR47MAUWhAdZ7sAgwj6O0x9sPHL9V+Px/j9eu7u7sD b3lhqfJ+nFbVz6+A4jTOBtBYGo1G8TZh98T4PnsPKzy0UGGF8tTRNb4+OTlpo6Oj8odDImNmSVHt VBrlEKNrKfaTYkKcRp3rx7yLi4t269YtGx0dHagb+0Ad5x5C9xMGMKxE6O5Gpl6kwSevsuz5T1ft 7e3JyTKMN1efnkeVhxMDvZZafPT/+VVVZuWTZKg/TkAHB16URMochQ9e3sjIiE1NTQ3shXMbsa3K +NgQhmEk3H94jcuKQocUWGOfKc9sNnhYa3Nz05aWluzixYsDZTMbxev88BeylxTgHZfUHgDQgHBL zz/90EXqF1jzPC9+lION1Pd11c9QsXGmziR4mZ4Wv/s9da4gZSCYn8vCdPv7+9Jze+iEvzqErzLj vvBXhkd9gdeqjBfvVQEs9hmWFYEF951/R0NTdJ3HBNvO7ciyzJ4+fWoXLlxIAge3lQEar0MZJyHA MIKDiqJeBKpiRr9uZsWpP6SAkSfzul1wYmL5vNAYUW4vg1kBsoHIU6jycP0CDRJDH6yr0+lIz+7n HPxvfHx84EWrLJFeVaCGQMCGgu1m41RjgWXyoZxU/qqFQL7mO0ajo6OlcVdA5f8rTy9AtDYUoLYA kOeHvwzUaDRKL7DEjucQ4CDvwCTFX9pNiUJ6HHhlxKl86jsyGNTZQxo8uxCdJmOvhX9+HUMKRT/7 /X7xe4X+EItaWVcAifpg37C35T5gQ8IyFdgx21DsAP9nB8DjxvlT+fxHTf0XnVBHBgO8hszUy8Un Q2tk//V9FqDRaGTesb7KioDgorywWXlAfXIrz8SGg/+jd8E0no5DBFUO6oIeC/Xw9G5A/JoqfkoN y472pZUefLYdDy9tbW3ZkydPrNPpDLRTGWLEoLy/UScGIy6bv3P/KnDDuiPgUAfIOB32PV/v9/u2 uLhY1FklkS7ez9HR8uOU2gJAv9/v46T2uFSt/CuKyN89HU8ml+jBD7+X8kKKFnJ+150nPevGExHp vgIZ9Rnpidd9HWBra8sePnxoCwsLxY+FRCGRuoaGyIuxCjhZIsaEZSigrAJmtXWq+isFSCMjI7a0 tDTAUBSAu+D8dN1x7eogb20oQG1DgCzLSr8O7J2Oi308EZUow0SE50nGvy/IE8rPGijGwUDBtJh1 Rr1TBsNxLgOeYhtsnPiLOf7qs2fPntnu7q4EStZZtVe1OQIhThPpmbrPwgDM5av/U4DEwNDtdq3T 6RQMlPuB+02ND95LOYnjktoCgNnhw0BmaU/B11IUiw3WbNDDq3UFzxMBCdNMFW9W6R4ZMZeHwKLW AqJy/eGnpaWlkuFHRhuVg/2kJrSXy7qpPom8a1Qn6qSAi4VDj2gsFDB0Oh2bmJgYmB+c3+cKnjBF HQV7q00MUGcAyMzKk8xf4lEkSHioUkGZfpuL8qpV4YU6+KHiYWQWOCGiRTIFTMpAsS28yCc78aCu TqdjS0tLxSEjVW6VQUUekOPxyAOqMqoYQlV5zNCifKhfNF7c5k6nU/qJMcU4cDxw7qjnAVy/1BHm L1pqDwDYqerpPBf2JHidjxIruolpI/pbUi5LnyZjw+dwBicaggKvAai68T4Ke+Rer2ebm5u2trZW nBPgNkf9F/UR1qv6M6VnNEaqTxQIqL7lfkgd8VYLfQo8/X/fAeA2IiPgcXYgSD2rkOqrL1rqDACF KI85bCfi4KgDRYqWsgfhPeroZZ8qL3oGZhPoyaNJXUX3FTB1u13b2NiwlZUV29vbk30XGTV7cgau KBRT48L5IgNX6f2T25lieezhsQxskxpvLjvLnp8G9LclmcUhDa4RYLoIsOokdQaA3Cw+TOLC9Cui prgIpmL+1AT12I7/x7T8yayC9VGe3tuhPAdvBSqG4a82X1lZKd7wk5p4bNApQIjyDcNQuL2p9GhU 6gyEujYMsCiGEf2fZZmtr6/b1tZWUSfOI/4xEZxbvo2r5iroVxsKUGcAGErQ+M3iSaz2hHGy+T1m B3melxiAl4+gYDb4G3A8ERVVxEnidaMnQWBgSoz6dbtdW1tbK37KjD049o3y4uzluR+5P5kdIENR Ez86wsz9hWmVIWN50YtV8Fp0xDdql3/PssyWlpZkX0bskVlZFDIdpKsNHfjSAAB3totarec0jtyc P6L/nB8nuBs9GzpOCH4rDAp7T0ynDupwXixjd3fX1tfXbX19feD15FVhAreR9YtYBusX0Xbu3xSg oGCeaIuR26ZW+lkvvq+u+ffd3d2B/X985FyBFBt/qt/rJLUHAEXpzQ5pmQ+IYgFqoD2vmrjsYf1I Lm/zIR1Er+B145l8pqJKLzWho0nc7/dtd3fX1tbWbG1tbWClmY0Cy4iePcC0qLea1ChVnlWlU3lU 2dEWI9cVrYuoBT/8rry+f3/8+LFtbGzY+Ph4cY0Pc0XbxEpPnL8HnychwLASGREOgNq6Q+rO5Xka F6TdZuWVZKS4mJ5X7pkReDmuH04i5dXwO09IL2N7e9tWV1dtc3Nz4Ik91VdR+dwPw+iD+SKWENWL 7ea1AAYaVY4KWRg8hjnum2qff19dXbXPPvssLDui9ywpdpnViArUFgCwk9QESEkUz/KEw3tI7/1/ 9oiYH8tT4QAuSkbHUrlupr7OcHZ2dopfto3eNcf5U4uUqr/U5I7SYRuU8BipUALbyXqq8EWBoiqP 9YgAUJWX57k9evSoeHScn+1XfRMBYQokTxjAEJI/l9K1aPFHDRAaBU+Mbrdbes03GjnTYZ7wChD4 QQ9Pq15Ywu1Byo96u8dfW1srPL6KLxVoVHllRVVRZwVwamciCgsYELkM1kMZaQTWyqgVUKSYjGIJ ef78tyIWFhaKNvC7BbCNWFckDHrwf21OAtUWAMws5wGLVn6xgzleV5PG7PDxYD/o4eWzYaOxcEiB awDsfd2olT4uygP6bxWy4ft9NCZF4yPjR/CIGAyWyx6SaTfqw2sL+Iltq6LoCjg4rfLaCuRZh4g9 uCwsLNinn35aqh/fxoTOgrx56XsV+HjSAWWPSeoMAA3lIVyUN2NPhR7b72O+fv/5T4SNjY2VTgtG 21l81luxBq+XJyuDFF/v9/vFHv729nbpoSPPw7pxv6jTb9gPkbdSLILbyOVU3Ued1FqM8qpsPDie kf5HXezjzyx7/uafhw8fFk9DYrnIzhRzilgXMz+18FwHqTMAmNkhJXZJxVqYhr04U1Ckedvb2zY5 OVnc8082DPxZKPcOeB+BBuNSHnA8SOSn9vy4Lj/roNgIH0XFdnPfcR72tNEkRoNMlauuR+VgOsUa +B5fV+Ou7qs5wvW4PHv2zD7++GPb3NyUfYrPAigWpMpVfYlrN/1+/4QBVEme5334XnyyJ2VqpjyU i08s3qf3hbbx8XFpaF4m7xb4CTB++0vKQFynbrdrm5ubtrq6aru7u8UESS3gpcrkPogk8qL8kJLr qU4sKgONgIbHAVmWX+d0yqsPGxKoa3zf5dmzZ/bRRx/Z2traQD+YPZ8vuBWo+tHbyeGcl+dOA8+h ZDWiALUFgCzLkiFANFHYw6l87MHNrHjue2JiokT12asxm8jzw31//vko1wGBZ3d3t/SADr/RyPOg 7kj/sfxUSKAmZsqb8zaaMjzFRrg8xbS4TUyVOa/SQxmzKov7KToNuLCwYA8fPrTNzc2BXRvvz2az aTMzM6Ux9Dr8YJCXrVgVlwd9dcIAhpBSJ6lJgdeVETEQ4GBwOW6c/X7fxsbGSi+CxHqQeeBDQS7K i5o9P122sbFReHxeB+AyUK9hFhHVgRhVHveZ6h/29FxmyoCVjtE4sbEgcHA5Sg/VPgQ07g839E8+ +cQ+/fRT63Q6kqX459jYmM3OzspTnnwWBPVghsTlm528EWgYKa1oRd48uk+IWzqdx3+eP8/zYlI4 /cPJyJMQf5ZM6bG/v297e3u2urpqGxsbJaovJoW8pqhyCnRS24H8f7R4yWmrzr0rT59iJCwKgFA/ TFfl/ZX+LltbW/bpp5/awsJCuDCJ7Tlz5oxcG/LyEbAUg3AWIcD+hAFUSZZlfbN4609Rz9SAegym Jgnu4TsI9Ho96/V6NjExUZwZUMjuVJDfW9DpdGxtbc3W19et0+kMGH6kM15XVB/LUB6SmRJ6JWV8 ZnrdgeuIGIb6ZB0UcKkdiyrvrq6lQADLW1xctMePH9va2trAg1s8lzzvlStXip8DZyDm+r0uBs2I xdRFagsA3nlqcSWik4p6e378EU4eGBe/v7+/b/3+89/w29vbs6mpKRsbGyvFfMog+/2+bW1tFef0 /ZHcqB2sK5bt5SpjQn2VwaiDR8qbKoCpAqio35XRYdtVeyNDqKL4VWnx2vb2tj158sQWFxdtb29P tgGvoY7Xr18v6c9Pa2IfIfPhA0/8PZoHxyG1BQAU9jJmaQbgg4ALfSMjI0XcbnYIDFXeYHt72/b2 9mx8fLx4P5x7/H6/X9D8zc1NW19ft+3t7YEFRuXFI8OODCvVVp540STlPlX9qiguS5RPgYHKW6VL BBDsXVkXHjs3/PX19VJfROlRzp07Z3fv3i3l8ef8UfhHQbGeYQHuOKW2AICGEg0U0l78H/PjpJyc nLTV1dXC8NlTYqyG3/3VWp1OpzB+p/m7u7vW7Xbl68p4dZl19/QpL4v9UWWwkShDxXLxOpeTmqxV wDKMPuo6e9MIEBRrybLnz/I/ffrUnj17Vlxj0OT5we2+c+eOzc7Olug/H+zxsli3IZhUbRCgtgAQ UfqIBbDxK8OYnJwsJgWWgWXjA0E8SfxNuouLi7a8vGwTExM2MzMjjTM6VZii88rzqwmuAI8NLzKy KgOPvHfEUqI6U0ymCvwiXVIAaGa2srJiS0tLtry8XDpQpdocMb48z21qasq++c1vFgbvIJDa/oyu qXGuk9QWAHhiHyWeijzZxMSEzc7O2srKihx4BTh4z9nA6uqqLS4uWpZlNjMzYzMzM3bmzJkkvec1 gFQcrGhwlI6/c2zLZaZCi2H0wu9VgMMeXbWNr6fYQVSfGz2+EUn1R4pJYto33njDbt68WQol/X5K R27HMOzguKW2AICDFnlkTIvfef8a5dSpU7a8vJwsVxkPlumLSWbPvc7KyootLy/bzMyMnTp1ytrt tlwDQL15uy6iu5Euqu2cLrpWNYGPImiYKY+fAh+lF5/K489Op2PPnj2z1dVVW1lZKdWDuqDwoSm1 /vPyyy/b22+/LV+egvWnvDrrIY6D12YVsLYAEFEsRam9c/3YpYoNzaw45DM3N1e89IHvuzAY+IT0 9QOe1P5qrqdPn9r09HQBBijKCyoqje3leiLvlqojKjf6nrqPdXBfpQwG06r0PF5oONiOlZWV4v2H Ozs7A+3ifkCJXhyDLO2tt96yy5cvS7DA+Yd9UhWSYTmpcTkOqS0AZFmW8YRTHtRscLsJB00dlZ2b m7Pd3V1bWVmRXgAHnA3PAQAF7+3u7trOzo4tLi7a1NRUESJMTk4OTAC1KxDdV/9DXyUNV/2P/cr/ R1RbHfGNQhVuT+TJ0fgYbP3e1taWra6u2vr6uq2trUlWpHSJwiC+59+//e1v2+/+7u8OHDHn8Ui9 G9D/58VfPIhWJ6ktAJigScpIuNMVciu0PnfuXPGGHR4UNnz84xNkygu7bGxs2Pr6ujUaDZuamrKp qSmbnZ216enpASqvDrGo/6Oz/cq7qH6Kvg/rmVLevurx1yp9MI9vq25sbITjpFiRAjUGedWmu3fv 2jvvvDPQz2jwnh93BqJ6/X5wIKg2iwC1BQDspJTX9e94He/hQxvY761Wyy5fvmwffPBBqQz28jgh +v1+aS8Yr7Phob79fr84HPTo0SObmJiwqakpm56etqmpKRsdHU3SerX6rDwuA4TfZ8BK9LkEgijM 4DLVYSPMz21D3ff29mx9fd02Nzdta2tLPp7L4x2FJKwbU32+du3aNfvud79rZ86cGTjViU/0YXkp 8TSKIdTI9s2sxgCQP5fwhFpqH9bs8BFdHED23lNTU3bt2jV7//33Q3qP3sPPDiiP5Tqoic6fPsEX FhZsZGTEJiYmbHJysgAGfARVPZCDbeZ3EqAuSlRIpDwo9zl/VywERdFy//MXsWxtbdnW1pZtb2/b 9vZ28ZYmVVYVO1F9ovJy+y5dumTvvPOO3bhxozjfoV76inVwvT7P+IlBzEMAUhsUqC0AmB3+MpDq LwUKKU/lTABf6mFmNjs7azdv3rT33ntvIGzAkMLz+09tKQqvqKaavKir/6iHP5OeZc+3K8fHx4vT hxMTEwVLYIBKHZRJGXk0ByOgiZiH6xBJo9GwnZ2dwsh9jcRPTA4ritqjkSmwUuEafl67ds3eeecd u337dnENfwac8ykQzLLD90TgXInCHS9y6IZ/zlJbAODBMkt7AjQON1z0jkjT+f7s7Kzdvn3b3nvv Pev1etIIcGCVd0f91OTkz6g9/X7fNjc3bXNzs1SuP6Lsf/7/2NhY8ft1KcYQPZYb6Y15VajFeXq9 nnU6neJ0JH+v8uDDSMoDK5CNWFGe53bnzh377ne/a9evXy/NEy4X87HwcXLvs+jMB5R/AgBVkmXP dwFS8SsaGd7zmD96iAPBIs8PX/zw6quv2nvvvWfb29ulMnGSqa0kpcMwErVHyc7OzsC2l7dxZGRk 4K/VahV/zWbTms1m6U3I/olswEEyz/Ni0cufiuz3+9br9Wxvb694UMrv7e3tWbfbTXp0xc6GofUp plIlEWC8+eab9p3vfMfm5uYKXTiPCon8f2YY3Ba8zt8P5CQEGEIaZvFWDntzFzdSXjvgV24hffO4 b3Jy0t544w376KOP7OHDh6UffXSPog7wqLg/8kqqLdH/UT5M3+/3C28bifLwUZphrx9VUmFQJBHt 57BmWGCZnZ21t956y7773e+GaaPQUi1wIvU3M7lYqMKt/FfRob8iqS0A5Hm+r66r1XkUnCR8rh/z MIV3EDAzu3r1qk1OTtovfvGLUl5eBOSJqJ4jOIoX+2UZBPcBp0sZXVTWUXQ6Kli8SHtVHczCVHtv 3bplv/Vbv2WvvfbawFqKWj/A/zkc4vJ93HH9ILXOkkU3jkFqCwAZ/HiCGtDIWzkK8y/oRIs7Dgi+ Auzy0ksv2fT0tH344Yf22WefFW+Hjegif1dgE03eX7VDSJX3eTmfYdtR5b2rdEwBFVJu/5ydnbU3 3njDfvu3f9ump6dLbE3prE76cT3KgfAj2Km210lqCwAGTClajOGVfSV4nc8E8CBz2na7bXfv3rVz 587ZX/3VXw1QfszrZarrKc911Lj48wCMYcpOgZzZ8MCimEn0v9KB06Gxo+E2m0177bXX7Nvf/rbd vn17oAxOz8Dk39nYcY5E28BYHv+WhCdNNvQLlNoCAHYmPmuPSM9HM5vNZmmRy/PgYKj8uHvgdeMk OHXqlL311lv26NEj+/nPf26nT58uPYCSotV4vyruTTEFTlPVZ8OkOQojiUKKo9T9osL1KBqOaW/e vGnf+MY37M0330yWyWtHKPwuBzWnVN/xdVwEhDk1/P7n5yy1BYA8z7ODz5Kh4hFLp/y+uh29pdes /GptpP0c/0WTu9Fo2OXLl+3s2bO2srJi165dsw8++MAePnxYDG7VU3pRbO7fU+HNkH0W3uOyowWw F5VhmMMw11W5KuzCcnwcX3nlFfva175m3/rWt2xsbKyUXo2HMk7cOeLYn/Wp2lpVevq/lQ3/gqS2 AGAHe6VowO7pcfLg7/Op3QAcYI4RPR3m4WsojUajOKRz8eJF+83f/E37yU9+Yu+++659+OGHMgZN edgUIETyop6W64z0+lV78mGYTFXo4Z/RFuytW7fs1VdftW9+85vFz7yZlRkd1sNGinMDw0FmnAgU 2AZVnt/HPBE4HKfUGQAyNH5EXYzlzQ738nlS4S/34I93lUInWQAAEOtJREFU4NFgTxtRSiyPZWxs zL71rW/Zb/zGb9hPf/pTe/fdd+2jjz6yra2toiyWyOsPux7wyxrnUerC+7+KuqO6himXAXViYsJu 3bpld+/etW984xslo8cjufwwmJfhDDI62o1sUcX2+F2NaVWoUhepLQB4nOSGjJ3H5/uj/9HY0evx CxqUMVQNFnvS119/3V5//XV7/Pixvfvuu/bBBx/Yo0ePjhRvRyHIr1pSBvh5gE5U1lHYhhvUpUuX 7MaNG/baa6/Z5cuXS/f4J9rM9I+H8qGwiPkwm1OPY/MpQgYbDDk/zzF9UaktAKA4qvMKrJkNDDRe R3Tn8/0cr/OCT0SZcYB5Ianf79vFixftwoUL9ju/8zv27rvv2vvvv28PHz60p0+fDtXWVLz7Rcmv Ogz4ZdnM3NycXbt2zW7fvm137tyxdrttZodhoW/hRs/nm5Xj9cjr8yKxl6WYKJfL7VQGn3pm4rik tgDQaDQyPLEXdR4PCA8AAoffwx/pSFHw1CIhl6nCj1dffdXu3btnOzs79sEHH9jHH39sn3zyiS0u Lsp2ROGBuv95yq+6nhcp7/z583blyhW7ceOG3bp1q/SEJL75ieN8rw9pOMow9Fwt6nE8nxIOP0Se 2lCB2gIAG1Qk+Niv5+PFHV44jJ7cM9Mrw6wDL0ipxSGcMOPj4/b666/b17/+ddvf37cPP/zQPv74 Y3v06JEtLi7axsZG5WJkHenji4oCtunpaTt//rxdunTJXnnlFbt586Y8ROWsC8M9BdTKYSjabza4 mo/fmcpHbVHAgvOQ8teGCtQWAAy2SqLJzw9a+MTAexH1jDy7MuaSUjCoXCY/Hux68JOJN2/etBs3 bliWZba6umqffvqpPX782D777DN7+vSpra+vH4vBD7MYeFS9onBqZmbGzp07Z+fPn7eLFy/aK6+8 YjMzMzKP2eChHN7NMRt8kajnQ0NHZqfag/+rE3/YrtT3CLi8mmH77/OW2gJAlmU5xt5BmqKDceHP 7yE9HHbQVSjgaXhw/RpSUhQ2fhVqzM7O2qlTp+xrX/ua5fnz3yV88uRJ8as2z549s5WVFdvY2Hjh MGDYfFVpqhYxozzT09N25swZO3v2rM3NzdnFixft4sWL1m63Q8B2r+nsTcXsng7Tqt2gSP+UR+c1 JjWH1FqDC//EPIUcJwBQJd5JapKhofPesHc6PwsA5cprOMnQ0BG9MS8vJPE1nsBYN4cpuE4xOjpq 169fL36XLs+fP5rrYLC8vGzLy8ul9+X5k4BVjEcB0C8jWM7o6GjxzkP/nYQzZ87Y3NycnTt3zlqt Vgiu3ofez94n5DVDQaNNgbdiI+odABHos75YDoMBMxFqR232A2sLAEid2Ej4OX9+FgC9hqKSKDgJ lGfBdCpMQEqa53npsJIKUXgiMWhgKOHXW62WXbhwwS5evDjQnk6nU7yS3N+pt729Xbw/wB8V7na7 xd/+/n7x521AT4rvDxgZGbF2u116CQm+uuz06dM2PT1ts7Ozxem7lKSM0b8zqFfF5tjXyhhxLplp aq88Oc8BFwYafgoQ68QxhXsnAFAl/X4/Mytv8zHCmtkA7eODHyre93vqf7zGghOJ93+d6vd6vdIk VgtCbPRqwka6uXj6drtt586dK15uwfdV6BLFr6k8fJYCrylWoYyRDd4NGMGdD2cx/Ve0GsvnfXc1 /tznw1B6zM/6KiDD+j08hD46CQGqJMsOfxfAO5npuNoD5pVjKE+iPXtbHlAUNnz8P6pPsQg+O6Am MuuJ/7Nh9Hq9gffScX7lEbFe96TKoPH0Jf+6speNYBB54AiIVZuYPitjUsCiPvn5D64fRRm/YgKR vsgmsWxyMLVhALXZjhAygJK40IaAYGYl2l0UAPf5un/y4DKt9HS4pqBWmzE/1o0eB+ti76R0QB3D TsrLL6LgelU7IwbC+uB2G/YHtsWfwOS2s46qDRFQcRncfzj2CKhVtB7nQHSCD79zn2G/sMGrtQos B0+z9vt9vUB1DFJbBmAHCyWMouox3pTnjDxKUYnwID6x8EEjzBudIVB1K90ihoESPcjCevr/bKCo iwI5BX7YBkXJWQ9szzCAhR4cT/EplqLCi6hdzDw8f/QATwSODJDYJm4f34vWLRAssP/rInVmAKVJ h1RZeTCF4ChsgMpbsEHzgyV+TXkcpqQYSjCdxknBAKPAgQ2O2+p6+v9oBFiWMtz9/f0SoOGE5rMV OKkVyPLip+dhwPU3L6sDPEpv/67AHIWNUwEL94Oqy701G7WnV7owS+Expr6vDQLUmQEUve/GxKvW /t0/I+oXUW32xurNQmgQOLlYeFLyohl7F+W1UiymiuUwZca+wevMGiL9sQ0Msly3L8TiGQxuN7IU 1Tfez9yWiAngNYzxXRQTcSqu9vNVHzG9j4AHQRH7vap/6yB1ZgANs0GvwB4UhVHYTIPBMMZSKCEo P3sGrg8/2cg5TRRGsE7K2JWRqbYwQ0GW4sILrZ5G6cd79ep9eFGfoK6+fqCMkI2K26PGmvtKiQMQ zivlzRWYeX7XAdkRLx4jaAxzluG4pM4MwMwOF7lc0IP4/ZSR8Xf0xFhmJHimgGmhYiLK0/t15ZU8 bwRAnE6Vg2EJ6oD5+LvqM96S4zYykOK4YN0OLrjwpZgUU3alO5fNtJoBJJobyD5U33BMH80rWswb SMv6qj6vk9QaANDjpp76wrR8j+kiTkDfs+dJwTTQJxuvPXC9EfXFdKyzmmRYlk9cNhosk/skKgev qXbyoZrICytDwnK5HMzHRqBAUpWpxl21KRUaqXFWbeB+xdAEGVIUIigdeN2oLlJbbpLneV8Ziv9v pj0de1MVP/r1aHLjISN1LgAng08ENVF5AnIbkEZHXhvvqcVCnliKgXBsjYCG5eHxW5XepSomxv5F iagxLqyl6LxichEYIIApiq/qjEIV1W7Ml/LsKpwzOzkKXClZdngQiEV5Esg30OmKYvMKN6+iI0Bg fuXZgkEe2KbENIqy4nXVduXx+LvXxa9M82tq/ULV60ai2oqsRQERjwufq1AgiZ84tsg2lFH6/0pH rgPbpViHmg9cPq/uR+Og2glSGxpQWwAwK09KjvNcIsrHE0uJTy5e2IkMmg8hoYdNrSOgDh4bs6i4 le9x+1R7o7AIQa1qzUAZo+pL1V8pdsBlYXtVu83K9FvtHnBblXEzZVe7AAxqijUovZWobdIUWzpO qXUI4N9THcgenycEUngX9v5YFpeD9TtNThmF52dDEe2T16MdDtVuFHzLEdahPKp7Y26nAlnFVKI+ j/pJAVdVuxSQYxo2fgQKTOuLdnhNhR5o+Fw+yrDpuN/qCgC1ZQDNZrOFx2/ZUyjabKbf25YSpul8 mCWKB/F/pvX+XRk4e//ICNWn8oJeFxps5CHRiDnOjwzI86KRcXquL9JR9aMyZq5L1aPAjcvDslyQ gUWsMtp+rFosVsKhR92kfhodSH7Qc2xcarA9HXtd/4lrvK6ePONyuT4vg9mEoq5suFw2ehB1fBTL 4DpUO1VfsFFEJyfZ2BlwUaJThUivsUwO05Rwv/m16ECQf2Iang9KJxT+6XjVd1wv/uIU1sN58R5+ ih2A2tCB2gKAC9NNnCh8eAXTq6f80BD4qK7y4n4PPRsCAufH//lTlau8MAt6MFyUi7wj6sOTXIUl ihor8FJGjIDBlNe/K2NV3l61HfUZZg8fjY0fXIrKj7Yz/Z4aV65T5c2y8kIsAUVtFgFrCwBqUS1F uT0PGj/n87wpT5eqsyqWU/cinSNqrowUJyG+CSlaeESQM4uPtHq9fJiFdYyoKxsKtocBh9vEOmA+ 5cl5C87z8nUvhw8hqfKxHfjHZTLAsFPy61gns8OIuR231HYNIDt4J+DB94HORGGP49/NBml+ivZ7 WQwYCgTYM6SAQenq9WPb+MgxG4fy7NxHLmpNgI1chRrcd8rA0NBYB5SIGmN+NEzuJwYmbhuHNpyW 9WT9sR7ub9Rbja8KB5Te2GY1TscttQUAozhJoSjTQkUTG42GfFeAS8ozc5rof5UnhfoMMKwDTk5f tFJhggKCKFbna9FENSvvkqCHw3ZF5/+ZKbEBok5RKOP0OXpaMBozRctF/F0qTy34MTPiNrEjUvVF LKNOxm9WYwBABmCmjdA7lKmuWbzApzwil6tWuFV+obOk8qhDVZmsk3rLMbff0/ELSNUkVFSfmYOa 6FXbesxE0JCr+gr1QqNLgTIaNm9Rqj6P2q704nakQqCor6O0dZPaAkAOPw/uHdzr9QZiMH5PgNng E3w+sdQz88qbpIxUeXnQOTkZ+J6i4GyY2E6c9AgMeC3yjlmWld6mjOUzE2Bw4T5XIQAbHo8JGh73 AbeD0ygAV/Re0fLI6BVDYUkBhdJLtUuFH3ayCzCUlJ4FwFN7PLFSTAHz+3dFQfEesgCkv1WhgJcZ XVMUNtJHvaQDy8MXebA+ykObmaTtaPxM96u28lR92M7ULoAKLbBOBj++huWrceQ6IubmfcJAoQAU 24Oi6lY7DIrJHLfUGQAa7InMDicIv9jBJcv0Qt+wnh4XmBAQlPfG8iJhtqG+s558Si+it8r7efpo wnvbVD7MGxkXG7dLVZyf8tjKS7LBsU6q77g8pSMDXPSilxQjYf0ZJFQ52L46SZ0BYJ9o00AMnPIe mM4/lSHzhFULT8rTok4qXFD1RzSRy3Y6z0eWlcGpctDYsN1+Txl1FLooDxili/RT/RL1QxWgumAI hKAwTH4GpCiPAkG1yMyGr4Ca6ogfHPmCpbZrAFmWbfSfW17Rs9z5bJjoOXlSsSf26ylq698V+kee IVW+8uoY1rB3ZQ+j+oDrSa16I7CwnqpsBi/+dHDktYfUS0WUztxWTK8MG/VNsZnU/1w+Xk85CLwf Aa/qS0pzAgBV0mg0lvr9/sAsVrS9SlTszhOrijazKCrq16vK4LzKuPBtM3yN64rASBke7hSo1XPW K9KPjTA6p6BAzCX6HT/chlN5q8BDbW+qvsAQoKoO1aesbzQnUPI83zez1TDBFyxfOADMz883siwb z/N87/79+124npmZ3b9/Pzcz29/fP2dmvW6323z27JmNjIxI40fDiJ435wd7lIeOUJ3LS8XmEYhU TQo2ROVBKzzKABigXsx+UN/UNl0kXC4anQsurkVt5nFiIzoKc+CyeS4oEFB6p/qA+zoaEyV7e3u2 u7trZpZnWTY5dMbPWb5wALh//37/wYMHe+J6aRQajcbq/v7+/uLioi0uLu6bWdOsmr6jVKVR9C8K IVIMIUrv312OylyG0Vnd97qqQK+qDsUohql3mHIjED4KAxtmLKr0cJ0VyxnmE9vO7Q902cn///au ZbdBIAbOLJeoObf/0HP//5oAv1HlE0ovxdPD2sipSBpV6XtHiiwirz32IBYWBNLhoiK/AN9yCSDp 5T2feZ6fNpvNQ9d199vt9jBN062kG58dBT8gAPVLKyQL6q3DAoCoCy1MYgmASSoumNwv7EIPWEQt LqA81kyySFKyqIam+uwCU3z4f3lnkPtETGUuPlgpxxLLbUE4VB8j2aV8y7pJ4hT5I/baLL7sqSQp yXyWIwCZmXy2ZORP/lEL6tCj995Hjy1640PNLUla0oBeV9QqzxV1LKndL/yDl/lZVORF6mnuhUqp EgZv19ve6BW8FPokPkfaBZ1cu/dsJvks6Q7Ao5mtn3Y1XB/jOF62rLyCYRg+PHYNu93uZLy+73lu +xLs9/ur8m343YjLqHO/k+/da2ho+Pv4yc8BNDQ0fDLaAaCh4R/jFVs69Z3mn/EqAAAAAElFTkSu QmCC "
       height="89.08387"
       width="89.08387"
       style="opacity:0.3" />
    <text
       xml:space="preserve"
       style="font-size:35px;font-style:normal;font-variant:normal;font-weight:normal;font-stretch:normal;line-height:125%;letter-spacing:0px;word-spacing:0px;fill:#f0f0f0;fill-opacity:1;stroke:none;font-family:Verdana;-inkscape-font-specification:Verdana"
       x="21.050083"
       y="1025.3932"
       id="text3842"
       sodipodi:linespacing="125%"><tspan
         sodipodi:role="line"
         id="tspan3844"
         x="21.050083"
         y="1025.3932"
         style="font-size:35px;fill:#f0f0f0;fill-opacity:1">Current User Activity</tspan></text>
    <image
       y="1026.3622"
       x="708"
       id="image3000"
       xlink:href="data:image/png;base64,iVBORw0KGgoAAAANSUhEUgAAAc4AAACPCAYAAABzlTvNAAAABHNCSVQICAgIfAhkiAAAGo9JREFU eJztndFx3LjShc+69t3zR7DcCFZbhXfTEXgcgeEIVo7A4wisG4G5Eew4gqXfUbXjCC43g3EE939A U6KomdEQbBAgeb6qKUuy0IRGEA660Wj8BEJmhnPuFwBFQNODMeaHcneS4YCr3wcDfIvbG0LWw8+p O5AK59xLADedL5UDTdSdjxc1Ic+APR7/7q7hiDCxTYoDXsH3u4AfoxsM/9nhHj5seq8awMEAHL+E XMlPqTsQE/FMbuRV9F4xOAI4dP5tADTGGK72lZDfaRPQtDLGvFfujioOeAkvjiX8mC0nfHwDP2Zr AHsD/DvhswmZFYsRTvEgSzxMOGXC7pyiwcPEdKCYhuGc+wzgNqBpmeN7LuHWLfx43abtzSMaeM++ MsD3xH0hC2XEtssT2r9v59xv8JGZLo0xZtBi0Dn36twzZh2qdc69weMVes4U8toCgHMO8CJaA9gb Yzg5XYcNaJOd1++Ad/BjISex7FLAL1Bu3YOI3tETJcpYADslW60jeIenjlMF4OqIk2jL/twzZiec zrl3eFid91cVc6OU1845d4T/Re2NMV9TdipXZDCH/M7vtPsSgniXt/CTxZzGboEHEa3hBZRjlMyJ rXPudkAuysUF7SyEU1xmi2WI5Tk28D+jFRGtANwNDS8sHBvY7tTKcTJEMHcI739OlABK8UJ3Bvgz bXcIuYoNvH48O15l289e+p5s9zg7nb/FDLMhFamNMa9TdyI1I5KC9saYt8rduYqFCeY5GgC39ECJ NuIw1Z0v7Ywxn65o97/Op0c8OFtXzQUS1axOtAckV+LFc0amxjn3iySANPAhtiJph9JzTN2BTAjd C6w0O3ENDnjpgI/wY9hO/fyJKQDsHfC3A35L3RlCetSdj7fikD2HPdP+nmyEUwTzC2QFi+WGZIeS NMyYESGZtM3U+8UOeAOfPb2b8rkZUAI4OOCjHKshJAfq3uf20jdLZKvsfOnk/JtcOJ1zL51za1md h1Cn7kBqJGRTBDSdbNEhXuZf8sxiqudmyA5eQOl9ksmRoyhd2nP1LfYZE93IVoOn20M3QGLhdM79 AUkySNmPjDkwOQhA+IJqkmxaqe5zQL5HS6amgHifqTtCVsepSGV3AX0jXuU5upGtUwvvDZBIOJ1z vznn/oGf2BiSPU+VugOpkT2JEEGqp1h0iDjUWLeXeY6dA/5i6JYkpu59fnLbR7zVovOl6pzByYVT wrIH5F+wIAe4vxl+BKlS7scjOqHZXcznLIAtgJqhWzIRxYmv9efRcwtx2/m4OVOUpgAmPMcpal6B gnktg0tELZSQpKC2mEQUxIOqkc9Yrk98LagYfCRu4MWzZPk+Epmi+0mnDN8eD4JZOOdenagmZjsf t/PH4ZT9SYRTzsUwLDuM1XubnSL9Q9nHuq1GPKca04/lQ+/VXFv+Tvpc4KGO8w2m7/8GXjwtz3yS BHSFE/AieS+cJ6qSVQBgjPkh5VEfEV045YiJjf2cAdR4eosJMOBqsF5h4nZl3/93LJWCjbkT4m0C kZKCEojmXl71mBqx4uV9hxesT8D9z2LhJ5NibEevZAN/5tOy4hCJxLm/zVPh2ve9z1vOhWnv7UcT TknqqJE2XHR/Gwm8MKqEiSSE2p3InqygJTR9g8er/Gs5sug7gLCkoEuDPpgJRbOB3zfdx7wjU8T0 A4AP8rO1NXSnoHK+DxRPos3JeVY8x67XuXHOvemc8+7ONZcW3jdAJOEU0Uhxnu0IuW0EEcN11yCT 93fI5NC59mwr/xYXmjNM60MnRUBTdW9zItGs4Wu/Tn6Li4joeyeF3DFNAZI75y/Q5gKRxKLufd4P 15YAvp4I0/bn3xq921bUhVNEs8a0eyh7+IuKs907ERH/Kq/2fbI4fVPG6oUT4d5PpdiHKUSzgQ9d Jr/2TDzcT84vPu4Q1wNt9zyZMESmYo/HtWe38FGXsvM9Vx1jUz2OMrFoHuFDWoUx5m3OonkKY8x3 Y8wHY8z/wU9Qdef/ZvWzaDPi7KZqlEGyZyvEG887A/yag2h2McAP4/d/SjzNKtSk3fPkOU+iRXnu P2Ru6DolxYkSe9VzD3DO/abmcU4omg18lfzF7I/Iz/LniV/iWrGB7SrFPgD+jyzGHv0B3svM2tMS Qf/dAZ8Rnqj1HAX8+7z6G4DIJOzxeH6xePw3firad+x9vlHxOCcSzSMAa4z5dUmi2cUY8+9Sf7aB hEzSqgXdRSxKLXsdKgP8nrtodjE+nLVFvJt6SpbnIxGo+1+QOaI7jrtzTXUmYvUk6jJaOCcSzTv4 kCxFZeGcKHt1LZVaH/wNJzE8LGsep8DPBjl7WSJe6HYnNX8JCUIug7iGrld5KSnoHMUo4ZS9qArx RPMA4Eb2ApNlyJJJCRWsSuPhcvm0iq0OPloy8+MX4iWXiCee3O8kU3AyHDsgYjVOOBH3nObOGPM7 zzOuh0wKulfQXQge4TNHZy2aLZJ5WyKOeG7Awh8kMifCtcDlcdf0vxAsnM65z4gjmn6iMeZTBNsk b7ZIWNDdAX9Af19zO6f9zGuILJ5bCZUTMpS+HtUXvrfvdVYXvrfpfb4JyqqVA6Mx9oAOALYsbr5a bECbo8bet4Rod2Pt9MjifGYMDPDDPYhnoWz+zvkyg9yeIUMYsujeoSOIAyObNz8N+GYA93VaD9Df 16zhRZN/LCtExlUT0LQyxoxOuHHA39D1NndG6sIumYgFIlbx/pF5EhKqraD/R1IZY15TNFdNsoLu Ehosx9rpsF/LpC9haBvB9K1EAQjJjkHC6ZyLsQek4jGQ2ROSFKRVuF+zvm2DvG4Dio4cVdGuEbwB LwknmXK1cEoobaf8/JqiSUYUdK9GP9sfvA959jm2a9ybkyIJ2slCll4nyZEhHmcF3RDtAWFeBlke NrBdNeahcmZQM8ltt7QM2oHYCDZ3EWwSMoqrhFM8glLxue2Rk9WtzMljRpzdPFceawia12c1iHSB 9lyQRcNO2Sy9TpId13qc2hMCRZO02MB21ZiHRvA27RpDtCe4Q1h29CViFZgnJIhnhVMSggrFZ+5Y DYh0sAFtGmPM2PORocUWTlEv9bzmUGTxsFM2a1mKj+TEReGUMNpO8Xk1KwKRFinoHlJ9qlJ4/E7B RotVtDV7pLxgrWhyA+ZDkIx4rnKQ5h7QEZxgyGOSFHSXc5vFGBsdKgOw0tVTdtAVz1sspN6vJuKJ n1t8HleerBaN54TTKj7rjqX0SI8QL2KvMI7syPZddoq2FoMBvjkvnKWSyRsH/LZWIRCBLOFFsoRf +BVXtAO803KA/30cwHKGozkrnM65d9BblTcM0ZIuMr5CohnX3pl3+rk+Q1Mr7Lent3mRO+hm41v4 86LRkPFRhLbX3OvujFWLcRdqbOB/D2XH9gE+csMxHMAlj3On+BxmxZE+NqCNRkF3zb2yVR8/eQ4D fHU+w7ZQMrlFZOGEH5e7Ee0H1//u44B30o9yrK0L3MCP3zvnF6N3THC7npPJQXKTdqH0jHrABaFk BUgVqjKgaaXweKtgAwAaTjRXobm4KKSo/OJwwEsHfHTAf+HHeTnh47cAagf87YBXEz53tpzLqrWK z9gp2iLLwAa2q8Y8VCZdrTtk6W1eR6Vszyrb69NEtv8E8TAP8HNlMfXzO5TwAvoXi05c5olwyhEU q2T/oHDejiwPG9BGo6B7ObJ9l0rR1mKRJJRK0WTsYynNmMZDPGIH/CLX2VVIK5h9tgAOIujkBKc8 Tu4BkWiMKOiuMZasgg3AJ1QwK/F6RiV09Sgy94auSnhzwB/wXmYZtTfhbABUDviSuiM5ElM4NRI5 yPIIGV9H6GTTaoVpNYVg8ci1Y0dFk6WirUmRvcwv8AtB7XuNY2Ad8A8rNz3mkXCOKLh9ikrJDlkI I7YB9gq1jcuR7btQOIej+Z6VirYmQ8SnxvwKwdzA731SPIW+x6kZpq0UbZFlYAPbVQrPLhVsAAzT hjIL4VTIlD4Z1ZC9z/rc/88AimeHvnCWSnYbFnInJ7ABbTQKugN6Y7tWsrMqJFyrRc77nE/Crx1P c66i2ULxFGJ5nAxlkUeMKOg+OilobDWYHrWSnTVSK9qahQh1RHMO+5nX0BZOWDX3wikTm9Yvt1Ky Q5aDDWynsQgrFWwAvugBIynh1Iq2ZiGc8ON3Ln29Frv2oypdj7NUsnlkmJacwAa00SjoDuhNXAcl O2ulVrRVKtrSpGw/cMBn5NvPsdxlHC6PTrdWrdbkUivZIQthREH3SqkLHNsZIDemaFHomdJHStdp 1Ohuj2Id5NX0i7J3yuSVeLg9JXZoeAP/9/k68nOypCucpZLNWskOWQ5BZzcVaxyXSnbocY7nAJ2F TKFgIwqyr1mNMNGK5d01WwOdTOD7JDq5c7a9WSUWpQPeKCd+zYIXwP35ukLJJicXco8UdA8Rzkrl +YrhJBZ1V0FtfohY8L0Z2f4WYfPpEVKv1gDvx+ynG+CrAd5LP6pQO1ewykShdo9TbfOatWlJDxvY TusPslCywwWhDprvY6xwZDOibYmwiy328IL5SfOcsAH+FQEtEaeAfbHGRCFt4eTkQvrYgDYHpaQg QG9sN0p21o7mHFEq2krFEcDWAG9jFtaQaMkN4szRuwg2s6YVzkLJHoWT3DPiXlfN8I+WV8KxrUOT ugMZcQBwM9UeoQhzCf2xXKztHk9tj7NRskOWgQ1oM7qge49SyU6jZGfV9DNCRzLn85EHAKXy+/Es EcXTKtvLmlY4uSonqiQu6B6DJnUHFoTWPDHXajytaCYZ5/LcLXRvrLFrKsWn7XFq/iLIvAkt36id pcexnR9rfi+TimaLeLpW2WzsS8az4dR9nGOgx0laQg5/x7gcQMUrYak9VbSEs1CyMxVHADa1aLbI 3mqtaHI9wik1alXINMRGJiZlQXcyC7QW2IWSnam4zXABZhVtlYq2suYF5rtPQPLFBrarFPugeUC+ UbJD1sveAH+m7kQfCdlWSuY2EYtSZIVmqLZRtEXmjQ1oEyMpSGtR2CjZIevkCJ26tbGoFG2Viray 5efnv+VqGkVbk+Kc+4z5pLYfjDEfUnfiHBkUdCckN+6mPnYyBCm+30An9F0C+I+Cnaz5GStZITxD e6MAGU9IgkCjWNCd5M+akgiPmMfe/R46XvFcHJBRaGfVkhUzoqC7ZsEDkj9rOo6yzyWL9hkqJTuF kp2soXASTXI5u0lILsxibEu2r8qCZg3l9yicRJOQUE+tWNCdkJxoMjx+cok6dQfmAoWTqDCioHul 2xMyA8rUHZiIuW1BaO09l0p2soXCSbSwAW2OxpjszrYRosTchLNO3YG58ALr2qgnEZCC7kwKIuQx c8sebpTsFEp2suUF6J6T8WwRdnZzFokTJFtyFqbjTLJp71E8a1oo2ckWhmqJBiFJQYcIBd3JPNCq 6JRztCxnUb9Ek7oDc4DCSUYhZzdDDj1Xyl2JSZm6AwtjFYfkZ0qTugNzQFU4NW9aIbMhtNpIpdmJ M8x11U+uI2ePkyyYF8aYb4r2eNPK+rABbaoprqDT3GNa0+32E1Ao2eHCiCRBO1RbKNsjGeOce4Ow xdIcs2kZXtSjSN0BcpY6dQfmQHs7SgOdwaxhY3KMMa+neI4UCaineNZE2IA2Uxd0P0BH9AoAmtGZ VaJ8XyM9TpKE1uNslOxxVb4SRhR0r5S78hxa+2CFkp21o7mdwz1OkgQKJwkltKB7pdmJK2iU7HBs 61BqGTKMAJBEaAtnoWSH5E9INu0+QUH3RslOoWRn7RRKduhtkmS0wllrGZR9PLJg5NhREdA0RVKQ 1j4YPU4dtN5H7m+SZGh7nAAPi6+BEG8zVUH3RsvQGu4ZnAAKJ5k9LwBAwmdaoQ+uzBfMiILulXJX rkL5PkSO7REoLzwaRVuEDKJ7jpPF3sk1hBZ0r5T7MQSO7TwoFW3R4yTJ6ApnrWRzw33ORWMD2qQu 6E7hzINSyxAzaklKYnicQPhRBZIxcnazDGia+vowrbG9UT7AvzZKJTu1kh1CgojhcQIUzqUSWtA9 dYm9WtEWx3YADnijaI5hWpKUe+GUottaA7LgTSmLJCgpaIqC7peQBCGt5DcKZxiloq1a0RYhg+kX ea8VbVtFWyQxUtC9CGha6fYkmFrJzo0DflGytSbUFhwGmLLWMSFP6AunZkjNKtoi6bEBbRrla+vG UCvaotc5ANkXLpTM1Up2CAnmkXDKJKcV0to4594p2SIJmdvZzTPUirZC93rXilW0lXq/nJCT93Fq DkxOMMvABrarFPswCtnnbJTMFcyuHYRVtEXhJMmJLZw3PNO5COZS0P05uCicGAe8g95VYgcD5Dam yAp5IpxyybDmzQM7RVtkYkYUdK90e6JCpWjLOuClor2lYhVtVYq2CAnmlMcJ6A7Qkl7nrAkt6J5d 5qNyuBag13kRCWeXiiYZpiVZcE44tSu9pK4cQ8KZe1JQH9VwLb3Oi2guLGqGaUkunBRO2ZuqFZ9z wwzb+SG/s5D9qZwXSpp924Be50nkrKtVNFkp2iJkFOc8TkB/oN7JsQYyH2xAm0OGSUH3iNdSK5qk 13manaKtowFS3OVKyEnOCqdcOtwoPmsDrhpnw4wLul9DpWiLXmcP2du0iibnMKbIirjkcQL6GbFb Kd1G8scGtDliBgkc4r00iiZ3LMP3CG2hq5TtETKKi8IpXqfm0RQAqMSbIXljA9rsUxd0H0CVub1Z Iuc2S0WTFZOCSG4853EC+l7nBsCe+535soCC7tdwB91FYal8ddbskL1ebW9zp2yPkNE8K5zGmP9A N6wFADfgvkXOhBxByamg+7MY4AcihBRXnihUQa9KEEBvk2TKNR4nECf5wTrnvkSwS0YgkQAb0HSO CyFtr3ODGezxxkBCtNq3xuyU7RGiwlXCKVVg6gjPt865PyLYJeHYwHaVYh8mQbzOnbLZ0gEflW1m jWTRqodo6W2SXLnW4wTipdzfUTyzwga0mVNS0CMMEGMrYreW/U4JTVfQDdE2mGcEg6yEq4XTGPMd 8UIndwzbpkcKut8ENK2UuzI1NoLNaiVXj+0RNmYucSvRAEKyZIjHCWPMJwCHSH2xzrkvzLZNSkhU ocmxoPsQDPAN+nuTGwD1ksXTAV+ge/QE8DVpZz2eyPIZJJyChf7Zzq7tmuc8kxGS3LGUZBgL/XHd iufixrOIplU2e4xgkxB1BgunhGxjlhi7AXBghaFpWWhB96uR0KCNYHoD4LAkzzOSaAI+RMuEIJI9 IR5nW1Go0u3KI9oiCX8xdDsZNqBNnXNB96FIiDCGB72IsK0DXkYUzYqF3MlcCBJO4Rbx9jtbtgAa Zt3GZURB90q3J1lgoZ9lCzyI5yyv15Nwc404onkAC+WTGREsnHL8oEScSabLBj7r9h/n3KvIz1or NqDNLAq6D0VCtlvE2cffwGfbfplThSE5WnOAfvYsIPuazKIlc2KMx9mKZ6xJps8NfOLQ39z/VMcG tJnt2c3nMEDsfXwLv++Z9UJQQrOf4RdImuc0u1h5vwmZDaOEE7hPFioxjXhCnrV3zv3XOfcH90DH IV58EdB0EUlB55D9tl3ERxTwodssvU8JKTeIvIDg0RMyR0YLJ5BEPAE/8dwBOMr5z6y9UMla3aXu xwlsQJuD/M4XjQE+If4+rgXQOOBjDgLqgFcO+Bv61YD63DEZiMyVn7UMGWO+O+dK+ASCmH9wp7Dw BRQAH1aq4TM+k03unYSbEj6cPfV78iwjCrpXuj3JFwO8d/5DG/ExG/hF1a3zi8HJbwURD/MWcfYx +1QG+DDBcwiJgppwAvfiWcAL1xR/gKfYygvOuSN8UkMt/zYxxFTCnRv4n7l9FdrPiUDobRaVZidy ZyLxBB4EdOf8AnAPYB8rcUaSftq/l6kWdpUB3k/0LEKioCqcgE8YEs+zgv41Q0PZ4MHrAwCIV9rg IRv4gOtDzK04tpRnvm8uhOxfVUtNCrrEhOLZ8rAAlAiKvA6hQirJSDd4+JuYOgpyR0+TLAF14QTu s23fOuc+Is99vQIPHmGZrBcJGVHQfXFHUK4lgXi2lOgu/vxCr13wXTpLXfReKbHc0yRLIYpwthhj PjnnasRNZydh2IA2sy/oPhYRzwZpF4RtJAVIH9V5jvac5qrHDVkWKlm1lzDGfINf7a7WU8kUG9Cm Uu7DLJFsW4tps8jnyAFASdEkSyO6cAI+dGuMeYvpiiWQC4wo6F4pd2W2SNixRPyyk3OlghfNxR9b IutjEuFskTBfgYUfnp8BIeG9RRV010BEoQTHc5cjgK0B3rOMHlkqkwoncO99foCU0Jv6+WtHzpeG CGel3JVFYIAfkilaIn7d5tzZAygYmiVLZ3LhbDHGfDfGvIafcOpU/Zghzcj2NqDNUa6SI2cwwDf4 xeAavc8GPiz7ll4mWQPJhLPFGPOtI6BMIDpNAz8hF8aYsYfHbUAb/l6uoON9FljHYvAIf/n0r7Jw IGQVRD2OMgTJvv0mocRb+Al+zUdYDmgrxyhVO2JB92mQcnmvpeDADss7K3yEHxN39DDJGslGOFsk AeUDgA9SuN0i/7NqGhzhvZQ94iXi2IA2qyjoHgPxwloBvcX8x3EDvxCIVgaQkDmQnXB2kSzcr1KM fIuMC6YH0OChjm70gvSd93Ao9DZHIgL6zQFtNGWL9JV8hlDB15hlOJYQZC6cLVLC7095vZdycSXS 1dwcSr/Y/CHB0Y7QBQf3N5WQEK6PpqQpsD6E6EXmCZkrP6XugAayL9q/mSTF7Szd+qENHkQy+cTj nPsHw9+TSiEZiTyDhHLbiEqqW4Xuox8A6jWLpVyxVow008yxNq+MxXKkmVn+7ENYhHCeQwS1wONb Tfo3nAyhW1S7+3EW4ngOeR+agKalJG2RiZDLrNsbTGItArsLuxojblwhZI0sWjiJxzn3GcOvEGuM Mb/G6A8ZjuyPFji98Ct7n9e9z9tISDP1BdmELJFZ7HGS0diANpVyH8gIRPBa0etX5vk0cXcIWTXJ CyCQuMiRHhZ0J4QQJSicy8cGtNmzoDshhJyGwrlgRhR05xEUQgg5A4Vz2YSIJgu6E0LIBZgctGxq DD+TxYvGCSHkAv8Pw6vIPBTO7fIAAAAASUVORK5CYII= "
       height="17"
       width="54.923073" />
  </g>
</svg>
