<?xml version="1.0" encoding="UTF-8" standalone="no"?>
<!-- Created with Inkscape (http://www.inkscape.org/) -->

<svg
   xmlns:dc="http://purl.org/dc/elements/1.1/"
   xmlns:cc="http://creativecommons.org/ns#"
   xmlns:rdf="http://www.w3.org/1999/02/22-rdf-syntax-ns#"
   xmlns:svg="http://www.w3.org/2000/svg"
   xmlns="http://www.w3.org/2000/svg"
   xmlns:xlink="http://www.w3.org/1999/xlink"
   xmlns:sodipodi="http://sodipodi.sourceforge.net/DTD/sodipodi-0.dtd"
   xmlns:inkscape="http://www.inkscape.org/namespaces/inkscape"
   width="34"
   height="30"
   id="svg2"
   version="1.1"
   inkscape:version="0.48.0 r9654"
   sodipodi:docname="template_toolbar.svg"
   inkscape:export-filename="C:\Users\emo.GIRITECH\Documents\Shared Graphics\iPhone\Icons\Toolbar\g_toolbar_menu_iphone.png"
   inkscape:export-xdpi="90"
   inkscape:export-ydpi="90">
  <defs
     id="defs4">
    <marker
       style="overflow:visible;"
       id="Arrow1Lend"
       refX="0.0"
       refY="0.0"
       orient="auto"
       inkscape:stockid="Arrow1Lend">
      <path
         transform="scale(0.8) rotate(180) translate(12.5,0)"
         style="fill-rule:evenodd;stroke:#000000;stroke-width:1.0pt;marker-start:none;"
         d="M 0.0,0.0 L 5.0,-5.0 L -12.5,0.0 L 5.0,5.0 L 0.0,0.0 z "
         id="path3782" />
    </marker>
    <marker
       style="overflow:visible;"
       id="Arrow2Mend"
       refX="0.0"
       refY="0.0"
       orient="auto"
       inkscape:stockid="Arrow2Mend">
      <path
         transform="scale(0.6) rotate(180) translate(0,0)"
         d="M 8.7185878,4.0337352 L -2.2072895,0.016013256 L 8.7185884,-4.0017078 C 6.9730900,-1.6296469 6.9831476,1.6157441 8.7185878,4.0337352 z "
         style="font-size:12.0;fill-rule:evenodd;stroke-width:0.62500000;stroke-linejoin:round;"
         id="path3806" />
    </marker>
    <marker
       style="overflow:visible"
       id="Arrow1Mstart"
       refX="0.0"
       refY="0.0"
       orient="auto"
       inkscape:stockid="Arrow1Mstart">
      <path
         transform="scale(0.4) translate(10,0)"
         style="fill-rule:evenodd;stroke:#000000;stroke-width:1.0pt;marker-start:none"
         d="M 0.0,0.0 L 5.0,-5.0 L -12.5,0.0 L 5.0,5.0 L 0.0,0.0 z "
         id="path3785" />
    </marker>
    <marker
       style="overflow:visible;"
       id="Arrow1Send"
       refX="0.0"
       refY="0.0"
       orient="auto"
       inkscape:stockid="Arrow1Send">
      <path
         transform="scale(0.2) rotate(180) translate(6,0)"
         style="fill-rule:evenodd;stroke:#000000;stroke-width:1.0pt;marker-start:none;"
         d="M 0.0,0.0 L 5.0,-5.0 L -12.5,0.0 L 5.0,5.0 L 0.0,0.0 z "
         id="path3794" />
    </marker>
    <marker
       style="overflow:visible"
       id="TriangleOutS"
       refX="0.0"
       refY="0.0"
       orient="auto"
       inkscape:stockid="TriangleOutS">
      <path
         transform="scale(0.2)"
         style="fill-rule:evenodd;stroke:#000000;stroke-width:1.0pt;marker-start:none"
         d="M 5.77,0.0 L -2.88,5.0 L -2.88,-5.0 L 5.77,0.0 z "
         id="path3928" />
    </marker>
    <marker
       style="overflow:visible"
       id="TriangleOutM"
       refX="0.0"
       refY="0.0"
       orient="auto"
       inkscape:stockid="TriangleOutM">
      <path
         transform="scale(0.4)"
         style="fill-rule:evenodd;stroke:#000000;stroke-width:1.0pt;marker-start:none"
         d="M 5.77,0.0 L -2.88,5.0 L -2.88,-5.0 L 5.77,0.0 z "
         id="path3925" />
    </marker>
  </defs>
  <sodipodi:namedview
     id="base"
     pagecolor="#ffffff"
     bordercolor="#666666"
     borderopacity="1.0"
     inkscape:pageopacity="0.0"
     inkscape:pageshadow="2"
     inkscape:zoom="4"
     inkscape:cx="34.862364"
     inkscape:cy="13.023892"
     inkscape:document-units="px"
     inkscape:current-layer="layer1"
     showgrid="false"
     inkscape:showpageshadow="false"
     borderlayer="true"
     inkscape:window-width="1680"
     inkscape:window-height="970"
     inkscape:window-x="-8"
     inkscape:window-y="-8"
     inkscape:window-maximized="1"
     showborder="true" />
  <metadata
     id="metadata7">
    <rdf:RDF>
      <cc:Work
         rdf:about="">
        <dc:format>image/svg+xml</dc:format>
        <dc:type
           rdf:resource="http://purl.org/dc/dcmitype/StillImage" />
        <dc:title />
      </cc:Work>
    </rdf:RDF>
  </metadata>
  <g
     inkscape:label="Icon"
     inkscape:groupmode="layer"
     id="layer1"
     transform="translate(0,-1022.3622)"
     style="display:inline" />
  <g
     inkscape:groupmode="layer"
     id="layer2"
     inkscape:label="xx Size guides"
     style="display:inline"
     sodipodi:insensitive="true">
    <g
       inkscape:label="Layer 1"
       id="layer1-9"
       transform="translate(0.9999999,-1021.1528)"
       style="display:none">
      <image
         y="984.48407"
         x="-11.971372"
         id="image2993-4"
         xlink:href="data:image/png;base64,iVBORw0KGgoAAAANSUhEUgAAAGcAAABPCAIAAAB53Ez1AAAAA3NCSVQICAjb4U/gAAAIMklEQVR4 nO2bzU8TWxvAT6dfwzAXW6VBa1q/wGDgAgYkaoIfcYEsMAaXbkzUP8AlKxeGGBcmsnKlC5ImGKKu TINiYopIUhFBeO2L9AolONVMX3k7nbbT6cyZuxjpLbf0zEeLDWR+q36cec7Dj2fOOXNmagoGg4Ig QAhDoRDHcadOnXr3HxoYIMEqncC2xLCmB8OaHgxrejCs6cGwpgfDmh4Ma3owrOnBsKYHw5oeDGt6 MKzpwbCmB8OaHgxrejCs6cGwpgfDmh4Ma3owrOnBkv+moaGhvb2dhlSlstkuGLWmB8OaHgxrejCs 6cGwpgdL4UcXT7h/fx7bi39bGx0drUge24sN1oaHhyuVx/Zig7VYLFapPLYXG6xJklSpPLYXG6yJ olipPLYXhjU9GNb0sMEahLBSeWwvjFrTwwZrgiAUa8fzfCqV4nneZDKVpWNJkmw2G0EQNptN5SE8 tHAmp4ARpecgSZIFpnBpzYYV/ZMRqKq1dDptNpvb2trcbncZrVEUFQqFWJatqqpSbM8BEvvDe8C9 3+l0lsXa2toaRX1LJlZwwGo9XLnWstlsTU1NZ2cnSZLq60INBEHs3bs3GAwyDGO1WhEts8BO7D16 5MgRHMctlk2unXVgt9sdDsdff+Gp77NWkNF0rHKtYRjW0tJCkiQAgOf5UhIthCTJlpaWd+/eoYdU c43b6/XiOA6Qw4hWcBz3er2LCVpkwpoOVK41l8tFkqR6XxBCmqbr6upUtidJ0ul00jTqBzW7drlw HC+jrxw4jhO7XPGf/9V0lLI1kiQ1pSsIQjgc/vr1a2trq8qziSTJaDSKaIBXVW/d/I5XVf9P4/9D eb1mNpuz2az6iFar1efzDQ4O+v3+9vZ2h8OheIjZbEYvFTEM2zprGIZpXagq15ogCJmM8mDJcVwk EqEoKplM3r179/79+6dPnx4YGKitrfV6vRiG2jQWBAFdzqIoov9zoVDowIEDBEEo5rlpcK3nvvJs IAiCYq2trq5Go9HOzs4bN24cO3ZMnhCvXLnS1NTU39//5cuXw4cPI5YLgiCgSwlCiG5w+fLlFy9e 4DheW1uLno51BC+kDNa+ffvmcDgGBwcvXLjwr68aGxufP3/+4MGDqakpRARFa6IoohucOXOmubn5 6dOnoVCIJEmXy4Wubk3BC1Ee19BnRzqd3rdv37179zwez8+fP+fm5iiK6uvrs9vtcoPx8fFYLCYI AmLzThRF9MgCIVQ8iXbv3n3z5s2lpaVXr17Nzs7u37+/uroafUguePnHtWw2i1h2MAxz69Ytj8ez uLj47Nmzjx8/chzX19cHAFheXh4ZGZmenuY4Dp1ENptVHNdUlsOhQ4euXbsWCoVGRkZisVhtba28 ykMHL2lc27Qc0EHPnj17/vx5mqaHh4eDwSAAwGazxWKx9+/fP3nyhGVVXayIoojeRtY09NhsttbW 1qNHj46NjY2Pj/M8X1dXh1gDQQi1bmIrj2toa+fOnQMATE5Oyr8El5MYGBhYWlqSG0iSJNe/2Wwu FkSxlHQM2FVVVb29vSdPnpycnBwbGyMIotgaqNTZoNi4hrB2/PhxAMCnT5/yT8PFxcXca4qiIpGI xWI5ceJEsSBqxjV9e38ul+vSpUstLS0TExORSKRcwTdYi8fjhS0YhkEEldcTiUSCpunCtYUkSRcv Xrx9+zbDML29vcWCsCy7adc50ul0KXeCrFar2WxOJBKbfstxHLr3QlRNz6biLCwsAAAaGxs5jiv8 luO45ubmmpqaaDSKCKIpY02sra0FAoHHjx/Pzs6WMWypz3lMTEwAALq7u5uamuLxeK4qIYTxeLyp qam7uxsA8Pbt2xI70grP8xMTE48ePfL7/alUqrzBla+u0eUwOjra1dXV0dHR399/586dqakpeXkJ IZQ/dLvdU1NTo6OjiCCK5aapJAVBiEQiL1++XF1dlSRJTXCVkXOUusNH07TP5/N4PB0dHQ8fPvT7 /TMzMwCAtra2np4et9v948cPn8+H3ggqI9FoNBgMTk9Pa9px0EoZ9kUDgYDJZLp69Wp7e/v169fz v/rw4YPP5wsEAqX3ogjLsm/evJmbmys26peRUs9QmUAgEAqFenp6urq66uvrAQDhcHh8fNzv9286 txZ2oSYNxLefP39+/fr19+/fVUYrkfLswQMAaJoeGhoaGhoqV0BN+Hy+39md8aykHpStmUymLX3W SNU0BzRfKmroHWi+6sAUhy2LxbKl9+RFUVS8vYBJ/BY9TQEhxCTNN97+qbVi7iCEZb+hlw/PKxuB yaggbMlKQhCyMIm60bMpymfoysoKQRCpVAq9s6gVSZIEQUilUgRBrKysoBtHwvO4lMhkMop7Sup7 F0Uxk8ngUiISntd6uPIcmkwmo9HowYMHWZZNJpPlEmcymex2u9PpXF5eTiaTCjmwiejSrLf+z3QW z0gWqeRJzASg1ST8YeZWwnNJVvP67pc19OhGURTLsl6vd8+ePeV6aIHneYZh5ufnGYZR055ajbAJ xnuofleNo/QceJ5PMP//vBRm4ms6DreovMST/0IdHZQRJr42P/O+sjnI/Cr1rd6x2WEorzwMCsF+ z+7gDgMD6ys1w5p6sJwyw5p6TDMzM/IDAwsLC+I6cJ3cW/kGXQ5JkuSFIgBAygOs31Td2T+TsYD1 QmtoaMj3IssqVCbLkqXk9OVbk9nh1nJTAYZhue2H/A8BABDC3FsIodxSkqTci8Ja29n8Yy03tMlq 8j0W6pO3jza96paD7Gx3v87QnKB8ZXJZye3yX4N1Kfm1BjaOaDvb2t/DrO42lpDbggAAAABJRU5E rkJggg== "
         height="79"
         width="103" />
    </g>
    <image
       style="display:none"
       width="125.09618"
       height="95.947556"
       xlink:href="data:image/png;base64,iVBORw0KGgoAAAANSUhEUgAAAGcAAABPCAIAAAB53Ez1AAAAA3NCSVQICAjb4U/gAAAIMklEQVR4 nO2bzU8TWxvAT6dfwzAXW6VBa1q/wGDgAgYkaoIfcYEsMAaXbkzUP8AlKxeGGBcmsnKlC5ImGKKu TINiYopIUhFBeO2L9AolONVMX3k7nbbT6cyZuxjpLbf0zEeLDWR+q36cec7Dj2fOOXNmagoGg4Ig QAhDoRDHcadOnXr3HxoYIMEqncC2xLCmB8OaHgxrejCs6cGwpgfDmh4Ma3owrOnBsKYHw5oeDGt6 MKzpwbCmB8OaHgxrejCs6cGwpgfDmh4Ma3owrOnBkv+moaGhvb2dhlSlstkuGLWmB8OaHgxrejCs 6cGwpgdL4UcXT7h/fx7bi39bGx0drUge24sN1oaHhyuVx/Zig7VYLFapPLYXG6xJklSpPLYXG6yJ olipPLYXhjU9GNb0sMEahLBSeWwvjFrTwwZrgiAUa8fzfCqV4nneZDKVpWNJkmw2G0EQNptN5SE8 tHAmp4ARpecgSZIFpnBpzYYV/ZMRqKq1dDptNpvb2trcbncZrVEUFQqFWJatqqpSbM8BEvvDe8C9 3+l0lsXa2toaRX1LJlZwwGo9XLnWstlsTU1NZ2cnSZLq60INBEHs3bs3GAwyDGO1WhEts8BO7D16 5MgRHMctlk2unXVgt9sdDsdff+Gp77NWkNF0rHKtYRjW0tJCkiQAgOf5UhIthCTJlpaWd+/eoYdU c43b6/XiOA6Qw4hWcBz3er2LCVpkwpoOVK41l8tFkqR6XxBCmqbr6upUtidJ0ul00jTqBzW7drlw HC+jrxw4jhO7XPGf/9V0lLI1kiQ1pSsIQjgc/vr1a2trq8qziSTJaDSKaIBXVW/d/I5XVf9P4/9D eb1mNpuz2az6iFar1efzDQ4O+v3+9vZ2h8OheIjZbEYvFTEM2zprGIZpXagq15ogCJmM8mDJcVwk EqEoKplM3r179/79+6dPnx4YGKitrfV6vRiG2jQWBAFdzqIoov9zoVDowIEDBEEo5rlpcK3nvvJs IAiCYq2trq5Go9HOzs4bN24cO3ZMnhCvXLnS1NTU39//5cuXw4cPI5YLgiCgSwlCiG5w+fLlFy9e 4DheW1uLno51BC+kDNa+ffvmcDgGBwcvXLjwr68aGxufP3/+4MGDqakpRARFa6IoohucOXOmubn5 6dOnoVCIJEmXy4Wubk3BC1Ee19BnRzqd3rdv37179zwez8+fP+fm5iiK6uvrs9vtcoPx8fFYLCYI AmLzThRF9MgCIVQ8iXbv3n3z5s2lpaVXr17Nzs7u37+/uroafUguePnHtWw2i1h2MAxz69Ytj8ez uLj47Nmzjx8/chzX19cHAFheXh4ZGZmenuY4Dp1ENptVHNdUlsOhQ4euXbsWCoVGRkZisVhtba28 ykMHL2lc27Qc0EHPnj17/vx5mqaHh4eDwSAAwGazxWKx9+/fP3nyhGVVXayIoojeRtY09NhsttbW 1qNHj46NjY2Pj/M8X1dXh1gDQQi1bmIrj2toa+fOnQMATE5Oyr8El5MYGBhYWlqSG0iSJNe/2Wwu FkSxlHQM2FVVVb29vSdPnpycnBwbGyMIotgaqNTZoNi4hrB2/PhxAMCnT5/yT8PFxcXca4qiIpGI xWI5ceJEsSBqxjV9e38ul+vSpUstLS0TExORSKRcwTdYi8fjhS0YhkEEldcTiUSCpunCtYUkSRcv Xrx9+zbDML29vcWCsCy7adc50ul0KXeCrFar2WxOJBKbfstxHLr3QlRNz6biLCwsAAAaGxs5jiv8 luO45ubmmpqaaDSKCKIpY02sra0FAoHHjx/Pzs6WMWypz3lMTEwAALq7u5uamuLxeK4qIYTxeLyp qam7uxsA8Pbt2xI70grP8xMTE48ePfL7/alUqrzBla+u0eUwOjra1dXV0dHR399/586dqakpeXkJ IZQ/dLvdU1NTo6OjiCCK5aapJAVBiEQiL1++XF1dlSRJTXCVkXOUusNH07TP5/N4PB0dHQ8fPvT7 /TMzMwCAtra2np4et9v948cPn8+H3ggqI9FoNBgMTk9Pa9px0EoZ9kUDgYDJZLp69Wp7e/v169fz v/rw4YPP5wsEAqX3ogjLsm/evJmbmys26peRUs9QmUAgEAqFenp6urq66uvrAQDhcHh8fNzv9286 txZ2oSYNxLefP39+/fr19+/fVUYrkfLswQMAaJoeGhoaGhoqV0BN+Hy+39md8aykHpStmUymLX3W SNU0BzRfKmroHWi+6sAUhy2LxbKl9+RFUVS8vYBJ/BY9TQEhxCTNN97+qbVi7iCEZb+hlw/PKxuB yaggbMlKQhCyMIm60bMpymfoysoKQRCpVAq9s6gVSZIEQUilUgRBrKysoBtHwvO4lMhkMop7Sup7 F0Uxk8ngUiISntd6uPIcmkwmo9HowYMHWZZNJpPlEmcymex2u9PpXF5eTiaTCjmwiejSrLf+z3QW z0gWqeRJzASg1ST8YeZWwnNJVvP67pc19OhGURTLsl6vd8+ePeV6aIHneYZh5ufnGYZR055ajbAJ xnuofleNo/QceJ5PMP//vBRm4ms6DreovMST/0IdHZQRJr42P/O+sjnI/Cr1rd6x2WEorzwMCsF+ z+7gDgMD6ys1w5p6sJwyw5p6TDMzM/IDAwsLC+I6cJ3cW/kGXQ5JkuSFIgBAygOs31Td2T+TsYD1 QmtoaMj3IssqVCbLkqXk9OVbk9nh1nJTAYZhue2H/A8BABDC3FsIodxSkqTci8Ja29n8Yy03tMlq 8j0W6pO3jza96paD7Gx3v87QnKB8ZXJZye3yX4N1Kfm1BjaOaDvb2t/DrO42lpDbggAAAABJRU5E rkJggg== "
       id="image2993-1"
       x="-116.5313"
       y="-48.346901" />
    <g
       inkscape:label="Layer 1"
       id="layer1-55"
       transform="translate(-53,-1053.3622)"
       style="display:none">
      <image
         y="984.48407"
         x="-54.994007"
         id="image2993-0"
         xlink:href="data:image/png;base64,iVBORw0KGgoAAAANSUhEUgAAAGcAAABPCAIAAAB53Ez1AAAAA3NCSVQICAjb4U/gAAAIMklEQVR4 nO2bzU8TWxvAT6dfwzAXW6VBa1q/wGDgAgYkaoIfcYEsMAaXbkzUP8AlKxeGGBcmsnKlC5ImGKKu TINiYopIUhFBeO2L9AolONVMX3k7nbbT6cyZuxjpLbf0zEeLDWR+q36cec7Dj2fOOXNmagoGg4Ig QAhDoRDHcadOnXr3HxoYIMEqncC2xLCmB8OaHgxrejCs6cGwpgfDmh4Ma3owrOnBsKYHw5oeDGt6 MKzpwbCmB8OaHgxrejCs6cGwpgfDmh4Ma3owrOnBkv+moaGhvb2dhlSlstkuGLWmB8OaHgxrejCs 6cGwpgdL4UcXT7h/fx7bi39bGx0drUge24sN1oaHhyuVx/Zig7VYLFapPLYXG6xJklSpPLYXG6yJ olipPLYXhjU9GNb0sMEahLBSeWwvjFrTwwZrgiAUa8fzfCqV4nneZDKVpWNJkmw2G0EQNptN5SE8 tHAmp4ARpecgSZIFpnBpzYYV/ZMRqKq1dDptNpvb2trcbncZrVEUFQqFWJatqqpSbM8BEvvDe8C9 3+l0lsXa2toaRX1LJlZwwGo9XLnWstlsTU1NZ2cnSZLq60INBEHs3bs3GAwyDGO1WhEts8BO7D16 5MgRHMctlk2unXVgt9sdDsdff+Gp77NWkNF0rHKtYRjW0tJCkiQAgOf5UhIthCTJlpaWd+/eoYdU c43b6/XiOA6Qw4hWcBz3er2LCVpkwpoOVK41l8tFkqR6XxBCmqbr6upUtidJ0ul00jTqBzW7drlw HC+jrxw4jhO7XPGf/9V0lLI1kiQ1pSsIQjgc/vr1a2trq8qziSTJaDSKaIBXVW/d/I5XVf9P4/9D eb1mNpuz2az6iFar1efzDQ4O+v3+9vZ2h8OheIjZbEYvFTEM2zprGIZpXagq15ogCJmM8mDJcVwk EqEoKplM3r179/79+6dPnx4YGKitrfV6vRiG2jQWBAFdzqIoov9zoVDowIEDBEEo5rlpcK3nvvJs IAiCYq2trq5Go9HOzs4bN24cO3ZMnhCvXLnS1NTU39//5cuXw4cPI5YLgiCgSwlCiG5w+fLlFy9e 4DheW1uLno51BC+kDNa+ffvmcDgGBwcvXLjwr68aGxufP3/+4MGDqakpRARFa6IoohucOXOmubn5 6dOnoVCIJEmXy4Wubk3BC1Ee19BnRzqd3rdv37179zwez8+fP+fm5iiK6uvrs9vtcoPx8fFYLCYI AmLzThRF9MgCIVQ8iXbv3n3z5s2lpaVXr17Nzs7u37+/uroafUguePnHtWw2i1h2MAxz69Ytj8ez uLj47Nmzjx8/chzX19cHAFheXh4ZGZmenuY4Dp1ENptVHNdUlsOhQ4euXbsWCoVGRkZisVhtba28 ykMHL2lc27Qc0EHPnj17/vx5mqaHh4eDwSAAwGazxWKx9+/fP3nyhGVVXayIoojeRtY09NhsttbW 1qNHj46NjY2Pj/M8X1dXh1gDQQi1bmIrj2toa+fOnQMATE5Oyr8El5MYGBhYWlqSG0iSJNe/2Wwu FkSxlHQM2FVVVb29vSdPnpycnBwbGyMIotgaqNTZoNi4hrB2/PhxAMCnT5/yT8PFxcXca4qiIpGI xWI5ceJEsSBqxjV9e38ul+vSpUstLS0TExORSKRcwTdYi8fjhS0YhkEEldcTiUSCpunCtYUkSRcv Xrx9+zbDML29vcWCsCy7adc50ul0KXeCrFar2WxOJBKbfstxHLr3QlRNz6biLCwsAAAaGxs5jiv8 luO45ubmmpqaaDSKCKIpY02sra0FAoHHjx/Pzs6WMWypz3lMTEwAALq7u5uamuLxeK4qIYTxeLyp qam7uxsA8Pbt2xI70grP8xMTE48ePfL7/alUqrzBla+u0eUwOjra1dXV0dHR399/586dqakpeXkJ IZQ/dLvdU1NTo6OjiCCK5aapJAVBiEQiL1++XF1dlSRJTXCVkXOUusNH07TP5/N4PB0dHQ8fPvT7 /TMzMwCAtra2np4et9v948cPn8+H3ggqI9FoNBgMTk9Pa9px0EoZ9kUDgYDJZLp69Wp7e/v169fz v/rw4YPP5wsEAqX3ogjLsm/evJmbmys26peRUs9QmUAgEAqFenp6urq66uvrAQDhcHh8fNzv9286 txZ2oSYNxLefP39+/fr19+/fVUYrkfLswQMAaJoeGhoaGhoqV0BN+Hy+39md8aykHpStmUymLX3W SNU0BzRfKmroHWi+6sAUhy2LxbKl9+RFUVS8vYBJ/BY9TQEhxCTNN97+qbVi7iCEZb+hlw/PKxuB yaggbMlKQhCyMIm60bMpymfoysoKQRCpVAq9s6gVSZIEQUilUgRBrKysoBtHwvO4lMhkMop7Sup7 F0Uxk8ngUiISntd6uPIcmkwmo9HowYMHWZZNJpPlEmcymex2u9PpXF5eTiaTCjmwiejSrLf+z3QW z0gWqeRJzASg1ST8YeZWwnNJVvP67pc19OhGURTLsl6vd8+ePeV6aIHneYZh5ufnGYZR055ajbAJ xnuofleNo/QceJ5PMP//vBRm4ms6DreovMST/0IdHZQRJr42P/O+sjnI/Cr1rd6x2WEorzwMCsF+ z+7gDgMD6ys1w5p6sJwyw5p6TDMzM/IDAwsLC+I6cJ3cW/kGXQ5JkuSFIgBAygOs31Td2T+TsYD1 QmtoaMj3IssqVCbLkqXk9OVbk9nh1nJTAYZhue2H/A8BABDC3FsIodxSkqTci8Ja29n8Yy03tMlq 8j0W6pO3jza96paD7Gx3v87QnKB8ZXJZye3yX4N1Kfm1BjaOaDvb2t/DrO42lpDbggAAAABJRU5E rkJggg== "
         height="79"
         width="103" />
    </g>
    <rect
       style="fill:none;stroke:#cb3d97;stroke-width:0.1;stroke-linecap:round;stroke-linejoin:miter;stroke-miterlimit:4;stroke-opacity:1;stroke-dasharray:none;stroke-dashoffset:0"
       id="rect3914"
       width="23.374866"
       height="19.374838"
       x="5.3125668"
       y="5.3125811"
       rx="0"
       ry="0" />
    <rect
       ry="0"
       rx="0"
       y="5.8617916"
       x="5.8619127"
       height="18.276417"
       width="22.276175"
       id="rect3001"
       style="fill:none;stroke:#cb3d97;stroke-width:0.1;stroke-linecap:round;stroke-linejoin:miter;stroke-miterlimit:4;stroke-opacity:1;stroke-dasharray:none;stroke-dashoffset:0" />
  </g>
</svg>
