<?xml version="1.0" encoding="UTF-8" standalone="no"?>
<!-- Created with Inkscape (http://www.inkscape.org/) -->

<svg
   xmlns:dc="http://purl.org/dc/elements/1.1/"
   xmlns:cc="http://creativecommons.org/ns#"
   xmlns:rdf="http://www.w3.org/1999/02/22-rdf-syntax-ns#"
   xmlns:svg="http://www.w3.org/2000/svg"
   xmlns="http://www.w3.org/2000/svg"
   xmlns:sodipodi="http://sodipodi.sourceforge.net/DTD/sodipodi-0.dtd"
   xmlns:inkscape="http://www.inkscape.org/namespaces/inkscape"
   width="16"
   height="16"
   id="svg5784"
   version="1.1"
   inkscape:version="0.48.0 r9654"
   sodipodi:docname="g_restart_when_none_state_man_icon_16x16.svg"
   inkscape:export-filename="C:\Users\emo.GIRITECH\Documents\Shared Graphics\Management\Icons\g_restart_when_none_state_man_icon_16x16.png"
   inkscape:export-xdpi="90"
   inkscape:export-ydpi="90">
  <defs
     id="defs5786" />
  <sodipodi:namedview
     id="base"
     pagecolor="#ffffff"
     bordercolor="#666666"
     borderopacity="1.0"
     inkscape:pageopacity="0.0"
     inkscape:pageshadow="2"
     inkscape:zoom="1"
     inkscape:cx="8"
     inkscape:cy="8"
     inkscape:document-units="px"
     inkscape:current-layer="layer1"
     showgrid="false"
     inkscape:window-width="1680"
     inkscape:window-height="970"
     inkscape:window-x="-8"
     inkscape:window-y="-8"
     inkscape:window-maximized="1" />
  <metadata
     id="metadata5789">
    <rdf:RDF>
      <cc:Work
         rdf:about="">
        <dc:format>image/svg+xml</dc:format>
        <dc:type
           rdf:resource="http://purl.org/dc/dcmitype/StillImage" />
        <dc:title></dc:title>
      </cc:Work>
    </rdf:RDF>
  </metadata>
  <g
     inkscape:label="Layer 1"
     inkscape:groupmode="layer"
     id="layer1"
     transform="translate(0,-1036.3622)">
    <g
       style="display:inline"
       id="g7008"
       transform="translate(-0.00147035,1036.3622)">
      <g
         style="display:inline"
         transform="translate(0,-1036.3622)"
         id="layer1-95"
         inkscape:label="Layer 1" />
      <g
         transform="translate(0,-56)"
         style="display:inline"
         inkscape:label="pictogram"
         id="layer3-83">
        <g
           transform="matrix(0.89619304,0,0,0.89619304,0.83045523,6.6490329)"
           id="g3841">
          <g
             id="g3865-8"
             style="stroke:#173e86;stroke-opacity:1">
            <path
               inkscape:connector-curvature="0"
               id="path3834"
               d="m 8,57.987977 0,3.012046"
               style="fill:#e0e0e0;fill-opacity:1;stroke:#173e86;stroke-width:1.99999976;stroke-linecap:round;stroke-linejoin:miter;stroke-miterlimit:4;stroke-opacity:1;stroke-dasharray:none" />
            <path
               style="fill:#e0e0e0;fill-opacity:1;stroke:#173e86;stroke-width:1.99999976;stroke-linecap:round;stroke-linejoin:miter;stroke-miterlimit:4;stroke-opacity:1;stroke-dasharray:none"
               d="M 8,66.987954 8,70"
               id="path3863"
               inkscape:connector-curvature="0" />
          </g>
          <g
             id="g3869"
             transform="matrix(0.70710678,-0.70710678,0.70710678,0.70710678,-42.907437,24.40026)"
             style="stroke:#173e86;stroke-opacity:1">
            <path
               style="fill:#e0e0e0;fill-opacity:1;stroke:#173e86;stroke-width:1.99999976;stroke-linecap:round;stroke-linejoin:miter;stroke-miterlimit:4;stroke-opacity:1;stroke-dasharray:none"
               d="m 8,57.987977 0,3.012046"
               id="path3871"
               inkscape:connector-curvature="0" />
            <path
               inkscape:connector-curvature="0"
               id="path3873"
               d="M 8,66.987954 8,70"
               style="fill:#e0e0e0;fill-opacity:1;stroke:#173e86;stroke-width:1.99999976;stroke-linecap:round;stroke-linejoin:miter;stroke-miterlimit:4;stroke-opacity:1;stroke-dasharray:none" />
          </g>
          <g
             transform="matrix(0,-1,1,0,-55.993988,71.993989)"
             id="g3875"
             style="stroke:#173e86;stroke-opacity:1">
            <path
               inkscape:connector-curvature="0"
               id="path3877"
               d="m 8,57.987977 0,3.012046"
               style="fill:#e0e0e0;fill-opacity:1;stroke:#173e86;stroke-width:1.99999976;stroke-linecap:round;stroke-linejoin:miter;stroke-miterlimit:4;stroke-opacity:1;stroke-dasharray:none" />
            <path
               style="fill:#e0e0e0;fill-opacity:1;stroke:#173e86;stroke-width:1.99999976;stroke-linecap:round;stroke-linejoin:miter;stroke-miterlimit:4;stroke-opacity:1;stroke-dasharray:none"
               d="M 8,66.987954 8,70"
               id="path3879"
               inkscape:connector-curvature="0" />
          </g>
          <g
             id="g3881-7"
             transform="matrix(-0.70710678,-0.70710678,0.70710678,-0.70710678,-31.593728,114.90143)"
             style="stroke:#173e86;stroke-opacity:1">
            <path
               style="fill:#e0e0e0;fill-opacity:1;stroke:#173e86;stroke-width:1.99999976;stroke-linecap:round;stroke-linejoin:miter;stroke-miterlimit:4;stroke-opacity:1;stroke-dasharray:none"
               d="m 8,57.987977 0,3.012046"
               id="path3883-1"
               inkscape:connector-curvature="0" />
            <path
               inkscape:connector-curvature="0"
               id="path3885"
               d="M 8,66.987954 8,70"
               style="fill:#e0e0e0;fill-opacity:1;stroke:#173e86;stroke-width:1.99999976;stroke-linecap:round;stroke-linejoin:miter;stroke-miterlimit:4;stroke-opacity:1;stroke-dasharray:none" />
          </g>
        </g>
        <path
           sodipodi:type="arc"
           style="fill:none;stroke:#173e86;stroke-width:1.35923755;stroke-miterlimit:4;stroke-opacity:1;stroke-dasharray:none;display:inline"
           id="path4964-1"
           sodipodi:cx="128.96875"
           sodipodi:cy="94"
           sodipodi:rx="11.34375"
           sodipodi:ry="12.0625"
           d="m 140.3125,94 c 0,6.66193 -5.07877,12.0625 -11.34375,12.0625 -6.26498,0 -11.34375,-5.40057 -11.34375,-12.0625 0,-6.661935 5.07877,-12.0625 11.34375,-12.0625 6.26498,0 11.34375,5.400565 11.34375,12.0625 z"
           transform="matrix(0.66651059,0,0,0.62679622,-77.959038,5.0811554)" />
        <g
           transform="matrix(0.8502941,0,0,0.8502941,1.8982353,10.278824)"
           id="g3911"
           style="display:inline">
          <path
             transform="matrix(1.1327386,0,0,1.1461174,-7.1517509,50.827477)"
             d="m 20.438741,14.110704 c 0,2.409373 -1.976251,4.362555 -4.414081,4.362555 -2.43783,0 -4.414081,-1.953182 -4.414081,-4.362555 0,-2.409372 1.976251,-4.3625546 4.414081,-4.3625546 2.43783,0 4.414081,1.9531826 4.414081,4.3625546 z"
             sodipodi:ry="4.362555"
             sodipodi:rx="4.4140811"
             sodipodi:cy="14.110704"
             sodipodi:cx="16.02466"
             id="path3880"
             style="fill:#333333;fill-opacity:1;stroke:#e0e0e0;stroke-width:1.03217053;stroke-miterlimit:4;stroke-opacity:1;stroke-dasharray:none"
             sodipodi:type="arc" />
          <path
             inkscape:connector-curvature="0"
             id="path3882"
             d="m 10.984249,66.987515 0,-3.447895"
             style="fill:none;stroke:#e0e0e0;stroke-width:1.76409554;stroke-linecap:round;stroke-linejoin:miter;stroke-miterlimit:4;stroke-opacity:1;stroke-dasharray:none" />
          <path
             inkscape:connector-curvature="0"
             id="path3884"
             d="M 10.984249,66.987515 13.479867,65.59774"
             style="fill:none;stroke:#e0e0e0;stroke-width:1.76409554;stroke-linecap:round;stroke-linejoin:miter;stroke-miterlimit:4;stroke-opacity:1;stroke-dasharray:none" />
        </g>
      </g>
    </g>
  </g>
</svg>
