<?xml version="1.0" encoding="UTF-8" standalone="no"?>
<!-- Created with Inkscape (http://www.inkscape.org/) -->

<svg
   xmlns:dc="http://purl.org/dc/elements/1.1/"
   xmlns:cc="http://creativecommons.org/ns#"
   xmlns:rdf="http://www.w3.org/1999/02/22-rdf-syntax-ns#"
   xmlns:svg="http://www.w3.org/2000/svg"
   xmlns="http://www.w3.org/2000/svg"
   xmlns:xlink="http://www.w3.org/1999/xlink"
   xmlns:sodipodi="http://sodipodi.sourceforge.net/DTD/sodipodi-0.dtd"
   xmlns:inkscape="http://www.inkscape.org/namespaces/inkscape"
   width="16"
   height="16"
   id="svg5503"
   version="1.1"
   inkscape:version="0.48.0 r9654"
   sodipodi:docname="g_restart_when_none_action_man_icon_16x16.svg"
   inkscape:export-filename="C:\Users\emo.GIRITECH\Documents\Shared Graphics\Management\Icons\g_restart_when_none_action_man_icon_16x16.png"
   inkscape:export-xdpi="90"
   inkscape:export-ydpi="90">
  <defs
     id="defs5505">
    <linearGradient
       inkscape:collect="always"
       xlink:href="#linearGradient11455"
       id="linearGradient11492"
       x1="2.2829053"
       y1="1.2391461"
       x2="2.2829053"
       y2="10.627465"
       gradientUnits="userSpaceOnUse" />
    <linearGradient
       id="linearGradient11455">
      <stop
         style="stop-color:#304263;stop-opacity:1;"
         offset="0"
         id="stop11457" />
      <stop
         style="stop-color:#4f6da3;stop-opacity:1;"
         offset="1"
         id="stop11459" />
    </linearGradient>
  </defs>
  <sodipodi:namedview
     id="base"
     pagecolor="#ffffff"
     bordercolor="#666666"
     borderopacity="1.0"
     inkscape:pageopacity="0.0"
     inkscape:pageshadow="2"
     inkscape:zoom="1"
     inkscape:cx="8"
     inkscape:cy="8"
     inkscape:document-units="px"
     inkscape:current-layer="layer1"
     showgrid="false"
     inkscape:window-width="1680"
     inkscape:window-height="970"
     inkscape:window-x="-8"
     inkscape:window-y="-8"
     inkscape:window-maximized="1" />
  <metadata
     id="metadata5508">
    <rdf:RDF>
      <cc:Work
         rdf:about="">
        <dc:format>image/svg+xml</dc:format>
        <dc:type
           rdf:resource="http://purl.org/dc/dcmitype/StillImage" />
        <dc:title></dc:title>
      </cc:Work>
    </rdf:RDF>
  </metadata>
  <g
     inkscape:label="Layer 1"
     inkscape:groupmode="layer"
     id="layer1"
     transform="translate(0,-1036.3622)">
    <g
       transform="translate(-522,868.34821)"
       id="g5260">
      <path
         sodipodi:type="arc"
         style="fill:url(#linearGradient11492);fill-opacity:1;stroke:none"
         id="path3830-3"
         sodipodi:cx="5.0933785"
         sodipodi:cy="5.9679227"
         sodipodi:rx="4.496757"
         sodipodi:ry="4.7287765"
         d="m 9.5901356,5.9679227 c 0,2.6116311 -2.0132667,4.7287763 -4.4967571,4.7287763 -2.4834903,0 -4.49675699,-2.1171452 -4.49675699,-4.7287763 0,-2.6116311 2.01326669,-4.7287765 4.49675699,-4.7287765 2.4834904,0 4.4967571,2.1171454 4.4967571,4.7287765 z"
         transform="matrix(1.7790599,0,0,1.6917695,520.93857,165.91764)" />
      <g
         transform="translate(522,112.01394)"
         id="g3865-81">
        <path
           inkscape:connector-curvature="0"
           id="path3834-7"
           d="m 8,57.987977 0,3.012046"
           style="fill:#e0e0e0;fill-opacity:1;stroke:#e0e0e0;stroke-width:1.99999976;stroke-linecap:round;stroke-linejoin:miter;stroke-miterlimit:4;stroke-opacity:1;stroke-dasharray:none" />
        <path
           style="fill:#e0e0e0;fill-opacity:1;stroke:#e0e0e0;stroke-width:1.99999976;stroke-linecap:round;stroke-linejoin:miter;stroke-miterlimit:4;stroke-opacity:1;stroke-dasharray:none"
           d="M 8,66.987954 8,70"
           id="path3863-3"
           inkscape:connector-curvature="0" />
      </g>
      <g
         id="g3869-6"
         transform="matrix(0.70710678,-0.70710678,0.70710678,0.70710678,479.09256,136.4142)">
        <path
           style="fill:#e0e0e0;fill-opacity:1;stroke:#e0e0e0;stroke-width:1.99999976;stroke-linecap:round;stroke-linejoin:miter;stroke-miterlimit:4;stroke-opacity:1;stroke-dasharray:none"
           d="m 8,57.987977 0,3.012046"
           id="path3871-8"
           inkscape:connector-curvature="0" />
        <path
           inkscape:connector-curvature="0"
           id="path3873-6"
           d="M 8,66.987954 8,70"
           style="fill:#e0e0e0;fill-opacity:1;stroke:#e0e0e0;stroke-width:1.99999976;stroke-linecap:round;stroke-linejoin:miter;stroke-miterlimit:4;stroke-opacity:1;stroke-dasharray:none" />
      </g>
      <g
         transform="matrix(0,-1,1,0,466.00601,184.00793)"
         id="g3875-3">
        <path
           inkscape:connector-curvature="0"
           id="path3877-2"
           d="m 8,57.987977 0,3.012046"
           style="fill:#e0e0e0;fill-opacity:1;stroke:#e0e0e0;stroke-width:1.99999976;stroke-linecap:round;stroke-linejoin:miter;stroke-miterlimit:4;stroke-opacity:1;stroke-dasharray:none" />
        <path
           style="fill:#e0e0e0;fill-opacity:1;stroke:#e0e0e0;stroke-width:1.99999976;stroke-linecap:round;stroke-linejoin:miter;stroke-miterlimit:4;stroke-opacity:1;stroke-dasharray:none"
           d="M 8,66.987954 8,70"
           id="path3879-6"
           inkscape:connector-curvature="0" />
      </g>
      <g
         id="g3881-08"
         transform="matrix(-0.70710678,-0.70710678,0.70710678,-0.70710678,490.40627,226.91537)">
        <path
           style="fill:#e0e0e0;fill-opacity:1;stroke:#e0e0e0;stroke-width:1.99999976;stroke-linecap:round;stroke-linejoin:miter;stroke-miterlimit:4;stroke-opacity:1;stroke-dasharray:none"
           d="m 8,57.987977 0,3.012046"
           id="path3883-7"
           inkscape:connector-curvature="0" />
        <path
           inkscape:connector-curvature="0"
           id="path3885-0"
           d="M 8,66.987954 8,70"
           style="fill:#e0e0e0;fill-opacity:1;stroke:#e0e0e0;stroke-width:1.99999976;stroke-linecap:round;stroke-linejoin:miter;stroke-miterlimit:4;stroke-opacity:1;stroke-dasharray:none" />
      </g>
      <g
         id="g3911-87"
         transform="translate(521.5,111.51394)">
        <path
           sodipodi:type="arc"
           style="fill:#333333;fill-opacity:1;stroke:#e0e0e0;stroke-width:0.87764847;stroke-miterlimit:4;stroke-opacity:1;stroke-dasharray:none"
           id="path3880-8"
           sodipodi:cx="16.02466"
           sodipodi:cy="14.110704"
           sodipodi:rx="4.4140811"
           sodipodi:ry="4.362555"
           d="m 20.438741,14.110704 c 0,2.409373 -1.976251,4.362555 -4.414081,4.362555 -2.43783,0 -4.414081,-1.953182 -4.414081,-4.362555 0,-2.409372 1.976251,-4.3625546 4.414081,-4.3625546 2.43783,0 4.414081,1.9531826 4.414081,4.3625546 z"
           transform="matrix(1.1327386,0,0,1.1461174,-7.1517509,50.827477)" />
        <path
           style="fill:none;stroke:#e0e0e0;stroke-width:1.5;stroke-linecap:round;stroke-linejoin:miter;stroke-miterlimit:4;stroke-opacity:1;stroke-dasharray:none"
           d="m 10.984249,66.987515 0,-3.447895"
           id="path3882-95"
           inkscape:connector-curvature="0" />
        <path
           style="fill:none;stroke:#e0e0e0;stroke-width:1.5;stroke-linecap:round;stroke-linejoin:miter;stroke-miterlimit:4;stroke-opacity:1;stroke-dasharray:none"
           d="M 10.984249,66.987515 13.479867,65.59774"
           id="path3884-1"
           inkscape:connector-curvature="0" />
      </g>
    </g>
  </g>
</svg>
