<?xml version="1.0" encoding="UTF-8" standalone="no"?>
<!-- Created with Inkscape (http://www.inkscape.org/) -->

<svg
   xmlns:dc="http://purl.org/dc/elements/1.1/"
   xmlns:cc="http://creativecommons.org/ns#"
   xmlns:rdf="http://www.w3.org/1999/02/22-rdf-syntax-ns#"
   xmlns:svg="http://www.w3.org/2000/svg"
   xmlns="http://www.w3.org/2000/svg"
   xmlns:xlink="http://www.w3.org/1999/xlink"
   xmlns:sodipodi="http://sodipodi.sourceforge.net/DTD/sodipodi-0.dtd"
   xmlns:inkscape="http://www.inkscape.org/namespaces/inkscape"
   width="16"
   height="16"
   id="svg5580"
   version="1.1"
   inkscape:version="0.48.0 r9654"
   sodipodi:docname="g_refresh_action_man_icon_16x16.svg"
   inkscape:export-filename="C:\Users\emo.GIRITECH\Documents\Shared Graphics\Management\Icons\g_refresh_action_man_icon_16x16.png"
   inkscape:export-xdpi="90"
   inkscape:export-ydpi="90">
  <defs
     id="defs5582">
    <linearGradient
       inkscape:collect="always"
       xlink:href="#linearGradient3810"
       id="linearGradient11524"
       x1="2.0871"
       y1="1.2396512"
       x2="2.0871"
       y2="10.670661"
       gradientUnits="userSpaceOnUse" />
    <linearGradient
       id="linearGradient3810">
      <stop
         id="stop3812"
         offset="0"
         style="stop-color:#003807;stop-opacity:1;" />
      <stop
         id="stop3814"
         offset="1"
         style="stop-color:#00710e;stop-opacity:1;" />
    </linearGradient>
  </defs>
  <sodipodi:namedview
     id="base"
     pagecolor="#ffffff"
     bordercolor="#666666"
     borderopacity="1.0"
     inkscape:pageopacity="0.0"
     inkscape:pageshadow="2"
     inkscape:zoom="1"
     inkscape:cx="7.9999955"
     inkscape:cy="8.0000004"
     inkscape:document-units="px"
     inkscape:current-layer="layer1"
     showgrid="false"
     inkscape:window-width="1680"
     inkscape:window-height="970"
     inkscape:window-x="-8"
     inkscape:window-y="-8"
     inkscape:window-maximized="1" />
  <metadata
     id="metadata5585">
    <rdf:RDF>
      <cc:Work
         rdf:about="">
        <dc:format>image/svg+xml</dc:format>
        <dc:type
           rdf:resource="http://purl.org/dc/dcmitype/StillImage" />
        <dc:title></dc:title>
      </cc:Work>
    </rdf:RDF>
  </metadata>
  <g
     inkscape:label="Layer 1"
     inkscape:groupmode="layer"
     id="layer1"
     transform="translate(0,-1036.3622)">
    <g
       transform="translate(-567.24343,868.34821)"
       id="g5279">
      <path
         sodipodi:type="arc"
         style="fill:url(#linearGradient11524);fill-opacity:1;stroke:none"
         id="path3830-34"
         sodipodi:cx="5.0933785"
         sodipodi:cy="5.9679227"
         sodipodi:rx="4.496757"
         sodipodi:ry="4.7287765"
         d="m 9.5901356,5.9679227 c 0,2.6116311 -2.0132667,4.7287763 -4.4967571,4.7287763 -2.4834903,0 -4.49675699,-2.1171452 -4.49675699,-4.7287763 0,-2.6116311 2.01326669,-4.7287765 4.49675699,-4.7287765 2.4834904,0 4.4967571,2.1171454 4.4967571,4.7287765 z"
         transform="matrix(1.7790599,0,0,1.6917695,566.182,165.91764)" />
      <g
         transform="translate(567.24343,112.01394)"
         style="display:inline"
         inkscape:label="pictogram"
         id="layer3-844">
        <path
           id="path3839-3"
           transform="translate(0,56)"
           d="M 8,2.59375 C 5.0239105,2.59375 2.59375,5.023911 2.59375,8 c 0,1.0777385 0.3271004,2.09243 0.875,2.9375 l 1.0625,-0.625 0.65625,-0.375 C 4.8069643,9.3874111 4.59375,8.7264273 4.59375,8 4.59375,6.104791 6.1047907,4.59375 8,4.59375 l 0,-0.875 0,-1.125 z m 4.53125,2.5 -1.0625,0.625 -0.625,0.375 c 0.365555,0.5432312 0.5625,1.1955466 0.5625,1.90625 0,1.89521 -1.511041,3.40625 -3.40625,3.40625 l 0,0.90625 0,1.09375 c 2.97609,0 5.40625,-2.43016 5.40625,-5.40625 0,-1.0757434 -0.328962,-2.0621492 -0.875,-2.90625 z"
           style="font-size:medium;font-style:normal;font-variant:normal;font-weight:normal;font-stretch:normal;text-indent:0;text-align:start;text-decoration:none;line-height:normal;letter-spacing:normal;word-spacing:normal;text-transform:none;direction:ltr;block-progression:tb;writing-mode:lr-tb;text-anchor:start;baseline-shift:baseline;color:#000000;fill:#e0e0e0;fill-opacity:1;stroke:none;stroke-width:2;marker:none;visibility:visible;display:inline;overflow:visible;enable-background:accumulate;font-family:Sans;-inkscape-font-specification:Sans"
           inkscape:connector-curvature="0" />
        <path
           inkscape:transform-center-x="-0.77965083"
           transform="translate(1.7296135,57.638581)"
           d="m 10.94738,2.0720599 -2.3389524,1.3503948 -2.3389524,1.3503948 0,-2.7007897 0,-2.70078955 2.3389525,1.35039485 z"
           inkscape:randomized="0"
           inkscape:rounded="0"
           inkscape:flatsided="false"
           sodipodi:arg2="1.0471976"
           sodipodi:arg1="0"
           sodipodi:r2="1.5593016"
           sodipodi:r1="3.1186032"
           sodipodi:cy="2.0720599"
           sodipodi:cx="7.8287768"
           sodipodi:sides="3"
           id="path3868"
           style="fill:#e0e0e0;fill-opacity:1;stroke:none"
           sodipodi:type="star" />
        <path
           sodipodi:type="star"
           style="fill:#e0e0e0;fill-opacity:1;stroke:none"
           id="path3876"
           sodipodi:sides="3"
           sodipodi:cx="7.8287768"
           sodipodi:cy="2.0720599"
           sodipodi:r1="3.1186032"
           sodipodi:r2="1.5593016"
           sodipodi:arg1="0"
           sodipodi:arg2="1.0471976"
           inkscape:flatsided="false"
           inkscape:rounded="0"
           inkscape:randomized="0"
           d="m 10.94738,2.0720599 -2.3389524,1.3503948 -2.3389524,1.3503948 0,-2.7007897 0,-2.70078955 2.3389525,1.35039485 z"
           transform="matrix(-1,0,0,-1,14.268958,70.38525)"
           inkscape:transform-center-x="-0.77965083" />
      </g>
    </g>
  </g>
</svg>
