<?xml version="1.0" encoding="UTF-8" standalone="no"?>
<!-- Created with Inkscape (http://www.inkscape.org/) -->

<svg
   xmlns:dc="http://purl.org/dc/elements/1.1/"
   xmlns:cc="http://creativecommons.org/ns#"
   xmlns:rdf="http://www.w3.org/1999/02/22-rdf-syntax-ns#"
   xmlns:svg="http://www.w3.org/2000/svg"
   xmlns="http://www.w3.org/2000/svg"
   xmlns:xlink="http://www.w3.org/1999/xlink"
   xmlns:sodipodi="http://sodipodi.sourceforge.net/DTD/sodipodi-0.dtd"
   xmlns:inkscape="http://www.inkscape.org/namespaces/inkscape"
   width="32"
   height="32"
   id="svg2"
   version="1.0"
   inkscape:version="0.48.0 r9654"
   inkscape:export-filename="C:\Users\emo.GIRITECH\Documents\Shared Graphics\Tokens\Version 2\g_soft_token_marked_32x32.png"
   inkscape:export-xdpi="90"
   inkscape:export-ydpi="90"
   sodipodi:docname="g_soft_token_marked_32x32.svg"
   style="display:inline"
   sodipodi:version="0.32"
   inkscape:output_extension="org.inkscape.output.svg.inkscape">
  <defs
     id="defs4">
    <linearGradient
       id="linearGradient4427">
      <stop
         id="stop4429"
         offset="0"
         style="stop-color:#a3d2ff;stop-opacity:1;" />
      <stop
         id="stop4431"
         offset="1"
         style="stop-color:#cbecff;stop-opacity:1;" />
    </linearGradient>
    <inkscape:perspective
       sodipodi:type="inkscape:persp3d"
       inkscape:vp_x="0 : 8 : 1"
       inkscape:vp_y="0 : 1000 : 0"
       inkscape:vp_z="16 : 8 : 1"
       inkscape:persp3d-origin="8 : 5.3333333 : 1"
       id="perspective91" />
    <linearGradient
       id="linearGradient3927">
      <stop
         style="stop-color:#646464;stop-opacity:1"
         offset="0"
         id="stop3929" />
      <stop
         style="stop-color:#dcdcdc;stop-opacity:1"
         offset="1"
         id="stop3931" />
    </linearGradient>
    <linearGradient
       id="linearGradient3816">
      <stop
         style="stop-color:#ffffff;stop-opacity:0.25882354;"
         offset="0"
         id="stop3818" />
      <stop
         style="stop-color:#ffffff;stop-opacity:0;"
         offset="1"
         id="stop3820" />
    </linearGradient>
    <linearGradient
       id="linearGradient3797">
      <stop
         style="stop-color:#ffffff;stop-opacity:1;"
         offset="0"
         id="stop3799" />
      <stop
         style="stop-color:#ffffff;stop-opacity:0.16470589;"
         offset="1"
         id="stop3801" />
    </linearGradient>
    <linearGradient
       id="linearGradient3789">
      <stop
         style="stop-color:#440008;stop-opacity:1;"
         offset="0"
         id="stop3791" />
      <stop
         style="stop-color:#880000;stop-opacity:1;"
         offset="1"
         id="stop3793" />
    </linearGradient>
    <linearGradient
       id="linearGradient3781">
      <stop
         style="stop-color:#440008;stop-opacity:1;"
         offset="0"
         id="stop3783" />
      <stop
         style="stop-color:#232723;stop-opacity:0;"
         offset="1"
         id="stop3785" />
    </linearGradient>
    <linearGradient
       inkscape:collect="always"
       xlink:href="#linearGradient3789"
       id="linearGradient3795"
       x1="34.479824"
       y1="980.94946"
       x2="34.479824"
       y2="1052.0378"
       gradientUnits="userSpaceOnUse" />
    <linearGradient
       inkscape:collect="always"
       xlink:href="#linearGradient3797"
       id="linearGradient3803"
       x1="35.989838"
       y1="51.432434"
       x2="35.989838"
       y2="108.26157"
       gradientUnits="userSpaceOnUse" />
    <linearGradient
       inkscape:collect="always"
       xlink:href="#linearGradient3816"
       id="linearGradient3822"
       x1="34.371315"
       y1="1052.3622"
       x2="34.371315"
       y2="981.34082"
       gradientUnits="userSpaceOnUse"
       gradientTransform="matrix(1,0,0,0.6351255,0,-596.51749)" />
    <filter
       id="filter3033"
       inkscape:label="Drop shadow"
       width="1.5"
       height="1.5"
       x="-0.25"
       y="-0.25"
       color-interpolation-filters="sRGB">
      <feGaussianBlur
         id="feGaussianBlur3035"
         in="SourceAlpha"
         stdDeviation="2"
         result="blur" />
      <feColorMatrix
         id="feColorMatrix3037"
         result="bluralpha"
         type="matrix"
         values="1 0 0 0 0 0 1 0 0 0 0 0 1 0 0 0 0 0 0.5 0 " />
      <feOffset
         id="feOffset3039"
         in="bluralpha"
         dx="2"
         dy="2"
         result="offsetBlur" />
      <feMerge
         id="feMerge3041">
        <feMergeNode
           id="feMergeNode3043"
           in="offsetBlur" />
        <feMergeNode
           id="feMergeNode3045"
           in="SourceGraphic" />
      </feMerge>
    </filter>
    <linearGradient
       inkscape:collect="always"
       xlink:href="#linearGradient3797"
       id="linearGradient3790"
       gradientUnits="userSpaceOnUse"
       x1="35.989838"
       y1="51.432434"
       x2="35.989838"
       y2="108.26157"
       gradientTransform="matrix(1.2057712,0,0,1,-7.3425861,-72)" />
    <linearGradient
       inkscape:collect="always"
       xlink:href="#linearGradient3825"
       id="linearGradient3007"
       gradientUnits="userSpaceOnUse"
       gradientTransform="matrix(0.9736315,0,0,1.035386,-228.55154,-558.9601)"
       x1="139.31297"
       y1="505.0293"
       x2="139.31297"
       y2="627.19641" />
    <linearGradient
       id="linearGradient3825">
      <stop
         style="stop-color:#4e4e4e;stop-opacity:1;"
         offset="0"
         id="stop3827" />
      <stop
         style="stop-color:#e0e0e0;stop-opacity:1;"
         offset="1"
         id="stop3829" />
    </linearGradient>
    <linearGradient
       inkscape:collect="always"
       xlink:href="#linearGradient3825"
       id="linearGradient3256"
       gradientUnits="userSpaceOnUse"
       x1="139.31297"
       y1="505.0293"
       x2="139.31297"
       y2="627.19641"
       gradientTransform="matrix(0.9736315,0,0,1.035386,-57.748974,403.30318)" />
    <linearGradient
       gradientTransform="matrix(1.2057712,0,0,1,-7.3425861,-72)"
       y2="108.26157"
       x2="35.989838"
       y1="51.432434"
       x1="35.989838"
       gradientUnits="userSpaceOnUse"
       id="linearGradient3790-5"
       xlink:href="#linearGradient3797-5"
       inkscape:collect="always" />
    <filter
       color-interpolation-filters="sRGB"
       y="-0.25"
       x="-0.25"
       height="1.5"
       width="1.5"
       inkscape:label="Drop shadow"
       id="filter3033-9">
      <feGaussianBlur
         result="blur"
         stdDeviation="2"
         in="SourceAlpha"
         id="feGaussianBlur3035-3" />
      <feColorMatrix
         values="1 0 0 0 0 0 1 0 0 0 0 0 1 0 0 0 0 0 0.5 0 "
         type="matrix"
         result="bluralpha"
         id="feColorMatrix3037-1" />
      <feOffset
         result="offsetBlur"
         dy="2"
         dx="2"
         in="bluralpha"
         id="feOffset3039-1" />
      <feMerge
         id="feMerge3041-9">
        <feMergeNode
           in="offsetBlur"
           id="feMergeNode3043-9" />
        <feMergeNode
           in="SourceGraphic"
           id="feMergeNode3045-5" />
      </feMerge>
    </filter>
    <linearGradient
       gradientTransform="matrix(1,0,0,0.6351255,0,-596.51749)"
       gradientUnits="userSpaceOnUse"
       y2="981.34082"
       x2="34.371315"
       y1="1052.3622"
       x1="34.371315"
       id="linearGradient3822-4"
       xlink:href="#linearGradient3816-8"
       inkscape:collect="always" />
    <linearGradient
       gradientUnits="userSpaceOnUse"
       y2="108.26157"
       x2="35.989838"
       y1="51.432434"
       x1="35.989838"
       id="linearGradient3803-0"
       xlink:href="#linearGradient3797-5"
       inkscape:collect="always" />
    <linearGradient
       gradientUnits="userSpaceOnUse"
       y2="1052.0378"
       x2="34.479824"
       y1="980.94946"
       x1="34.479824"
       id="linearGradient3795-9"
       xlink:href="#linearGradient3789-2"
       inkscape:collect="always" />
    <linearGradient
       id="linearGradient3781-6">
      <stop
         id="stop3783-6"
         offset="0"
         style="stop-color:#440008;stop-opacity:1;" />
      <stop
         id="stop3785-2"
         offset="1"
         style="stop-color:#232723;stop-opacity:0;" />
    </linearGradient>
    <linearGradient
       id="linearGradient3789-2">
      <stop
         id="stop3791-4"
         offset="0"
         style="stop-color:#242424;stop-opacity:1;" />
      <stop
         id="stop3793-6"
         offset="1"
         style="stop-color:#b2b2b2;stop-opacity:1;" />
    </linearGradient>
    <linearGradient
       id="linearGradient3797-5">
      <stop
         id="stop3799-2"
         offset="0"
         style="stop-color:#ffffff;stop-opacity:1;" />
      <stop
         id="stop3801-3"
         offset="1"
         style="stop-color:#ffffff;stop-opacity:0.16470589;" />
    </linearGradient>
    <linearGradient
       id="linearGradient3816-8">
      <stop
         id="stop3818-8"
         offset="0"
         style="stop-color:#ffffff;stop-opacity:0.25882354;" />
      <stop
         id="stop3820-1"
         offset="1"
         style="stop-color:#ffffff;stop-opacity:0;" />
    </linearGradient>
    <linearGradient
       inkscape:collect="always"
       xlink:href="#linearGradient3789"
       id="linearGradient3950"
       gradientUnits="userSpaceOnUse"
       x1="34.479824"
       y1="980.94946"
       x2="34.479824"
       y2="1052.0378" />
    <linearGradient
       inkscape:collect="always"
       xlink:href="#linearGradient3816"
       id="linearGradient3952"
       gradientUnits="userSpaceOnUse"
       gradientTransform="matrix(1,0,0,0.6351255,0,-596.51749)"
       x1="34.371315"
       y1="1052.3622"
       x2="34.371315"
       y2="981.34082" />
    <linearGradient
       inkscape:collect="always"
       xlink:href="#linearGradient3797"
       id="linearGradient3954"
       gradientUnits="userSpaceOnUse"
       gradientTransform="matrix(1.2057712,0,0,1,-7.3425861,-72)"
       x1="35.989838"
       y1="51.432434"
       x2="35.989838"
       y2="108.26157" />
    <linearGradient
       inkscape:collect="always"
       xlink:href="#linearGradient3797"
       id="linearGradient3048"
       gradientUnits="userSpaceOnUse"
       gradientTransform="matrix(0.2675326,0,0,0.2220847,-1.6167136,40.021184)"
       x1="35.989838"
       y1="51.432434"
       x2="35.989838"
       y2="108.26157" />
    <linearGradient
       inkscape:collect="always"
       xlink:href="#linearGradient3816"
       id="linearGradient3051"
       gradientUnits="userSpaceOnUse"
       gradientTransform="matrix(0.2218768,0,0,0.1410517,1.243575e-2,-76.466136)"
       x1="34.371315"
       y1="1052.3622"
       x2="34.371315"
       y2="981.34082" />
    <linearGradient
       inkscape:collect="always"
       xlink:href="#linearGradient3927"
       id="linearGradient3977"
       gradientUnits="userSpaceOnUse"
       x1="30.261311"
       y1="2.3636146"
       x2="30.261311"
       y2="13.018085"
       gradientTransform="matrix(0.7071068,-0.7071068,0.7071068,0.7071068,23.425684,41.67551)" />
    <linearGradient
       inkscape:collect="always"
       xlink:href="#linearGradient3927"
       id="linearGradient3984"
       gradientUnits="userSpaceOnUse"
       gradientTransform="matrix(0.7071068,-0.7071068,0.7071068,0.7071068,23.425684,41.67551)"
       x1="30.261311"
       y1="2.3636146"
       x2="30.261311"
       y2="13.018085" />
    <linearGradient
       inkscape:collect="always"
       xlink:href="#linearGradient3927"
       id="linearGradient2473"
       gradientUnits="userSpaceOnUse"
       gradientTransform="matrix(1.4285419,-1.4292232,1.4285419,1.4292232,-36.334703,45.994177)"
       x1="30.261311"
       y1="2.3636146"
       x2="30.261311"
       y2="13.018085" />
    <inkscape:perspective
       id="perspective2540"
       inkscape:persp3d-origin="372.04724 : 350.78739 : 1"
       inkscape:vp_z="744.09448 : 526.18109 : 1"
       inkscape:vp_y="0 : 1000 : 0"
       inkscape:vp_x="0 : 526.18109 : 1"
       sodipodi:type="inkscape:persp3d" />
    <linearGradient
       y2="13.018085"
       x2="30.261311"
       y1="2.3636146"
       x1="30.261311"
       gradientTransform="matrix(1.0421868,0,0,1.0000521,-0.76757447,8.1019265)"
       gradientUnits="userSpaceOnUse"
       id="linearGradient3968"
       xlink:href="#linearGradient3789-1"
       inkscape:collect="always" />
    <linearGradient
       y2="13.018085"
       x2="30.261311"
       y1="2.3636146"
       x1="30.261311"
       gradientTransform="matrix(1.0421868,0,0,1.0000521,-0.76757447,8.1019265)"
       gradientUnits="userSpaceOnUse"
       id="linearGradient3951"
       xlink:href="#linearGradient3789-1"
       inkscape:collect="always" />
    <linearGradient
       y2="13.018085"
       x2="30.261311"
       y1="2.3636146"
       x1="30.261311"
       gradientTransform="matrix(1.0845608,0,0,1.0000521,-2.2147617,8.1019265)"
       gradientUnits="userSpaceOnUse"
       id="linearGradient3947"
       xlink:href="#linearGradient3789-1"
       inkscape:collect="always" />
    <linearGradient
       y2="13.018085"
       x2="30.261311"
       y1="2.3636146"
       x1="30.261311"
       gradientTransform="matrix(1.0845608,0,0,1.0000521,-2.2147617,8.1019265)"
       gradientUnits="userSpaceOnUse"
       id="linearGradient3943"
       xlink:href="#linearGradient3789-1"
       inkscape:collect="always" />
    <linearGradient
       y2="13.018085"
       x2="30.261311"
       y1="2.3636146"
       x1="30.261311"
       gradientTransform="matrix(1.0845608,0,0,1.0000521,-2.2147617,8.1019265)"
       gradientUnits="userSpaceOnUse"
       id="linearGradient3921"
       xlink:href="#linearGradient3789-1"
       inkscape:collect="always" />
    <linearGradient
       y2="13.018085"
       x2="30.261311"
       y1="2.3636146"
       x1="30.261311"
       gradientTransform="matrix(0.97200709,0,0,1.081943,0.42256252,-0.64058702)"
       gradientUnits="userSpaceOnUse"
       id="linearGradient3917"
       xlink:href="#linearGradient3789-1"
       inkscape:collect="always" />
    <linearGradient
       y2="13.018085"
       x2="30.261311"
       y1="2.3636146"
       x1="30.261311"
       gradientTransform="matrix(0.97200709,0,0,1.081943,0.42256252,-0.64058702)"
       gradientUnits="userSpaceOnUse"
       id="linearGradient3905"
       xlink:href="#linearGradient3789-1"
       inkscape:collect="always" />
    <linearGradient
       y2="13.018085"
       x2="30.261311"
       y1="2.3636146"
       x1="30.261311"
       gradientTransform="matrix(0.97200709,0,0,1.081943,0.42256252,-0.64058702)"
       gradientUnits="userSpaceOnUse"
       id="linearGradient3869"
       xlink:href="#linearGradient3789-1"
       inkscape:collect="always" />
    <linearGradient
       y2="13.018085"
       x2="30.261311"
       y1="2.3636146"
       x1="30.261311"
       gradientTransform="matrix(0.08720406,-0.08720406,0.70710678,0.70710678,21.132278,20.45872)"
       gradientUnits="userSpaceOnUse"
       id="linearGradient3091"
       xlink:href="#linearGradient3859"
       inkscape:collect="always" />
    <linearGradient
       y2="13.018085"
       x2="30.261311"
       y1="2.3636146"
       x1="30.261311"
       gradientTransform="matrix(0.70710678,-0.70710678,0.70710678,0.70710678,-1.8023814,43.393379)"
       gradientUnits="userSpaceOnUse"
       id="linearGradient3087"
       xlink:href="#linearGradient3859"
       inkscape:collect="always" />
    <linearGradient
       id="linearGradient3859">
      <stop
         style="stop-color:#a3d2ff;stop-opacity:1;"
         offset="0"
         id="stop3861" />
      <stop
         style="stop-color:#cbecff;stop-opacity:1;"
         offset="1"
         id="stop3863" />
    </linearGradient>
    <linearGradient
       y2="13.018085"
       x2="30.261311"
       y1="2.3636146"
       x1="30.261311"
       gradientTransform="matrix(0.70710678,-0.70710678,0.70710678,0.70710678,-17.985132,22.923534)"
       gradientUnits="userSpaceOnUse"
       id="linearGradient3997"
       xlink:href="#linearGradient3927-4"
       inkscape:collect="always" />
    <linearGradient
       y2="13.018085"
       x2="30.261311"
       y1="2.3636146"
       x1="30.261311"
       gradientTransform="matrix(0.70710678,-0.70710678,0.70710678,0.70710678,23.425684,41.67551)"
       gradientUnits="userSpaceOnUse"
       id="linearGradient3984-0"
       xlink:href="#linearGradient3927-4"
       inkscape:collect="always" />
    <linearGradient
       gradientTransform="matrix(0.70710678,-0.70710678,0.70710678,0.70710678,23.425684,41.67551)"
       y2="13.018085"
       x2="30.261311"
       y1="2.3636146"
       x1="30.261311"
       gradientUnits="userSpaceOnUse"
       id="linearGradient3977-6"
       xlink:href="#linearGradient3927-4"
       inkscape:collect="always" />
    <linearGradient
       gradientTransform="matrix(0.70710678,-0.70710678,0.70710678,0.70710678,-20.770785,45.436248)"
       y2="13.018085"
       x2="30.261311"
       y1="2.3636146"
       x1="30.261311"
       gradientUnits="userSpaceOnUse"
       id="linearGradient3969"
       xlink:href="#linearGradient3927-4"
       inkscape:collect="always" />
    <linearGradient
       gradientTransform="matrix(0.70710678,-0.70710678,0.70710678,0.70710678,3.1627554,45.106526)"
       y2="13.018085"
       x2="30.261311"
       y1="2.3636146"
       x1="30.261311"
       gradientUnits="userSpaceOnUse"
       id="linearGradient3955"
       xlink:href="#linearGradient3927-4"
       inkscape:collect="always" />
    <linearGradient
       y2="981.34082"
       x2="34.371315"
       y1="1052.3622"
       x1="34.371315"
       gradientTransform="matrix(0.22187678,0,0,0.14105166,0.01243575,-76.466136)"
       gradientUnits="userSpaceOnUse"
       id="linearGradient3051-8"
       xlink:href="#linearGradient3816-4"
       inkscape:collect="always" />
    <linearGradient
       y2="108.26157"
       x2="35.989838"
       y1="51.432434"
       x1="35.989838"
       gradientTransform="matrix(0.26753263,0,0,0.22208472,-1.6167136,40.021184)"
       gradientUnits="userSpaceOnUse"
       id="linearGradient3048-2"
       xlink:href="#linearGradient3797-4"
       inkscape:collect="always" />
    <linearGradient
       y2="108.26157"
       x2="35.989838"
       y1="51.432434"
       x1="35.989838"
       gradientTransform="matrix(1.2057712,0,0,1,-7.3425861,-72)"
       gradientUnits="userSpaceOnUse"
       id="linearGradient3954-0"
       xlink:href="#linearGradient3797-4"
       inkscape:collect="always" />
    <linearGradient
       y2="981.34082"
       x2="34.371315"
       y1="1052.3622"
       x1="34.371315"
       gradientTransform="matrix(1,0,0,0.63512546,0,-596.51749)"
       gradientUnits="userSpaceOnUse"
       id="linearGradient3952-5"
       xlink:href="#linearGradient3816-4"
       inkscape:collect="always" />
    <linearGradient
       y2="1052.0378"
       x2="34.479824"
       y1="980.94946"
       x1="34.479824"
       gradientUnits="userSpaceOnUse"
       id="linearGradient3950-6"
       xlink:href="#linearGradient3789-1"
       inkscape:collect="always" />
    <linearGradient
       id="linearGradient3816-8-1">
      <stop
         style="stop-color:#ffffff;stop-opacity:0.25882354;"
         offset="0"
         id="stop3818-8-9" />
      <stop
         style="stop-color:#ffffff;stop-opacity:0;"
         offset="1"
         id="stop3820-1-8" />
    </linearGradient>
    <linearGradient
       id="linearGradient3797-5-7">
      <stop
         style="stop-color:#ffffff;stop-opacity:1;"
         offset="0"
         id="stop3799-2-9" />
      <stop
         style="stop-color:#ffffff;stop-opacity:0.16470589;"
         offset="1"
         id="stop3801-3-3" />
    </linearGradient>
    <linearGradient
       id="linearGradient3789-2-4">
      <stop
         style="stop-color:#242424;stop-opacity:1;"
         offset="0"
         id="stop3791-4-2" />
      <stop
         style="stop-color:#b2b2b2;stop-opacity:1;"
         offset="1"
         id="stop3793-6-7" />
    </linearGradient>
    <linearGradient
       id="linearGradient3781-6-3">
      <stop
         style="stop-color:#440008;stop-opacity:1;"
         offset="0"
         id="stop3783-6-8" />
      <stop
         style="stop-color:#232723;stop-opacity:0;"
         offset="1"
         id="stop3785-2-7" />
    </linearGradient>
    <linearGradient
       inkscape:collect="always"
       xlink:href="#linearGradient3789-2-4"
       id="linearGradient3795-9-1"
       x1="34.479824"
       y1="980.94946"
       x2="34.479824"
       y2="1052.0378"
       gradientUnits="userSpaceOnUse" />
    <linearGradient
       inkscape:collect="always"
       xlink:href="#linearGradient3797-5-7"
       id="linearGradient3803-0-1"
       x1="35.989838"
       y1="51.432434"
       x2="35.989838"
       y2="108.26157"
       gradientUnits="userSpaceOnUse" />
    <linearGradient
       inkscape:collect="always"
       xlink:href="#linearGradient3816-8-1"
       id="linearGradient3822-4-4"
       x1="34.371315"
       y1="1052.3622"
       x2="34.371315"
       y2="981.34082"
       gradientUnits="userSpaceOnUse"
       gradientTransform="matrix(1,0,0,0.63512546,0,-596.51749)" />
    <filter
       id="filter3033-9-5"
       inkscape:label="Drop shadow"
       width="1.5"
       height="1.5"
       x="-0.25"
       y="-0.25"
       color-interpolation-filters="sRGB">
      <feGaussianBlur
         id="feGaussianBlur3035-3-4"
         in="SourceAlpha"
         stdDeviation="2"
         result="blur" />
      <feColorMatrix
         id="feColorMatrix3037-1-3"
         result="bluralpha"
         type="matrix"
         values="1 0 0 0 0 0 1 0 0 0 0 0 1 0 0 0 0 0 0.5 0 " />
      <feOffset
         id="feOffset3039-1-1"
         in="bluralpha"
         dx="2"
         dy="2"
         result="offsetBlur" />
      <feMerge
         id="feMerge3041-9-2">
        <feMergeNode
           id="feMergeNode3043-9-3"
           in="offsetBlur" />
        <feMergeNode
           id="feMergeNode3045-5-3"
           in="SourceGraphic" />
      </feMerge>
    </filter>
    <linearGradient
       inkscape:collect="always"
       xlink:href="#linearGradient3797-5-7"
       id="linearGradient3790-5-9"
       gradientUnits="userSpaceOnUse"
       x1="35.989838"
       y1="51.432434"
       x2="35.989838"
       y2="108.26157"
       gradientTransform="matrix(1.2057712,0,0,1,-7.3425861,-72)" />
    <linearGradient
       gradientTransform="matrix(0.97363148,0,0,1.035386,-57.748974,403.30318)"
       y2="627.19641"
       x2="139.31297"
       y1="505.0293"
       x1="139.31297"
       gradientUnits="userSpaceOnUse"
       id="linearGradient3256-7"
       xlink:href="#linearGradient3825-8"
       inkscape:collect="always" />
    <linearGradient
       id="linearGradient3825-8">
      <stop
         id="stop3827-9"
         offset="0"
         style="stop-color:#4e4e4e;stop-opacity:1;" />
      <stop
         id="stop3829-2"
         offset="1"
         style="stop-color:#e0e0e0;stop-opacity:1;" />
    </linearGradient>
    <linearGradient
       y2="627.19641"
       x2="139.31297"
       y1="505.0293"
       x1="139.31297"
       gradientTransform="matrix(0.97363148,0,0,1.035386,-228.55154,-558.9601)"
       gradientUnits="userSpaceOnUse"
       id="linearGradient3007-1"
       xlink:href="#linearGradient3825-8"
       inkscape:collect="always" />
    <linearGradient
       gradientTransform="matrix(1.2057712,0,0,1,-7.3425861,-72)"
       y2="108.26157"
       x2="35.989838"
       y1="51.432434"
       x1="35.989838"
       gradientUnits="userSpaceOnUse"
       id="linearGradient3790-6"
       xlink:href="#linearGradient3797-4"
       inkscape:collect="always" />
    <filter
       color-interpolation-filters="sRGB"
       y="-0.25"
       x="-0.25"
       height="1.5"
       width="1.5"
       inkscape:label="Drop shadow"
       id="filter3033-3">
      <feGaussianBlur
         result="blur"
         stdDeviation="2"
         in="SourceAlpha"
         id="feGaussianBlur3035-2" />
      <feColorMatrix
         values="1 0 0 0 0 0 1 0 0 0 0 0 1 0 0 0 0 0 0.5 0 "
         type="matrix"
         result="bluralpha"
         id="feColorMatrix3037-2" />
      <feOffset
         result="offsetBlur"
         dy="2"
         dx="2"
         in="bluralpha"
         id="feOffset3039-16" />
      <feMerge
         id="feMerge3041-8">
        <feMergeNode
           in="offsetBlur"
           id="feMergeNode3043-5" />
        <feMergeNode
           in="SourceGraphic"
           id="feMergeNode3045-7" />
      </feMerge>
    </filter>
    <linearGradient
       gradientTransform="matrix(1,0,0,0.63512546,0,-596.51749)"
       gradientUnits="userSpaceOnUse"
       y2="981.34082"
       x2="34.371315"
       y1="1052.3622"
       x1="34.371315"
       id="linearGradient3822-42"
       xlink:href="#linearGradient3816-4"
       inkscape:collect="always" />
    <linearGradient
       gradientUnits="userSpaceOnUse"
       y2="108.26157"
       x2="35.989838"
       y1="51.432434"
       x1="35.989838"
       id="linearGradient3803-1"
       xlink:href="#linearGradient3797-4"
       inkscape:collect="always" />
    <linearGradient
       gradientUnits="userSpaceOnUse"
       y2="1052.0378"
       x2="34.479824"
       y1="980.94946"
       x1="34.479824"
       id="linearGradient3795-6"
       xlink:href="#linearGradient3789-1"
       inkscape:collect="always" />
    <linearGradient
       id="linearGradient3781-1">
      <stop
         id="stop3783-5"
         offset="0"
         style="stop-color:#440008;stop-opacity:1;" />
      <stop
         id="stop3785-27"
         offset="1"
         style="stop-color:#232723;stop-opacity:0;" />
    </linearGradient>
    <linearGradient
       id="linearGradient3789-1">
      <stop
         id="stop3791-7"
         offset="0"
         style="stop-color:#440008;stop-opacity:1;" />
      <stop
         id="stop3793-1"
         offset="1"
         style="stop-color:#880000;stop-opacity:1;" />
    </linearGradient>
    <linearGradient
       id="linearGradient3797-4">
      <stop
         id="stop3799-5"
         offset="0"
         style="stop-color:#ffffff;stop-opacity:1;" />
      <stop
         id="stop3801-5"
         offset="1"
         style="stop-color:#ffffff;stop-opacity:0.16470589;" />
    </linearGradient>
    <linearGradient
       id="linearGradient3816-4">
      <stop
         id="stop3818-88"
         offset="0"
         style="stop-color:#ffffff;stop-opacity:0.25882354;" />
      <stop
         id="stop3820-2"
         offset="1"
         style="stop-color:#ffffff;stop-opacity:0;" />
    </linearGradient>
    <linearGradient
       id="linearGradient3927-4">
      <stop
         id="stop3929-0"
         offset="0"
         style="stop-color:#646464;stop-opacity:1" />
      <stop
         id="stop3931-9"
         offset="1"
         style="stop-color:#dcdcdc;stop-opacity:1" />
    </linearGradient>
    <linearGradient
       inkscape:collect="always"
       xlink:href="#linearGradient3789-1"
       id="linearGradient4121"
       x1="14.802996"
       y1="3.9324322"
       x2="24.507496"
       y2="13.636932"
       gradientUnits="userSpaceOnUse" />
    <linearGradient
       y2="13.018085"
       x2="30.261311"
       y1="2.3636146"
       x1="30.261311"
       gradientTransform="matrix(0.70710678,-0.70710678,0.70710678,0.70710678,-17.985132,22.923534)"
       gradientUnits="userSpaceOnUse"
       id="linearGradient3997-7"
       xlink:href="#linearGradient3859-5"
       inkscape:collect="always" />
    <linearGradient
       y2="13.018085"
       x2="30.261311"
       y1="2.3636146"
       x1="30.261311"
       gradientTransform="matrix(0.70710678,-0.70710678,0.70710678,0.70710678,23.425684,41.67551)"
       gradientUnits="userSpaceOnUse"
       id="linearGradient3984-4"
       xlink:href="#linearGradient3927-0"
       inkscape:collect="always" />
    <linearGradient
       gradientTransform="matrix(0.70710678,-0.70710678,0.70710678,0.70710678,23.425684,41.67551)"
       y2="13.018085"
       x2="30.261311"
       y1="2.3636146"
       x1="30.261311"
       gradientUnits="userSpaceOnUse"
       id="linearGradient3977-8"
       xlink:href="#linearGradient3927-0"
       inkscape:collect="always" />
    <linearGradient
       gradientTransform="matrix(0.70710678,-0.70710678,0.70710678,0.70710678,-20.770785,45.436248)"
       y2="13.018085"
       x2="30.261311"
       y1="2.3636146"
       x1="30.261311"
       gradientUnits="userSpaceOnUse"
       id="linearGradient3969-7"
       xlink:href="#linearGradient3927-0"
       inkscape:collect="always" />
    <linearGradient
       gradientTransform="matrix(0.70710678,-0.70710678,0.70710678,0.70710678,3.1627554,45.106526)"
       y2="13.018085"
       x2="30.261311"
       y1="2.3636146"
       x1="30.261311"
       gradientUnits="userSpaceOnUse"
       id="linearGradient3955-9"
       xlink:href="#linearGradient3927-0"
       inkscape:collect="always" />
    <linearGradient
       y2="13.018085"
       x2="30.261311"
       y1="2.3636146"
       x1="30.261311"
       gradientUnits="userSpaceOnUse"
       id="linearGradient3948"
       xlink:href="#linearGradient3927-0"
       inkscape:collect="always" />
    <linearGradient
       y2="981.34082"
       x2="34.371315"
       y1="1052.3622"
       x1="34.371315"
       gradientTransform="matrix(0.22187678,0,0,0.14105166,0.01243575,-76.466136)"
       gradientUnits="userSpaceOnUse"
       id="linearGradient3051-9"
       xlink:href="#linearGradient3816-1"
       inkscape:collect="always" />
    <linearGradient
       y2="108.26157"
       x2="35.989838"
       y1="51.432434"
       x1="35.989838"
       gradientTransform="matrix(0.26753263,0,0,0.22208472,-1.6167136,40.021184)"
       gradientUnits="userSpaceOnUse"
       id="linearGradient3048-4"
       xlink:href="#linearGradient3797-2"
       inkscape:collect="always" />
    <linearGradient
       y2="108.26157"
       x2="35.989838"
       y1="51.432434"
       x1="35.989838"
       gradientTransform="matrix(1.2057712,0,0,1,-7.3425861,-72)"
       gradientUnits="userSpaceOnUse"
       id="linearGradient3954-3"
       xlink:href="#linearGradient3797-2"
       inkscape:collect="always" />
    <linearGradient
       y2="981.34082"
       x2="34.371315"
       y1="1052.3622"
       x1="34.371315"
       gradientTransform="matrix(1,0,0,0.63512546,0,-596.51749)"
       gradientUnits="userSpaceOnUse"
       id="linearGradient3952-8"
       xlink:href="#linearGradient3816-1"
       inkscape:collect="always" />
    <linearGradient
       y2="1052.0378"
       x2="34.479824"
       y1="980.94946"
       x1="34.479824"
       gradientUnits="userSpaceOnUse"
       id="linearGradient3950-4"
       xlink:href="#linearGradient3789-19"
       inkscape:collect="always" />
    <linearGradient
       id="linearGradient3816-8-4">
      <stop
         style="stop-color:#ffffff;stop-opacity:0.25882354;"
         offset="0"
         id="stop3818-8-5" />
      <stop
         style="stop-color:#ffffff;stop-opacity:0;"
         offset="1"
         id="stop3820-1-2" />
    </linearGradient>
    <linearGradient
       id="linearGradient3797-5-1">
      <stop
         style="stop-color:#ffffff;stop-opacity:1;"
         offset="0"
         id="stop3799-2-1" />
      <stop
         style="stop-color:#ffffff;stop-opacity:0.16470589;"
         offset="1"
         id="stop3801-3-5" />
    </linearGradient>
    <linearGradient
       id="linearGradient3789-2-2">
      <stop
         style="stop-color:#242424;stop-opacity:1;"
         offset="0"
         id="stop3791-4-26" />
      <stop
         style="stop-color:#b2b2b2;stop-opacity:1;"
         offset="1"
         id="stop3793-6-9" />
    </linearGradient>
    <linearGradient
       id="linearGradient3781-6-7">
      <stop
         style="stop-color:#440008;stop-opacity:1;"
         offset="0"
         id="stop3783-6-2" />
      <stop
         style="stop-color:#232723;stop-opacity:0;"
         offset="1"
         id="stop3785-2-3" />
    </linearGradient>
    <linearGradient
       inkscape:collect="always"
       xlink:href="#linearGradient3789-2-2"
       id="linearGradient3795-9-0"
       x1="34.479824"
       y1="980.94946"
       x2="34.479824"
       y2="1052.0378"
       gradientUnits="userSpaceOnUse" />
    <linearGradient
       inkscape:collect="always"
       xlink:href="#linearGradient3797-5-1"
       id="linearGradient3803-0-6"
       x1="35.989838"
       y1="51.432434"
       x2="35.989838"
       y2="108.26157"
       gradientUnits="userSpaceOnUse" />
    <linearGradient
       inkscape:collect="always"
       xlink:href="#linearGradient3816-8-4"
       id="linearGradient3822-4-8"
       x1="34.371315"
       y1="1052.3622"
       x2="34.371315"
       y2="981.34082"
       gradientUnits="userSpaceOnUse"
       gradientTransform="matrix(1,0,0,0.63512546,0,-596.51749)" />
    <filter
       id="filter3033-9-8"
       inkscape:label="Drop shadow"
       width="1.5"
       height="1.5"
       x="-0.25"
       y="-0.25"
       color-interpolation-filters="sRGB">
      <feGaussianBlur
         id="feGaussianBlur3035-3-8"
         in="SourceAlpha"
         stdDeviation="2"
         result="blur" />
      <feColorMatrix
         id="feColorMatrix3037-1-30"
         result="bluralpha"
         type="matrix"
         values="1 0 0 0 0 0 1 0 0 0 0 0 1 0 0 0 0 0 0.5 0 " />
      <feOffset
         id="feOffset3039-1-13"
         in="bluralpha"
         dx="2"
         dy="2"
         result="offsetBlur" />
      <feMerge
         id="feMerge3041-9-6">
        <feMergeNode
           id="feMergeNode3043-9-8"
           in="offsetBlur" />
        <feMergeNode
           id="feMergeNode3045-5-9"
           in="SourceGraphic" />
      </feMerge>
    </filter>
    <linearGradient
       inkscape:collect="always"
       xlink:href="#linearGradient3797-5-1"
       id="linearGradient3790-5-4"
       gradientUnits="userSpaceOnUse"
       x1="35.989838"
       y1="51.432434"
       x2="35.989838"
       y2="108.26157"
       gradientTransform="matrix(1.2057712,0,0,1,-7.3425861,-72)" />
    <linearGradient
       gradientTransform="matrix(0.97363148,0,0,1.035386,-57.748974,403.30318)"
       y2="627.19641"
       x2="139.31297"
       y1="505.0293"
       x1="139.31297"
       gradientUnits="userSpaceOnUse"
       id="linearGradient3256-4"
       xlink:href="#linearGradient3825-0"
       inkscape:collect="always" />
    <linearGradient
       id="linearGradient3825-0">
      <stop
         id="stop3827-6"
         offset="0"
         style="stop-color:#4e4e4e;stop-opacity:1;" />
      <stop
         id="stop3829-7"
         offset="1"
         style="stop-color:#e0e0e0;stop-opacity:1;" />
    </linearGradient>
    <linearGradient
       y2="627.19641"
       x2="139.31297"
       y1="505.0293"
       x1="139.31297"
       gradientTransform="matrix(0.97363148,0,0,1.035386,-228.55154,-558.9601)"
       gradientUnits="userSpaceOnUse"
       id="linearGradient3007-9"
       xlink:href="#linearGradient3825-0"
       inkscape:collect="always" />
    <linearGradient
       gradientTransform="matrix(1.2057712,0,0,1,-7.3425861,-72)"
       y2="108.26157"
       x2="35.989838"
       y1="51.432434"
       x1="35.989838"
       gradientUnits="userSpaceOnUse"
       id="linearGradient3790-68"
       xlink:href="#linearGradient3797-2"
       inkscape:collect="always" />
    <filter
       color-interpolation-filters="sRGB"
       y="-0.25"
       x="-0.25"
       height="1.5"
       width="1.5"
       inkscape:label="Drop shadow"
       id="filter3033-1">
      <feGaussianBlur
         result="blur"
         stdDeviation="2"
         in="SourceAlpha"
         id="feGaussianBlur3035-0" />
      <feColorMatrix
         values="1 0 0 0 0 0 1 0 0 0 0 0 1 0 0 0 0 0 0.5 0 "
         type="matrix"
         result="bluralpha"
         id="feColorMatrix3037-4" />
      <feOffset
         result="offsetBlur"
         dy="2"
         dx="2"
         in="bluralpha"
         id="feOffset3039-6" />
      <feMerge
         id="feMerge3041-7">
        <feMergeNode
           in="offsetBlur"
           id="feMergeNode3043-8" />
        <feMergeNode
           in="SourceGraphic"
           id="feMergeNode3045-6" />
      </feMerge>
    </filter>
    <linearGradient
       gradientTransform="matrix(1,0,0,0.63512546,0,-596.51749)"
       gradientUnits="userSpaceOnUse"
       y2="981.34082"
       x2="34.371315"
       y1="1052.3622"
       x1="34.371315"
       id="linearGradient3822-0"
       xlink:href="#linearGradient3816-1"
       inkscape:collect="always" />
    <linearGradient
       gradientUnits="userSpaceOnUse"
       y2="108.26157"
       x2="35.989838"
       y1="51.432434"
       x1="35.989838"
       id="linearGradient3803-8"
       xlink:href="#linearGradient3797-2"
       inkscape:collect="always" />
    <linearGradient
       gradientUnits="userSpaceOnUse"
       y2="1052.0378"
       x2="34.479824"
       y1="980.94946"
       x1="34.479824"
       id="linearGradient3795-0"
       xlink:href="#linearGradient3789-19"
       inkscape:collect="always" />
    <linearGradient
       id="linearGradient3781-4">
      <stop
         id="stop3783-7"
         offset="0"
         style="stop-color:#440008;stop-opacity:1;" />
      <stop
         id="stop3785-9"
         offset="1"
         style="stop-color:#232723;stop-opacity:0;" />
    </linearGradient>
    <linearGradient
       id="linearGradient3789-19">
      <stop
         id="stop3791-5"
         offset="0"
         style="stop-color:#440008;stop-opacity:1;" />
      <stop
         id="stop3793-65"
         offset="1"
         style="stop-color:#880000;stop-opacity:1;" />
    </linearGradient>
    <linearGradient
       id="linearGradient3797-2">
      <stop
         id="stop3799-3"
         offset="0"
         style="stop-color:#ffffff;stop-opacity:1;" />
      <stop
         id="stop3801-4"
         offset="1"
         style="stop-color:#ffffff;stop-opacity:0.16470589;" />
    </linearGradient>
    <linearGradient
       id="linearGradient3816-1">
      <stop
         id="stop3818-4"
         offset="0"
         style="stop-color:#ffffff;stop-opacity:0.25882354;" />
      <stop
         id="stop3820-5"
         offset="1"
         style="stop-color:#ffffff;stop-opacity:0;" />
    </linearGradient>
    <linearGradient
       id="linearGradient3927-0">
      <stop
         id="stop3929-09"
         offset="0"
         style="stop-color:#646464;stop-opacity:1" />
      <stop
         id="stop3931-2"
         offset="1"
         style="stop-color:#dcdcdc;stop-opacity:1" />
    </linearGradient>
    <linearGradient
       id="linearGradient3859-5">
      <stop
         style="stop-color:#a3d2ff;stop-opacity:1;"
         offset="0"
         id="stop3861-1" />
      <stop
         style="stop-color:#cbecff;stop-opacity:1;"
         offset="1"
         id="stop3863-4" />
    </linearGradient>
    <linearGradient
       inkscape:collect="always"
       xlink:href="#linearGradient3859-5"
       id="linearGradient4421"
       gradientUnits="userSpaceOnUse"
       gradientTransform="matrix(0.70710678,-0.70710678,0.70710678,0.70710678,-17.985132,22.923534)"
       x1="30.261311"
       y1="2.3636146"
       x2="30.261311"
       y2="13.018085" />
    <linearGradient
       inkscape:collect="always"
       xlink:href="#linearGradient4427"
       id="linearGradient4424"
       gradientUnits="userSpaceOnUse"
       gradientTransform="matrix(0.70710678,-0.70710678,0.70710678,0.70710678,-37.171074,24.433491)"
       x1="30.261311"
       y1="2.3636146"
       x2="30.261311"
       y2="13.018085" />
    <linearGradient
       inkscape:collect="always"
       xlink:href="#linearGradient4427"
       id="linearGradient4439"
       x1="16.510111"
       y1="9.3536921"
       x2="22.622622"
       y2="15.466204"
       gradientUnits="userSpaceOnUse" />
    <linearGradient
       y2="796.36218"
       x2="512"
       y1="796.36218"
       x1="0"
       gradientTransform="translate(540.36218,-1052.3622)"
       gradientUnits="userSpaceOnUse"
       id="linearGradient2999"
       xlink:href="#linearGradient3755"
       inkscape:collect="always" />
    <linearGradient
       id="linearGradient3755">
      <stop
         id="stop3757"
         offset="0"
         style="stop-color:#440008;stop-opacity:1;" />
      <stop
         id="stop3759"
         offset="1"
         style="stop-color:#880000;stop-opacity:1;" />
    </linearGradient>
  </defs>
  <sodipodi:namedview
     id="base"
     pagecolor="#ffffff"
     bordercolor="#666666"
     borderopacity="1.0"
     inkscape:pageopacity="0.0"
     inkscape:pageshadow="2"
     inkscape:zoom="1"
     inkscape:cx="16"
     inkscape:cy="16"
     inkscape:document-units="px"
     inkscape:current-layer="svg2"
     showgrid="false"
     borderlayer="true"
     inkscape:showpageshadow="false"
     showborder="false"
     inkscape:window-width="1680"
     inkscape:window-height="970"
     inkscape:window-x="-8"
     inkscape:window-y="-8"
     inkscape:window-maximized="1"
     showguides="false"
     inkscape:guide-bbox="true"
     inkscape:snap-global="false">
    <sodipodi:guide
       orientation="1,0"
       position="7.9985018,14.002917"
       id="guide3837" />
  </sodipodi:namedview>
  <metadata
     id="metadata7">
    <rdf:RDF>
      <cc:Work
         rdf:about="">
        <dc:format>image/svg+xml</dc:format>
        <dc:type
           rdf:resource="http://purl.org/dc/dcmitype/StillImage" />
        <dc:title></dc:title>
      </cc:Work>
    </rdf:RDF>
  </metadata>
  <g
     inkscape:groupmode="layer"
     id="layer3"
     inkscape:label="xx Work Layer"
     style="display:none"
     transform="translate(0,-56)"
     sodipodi:insensitive="true">
    <path
       style="fill:url(#linearGradient2473);fill-opacity:1;stroke:#646464;stroke-width:1.01037252;stroke-miterlimit:4;stroke-opacity:1;stroke-dasharray:none;display:inline"
       d="M 5.0752486,20.848384 25.352674,0.48062084 31.443424,6.6126264 11.086314,26.965527 z"
       id="path4158"
       inkscape:connector-curvature="0"
       sodipodi:nodetypes="ccccc"
       transform="translate(0,56)" />
  </g>
  <g
     inkscape:groupmode="layer"
     id="layer2"
     inkscape:label="User"
     style="display:inline">
    <rect
       style="fill:#ffffff;fill-opacity:1;stroke:none"
       id="rect3219"
       width="32"
       height="32"
       x="0"
       y="-4.8138576e-016" />
    <path
       inkscape:connector-curvature="0"
       id="path3971"
       d="M 0.86497093,26.286776 6.8375322,20.311486 11.399219,25.38647 5.6782377,31.11018 z"
       style="fill:#c8c8c8;fill-opacity:1;stroke:#646464;stroke-width:1.21244705;stroke-miterlimit:4;stroke-opacity:1;stroke-dasharray:none"
       sodipodi:nodetypes="ccccc" />
    <path
       sodipodi:nodetypes="ccssccc"
       inkscape:connector-curvature="0"
       id="path3973"
       d="M 5.0752486,20.848384 21.210775,4.6744331 c 0,0 0.50118,-0.4806404 1.19948,-1.1585835 2.486921,-2.4144225 8.211272,3.24952 6.001569,6.0648056 -0.734653,0.9359888 -1.110299,1.2257838 -1.110299,1.2257838 L 11.086314,26.965527 z"
       style="fill:url(#linearGradient4439);fill-opacity:1;stroke:#646464;stroke-width:1.01037252;stroke-miterlimit:4;stroke-opacity:1;stroke-dasharray:none;display:inline" />
    <rect
       style="fill:#646464;fill-opacity:1;stroke:none"
       id="rect2573"
       width="1.1201324"
       height="1.1201324"
       x="20.689867"
       y="13.836884"
       transform="matrix(0.7071068,0.7071068,-0.7071068,0.7071068,0,0)" />
    <rect
       transform="matrix(0.7071068,0.7071068,-0.7071068,0.7071068,0,0)"
       y="13.871322"
       x="23.410398"
       height="1.1201324"
       width="1.1201324"
       id="rect3345"
       style="fill:#646464;fill-opacity:1;stroke:none" />
    <g
       id="layer6-1"
       inkscape:label="xx Guides"
       style="display:none"
       transform="translate(-19.185942,1.5099575)">
      <path
         inkscape:connector-curvature="0"
         id="path3975"
         d="M 4.7802831,11.155678 16.471489,-0.5355281"
         style="fill:#767676;fill-opacity:1;stroke:#953333;stroke-width:0.2;stroke-linecap:butt;stroke-linejoin:miter;stroke-miterlimit:4;stroke-opacity:1;stroke-dasharray:none;display:inline" />
      <path
         style="fill:#767676;fill-opacity:1;stroke:#953333;stroke-width:0.2;stroke-linecap:butt;stroke-linejoin:miter;stroke-miterlimit:4;stroke-opacity:1;stroke-dasharray:none;display:inline"
         d="M 5.8852452,14.407206 17.576451,2.716"
         id="path3066"
         inkscape:connector-curvature="0" />
      <path
         inkscape:connector-curvature="0"
         id="path3838"
         d="M 1.528755,10.140156 13.219961,-1.55105"
         style="fill:#767676;fill-opacity:1;stroke:#953333;stroke-width:0.2;stroke-linecap:butt;stroke-linejoin:miter;stroke-miterlimit:4;stroke-opacity:1;stroke-dasharray:none;display:inline" />
      <path
         style="fill:#767676;fill-opacity:1;stroke:#953333;stroke-width:0.2;stroke-linecap:butt;stroke-linejoin:miter;stroke-miterlimit:4;stroke-opacity:1;stroke-dasharray:none;display:inline"
         d="M 18.781882,9.4921952 7.0906758,-2.1990108"
         id="path3057"
         inkscape:connector-curvature="0" />
      <path
         inkscape:connector-curvature="0"
         id="path3061"
         d="M 9.705062,18.225684 -1.9861442,6.5344779"
         style="fill:#767676;fill-opacity:1;stroke:#953333;stroke-width:0.2;stroke-linecap:butt;stroke-linejoin:miter;stroke-miterlimit:4;stroke-opacity:1;stroke-dasharray:none;display:inline" />
    </g>
  </g>
  <g
     inkscape:groupmode="layer"
     id="layer6"
     inkscape:label="xx Guides"
     style="display:none">
    <path
       style="fill:none;stroke:#000000;stroke-width:0.1;stroke-linecap:butt;stroke-linejoin:miter;stroke-miterlimit:4;stroke-opacity:1;stroke-dasharray:none;display:inline"
       d="M 0.83859881,25.039629 27.338325,-1.4600967"
       id="path3329"
       inkscape:connector-curvature="0" />
    <path
       inkscape:connector-curvature="0"
       id="path4101"
       d="M 8.4698489,29.651923 34.969575,3.1521973"
       style="fill:none;stroke:#000000;stroke-width:0.1;stroke-linecap:butt;stroke-linejoin:miter;stroke-miterlimit:4;stroke-opacity:1;stroke-dasharray:none;display:inline" />
    <path
       inkscape:connector-curvature="0"
       id="path4099"
       d="M 10.775997,-7.1206397 37.275723,19.379086"
       style="fill:none;stroke:#000000;stroke-width:0.1;stroke-linecap:butt;stroke-linejoin:miter;stroke-miterlimit:4;stroke-opacity:1;stroke-dasharray:none;display:inline" />
    <path
       style="fill:none;stroke:#000000;stroke-width:0.1;stroke-linecap:butt;stroke-linejoin:miter;stroke-miterlimit:4;stroke-opacity:1;stroke-dasharray:none;display:inline"
       d="M 13.758687,-11.211186 40.258413,15.28854"
       id="path4149"
       inkscape:connector-curvature="0" />
    <path
       inkscape:connector-curvature="0"
       id="path2569"
       d="M 0.96478577,16.801654 16.910617,32.747485"
       style="fill:none;stroke:#000000;stroke-width:0.1;stroke-linecap:butt;stroke-linejoin:miter;stroke-miterlimit:4;stroke-opacity:1;stroke-dasharray:none;display:inline" />
    <path
       inkscape:connector-curvature="0"
       id="path4163"
       d="M 11.841244,-9.464182 38.34097,17.035544"
       style="fill:none;stroke:#000000;stroke-width:0.1;stroke-linecap:butt;stroke-linejoin:miter;stroke-miterlimit:4;stroke-opacity:1;stroke-dasharray:none;display:inline" />
    <path
       inkscape:connector-curvature="0"
       id="path4410"
       d="M 5.6665312,26.33746 32.166258,-0.16226542"
       style="fill:none;stroke:#000000;stroke-width:0.1;stroke-linecap:butt;stroke-linejoin:miter;stroke-miterlimit:4;stroke-opacity:1;stroke-dasharray:none;display:inline" />
  </g>
  <g
     style="display:inline"
     transform="translate(18,-1020.3622)"
     id="layer1"
     inkscape:label="Layer 1">
    <g
       transform="matrix(0.19444444,0,0,0.19444444,0,847.7362)"
       id="g2991">
      <g
         id="g3767"
         transform="matrix(0.140625,0,0,0.140625,0,904.37375)">
        <rect
           transform="matrix(0,1,-1,0,0,0)"
           y="-512"
           x="540.36218"
           height="512"
           width="512"
           id="rect2985"
           style="fill:url(#linearGradient2999);fill-opacity:1;stroke:none"
           ry="84.020515" />
        <text
           sodipodi:linespacing="125%"
           id="text3763"
           y="966.28406"
           x="72.717773"
           style="font-size:480px;font-style:normal;font-variant:normal;font-weight:900;font-stretch:normal;line-height:125%;letter-spacing:0px;word-spacing:0px;fill:#ffffff;fill-opacity:1;stroke:none;font-family:Avenir;-inkscape-font-specification:Avenir Heavy"
           xml:space="preserve"><tspan
             y="966.28406"
             x="72.717773"
             id="tspan3765"
             sodipodi:role="line">G</tspan></text>
      </g>
    </g>
  </g>
</svg>
