<?xml version="1.0" encoding="UTF-8" standalone="no"?>
<!-- Created with Inkscape (http://www.inkscape.org/) -->

<svg
   xmlns:dc="http://purl.org/dc/elements/1.1/"
   xmlns:cc="http://creativecommons.org/ns#"
   xmlns:rdf="http://www.w3.org/1999/02/22-rdf-syntax-ns#"
   xmlns:svg="http://www.w3.org/2000/svg"
   xmlns="http://www.w3.org/2000/svg"
   xmlns:xlink="http://www.w3.org/1999/xlink"
   xmlns:sodipodi="http://sodipodi.sourceforge.net/DTD/sodipodi-0.dtd"
   xmlns:inkscape="http://www.inkscape.org/namespaces/inkscape"
   width="72"
   height="72"
   id="svg2"
   version="1.1"
   inkscape:version="0.48.0 r9654"
   sodipodi:docname="ic_gon_launcher_gon_install.svg"
   inkscape:export-filename="C:\Users\emo.GIRITECH\Documents\Shared Graphics\Android\Icons\hdpi\gon_launcher icons\ic_gon_launcher_gon_install.png"
   inkscape:export-xdpi="90"
   inkscape:export-ydpi="90"
   style="display:inline">
  <defs
     id="defs4">
    <linearGradient
       id="linearGradient3825">
      <stop
         id="stop3827"
         offset="0"
         style="stop-color:#ffffff;stop-opacity:0.3137255;" />
      <stop
         id="stop3829"
         offset="1"
         style="stop-color:#ffffff;stop-opacity:0;" />
    </linearGradient>
    <linearGradient
       id="linearGradient4088">
      <stop
         style="stop-color:#ffffff;stop-opacity:0.47058824;"
         offset="0"
         id="stop4090" />
      <stop
         style="stop-color:#880000;stop-opacity:0;"
         offset="1"
         id="stop4092" />
    </linearGradient>
    <linearGradient
       id="linearGradient3755">
      <stop
         style="stop-color:#440008;stop-opacity:1;"
         offset="0"
         id="stop3757" />
      <stop
         style="stop-color:#880000;stop-opacity:1;"
         offset="1"
         id="stop3759" />
    </linearGradient>
    <linearGradient
       inkscape:collect="always"
       xlink:href="#linearGradient3755"
       id="linearGradient3761"
       x1="0"
       y1="796.36218"
       x2="512"
       y2="796.36218"
       gradientUnits="userSpaceOnUse"
       gradientTransform="translate(540.36218,-1052.3622)" />
    <linearGradient
       inkscape:collect="always"
       xlink:href="#linearGradient3755"
       id="linearGradient3772"
       gradientUnits="userSpaceOnUse"
       gradientTransform="translate(540.36218,-1052.3622)"
       x1="0"
       y1="796.36218"
       x2="512"
       y2="796.36218" />
    <radialGradient
       inkscape:collect="always"
       xlink:href="#linearGradient4088"
       id="radialGradient4096"
       cx="23.5"
       cy="9"
       fx="23.5"
       fy="9"
       r="23.75"
       gradientTransform="matrix(-1.4953298,1.0366698e-7,-5.4736841e-8,-0.78954385,58.640249,16.105893)"
       gradientUnits="userSpaceOnUse" />
    <radialGradient
       inkscape:collect="always"
       xlink:href="#linearGradient4088"
       id="radialGradient4105"
       gradientUnits="userSpaceOnUse"
       gradientTransform="matrix(-2.7079605,4.1016067e-7,-9.9125425e-8,-3.1238475,87.184331,38.364677)"
       cx="23.5"
       cy="9"
       fx="23.5"
       fy="9"
       r="23.75" />
    <radialGradient
       inkscape:collect="always"
       xlink:href="#linearGradient4088"
       id="radialGradient3777"
       gradientUnits="userSpaceOnUse"
       gradientTransform="matrix(-2.7079605,4.1016067e-7,-9.9125425e-8,-3.1238475,123.68433,1065.2269)"
       cx="23.5"
       cy="9"
       fx="23.5"
       fy="9"
       r="23.75" />
    <linearGradient
       inkscape:collect="always"
       xlink:href="#linearGradient3825"
       id="linearGradient3831"
       gradientUnits="userSpaceOnUse"
       gradientTransform="matrix(0.07421875,0,0,0.07421875,1009.3622,-83.105007)"
       x1="0"
       y1="796.36218"
       x2="512"
       y2="796.36218" />
    <radialGradient
       inkscape:collect="always"
       xlink:href="#linearGradient4088"
       id="radialGradient3046"
       gradientUnits="userSpaceOnUse"
       gradientTransform="matrix(-1.4953298,1.0366698e-7,-5.4736841e-8,-0.78954385,58.640249,16.105893)"
       cx="23.5"
       cy="9"
       fx="23.5"
       fy="9"
       r="23.75" />
    <radialGradient
       inkscape:collect="always"
       xlink:href="#linearGradient4088"
       id="radialGradient3050"
       gradientUnits="userSpaceOnUse"
       gradientTransform="matrix(-1.4953298,1.0366698e-7,-5.4736841e-8,-0.78954385,58.640249,16.105893)"
       cx="23.5"
       cy="9"
       fx="23.5"
       fy="9"
       r="23.75" />
    <linearGradient
       inkscape:collect="always"
       xlink:href="#linearGradient3755-0"
       id="linearGradient3788-9"
       gradientUnits="userSpaceOnUse"
       gradientTransform="matrix(0.07421875,0,0,0.07421875,1009.3622,-83.105007)"
       x1="0"
       y1="796.36218"
       x2="512"
       y2="796.36218" />
    <linearGradient
       id="linearGradient3755-0">
      <stop
         style="stop-color:#440008;stop-opacity:1;"
         offset="0"
         id="stop3757-9" />
      <stop
         style="stop-color:#880000;stop-opacity:1;"
         offset="1"
         id="stop3759-3" />
    </linearGradient>
    <linearGradient
       inkscape:collect="always"
       xlink:href="#linearGradient3755"
       id="linearGradient3160"
       gradientUnits="userSpaceOnUse"
       gradientTransform="matrix(0.0546875,0,0,0.0546875,1020.3622,-61.55106)"
       x1="0"
       y1="796.36218"
       x2="512"
       y2="796.36218" />
    <linearGradient
       inkscape:collect="always"
       xlink:href="#linearGradient3755-0"
       id="linearGradient3828"
       x1="-69.089355"
       y1="6.8318453"
       x2="-69.089355"
       y2="50.373619"
       gradientUnits="userSpaceOnUse" />
    <linearGradient
       inkscape:collect="always"
       xlink:href="#linearGradient5008"
       id="linearGradient3899"
       gradientUnits="userSpaceOnUse"
       x1="34"
       y1="980.61218"
       x2="34"
       y2="1051.6127"
       gradientTransform="matrix(0.65710971,0,0,0.65261262,103.03099,374.59856)" />
    <linearGradient
       id="linearGradient5008">
      <stop
         style="stop-color:#242424;stop-opacity:1;"
         offset="0"
         id="stop5010" />
      <stop
         style="stop-color:#b2b2b2;stop-opacity:1;"
         offset="1"
         id="stop5012" />
    </linearGradient>
    <linearGradient
       inkscape:collect="always"
       xlink:href="#linearGradient3816"
       id="linearGradient3901"
       gradientUnits="userSpaceOnUse"
       gradientTransform="matrix(0.65710971,0,0,0.41449089,103.03099,625.10046)"
       x1="34.371315"
       y1="1052.3622"
       x2="34.371315"
       y2="981.34082" />
    <linearGradient
       id="linearGradient3816">
      <stop
         style="stop-color:#ffffff;stop-opacity:0.25882354;"
         offset="0"
         id="stop3818" />
      <stop
         style="stop-color:#ffffff;stop-opacity:0;"
         offset="1"
         id="stop3820" />
    </linearGradient>
    <linearGradient
       inkscape:collect="always"
       xlink:href="#linearGradient3797"
       id="linearGradient3903"
       gradientUnits="userSpaceOnUse"
       gradientTransform="matrix(0.79232396,0,0,0.65261262,98.206105,967.40719)"
       x1="35.989838"
       y1="51.432434"
       x2="35.989838"
       y2="108.26157" />
    <linearGradient
       id="linearGradient3797">
      <stop
         style="stop-color:#ffffff;stop-opacity:0.627451;"
         offset="0"
         id="stop3799" />
      <stop
         id="stop3950"
         offset="0.5"
         style="stop-color:#ffffff;stop-opacity:0;" />
      <stop
         style="stop-color:#ffffff;stop-opacity:0;"
         offset="1"
         id="stop3801" />
    </linearGradient>
    <linearGradient
       inkscape:collect="always"
       xlink:href="#linearGradient3816-1"
       id="linearGradient3066"
       gradientUnits="userSpaceOnUse"
       gradientTransform="matrix(1,0,0,0.63512546,0,-596.51749)"
       x1="34.371315"
       y1="1052.3622"
       x2="34.371315"
       y2="981.34082" />
    <linearGradient
       id="linearGradient3816-1">
      <stop
         style="stop-color:#ffffff;stop-opacity:0.25882354;"
         offset="0"
         id="stop3818-6" />
      <stop
         style="stop-color:#ffffff;stop-opacity:0;"
         offset="1"
         id="stop3820-8" />
    </linearGradient>
    <linearGradient
       inkscape:collect="always"
       xlink:href="#linearGradient3797-8"
       id="linearGradient3068"
       gradientUnits="userSpaceOnUse"
       gradientTransform="matrix(1.2057712,0,0,1,-7.3425861,-72)"
       x1="35.989838"
       y1="51.432434"
       x2="35.989838"
       y2="108.26157" />
    <linearGradient
       id="linearGradient3797-8">
      <stop
         style="stop-color:#ffffff;stop-opacity:1;"
         offset="0"
         id="stop3799-2" />
      <stop
         style="stop-color:#ffffff;stop-opacity:0.16470589;"
         offset="1"
         id="stop3801-7" />
    </linearGradient>
    <radialGradient
       inkscape:collect="always"
       xlink:href="#linearGradient5008-7"
       id="radialGradient3070"
       gradientUnits="userSpaceOnUse"
       gradientTransform="matrix(2.0133727,0.07759529,-0.0951494,2.4688508,-15.313273,-69.348755)"
       cx="19.563505"
       cy="47.418575"
       fx="19.563505"
       fy="47.418575"
       r="7.921875" />
    <linearGradient
       id="linearGradient5008-7">
      <stop
         style="stop-color:#333333;stop-opacity:1;"
         offset="0"
         id="stop5010-1" />
      <stop
         style="stop-color:#e0e0e0;stop-opacity:1"
         offset="1"
         id="stop5012-2" />
    </linearGradient>
    <radialGradient
       inkscape:collect="always"
       xlink:href="#linearGradient5008-7"
       id="radialGradient3072"
       gradientUnits="userSpaceOnUse"
       gradientTransform="matrix(2.8110056,0.01177943,-0.01057415,2.5233827,-25.255144,-51.407093)"
       cx="14.153434"
       cy="35.634476"
       fx="14.153434"
       fy="35.634476"
       r="12.288284" />
    <linearGradient
       id="linearGradient3079">
      <stop
         style="stop-color:#333333;stop-opacity:1;"
         offset="0"
         id="stop3081" />
      <stop
         style="stop-color:#e0e0e0;stop-opacity:1"
         offset="1"
         id="stop3083" />
    </linearGradient>
    <radialGradient
       inkscape:collect="always"
       xlink:href="#linearGradient3781"
       id="radialGradient3074"
       gradientUnits="userSpaceOnUse"
       gradientTransform="matrix(-0.32532993,-0.94560057,1.7306689,-0.5954294,32.705149,90.287635)"
       cx="55.427292"
       cy="23.548294"
       fx="55.427292"
       fy="23.548294"
       r="16.56867" />
    <linearGradient
       id="linearGradient3781">
      <stop
         style="stop-color:#003399;stop-opacity:1;"
         offset="0"
         id="stop3783" />
      <stop
         style="stop-color:#6699ff;stop-opacity:1;"
         offset="1"
         id="stop3785" />
    </linearGradient>
    <radialGradient
       inkscape:collect="always"
       xlink:href="#linearGradient5008-7"
       id="radialGradient3076"
       gradientUnits="userSpaceOnUse"
       gradientTransform="matrix(2.8689053,0.36868673,-0.20524787,1.5971192,-46.434396,-59.853964)"
       cx="33.167385"
       cy="66.694183"
       fx="33.167385"
       fy="66.694183"
       r="11.212446" />
    <linearGradient
       id="linearGradient3090">
      <stop
         style="stop-color:#333333;stop-opacity:1;"
         offset="0"
         id="stop3092" />
      <stop
         style="stop-color:#e0e0e0;stop-opacity:1"
         offset="1"
         id="stop3094" />
    </linearGradient>
    <radialGradient
       inkscape:collect="always"
       xlink:href="#linearGradient5008-7"
       id="radialGradient3078"
       gradientUnits="userSpaceOnUse"
       gradientTransform="matrix(-3.672856,-0.00872331,0.00674717,-2.8407753,294.07658,89.309812)"
       cx="58.83448"
       cy="24.606651"
       fx="58.83448"
       fy="24.606651"
       r="17.734188" />
    <linearGradient
       id="linearGradient3097">
      <stop
         style="stop-color:#333333;stop-opacity:1;"
         offset="0"
         id="stop3099" />
      <stop
         style="stop-color:#e0e0e0;stop-opacity:1"
         offset="1"
         id="stop3101" />
    </linearGradient>
    <radialGradient
       inkscape:collect="always"
       xlink:href="#linearGradient3781"
       id="radialGradient3080"
       gradientUnits="userSpaceOnUse"
       gradientTransform="matrix(-2.3019741,-0.0561036,0.03802679,-1.5602686,171.24387,99.80707)"
       cx="48.077999"
       cy="43.506603"
       fx="48.077999"
       fy="43.506603"
       r="15.332618" />
    <linearGradient
       id="linearGradient3104">
      <stop
         style="stop-color:#003399;stop-opacity:1;"
         offset="0"
         id="stop3106" />
      <stop
         style="stop-color:#6699ff;stop-opacity:1;"
         offset="1"
         id="stop3108" />
    </linearGradient>
    <radialGradient
       inkscape:collect="always"
       xlink:href="#linearGradient3781"
       id="radialGradient3246"
       gradientUnits="userSpaceOnUse"
       gradientTransform="matrix(-1.5325227,-0.03737784,0.02531606,-1.0394961,203.03763,1136.8887)"
       cx="48.077999"
       cy="43.506603"
       fx="48.077999"
       fy="43.506603"
       r="15.332618" />
    <radialGradient
       inkscape:collect="always"
       xlink:href="#linearGradient5008-7"
       id="radialGradient3249"
       gradientUnits="userSpaceOnUse"
       gradientTransform="matrix(-2.4451775,-0.00581172,0.00449188,-1.8926068,284.81263,1129.8951)"
       cx="58.83448"
       cy="24.606651"
       fx="58.83448"
       fy="24.606651"
       r="17.734188" />
    <radialGradient
       inkscape:collect="always"
       xlink:href="#linearGradient5008-7"
       id="radialGradient3252"
       gradientUnits="userSpaceOnUse"
       gradientTransform="matrix(1.9099531,0.24562978,-0.13664229,1.0640471,58.119894,1030.5179)"
       cx="33.167385"
       cy="66.694183"
       fx="33.167385"
       fy="66.694183"
       r="11.212446" />
    <radialGradient
       inkscape:collect="always"
       xlink:href="#linearGradient5008-7"
       id="radialGradient3257"
       gradientUnits="userSpaceOnUse"
       gradientTransform="matrix(1.8714068,0.0078478,-0.00703966,1.6811507,72.219828,1036.1454)"
       cx="14.153434"
       cy="35.634476"
       fx="14.153434"
       fy="35.634476"
       r="12.288284" />
    <radialGradient
       inkscape:collect="always"
       xlink:href="#linearGradient5008-7"
       id="radialGradient3260"
       gradientUnits="userSpaceOnUse"
       gradientTransform="matrix(1.3403884,0.05169623,-0.06334503,1.6448199,78.838558,1024.1922)"
       cx="19.563505"
       cy="47.418575"
       fx="19.563505"
       fy="47.418575"
       r="7.921875" />
    <linearGradient
       inkscape:collect="always"
       xlink:href="#linearGradient3797-8"
       id="linearGradient3263"
       gradientUnits="userSpaceOnUse"
       gradientTransform="matrix(0.80273351,0,0,0.66622897,84.144985,1022.4258)"
       x1="35.989838"
       y1="51.432434"
       x2="35.989838"
       y2="108.26157" />
    <linearGradient
       inkscape:collect="always"
       xlink:href="#linearGradient3816-1"
       id="linearGradient3266"
       gradientUnits="userSpaceOnUse"
       gradientTransform="matrix(0.66574281,0,0,0.42313898,89.033259,672.97707)"
       x1="34.371315"
       y1="1052.3622"
       x2="34.371315"
       y2="981.34082" />
    <linearGradient
       inkscape:collect="always"
       xlink:href="#linearGradient3755-1"
       id="linearGradient3131"
       gradientUnits="userSpaceOnUse"
       gradientTransform="matrix(0.07421875,0,0,0.07421875,5.0000175,-35.105008)"
       x1="161.6842"
       y1="540.36218"
       x2="161.6842"
       y2="1050.703" />
    <linearGradient
       id="linearGradient3755-1">
      <stop
         style="stop-color:#440008;stop-opacity:1;"
         offset="0"
         id="stop3757-7" />
      <stop
         style="stop-color:#880000;stop-opacity:1;"
         offset="1"
         id="stop3759-4" />
    </linearGradient>
    <linearGradient
       y2="1050.703"
       x2="161.6842"
       y1="540.36218"
       x1="161.6842"
       gradientTransform="matrix(0.07421875,0,0,0.07421875,-78.994659,690.55681)"
       gradientUnits="userSpaceOnUse"
       id="linearGradient3127"
       xlink:href="#linearGradient3755-1"
       inkscape:collect="always" />
    <linearGradient
       inkscape:collect="always"
       xlink:href="#linearGradient3755-1"
       id="linearGradient3140"
       gradientUnits="userSpaceOnUse"
       gradientTransform="matrix(0.07421875,0,0,0.07421875,227.79629,690.55681)"
       x1="161.6842"
       y1="540.36218"
       x2="161.6842"
       y2="1050.703" />
    <linearGradient
       inkscape:collect="always"
       xlink:href="#linearGradient3755-1"
       id="linearGradient3147"
       gradientUnits="userSpaceOnUse"
       gradientTransform="matrix(0.07421875,0,0,0.07421875,227.79629,690.55681)"
       x1="161.6842"
       y1="540.36218"
       x2="161.6842"
       y2="1050.703" />
    <linearGradient
       inkscape:collect="always"
       xlink:href="#linearGradient3755-1"
       id="linearGradient3152"
       gradientUnits="userSpaceOnUse"
       gradientTransform="matrix(0.77734373,0,0,0.77734373,57.000258,177.31521)"
       x1="161.6842"
       y1="540.36218"
       x2="161.6842"
       y2="1050.703" />
    <linearGradient
       inkscape:collect="always"
       xlink:href="#linearGradient3797"
       id="linearGradient3948"
       gradientUnits="userSpaceOnUse"
       gradientTransform="matrix(0.77734373,0,0,0.77734373,57.000258,177.31521)"
       x1="161.6842"
       y1="540.36218"
       x2="161.6842"
       y2="1050.703" />
    <linearGradient
       y2="1048.3048"
       x2="26.967041"
       y1="1008.4208"
       x1="26.967041"
       gradientUnits="userSpaceOnUse"
       id="linearGradient3951"
       xlink:href="#linearGradient3789-8"
       inkscape:collect="always" />
    <linearGradient
       gradientUnits="userSpaceOnUse"
       y2="1048.3048"
       x2="26.967041"
       y1="1008.4208"
       x1="26.967041"
       id="linearGradient4297"
       xlink:href="#linearGradient3789-8"
       inkscape:collect="always" />
    <linearGradient
       gradientTransform="matrix(0.66574281,0,0,0.66622897,-49.532654,380.10611)"
       y2="1052.0378"
       x2="34.479824"
       y1="980.94946"
       x1="34.479824"
       gradientUnits="userSpaceOnUse"
       id="linearGradient3478"
       xlink:href="#linearGradient3789-8"
       inkscape:collect="always" />
    <linearGradient
       id="linearGradient3816-42">
      <stop
         style="stop-color:#ffffff;stop-opacity:0.25882354;"
         offset="0"
         id="stop3818-3" />
      <stop
         style="stop-color:#ffffff;stop-opacity:0;"
         offset="1"
         id="stop3820-2" />
    </linearGradient>
    <linearGradient
       id="linearGradient3797-2">
      <stop
         style="stop-color:#ffffff;stop-opacity:1;"
         offset="0"
         id="stop3799-1" />
      <stop
         style="stop-color:#ffffff;stop-opacity:0.16470589;"
         offset="1"
         id="stop3801-6" />
    </linearGradient>
    <linearGradient
       id="linearGradient3789-8">
      <stop
         style="stop-color:#440008;stop-opacity:1;"
         offset="0"
         id="stop3791-5" />
      <stop
         style="stop-color:#880000;stop-opacity:1;"
         offset="1"
         id="stop3793-7" />
    </linearGradient>
    <linearGradient
       id="linearGradient3781-6">
      <stop
         style="stop-color:#440008;stop-opacity:1;"
         offset="0"
         id="stop3783-1" />
      <stop
         style="stop-color:#232723;stop-opacity:0;"
         offset="1"
         id="stop3785-8" />
    </linearGradient>
    <linearGradient
       inkscape:collect="always"
       xlink:href="#linearGradient3789-8"
       id="linearGradient3795-9"
       x1="34.479824"
       y1="980.94946"
       x2="34.479824"
       y2="1052.0378"
       gradientUnits="userSpaceOnUse" />
    <linearGradient
       inkscape:collect="always"
       xlink:href="#linearGradient3797-2"
       id="linearGradient3803-2"
       x1="35.989838"
       y1="51.432434"
       x2="35.989838"
       y2="108.26157"
       gradientUnits="userSpaceOnUse" />
    <linearGradient
       inkscape:collect="always"
       xlink:href="#linearGradient3816-42"
       id="linearGradient3822-7"
       x1="34.371315"
       y1="1052.3622"
       x2="34.371315"
       y2="981.34082"
       gradientUnits="userSpaceOnUse"
       gradientTransform="matrix(1,0,0,0.63512546,0,-596.51749)" />
    <linearGradient
       inkscape:collect="always"
       xlink:href="#linearGradient3797-2"
       id="linearGradient3790-3"
       gradientUnits="userSpaceOnUse"
       x1="35.989838"
       y1="51.432434"
       x2="35.989838"
       y2="108.26157"
       gradientTransform="matrix(1.2057712,0,0,1,-7.3425861,-72)" />
    <linearGradient
       id="linearGradient3816-4">
      <stop
         style="stop-color:#ffffff;stop-opacity:0.25882354;"
         offset="0"
         id="stop3818-0" />
      <stop
         style="stop-color:#ffffff;stop-opacity:0;"
         offset="1"
         id="stop3820-9" />
    </linearGradient>
    <linearGradient
       id="linearGradient3797-4">
      <stop
         style="stop-color:#ffffff;stop-opacity:1;"
         offset="0"
         id="stop3799-8" />
      <stop
         style="stop-color:#ffffff;stop-opacity:0.16470589;"
         offset="1"
         id="stop3801-8" />
    </linearGradient>
    <linearGradient
       id="linearGradient3789">
      <stop
         style="stop-color:#242424;stop-opacity:1;"
         offset="0"
         id="stop3791" />
      <stop
         style="stop-color:#b2b2b2;stop-opacity:1;"
         offset="1"
         id="stop3793" />
    </linearGradient>
    <linearGradient
       id="linearGradient3781-2">
      <stop
         style="stop-color:#440008;stop-opacity:1;"
         offset="0"
         id="stop3783-4" />
      <stop
         style="stop-color:#232723;stop-opacity:0;"
         offset="1"
         id="stop3785-5" />
    </linearGradient>
    <linearGradient
       inkscape:collect="always"
       xlink:href="#linearGradient3789"
       id="linearGradient3795"
       x1="34.479824"
       y1="980.94946"
       x2="34.479824"
       y2="1052.0378"
       gradientUnits="userSpaceOnUse" />
    <linearGradient
       inkscape:collect="always"
       xlink:href="#linearGradient3797-4"
       id="linearGradient3803"
       x1="35.989838"
       y1="51.432434"
       x2="35.989838"
       y2="108.26157"
       gradientUnits="userSpaceOnUse" />
    <linearGradient
       inkscape:collect="always"
       xlink:href="#linearGradient3816-4"
       id="linearGradient3822"
       x1="34.371315"
       y1="1052.3622"
       x2="34.371315"
       y2="981.34082"
       gradientUnits="userSpaceOnUse"
       gradientTransform="matrix(1,0,0,0.63512546,0,-596.51749)" />
    <linearGradient
       inkscape:collect="always"
       xlink:href="#linearGradient3797-4"
       id="linearGradient3790"
       gradientUnits="userSpaceOnUse"
       x1="35.989838"
       y1="51.432434"
       x2="35.989838"
       y2="108.26157"
       gradientTransform="matrix(1.2057712,0,0,1,-7.3425861,-72)" />
    <linearGradient
       gradientTransform="matrix(0.97363148,0,0,1.035386,-57.748974,403.30318)"
       y2="627.19641"
       x2="139.31297"
       y1="505.0293"
       x1="139.31297"
       gradientUnits="userSpaceOnUse"
       id="linearGradient3256"
       xlink:href="#linearGradient3825-1"
       inkscape:collect="always" />
    <linearGradient
       id="linearGradient3825-1">
      <stop
         id="stop3827-7"
         offset="0"
         style="stop-color:#4e4e4e;stop-opacity:1;" />
      <stop
         id="stop3829-1"
         offset="1"
         style="stop-color:#e0e0e0;stop-opacity:1;" />
    </linearGradient>
    <linearGradient
       y2="627.19641"
       x2="139.31297"
       y1="505.0293"
       x1="139.31297"
       gradientTransform="matrix(0.97363148,0,0,1.035386,-228.55154,-558.9601)"
       gradientUnits="userSpaceOnUse"
       id="linearGradient3007"
       xlink:href="#linearGradient3825-1"
       inkscape:collect="always" />
    <linearGradient
       inkscape:collect="always"
       xlink:href="#linearGradient3789"
       id="linearGradient3021"
       gradientUnits="userSpaceOnUse"
       x1="34.479824"
       y1="980.94946"
       x2="34.479824"
       y2="1052.0378" />
    <linearGradient
       y2="1050.703"
       x2="161.6842"
       y1="540.36218"
       x1="161.6842"
       gradientTransform="matrix(0.77734373,0,0,0.77734373,57.000258,177.31521)"
       gradientUnits="userSpaceOnUse"
       id="linearGradient3948-1"
       xlink:href="#linearGradient3797-6"
       inkscape:collect="always" />
    <linearGradient
       y2="1050.703"
       x2="161.6842"
       y1="540.36218"
       x1="161.6842"
       gradientTransform="matrix(0.77734373,0,0,0.77734373,57.000258,177.31521)"
       gradientUnits="userSpaceOnUse"
       id="linearGradient3152-6"
       xlink:href="#linearGradient3755-1-0"
       inkscape:collect="always" />
    <linearGradient
       y2="1050.703"
       x2="161.6842"
       y1="540.36218"
       x1="161.6842"
       gradientTransform="matrix(0.07421875,0,0,0.07421875,227.79629,690.55681)"
       gradientUnits="userSpaceOnUse"
       id="linearGradient3147-2"
       xlink:href="#linearGradient3755-1-0"
       inkscape:collect="always" />
    <linearGradient
       y2="1050.703"
       x2="161.6842"
       y1="540.36218"
       x1="161.6842"
       gradientTransform="matrix(0.07421875,0,0,0.07421875,227.79629,690.55681)"
       gradientUnits="userSpaceOnUse"
       id="linearGradient3140-7"
       xlink:href="#linearGradient3755-1-0"
       inkscape:collect="always" />
    <linearGradient
       inkscape:collect="always"
       xlink:href="#linearGradient3755-1-0"
       id="linearGradient3127-3"
       gradientUnits="userSpaceOnUse"
       gradientTransform="matrix(0.07421875,0,0,0.07421875,-78.994659,690.55681)"
       x1="161.6842"
       y1="540.36218"
       x2="161.6842"
       y2="1050.703" />
    <linearGradient
       id="linearGradient3755-1-0">
      <stop
         id="stop3757-7-9"
         offset="0"
         style="stop-color:#440008;stop-opacity:1;" />
      <stop
         id="stop3759-4-7"
         offset="1"
         style="stop-color:#880000;stop-opacity:1;" />
    </linearGradient>
    <linearGradient
       y2="1050.703"
       x2="161.6842"
       y1="540.36218"
       x1="161.6842"
       gradientTransform="matrix(0.07421875,0,0,0.07421875,5.0000175,-35.105008)"
       gradientUnits="userSpaceOnUse"
       id="linearGradient3131-2"
       xlink:href="#linearGradient3755-1-0"
       inkscape:collect="always" />
    <linearGradient
       y2="981.34082"
       x2="34.371315"
       y1="1052.3622"
       x1="34.371315"
       gradientTransform="matrix(0.66574281,0,0,0.42313898,89.033259,672.97707)"
       gradientUnits="userSpaceOnUse"
       id="linearGradient3266-4"
       xlink:href="#linearGradient3816-1-0"
       inkscape:collect="always" />
    <linearGradient
       y2="108.26157"
       x2="35.989838"
       y1="51.432434"
       x1="35.989838"
       gradientTransform="matrix(0.80273351,0,0,0.66622897,84.144985,1022.4258)"
       gradientUnits="userSpaceOnUse"
       id="linearGradient3263-5"
       xlink:href="#linearGradient3797-8-8"
       inkscape:collect="always" />
    <radialGradient
       r="7.921875"
       fy="47.418575"
       fx="19.563505"
       cy="47.418575"
       cx="19.563505"
       gradientTransform="matrix(1.3403884,0.05169623,-0.06334503,1.6448199,78.838558,1024.1922)"
       gradientUnits="userSpaceOnUse"
       id="radialGradient3260-1"
       xlink:href="#linearGradient5008-7-4"
       inkscape:collect="always" />
    <radialGradient
       r="12.288284"
       fy="35.634476"
       fx="14.153434"
       cy="35.634476"
       cx="14.153434"
       gradientTransform="matrix(1.8714068,0.0078478,-0.00703966,1.6811507,72.219828,1036.1454)"
       gradientUnits="userSpaceOnUse"
       id="radialGradient3257-6"
       xlink:href="#linearGradient5008-7-4"
       inkscape:collect="always" />
    <radialGradient
       r="11.212446"
       fy="66.694183"
       fx="33.167385"
       cy="66.694183"
       cx="33.167385"
       gradientTransform="matrix(1.9099531,0.24562978,-0.13664229,1.0640471,58.119894,1030.5179)"
       gradientUnits="userSpaceOnUse"
       id="radialGradient3252-3"
       xlink:href="#linearGradient5008-7-4"
       inkscape:collect="always" />
    <radialGradient
       r="17.734188"
       fy="24.606651"
       fx="58.83448"
       cy="24.606651"
       cx="58.83448"
       gradientTransform="matrix(-2.4451775,-0.00581172,0.00449188,-1.8926068,284.81263,1129.8951)"
       gradientUnits="userSpaceOnUse"
       id="radialGradient3249-6"
       xlink:href="#linearGradient5008-7-4"
       inkscape:collect="always" />
    <radialGradient
       r="15.332618"
       fy="43.506603"
       fx="48.077999"
       cy="43.506603"
       cx="48.077999"
       gradientTransform="matrix(-1.5325227,-0.03737784,0.02531606,-1.0394961,203.03763,1136.8887)"
       gradientUnits="userSpaceOnUse"
       id="radialGradient3246-7"
       xlink:href="#linearGradient3781-9"
       inkscape:collect="always" />
    <linearGradient
       id="linearGradient3104-8">
      <stop
         id="stop3106-4"
         offset="0"
         style="stop-color:#003399;stop-opacity:1;" />
      <stop
         id="stop3108-0"
         offset="1"
         style="stop-color:#6699ff;stop-opacity:1;" />
    </linearGradient>
    <radialGradient
       r="15.332618"
       fy="43.506603"
       fx="48.077999"
       cy="43.506603"
       cx="48.077999"
       gradientTransform="matrix(-2.3019741,-0.0561036,0.03802679,-1.5602686,171.24387,99.80707)"
       gradientUnits="userSpaceOnUse"
       id="radialGradient3080-9"
       xlink:href="#linearGradient3781-9"
       inkscape:collect="always" />
    <linearGradient
       id="linearGradient3097-1">
      <stop
         id="stop3099-3"
         offset="0"
         style="stop-color:#333333;stop-opacity:1;" />
      <stop
         id="stop3101-5"
         offset="1"
         style="stop-color:#e0e0e0;stop-opacity:1" />
    </linearGradient>
    <radialGradient
       r="17.734188"
       fy="24.606651"
       fx="58.83448"
       cy="24.606651"
       cx="58.83448"
       gradientTransform="matrix(-3.672856,-0.00872331,0.00674717,-2.8407753,294.07658,89.309812)"
       gradientUnits="userSpaceOnUse"
       id="radialGradient3078-9"
       xlink:href="#linearGradient5008-7-4"
       inkscape:collect="always" />
    <linearGradient
       id="linearGradient3090-8">
      <stop
         id="stop3092-8"
         offset="0"
         style="stop-color:#333333;stop-opacity:1;" />
      <stop
         id="stop3094-2"
         offset="1"
         style="stop-color:#e0e0e0;stop-opacity:1" />
    </linearGradient>
    <radialGradient
       r="11.212446"
       fy="66.694183"
       fx="33.167385"
       cy="66.694183"
       cx="33.167385"
       gradientTransform="matrix(2.8689053,0.36868673,-0.20524787,1.5971192,-46.434396,-59.853964)"
       gradientUnits="userSpaceOnUse"
       id="radialGradient3076-7"
       xlink:href="#linearGradient5008-7-4"
       inkscape:collect="always" />
    <linearGradient
       id="linearGradient3781-9">
      <stop
         id="stop3783-6"
         offset="0"
         style="stop-color:#003399;stop-opacity:1;" />
      <stop
         id="stop3785-3"
         offset="1"
         style="stop-color:#6699ff;stop-opacity:1;" />
    </linearGradient>
    <radialGradient
       r="16.56867"
       fy="23.548294"
       fx="55.427292"
       cy="23.548294"
       cx="55.427292"
       gradientTransform="matrix(-0.32532993,-0.94560057,1.7306689,-0.5954294,32.705149,90.287635)"
       gradientUnits="userSpaceOnUse"
       id="radialGradient3074-4"
       xlink:href="#linearGradient3781-9"
       inkscape:collect="always" />
    <linearGradient
       id="linearGradient3079-6">
      <stop
         id="stop3081-1"
         offset="0"
         style="stop-color:#333333;stop-opacity:1;" />
      <stop
         id="stop3083-8"
         offset="1"
         style="stop-color:#e0e0e0;stop-opacity:1" />
    </linearGradient>
    <radialGradient
       r="12.288284"
       fy="35.634476"
       fx="14.153434"
       cy="35.634476"
       cx="14.153434"
       gradientTransform="matrix(2.8110056,0.01177943,-0.01057415,2.5233827,-25.255144,-51.407093)"
       gradientUnits="userSpaceOnUse"
       id="radialGradient3072-6"
       xlink:href="#linearGradient5008-7-4"
       inkscape:collect="always" />
    <linearGradient
       id="linearGradient5008-7-4">
      <stop
         id="stop5010-1-6"
         offset="0"
         style="stop-color:#333333;stop-opacity:1;" />
      <stop
         id="stop5012-2-0"
         offset="1"
         style="stop-color:#e0e0e0;stop-opacity:1" />
    </linearGradient>
    <radialGradient
       r="7.921875"
       fy="47.418575"
       fx="19.563505"
       cy="47.418575"
       cx="19.563505"
       gradientTransform="matrix(2.0133727,0.07759529,-0.0951494,2.4688508,-15.313273,-69.348755)"
       gradientUnits="userSpaceOnUse"
       id="radialGradient3070-4"
       xlink:href="#linearGradient5008-7-4"
       inkscape:collect="always" />
    <linearGradient
       id="linearGradient3797-8-8">
      <stop
         id="stop3799-2-9"
         offset="0"
         style="stop-color:#ffffff;stop-opacity:1;" />
      <stop
         id="stop3801-7-3"
         offset="1"
         style="stop-color:#ffffff;stop-opacity:0.16470589;" />
    </linearGradient>
    <linearGradient
       y2="108.26157"
       x2="35.989838"
       y1="51.432434"
       x1="35.989838"
       gradientTransform="matrix(1.2057712,0,0,1,-7.3425861,-72)"
       gradientUnits="userSpaceOnUse"
       id="linearGradient3068-3"
       xlink:href="#linearGradient3797-8-8"
       inkscape:collect="always" />
    <linearGradient
       id="linearGradient3816-1-0">
      <stop
         id="stop3818-6-6"
         offset="0"
         style="stop-color:#ffffff;stop-opacity:0.25882354;" />
      <stop
         id="stop3820-8-1"
         offset="1"
         style="stop-color:#ffffff;stop-opacity:0;" />
    </linearGradient>
    <linearGradient
       y2="981.34082"
       x2="34.371315"
       y1="1052.3622"
       x1="34.371315"
       gradientTransform="matrix(1,0,0,0.63512546,0,-596.51749)"
       gradientUnits="userSpaceOnUse"
       id="linearGradient3066-0"
       xlink:href="#linearGradient3816-1-0"
       inkscape:collect="always" />
    <linearGradient
       id="linearGradient3797-6">
      <stop
         id="stop3799-5"
         offset="0"
         style="stop-color:#ffffff;stop-opacity:0.627451;" />
      <stop
         style="stop-color:#ffffff;stop-opacity:0;"
         offset="0.5"
         id="stop3950-0" />
      <stop
         id="stop3801-9"
         offset="1"
         style="stop-color:#ffffff;stop-opacity:0;" />
    </linearGradient>
    <linearGradient
       y2="108.26157"
       x2="35.989838"
       y1="51.432434"
       x1="35.989838"
       gradientTransform="matrix(0.79232396,0,0,0.65261262,98.206105,967.40719)"
       gradientUnits="userSpaceOnUse"
       id="linearGradient3903-8"
       xlink:href="#linearGradient3797-6"
       inkscape:collect="always" />
    <linearGradient
       id="linearGradient3816-0">
      <stop
         id="stop3818-2"
         offset="0"
         style="stop-color:#ffffff;stop-opacity:0.25882354;" />
      <stop
         id="stop3820-4"
         offset="1"
         style="stop-color:#ffffff;stop-opacity:0;" />
    </linearGradient>
    <linearGradient
       y2="981.34082"
       x2="34.371315"
       y1="1052.3622"
       x1="34.371315"
       gradientTransform="matrix(0.65710971,0,0,0.41449089,103.03099,625.10046)"
       gradientUnits="userSpaceOnUse"
       id="linearGradient3901-6"
       xlink:href="#linearGradient3816-0"
       inkscape:collect="always" />
    <linearGradient
       id="linearGradient5008-5">
      <stop
         id="stop5010-0"
         offset="0"
         style="stop-color:#242424;stop-opacity:1;" />
      <stop
         id="stop5012-28"
         offset="1"
         style="stop-color:#b2b2b2;stop-opacity:1;" />
    </linearGradient>
    <linearGradient
       gradientTransform="matrix(0.65710971,0,0,0.65261262,103.03099,374.59856)"
       y2="1051.6127"
       x2="34"
       y1="980.61218"
       x1="34"
       gradientUnits="userSpaceOnUse"
       id="linearGradient3899-6"
       xlink:href="#linearGradient5008-5"
       inkscape:collect="always" />
    <linearGradient
       gradientUnits="userSpaceOnUse"
       y2="50.373619"
       x2="-69.089355"
       y1="6.8318453"
       x1="-69.089355"
       id="linearGradient3828-8"
       xlink:href="#linearGradient3755-0-1"
       inkscape:collect="always" />
    <linearGradient
       y2="796.36218"
       x2="512"
       y1="796.36218"
       x1="0"
       gradientTransform="matrix(0.0546875,0,0,0.0546875,1020.3622,-61.55106)"
       gradientUnits="userSpaceOnUse"
       id="linearGradient3160-9"
       xlink:href="#linearGradient3755-2"
       inkscape:collect="always" />
    <filter
       id="filter3126-1"
       inkscape:label="GOn Launcher Icon"
       height="2"
       color-interpolation-filters="sRGB">
      <feGaussianBlur
         stdDeviation="1 1.5"
         id="feGaussianBlur3136-2"
         in="SourceAlpha" />
      <feColorMatrix
         id="feColorMatrix3138-7"
         values="1 0 0 0 0 0 1 0 0 0 0 0 1 0 0 0 0 0 0.75 0 " />
      <feOffset
         dx="0"
         dy="2"
         id="feOffset3140-7"
         result="result3" />
      <feMerge
         id="feMerge3142-9"
         result="result4">
        <feMergeNode
           inkscape:collect="always"
           id="feMergeNode3144-3"
           in="result3" />
        <feMergeNode
           inkscape:collect="always"
           id="feMergeNode4021"
           in="SourceGraphic" />
      </feMerge>
    </filter>
    <linearGradient
       id="linearGradient3755-0-1">
      <stop
         id="stop3757-9-8"
         offset="0"
         style="stop-color:#440008;stop-opacity:1;" />
      <stop
         id="stop3759-3-9"
         offset="1"
         style="stop-color:#880000;stop-opacity:1;" />
    </linearGradient>
    <linearGradient
       y2="796.36218"
       x2="512"
       y1="796.36218"
       x1="0"
       gradientTransform="matrix(0.07421875,0,0,0.07421875,1009.3622,-83.105007)"
       gradientUnits="userSpaceOnUse"
       id="linearGradient3788-9-6"
       xlink:href="#linearGradient3755-0-1"
       inkscape:collect="always" />
    <radialGradient
       r="23.75"
       fy="9"
       fx="23.5"
       cy="9"
       cx="23.5"
       gradientTransform="matrix(-1.4953298,1.0366698e-7,-5.4736841e-8,-0.78954385,58.640249,16.105893)"
       gradientUnits="userSpaceOnUse"
       id="radialGradient3050-7"
       xlink:href="#linearGradient4088-4"
       inkscape:collect="always" />
    <radialGradient
       r="23.75"
       fy="9"
       fx="23.5"
       cy="9"
       cx="23.5"
       gradientTransform="matrix(-1.4953298,1.0366698e-7,-5.4736841e-8,-0.78954385,58.640249,16.105893)"
       gradientUnits="userSpaceOnUse"
       id="radialGradient3046-2"
       xlink:href="#linearGradient4088-4"
       inkscape:collect="always" />
    <linearGradient
       y2="796.36218"
       x2="512"
       y1="796.36218"
       x1="0"
       gradientTransform="matrix(0.07421875,0,0,0.07421875,1009.3622,-83.105007)"
       gradientUnits="userSpaceOnUse"
       id="linearGradient3831-5"
       xlink:href="#linearGradient3825-4"
       inkscape:collect="always" />
    <radialGradient
       r="23.75"
       fy="9"
       fx="23.5"
       cy="9"
       cx="23.5"
       gradientTransform="matrix(-2.7079605,4.1016067e-7,-9.9125425e-8,-3.1238475,123.68433,1065.2269)"
       gradientUnits="userSpaceOnUse"
       id="radialGradient3777-1"
       xlink:href="#linearGradient4088-4"
       inkscape:collect="always" />
    <radialGradient
       r="23.75"
       fy="9"
       fx="23.5"
       cy="9"
       cx="23.5"
       gradientTransform="matrix(-2.7079605,4.1016067e-7,-9.9125425e-8,-3.1238475,87.184331,38.364677)"
       gradientUnits="userSpaceOnUse"
       id="radialGradient4105-1"
       xlink:href="#linearGradient4088-4"
       inkscape:collect="always" />
    <radialGradient
       gradientUnits="userSpaceOnUse"
       gradientTransform="matrix(-1.4953298,1.0366698e-7,-5.4736841e-8,-0.78954385,58.640249,16.105893)"
       r="23.75"
       fy="9"
       fx="23.5"
       cy="9"
       cx="23.5"
       id="radialGradient4096-7"
       xlink:href="#linearGradient4088-4"
       inkscape:collect="always" />
    <linearGradient
       y2="796.36218"
       x2="512"
       y1="796.36218"
       x1="0"
       gradientTransform="translate(540.36218,-1052.3622)"
       gradientUnits="userSpaceOnUse"
       id="linearGradient3772-1"
       xlink:href="#linearGradient3755-2"
       inkscape:collect="always" />
    <linearGradient
       gradientTransform="translate(540.36218,-1052.3622)"
       gradientUnits="userSpaceOnUse"
       y2="796.36218"
       x2="512"
       y1="796.36218"
       x1="0"
       id="linearGradient3761-5"
       xlink:href="#linearGradient3755-2"
       inkscape:collect="always" />
    <linearGradient
       id="linearGradient3755-2">
      <stop
         id="stop3757-4"
         offset="0"
         style="stop-color:#440008;stop-opacity:1;" />
      <stop
         id="stop3759-5"
         offset="1"
         style="stop-color:#880000;stop-opacity:1;" />
    </linearGradient>
    <linearGradient
       id="linearGradient4088-4">
      <stop
         id="stop4090-8"
         offset="0"
         style="stop-color:#ffffff;stop-opacity:0.47058824;" />
      <stop
         id="stop4092-8"
         offset="1"
         style="stop-color:#880000;stop-opacity:0;" />
    </linearGradient>
    <linearGradient
       id="linearGradient3825-4">
      <stop
         style="stop-color:#ffffff;stop-opacity:0.3137255;"
         offset="0"
         id="stop3827-0" />
      <stop
         style="stop-color:#ffffff;stop-opacity:0;"
         offset="1"
         id="stop3829-9" />
    </linearGradient>
    <linearGradient
       inkscape:collect="always"
       xlink:href="#linearGradient3789-0"
       id="linearGradient3015"
       gradientUnits="userSpaceOnUse"
       gradientTransform="matrix(0.44444158,0,0,0.44444727,9.8656591e-5,584.64268)"
       x1="34.479824"
       y1="980.94946"
       x2="34.479824"
       y2="1052.0378" />
    <linearGradient
       id="linearGradient3789-0">
      <stop
         id="stop3791-5-1"
         offset="0"
         style="stop-color:#440008;stop-opacity:1;" />
      <stop
         id="stop3793-5"
         offset="1"
         style="stop-color:#880000;stop-opacity:1;" />
    </linearGradient>
    <linearGradient
       y2="1052.0378"
       x2="34.479824"
       y1="980.94946"
       x1="34.479824"
       gradientTransform="matrix(0.44444158,0,0,0.44444727,28.000099,649.64274)"
       gradientUnits="userSpaceOnUse"
       id="linearGradient3021-7"
       xlink:href="#linearGradient3789-0"
       inkscape:collect="always" />
    <linearGradient
       inkscape:collect="always"
       xlink:href="#linearGradient3789-0"
       id="linearGradient3226"
       gradientUnits="userSpaceOnUse"
       gradientTransform="matrix(0.52893477,0,0,0.52893478,4.958342,490.77279)"
       x1="34.479824"
       y1="980.94946"
       x2="34.479824"
       y2="1052.0378" />
    <linearGradient
       inkscape:collect="always"
       xlink:href="#linearGradient3789-0"
       id="linearGradient4001"
       gradientUnits="userSpaceOnUse"
       gradientTransform="matrix(0.52893477,0,0,0.52893478,4.958342,490.77279)"
       x1="34.479824"
       y1="980.94946"
       x2="34.479824"
       y2="1052.0378" />
    <linearGradient
       id="linearGradient3271">
      <stop
         style="stop-color:#ffffff;stop-opacity:0.43137255;"
         offset="0"
         id="stop3273" />
      <stop
         style="stop-color:#ffffff;stop-opacity:0.11764706;"
         offset="1"
         id="stop3275" />
    </linearGradient>
    <linearGradient
       inkscape:collect="always"
       xlink:href="#linearGradient3789-0"
       id="linearGradient3229"
       gradientUnits="userSpaceOnUse"
       gradientTransform="matrix(0.96052632,0,0,0.96052632,0.94736842,40.593245)"
       x1="33.5"
       y1="1009.3622"
       x2="33.5"
       y2="1047.8655" />
    <linearGradient
       inkscape:collect="always"
       xlink:href="#linearGradient3789-0"
       id="linearGradient3230"
       gradientUnits="userSpaceOnUse"
       gradientTransform="matrix(0.96052632,0,0,0.96052632,0.94736842,40.593245)"
       x1="33.5"
       y1="1009.3622"
       x2="33.5"
       y2="1047.8655" />
  </defs>
  <sodipodi:namedview
     id="base"
     pagecolor="#ffffff"
     bordercolor="#666666"
     borderopacity="1.0"
     inkscape:pageopacity="0.0"
     inkscape:pageshadow="2"
     inkscape:zoom="1"
     inkscape:cx="-286.817"
     inkscape:cy="10.511116"
     inkscape:document-units="px"
     inkscape:current-layer="layer1"
     showgrid="false"
     inkscape:showpageshadow="false"
     inkscape:window-width="1680"
     inkscape:window-height="970"
     inkscape:window-x="-8"
     inkscape:window-y="-8"
     inkscape:window-maximized="1"
     showborder="true" />
  <metadata
     id="metadata7">
    <rdf:RDF>
      <cc:Work
         rdf:about="">
        <dc:format>image/svg+xml</dc:format>
        <dc:type
           rdf:resource="http://purl.org/dc/dcmitype/StillImage" />
        <dc:title></dc:title>
      </cc:Work>
    </rdf:RDF>
  </metadata>
  <g
     inkscape:groupmode="layer"
     id="layer5"
     inkscape:label="xx FilterLayer DO NOT DELETE"
     sodipodi:insensitive="true"
     style="display:none"
     transform="translate(0,24)">
    <g
       id="layer4"
       inkscape:label="xx FilterLayer DO NOT DELETE"
       style="display:inline">
      <rect
         style="fill:#ffffff;fill-opacity:1;fill-rule:evenodd;stroke:none;display:inline"
         id="rect3167"
         width="144"
         height="144"
         x="-36"
         y="-60"
         rx="12.62647"
         ry="13.109171" />
    </g>
  </g>
  <g
     inkscape:label="Icon"
     inkscape:groupmode="layer"
     id="layer1"
     transform="translate(0,-980.3622)"
     style="display:inline">
    <g
       id="g3226"
       transform="matrix(1.5,0,0,1.5,0,-526.1811)"
       style="filter:url(#filter3126-1)">
      <path
         inkscape:connector-curvature="0"
         id="path3228"
         d="m 5.75,1028.3622 c 0,-10.0791 8.170941,-18.25 18.250001,-18.25 10.079058,0 18.249999,8.1709 18.249999,18.25 0,10.0791 -8.170941,18.25 -18.249999,18.25 -10.07906,0 -18.250001,-8.1709 -18.250001,-18.25 z"
         style="fill:url(#linearGradient3230);fill-opacity:1;fill-rule:evenodd;stroke:#e0e0e0;stroke-width:1.5;stroke-miterlimit:4;stroke-opacity:1;stroke-dasharray:none" />
      <path
         id="path2469"
         d="m 27.848515,1019.6741 0,8.5362 3.616832,0 -7.529703,8.84 -7.529703,-8.84 3.616832,0 0,-8.5362 7.825742,0 z"
         style="fill:#e0e0e0;fill-opacity:1;fill-rule:evenodd;stroke:#e0e0e0;stroke-opacity:1"
         inkscape:connector-curvature="0" />
    </g>
  </g>
  <g
     inkscape:groupmode="layer"
     id="layer7"
     inkscape:label="xx ldpi: Guide Rectangles (page 36x36)"
     style="display:none"
     sodipodi:insensitive="true"
     transform="translate(0,24)">
    <rect
       style="opacity:0.77999998;fill:none;stroke:#0000ff;stroke-width:0.1;stroke-linecap:butt;stroke-linejoin:miter;stroke-miterlimit:4;stroke-opacity:1;stroke-dasharray:none;stroke-dashoffset:0;display:inline"
       id="rect2994"
       width="29.875006"
       height="29.875006"
       x="3.0624971"
       y="15.062497"
       rx="0"
       ry="0" />
    <rect
       style="opacity:0.77999998;fill:none;stroke:#ff7100;stroke-width:0.10000001;stroke-linecap:butt;stroke-linejoin:miter;stroke-miterlimit:4;stroke-opacity:1;stroke-dasharray:none;stroke-dashoffset:0;display:inline"
       id="rect3764"
       width="27.875006"
       height="27.875006"
       x="4.0624971"
       y="16.062496" />
  </g>
  <g
     inkscape:groupmode="layer"
     id="layer2"
     inkscape:label="xx mpdi: Guide Rectangles (page 48x48)"
     style="display:none"
     sodipodi:insensitive="true"
     transform="translate(0,24)">
    <rect
       ry="0"
       rx="0"
       y="4.0625"
       x="4.0625"
       height="39.875"
       width="39.875"
       id="rect3034"
       style="opacity:0.77999998;fill:none;stroke:#0000ff;stroke-width:0.1;stroke-linecap:butt;stroke-linejoin:miter;stroke-miterlimit:4;stroke-opacity:1;stroke-dasharray:none;stroke-dashoffset:0;display:inline" />
    <rect
       y="5.0625"
       x="5.0625"
       height="37.875"
       width="37.875"
       id="rect3036"
       style="opacity:0.77999998;fill:none;stroke:#ff7100;stroke-width:0.10000001;stroke-linecap:butt;stroke-linejoin:miter;stroke-miterlimit:4;stroke-opacity:1;stroke-dasharray:none;stroke-dashoffset:0;display:inline" />
  </g>
  <g
     inkscape:groupmode="layer"
     id="layer6"
     inkscape:label="xx hdpi: Guide Rectangles (page 72x72)"
     style="display:none"
     sodipodi:insensitive="true"
     transform="translate(0,24)">
    <rect
       ry="0"
       rx="0"
       y="-17.931234"
       x="6.0687656"
       height="59.862469"
       width="59.862469"
       id="rect3028"
       style="opacity:0.77999998;fill:none;stroke:#0000ff;stroke-width:0.1;stroke-linecap:butt;stroke-linejoin:miter;stroke-miterlimit:4;stroke-opacity:1;stroke-dasharray:none;stroke-dashoffset:0;display:inline" />
    <rect
       y="-15.937498"
       x="8.0625019"
       height="55.874996"
       width="55.874996"
       id="rect3030"
       style="opacity:0.77999998;fill:none;stroke:#ff7100;stroke-width:0.10000002;stroke-linecap:butt;stroke-linejoin:miter;stroke-miterlimit:4;stroke-opacity:1;stroke-dasharray:none;stroke-dashoffset:0;display:inline" />
  </g>
  <g
     inkscape:groupmode="layer"
     id="layer3"
     inkscape:label="xx AndroidMarket: Guide Rectangles (page 512x512)"
     style="display:none"
     sodipodi:insensitive="true"
     transform="translate(0,24)">
    <rect
       style="opacity:0.77999998;fill:none;stroke:#0000ff;stroke-width:0.10000004;stroke-linecap:butt;stroke-linejoin:miter;stroke-miterlimit:4;stroke-opacity:1;stroke-dasharray:none;stroke-dashoffset:0;display:inline"
       id="rect3101"
       width="425.875"
       height="425.875"
       x="43.0625"
       y="-420.9375"
       rx="0"
       ry="0" />
    <rect
       style="opacity:0.77999998;fill:none;stroke:#ff7100;stroke-width:0.10000004;stroke-linecap:butt;stroke-linejoin:miter;stroke-miterlimit:4;stroke-opacity:1;stroke-dasharray:none;stroke-dashoffset:0;display:inline"
       id="rect3103"
       width="397.87497"
       height="397.87497"
       x="57.062515"
       y="-406.9375" />
  </g>
</svg>
