<?xml version="1.0" encoding="UTF-8" standalone="no"?>
<!-- Created with Inkscape (http://www.inkscape.org/) -->

<svg
   xmlns:dc="http://purl.org/dc/elements/1.1/"
   xmlns:cc="http://creativecommons.org/ns#"
   xmlns:rdf="http://www.w3.org/1999/02/22-rdf-syntax-ns#"
   xmlns:svg="http://www.w3.org/2000/svg"
   xmlns="http://www.w3.org/2000/svg"
   xmlns:xlink="http://www.w3.org/1999/xlink"
   xmlns:sodipodi="http://sodipodi.sourceforge.net/DTD/sodipodi-0.dtd"
   xmlns:inkscape="http://www.inkscape.org/namespaces/inkscape"
   width="57"
   height="57"
   id="svg2"
   version="1.1"
   inkscape:version="0.48.0 r9654"
   inkscape:export-filename="C:\Users\emo.GIRITECH\Documents\Shared Graphics\iPhone\Icons\Apps\mail_portforward_iphone_57x57.png"
   inkscape:export-xdpi="90"
   inkscape:export-ydpi="90"
   sodipodi:docname="mail_portforward_iphone_57x57.svg"
   style="display:inline">
  <sodipodi:namedview
     id="base"
     pagecolor="#ffffff"
     bordercolor="#666666"
     borderopacity="1.0"
     inkscape:pageopacity="0.0"
     inkscape:pageshadow="2"
     inkscape:zoom="11.313708"
     inkscape:cx="43.364389"
     inkscape:cy="29.49275"
     inkscape:document-units="px"
     inkscape:current-layer="g9750-2"
     showgrid="false"
     borderlayer="true"
     inkscape:showpageshadow="false"
     showborder="true"
     inkscape:window-width="1680"
     inkscape:window-height="970"
     inkscape:window-x="-8"
     inkscape:window-y="-8"
     inkscape:window-maximized="1" />
  <defs
     id="defs4">
    <linearGradient
       id="linearGradient4573">
      <stop
         style="stop-color:#440008;stop-opacity:1;"
         offset="0"
         id="stop4575" />
      <stop
         style="stop-color:#880000;stop-opacity:1;"
         offset="1"
         id="stop4577" />
    </linearGradient>
    <linearGradient
       inkscape:collect="always"
       id="linearGradient4561">
      <stop
         style="stop-color:#3d00c0;stop-opacity:1;"
         offset="0"
         id="stop4563" />
      <stop
         style="stop-color:#3d00c0;stop-opacity:0;"
         offset="1"
         id="stop4565" />
    </linearGradient>
    <linearGradient
       inkscape:collect="always"
       id="linearGradient4496">
      <stop
         style="stop-color:#000000;stop-opacity:1;"
         offset="0"
         id="stop4498" />
      <stop
         style="stop-color:#000000;stop-opacity:0;"
         offset="1"
         id="stop4500" />
    </linearGradient>
    <linearGradient
       id="linearGradient3816">
      <stop
         style="stop-color:#ffffff;stop-opacity:0.25882354;"
         offset="0"
         id="stop3818" />
      <stop
         style="stop-color:#ffffff;stop-opacity:0;"
         offset="1"
         id="stop3820" />
    </linearGradient>
    <linearGradient
       id="linearGradient3797">
      <stop
         style="stop-color:#ffffff;stop-opacity:1;"
         offset="0"
         id="stop3799" />
      <stop
         style="stop-color:#ffffff;stop-opacity:0.16470589;"
         offset="1"
         id="stop3801" />
    </linearGradient>
    <linearGradient
       id="linearGradient3789">
      <stop
         style="stop-color:#003399;stop-opacity:1;"
         offset="0"
         id="stop3791" />
      <stop
         style="stop-color:#6699ff;stop-opacity:1;"
         offset="1"
         id="stop3793" />
    </linearGradient>
    <linearGradient
       id="linearGradient3781">
      <stop
         style="stop-color:#440008;stop-opacity:1;"
         offset="0"
         id="stop3783" />
      <stop
         style="stop-color:#232723;stop-opacity:0;"
         offset="1"
         id="stop3785" />
    </linearGradient>
    <linearGradient
       inkscape:collect="always"
       xlink:href="#linearGradient3789"
       id="linearGradient3795"
       x1="34.479824"
       y1="980.94946"
       x2="34.479824"
       y2="1052.0378"
       gradientUnits="userSpaceOnUse" />
    <linearGradient
       inkscape:collect="always"
       xlink:href="#linearGradient3797"
       id="linearGradient3803"
       x1="35.989838"
       y1="51.432434"
       x2="35.989838"
       y2="108.26157"
       gradientUnits="userSpaceOnUse"
       gradientTransform="matrix(1.2057712,0,0,1,-7.3425861,-72)" />
    <linearGradient
       inkscape:collect="always"
       xlink:href="#linearGradient3816"
       id="linearGradient3822"
       x1="34.371315"
       y1="1052.3622"
       x2="34.371315"
       y2="981.34082"
       gradientUnits="userSpaceOnUse"
       gradientTransform="matrix(1,0,0,0.63512546,0,-596.51749)" />
    <clipPath
       clipPathUnits="userSpaceOnUse"
       id="clipPath3997">
      <rect
         ry="3.5977538"
         y="16.596304"
         x="9.3698635"
         height="38.807392"
         width="53.260277"
         id="rect3999"
         style="fill:none;stroke:#ffffff;stroke-width:1.70720434;stroke-miterlimit:4;stroke-opacity:1;stroke-dasharray:none;stroke-dashoffset:0;display:inline"
         transform="matrix(0.70710678,0.70710678,-0.70710678,0.70710678,0,0)" />
    </clipPath>
    <clipPath
       clipPathUnits="userSpaceOnUse"
       id="clipPath4001">
      <rect
         ry="3.5977538"
         y="16.596304"
         x="9.3698635"
         height="38.807392"
         width="53.260277"
         id="rect4003"
         style="fill:none;stroke:#ffffff;stroke-width:1.70720434;stroke-miterlimit:4;stroke-opacity:1;stroke-dasharray:none;stroke-dashoffset:0;display:inline" />
    </clipPath>
    <filter
       id="filter3846"
       inkscape:label="Drop shadow"
       width="1.5"
       height="1.5"
       x="-0.25"
       y="-0.25"
       color-interpolation-filters="sRGB">
      <feGaussianBlur
         id="feGaussianBlur3848"
         in="SourceAlpha"
         stdDeviation="2"
         result="blur" />
      <feColorMatrix
         id="feColorMatrix3850"
         result="bluralpha"
         type="matrix"
         values="1 0 0 0 0 0 1 0 0 0 0 0 1 0 0 0 0 0 0.5 0 " />
      <feOffset
         id="feOffset3852"
         in="bluralpha"
         dx="2"
         dy="2"
         result="offsetBlur" />
      <feMerge
         id="feMerge3854">
        <feMergeNode
           id="feMergeNode3856"
           in="offsetBlur" />
        <feMergeNode
           id="feMergeNode3858"
           in="SourceGraphic" />
      </feMerge>
    </filter>
    <marker
       style="overflow:visible"
       id="DotS0LG"
       refX="0"
       refY="0"
       orient="auto"
       inkscape:stockid="DotS0LG">
      <path
         inkscape:connector-curvature="0"
         transform="matrix(0.2,0,0,0.2,1.48,0.2)"
         style="fill:#000000;fill-rule:evenodd;stroke:#000000;stroke-width:1pt;marker-start:none;marker-end:none"
         d="m -2.5,-1 c 0,2.76 -2.24,5 -5,5 -2.76,0 -5,-2.24 -5,-5 0,-2.76 2.24,-5 5,-5 2.76,0 5,2.24 5,5 z"
         id="path9447" />
    </marker>
    <marker
       style="overflow:visible"
       id="TriangleOutMBVCe"
       refX="0"
       refY="0"
       orient="auto"
       inkscape:stockid="TriangleOutMBVCe">
      <path
         inkscape:connector-curvature="0"
         transform="scale(0.4,0.4)"
         style="fill:#000000;fill-rule:evenodd;stroke:#000000;stroke-width:1pt;marker-start:none"
         d="m 5.77,0 -8.65,5 0,-10 8.65,5 z"
         id="path9450" />
    </marker>
    <marker
       style="overflow:visible"
       id="DotS0LG-1"
       refX="0"
       refY="0"
       orient="auto"
       inkscape:stockid="DotS0LG">
      <path
         inkscape:connector-curvature="0"
         transform="matrix(0.2,0,0,0.2,1.48,0.2)"
         style="fill:#000000;fill-rule:evenodd;stroke:#000000;stroke-width:1pt;marker-start:none;marker-end:none"
         d="m -2.5,-1 c 0,2.76 -2.24,5 -5,5 -2.76,0 -5,-2.24 -5,-5 0,-2.76 2.24,-5 5,-5 2.76,0 5,2.24 5,5 z"
         id="path9447-7" />
    </marker>
    <marker
       style="overflow:visible"
       id="TriangleOutMBVCe-4"
       refX="0"
       refY="0"
       orient="auto"
       inkscape:stockid="TriangleOutMBVCe">
      <path
         inkscape:connector-curvature="0"
         transform="scale(0.4,0.4)"
         style="fill:#000000;fill-rule:evenodd;stroke:#000000;stroke-width:1pt;marker-start:none"
         d="m 5.77,0 -8.65,5 0,-10 8.65,5 z"
         id="path9450-0" />
    </marker>
    <marker
       style="overflow:visible"
       id="DotS0LG-9"
       refX="0"
       refY="0"
       orient="auto"
       inkscape:stockid="DotS0LG">
      <path
         inkscape:connector-curvature="0"
         transform="matrix(0.2,0,0,0.2,1.48,0.2)"
         style="fill:#000000;fill-rule:evenodd;stroke:#000000;stroke-width:1pt;marker-start:none;marker-end:none"
         d="m -2.5,-1 c 0,2.76 -2.24,5 -5,5 -2.76,0 -5,-2.24 -5,-5 0,-2.76 2.24,-5 5,-5 2.76,0 5,2.24 5,5 z"
         id="path9447-4" />
    </marker>
    <marker
       style="overflow:visible"
       id="TriangleOutMBVCe-8"
       refX="0"
       refY="0"
       orient="auto"
       inkscape:stockid="TriangleOutMBVCe">
      <path
         inkscape:connector-curvature="0"
         transform="scale(0.4,0.4)"
         style="fill:#000000;fill-rule:evenodd;stroke:#000000;stroke-width:1pt;marker-start:none"
         d="m 5.77,0 -8.65,5 0,-10 8.65,5 z"
         id="path9450-8" />
    </marker>
    <marker
       inkscape:stockid="DotS0LGp"
       orient="auto"
       refY="0"
       refX="0"
       id="DotS0LGp"
       style="overflow:visible">
      <path
         inkscape:connector-curvature="0"
         id="path9932"
         d="m -2.5,-1 c 0,2.76 -2.24,5 -5,5 -2.76,0 -5,-2.24 -5,-5 0,-2.76 2.24,-5 5,-5 2.76,0 5,2.24 5,5 z"
         style="fill:#e0e0e0;fill-rule:evenodd;stroke:#e0e0e0;stroke-width:1pt;marker-start:none;marker-end:none"
         transform="matrix(0.2,0,0,0.2,1.48,0.2)" />
    </marker>
    <marker
       inkscape:stockid="TriangleOutMBVCe8"
       orient="auto"
       refY="0"
       refX="0"
       id="TriangleOutMBVCe8"
       style="overflow:visible">
      <path
         inkscape:connector-curvature="0"
         id="path9935"
         d="m 5.77,0 -8.65,5 0,-10 8.65,5 z"
         style="fill:#e0e0e0;fill-rule:evenodd;stroke:#e0e0e0;stroke-width:1pt;marker-start:none"
         transform="scale(0.4,0.4)" />
    </marker>
    <marker
       style="overflow:visible"
       id="DotS0LGL"
       refX="0"
       refY="0"
       orient="auto"
       inkscape:stockid="DotS0LGL">
      <path
         inkscape:connector-curvature="0"
         transform="matrix(0.2,0,0,0.2,1.48,0.2)"
         style="fill:#880000;fill-rule:evenodd;stroke:#880000;stroke-width:1pt;marker-start:none;marker-end:none"
         d="m -2.5,-1 c 0,2.76 -2.24,5 -5,5 -2.76,0 -5,-2.24 -5,-5 0,-2.76 2.24,-5 5,-5 2.76,0 5,2.24 5,5 z"
         id="path3993" />
    </marker>
    <marker
       style="overflow:visible"
       id="TriangleOutMBVCe8K"
       refX="0"
       refY="0"
       orient="auto"
       inkscape:stockid="TriangleOutMBVCe8K">
      <path
         inkscape:connector-curvature="0"
         transform="scale(0.4,0.4)"
         style="fill:#880000;fill-rule:evenodd;stroke:#880000;stroke-width:1pt;marker-start:none"
         d="m 5.77,0 -8.65,5 0,-10 8.65,5 z"
         id="path3996" />
    </marker>
    <marker
       inkscape:stockid="DotS0LGpt"
       orient="auto"
       refY="0"
       refX="0"
       id="DotS0LGpt"
       style="overflow:visible">
      <path
         id="path10357"
         d="m -2.5,-1 c 0,2.76 -2.24,5 -5,5 -2.76,0 -5,-2.24 -5,-5 0,-2.76 2.24,-5 5,-5 2.76,0 5,2.24 5,5 z"
         style="fill:#440008;fill-rule:evenodd;stroke:#440008;stroke-width:1pt;marker-start:none;marker-end:none"
         transform="matrix(0.2,0,0,0.2,1.48,0.2)"
         inkscape:connector-curvature="0" />
    </marker>
    <marker
       inkscape:stockid="TriangleOutMBVCe8q"
       orient="auto"
       refY="0"
       refX="0"
       id="TriangleOutMBVCe8q"
       style="overflow:visible">
      <path
         id="path10360"
         d="m 5.77,0 -8.65,5 0,-10 8.65,5 z"
         style="fill:#440008;fill-rule:evenodd;stroke:#440008;stroke-width:1pt;marker-start:none"
         transform="scale(0.4,0.4)"
         inkscape:connector-curvature="0" />
    </marker>
    <marker
       inkscape:stockid="DotS0LGptv"
       orient="auto"
       refY="0"
       refX="0"
       id="DotS0LGptv"
       style="overflow:visible">
      <path
         id="path4195"
         d="m -2.5,-1 c 0,2.76 -2.24,5 -5,5 -2.76,0 -5,-2.24 -5,-5 0,-2.76 2.24,-5 5,-5 2.76,0 5,2.24 5,5 z"
         style="fill:#880000;fill-rule:evenodd;stroke:#880000;stroke-width:1pt;marker-start:none;marker-end:none"
         transform="matrix(0.2,0,0,0.2,1.48,0.2)"
         inkscape:connector-curvature="0" />
    </marker>
    <marker
       inkscape:stockid="TriangleOutMBVCe8qZ"
       orient="auto"
       refY="0"
       refX="0"
       id="TriangleOutMBVCe8qZ"
       style="overflow:visible">
      <path
         id="path4198"
         d="m 5.77,0 -8.65,5 0,-10 8.65,5 z"
         style="fill:#880000;fill-rule:evenodd;stroke:#880000;stroke-width:1pt;marker-start:none"
         transform="scale(0.4,0.4)"
         inkscape:connector-curvature="0" />
    </marker>
    <marker
       inkscape:stockid="DotS0LGptv"
       orient="auto"
       refY="0"
       refX="0"
       id="DotS0LGptv-9"
       style="overflow:visible">
      <path
         id="path4195-9"
         d="m -2.5,-1 c 0,2.76 -2.24,5 -5,5 -2.76,0 -5,-2.24 -5,-5 0,-2.76 2.24,-5 5,-5 2.76,0 5,2.24 5,5 z"
         style="fill:#880000;fill-rule:evenodd;stroke:#880000;stroke-width:1pt;marker-start:none;marker-end:none"
         transform="matrix(0.2,0,0,0.2,1.48,0.2)"
         inkscape:connector-curvature="0" />
    </marker>
    <marker
       inkscape:stockid="TriangleOutMBVCe8qZ"
       orient="auto"
       refY="0"
       refX="0"
       id="TriangleOutMBVCe8qZ-3"
       style="overflow:visible">
      <path
         id="path4198-7"
         d="m 5.77,0 -8.65,5 0,-10 8.65,5 z"
         style="fill:#880000;fill-rule:evenodd;stroke:#880000;stroke-width:1pt;marker-start:none"
         transform="scale(0.4,0.4)"
         inkscape:connector-curvature="0" />
    </marker>
    <linearGradient
       inkscape:collect="always"
       xlink:href="#linearGradient4496"
       id="linearGradient4502"
       x1="312.99448"
       y1="75.544235"
       x2="343.37827"
       y2="75.544235"
       gradientUnits="userSpaceOnUse" />
    <linearGradient
       inkscape:collect="always"
       xlink:href="#linearGradient4496"
       id="linearGradient4504"
       gradientUnits="userSpaceOnUse"
       x1="312.99448"
       y1="75.544235"
       x2="343.37827"
       y2="75.544235" />
    <linearGradient
       inkscape:collect="always"
       xlink:href="#linearGradient4496"
       id="linearGradient4506"
       gradientUnits="userSpaceOnUse"
       x1="312.99448"
       y1="75.544235"
       x2="343.37827"
       y2="75.544235" />
    <linearGradient
       inkscape:collect="always"
       xlink:href="#linearGradient4496"
       id="linearGradient4508"
       gradientUnits="userSpaceOnUse"
       x1="312.99448"
       y1="75.544235"
       x2="343.37827"
       y2="75.544235" />
    <linearGradient
       inkscape:collect="always"
       xlink:href="#linearGradient4496"
       id="linearGradient4510"
       gradientUnits="userSpaceOnUse"
       x1="312.99448"
       y1="75.544235"
       x2="343.37827"
       y2="75.544235" />
    <linearGradient
       inkscape:collect="always"
       xlink:href="#linearGradient4496"
       id="linearGradient4512"
       gradientUnits="userSpaceOnUse"
       x1="312.99448"
       y1="75.544235"
       x2="343.37827"
       y2="75.544235" />
    <linearGradient
       inkscape:collect="always"
       xlink:href="#linearGradient4496"
       id="linearGradient4515"
       gradientUnits="userSpaceOnUse"
       x1="312.99448"
       y1="75.544235"
       x2="343.37827"
       y2="75.544235"
       gradientTransform="matrix(0.71422332,0,0,0.71422332,196.01611,66.616447)" />
    <linearGradient
       inkscape:collect="always"
       xlink:href="#linearGradient4496"
       id="linearGradient4521"
       gradientUnits="userSpaceOnUse"
       x1="312.99448"
       y1="75.544235"
       x2="343.37827"
       y2="75.544235" />
    <linearGradient
       inkscape:collect="always"
       xlink:href="#linearGradient4496"
       id="linearGradient4523"
       gradientUnits="userSpaceOnUse"
       x1="312.99448"
       y1="75.544235"
       x2="343.37827"
       y2="75.544235" />
    <linearGradient
       inkscape:collect="always"
       xlink:href="#linearGradient4496"
       id="linearGradient4525"
       gradientUnits="userSpaceOnUse"
       x1="312.99448"
       y1="75.544235"
       x2="343.37827"
       y2="75.544235" />
    <linearGradient
       inkscape:collect="always"
       xlink:href="#linearGradient4496"
       id="linearGradient4527"
       gradientUnits="userSpaceOnUse"
       x1="312.99448"
       y1="75.544235"
       x2="343.37827"
       y2="75.544235" />
    <linearGradient
       inkscape:collect="always"
       xlink:href="#linearGradient4496"
       id="linearGradient4530"
       gradientUnits="userSpaceOnUse"
       x1="312.99448"
       y1="75.544235"
       x2="343.37827"
       y2="75.544235" />
    <linearGradient
       inkscape:collect="always"
       xlink:href="#linearGradient4496"
       id="linearGradient4533"
       gradientUnits="userSpaceOnUse"
       x1="312.99448"
       y1="75.544235"
       x2="343.37827"
       y2="75.544235"
       gradientTransform="matrix(1.1166667,0,0,1.1166667,-21.149999,-1.9812508)" />
    <linearGradient
       inkscape:collect="always"
       xlink:href="#linearGradient4496"
       id="linearGradient4536"
       gradientUnits="userSpaceOnUse"
       gradientTransform="matrix(1.1166667,0,0,1.1166667,-21.149996,-1.9812509)"
       x1="312.99448"
       y1="75.544235"
       x2="343.37827"
       y2="75.544235" />
    <linearGradient
       inkscape:collect="always"
       xlink:href="#linearGradient4561"
       id="linearGradient4567"
       x1="319.9968"
       y1="75.544235"
       x2="343.37589"
       y2="75.544235"
       gradientUnits="userSpaceOnUse" />
    <linearGradient
       inkscape:collect="always"
       xlink:href="#linearGradient4573"
       id="linearGradient4579"
       x1="322.69742"
       y1="65.924934"
       x2="322.69742"
       y2="85.015373"
       gradientUnits="userSpaceOnUse" />
    <linearGradient
       inkscape:collect="always"
       xlink:href="#linearGradient4573"
       id="linearGradient4581"
       gradientUnits="userSpaceOnUse"
       x1="322.69742"
       y1="65.924934"
       x2="322.69742"
       y2="85.015373" />
    <linearGradient
       inkscape:collect="always"
       xlink:href="#linearGradient4573"
       id="linearGradient4583"
       gradientUnits="userSpaceOnUse"
       x1="322.69742"
       y1="65.924934"
       x2="322.69742"
       y2="85.015373" />
    <marker
       inkscape:stockid="TriangleOutMV"
       orient="auto"
       refY="0"
       refX="0"
       id="TriangleOutMV"
       style="overflow:visible">
      <path
         inkscape:connector-curvature="0"
         id="path13183"
         d="m 5.77,0 -8.65,5 0,-10 8.65,5 z"
         style="fill:#440008;fill-rule:evenodd;stroke:#440008;stroke-width:1pt;marker-start:none"
         transform="scale(0.4,0.4)" />
    </marker>
    <filter
       id="filter3107"
       inkscape:label="Drop shadow"
       width="1.5"
       height="1.5"
       x="-0.25"
       y="-0.25"
       color-interpolation-filters="sRGB">
      <feGaussianBlur
         id="feGaussianBlur3109"
         in="SourceAlpha"
         stdDeviation="2"
         result="blur" />
      <feColorMatrix
         id="feColorMatrix3111"
         result="bluralpha"
         type="matrix"
         values="1 0 0 0 0 0 1 0 0 0 0 0 1 0 0 0 0 0 0.4 0 " />
      <feOffset
         id="feOffset3113"
         in="bluralpha"
         dx="2"
         dy="2"
         result="offsetBlur" />
      <feMerge
         id="feMerge3115">
        <feMergeNode
           id="feMergeNode3117"
           in="offsetBlur" />
        <feMergeNode
           id="feMergeNode3119"
           in="SourceGraphic" />
      </feMerge>
    </filter>
    <linearGradient
       inkscape:collect="always"
       xlink:href="#linearGradient3789"
       id="linearGradient3132"
       gradientUnits="userSpaceOnUse"
       x1="34.479824"
       y1="980.94946"
       x2="34.479824"
       y2="1052.0378" />
    <linearGradient
       inkscape:collect="always"
       xlink:href="#linearGradient3816"
       id="linearGradient3134"
       gradientUnits="userSpaceOnUse"
       gradientTransform="matrix(1,0,0,0.63512546,0,-596.51749)"
       x1="34.371315"
       y1="1052.3622"
       x2="34.371315"
       y2="981.34082" />
    <linearGradient
       inkscape:collect="always"
       xlink:href="#linearGradient3797"
       id="linearGradient3136"
       gradientUnits="userSpaceOnUse"
       gradientTransform="matrix(1.2057712,0,0,1,-7.3425861,-72)"
       x1="35.989838"
       y1="51.432434"
       x2="35.989838"
       y2="108.26157" />
  </defs>
  <metadata
     id="metadata7">
    <rdf:RDF>
      <cc:Work
         rdf:about="">
        <dc:format>image/svg+xml</dc:format>
        <dc:type
           rdf:resource="http://purl.org/dc/dcmitype/StillImage" />
        <dc:title></dc:title>
      </cc:Work>
    </rdf:RDF>
  </metadata>
  <g
     inkscape:label="Layer 1"
     inkscape:groupmode="layer"
     id="layer1"
     transform="translate(0,-995.36218)"
     style="display:inline" />
  <g
     inkscape:groupmode="layer"
     id="layer4"
     inkscape:label="Glass effect lower"
     style="display:inline"
     transform="translate(0,-15)" />
  <g
     inkscape:groupmode="layer"
     id="layer2"
     inkscape:label="Glass effect upper"
     style="display:inline"
     transform="translate(0,-15)" />
  <g
     inkscape:groupmode="layer"
     id="layer3"
     inkscape:label="pictogram"
     style="display:inline"
     transform="translate(0,-15)" />
  <g
     inkscape:groupmode="layer"
     id="layer5"
     inkscape:label="Portforward"
     transform="translate(0,-15)">
    <g
       style="display:inline"
       id="g9750-2"
       transform="matrix(1.4943914,0,0,1.4943914,-301.70045,-93.51766)">
      <g
         id="g3120"
         transform="matrix(0.79025201,0,0,0.79025201,42.416308,23.233406)">
        <rect
           ry="12.72973"
           y="980.85535"
           x="0.49315068"
           height="71.013702"
           width="71.013702"
           id="rect2996"
           style="fill:url(#linearGradient3132);fill-opacity:1;stroke:#ffffff;stroke-width:0.98630136;stroke-miterlimit:4;stroke-opacity:0.16470588;stroke-dasharray:none;stroke-dashoffset:0;display:inline"
           transform="matrix(0.66916873,0,0,0.66916873,201.88851,-593.44862)" />
        <path
           transform="matrix(0.66916873,0,0,0.66916873,201.88851,62.579094)"
           inkscape:connector-curvature="0"
           id="rect3812"
           d="m 5.09375,26.375 c -2.2610833,0 -4.11757053,1.574365 -4.59375,3.6875 l 0,28.71875 C 0.5,65.83352 6.1664798,71.5 13.21875,71.5 l 45.5625,0 C 65.83352,71.5 71.5,65.83352 71.5,58.78125 l 0,-28.71875 C 71.023821,27.949365 69.167333,26.375 66.90625,26.375 l -61.8125,0 z"
           style="fill:url(#linearGradient3134);fill-opacity:1;stroke:none;display:inline" />
        <path
           transform="matrix(0.66916873,0,0,0.66916873,201.88851,62.579094)"
           inkscape:connector-curvature="0"
           id="path3779"
           d="M 13.21875,0.5 C 6.1664798,0.5 0.5,6.1664798 0.5,13.21875 l 0,16.59375 c 9.718665,3.893295 22.057287,6.25 35.5,6.25 13.442713,0 25.781335,-2.356705 35.5,-6.25 l 0,-16.59375 C 71.5,6.1664798 65.83352,0.5 58.78125,0.5 l -45.5625,0 z"
           style="fill:url(#linearGradient3136);fill-opacity:1;stroke:#ffffff;stroke-width:1.09807611;stroke-opacity:0.07051284;display:inline" />
        <rect
           transform="matrix(0.66916873,0,0,0.66916873,201.88851,62.579094)"
           style="fill:#ffffff;fill-opacity:0.8;stroke:#404040;stroke-width:1.52085364;stroke-miterlimit:4;stroke-opacity:1;stroke-dasharray:none;stroke-dashoffset:0;display:inline;filter:url(#filter3846)"
           id="rect3840-4"
           width="47.446629"
           height="34.571354"
           x="12.276687"
           y="18.714323"
           ry="3.2050393" />
        <path
           transform="matrix(0.59612532,0,0,0.59612532,204.51807,65.208657)"
           clip-path="url(#clipPath4001)"
           id="rect3911-5"
           d="M 26.625,36 -2.9375,65.53125 c -2.6975772,2.697577 -2.6975772,7.052423 0,9.75 l 34.0625,34.0625 c 2.697577,2.69758 7.052423,2.69758 9.75,0 l 34.0625,-34.0625 c 2.697577,-2.697577 2.697577,-7.052423 0,-9.75 L 45.375,36 l -4.5,4.5 c -2.697577,2.697577 -7.052423,2.697577 -9.75,0 l -4.5,-4.5 z"
           style="fill:none;stroke:#404040;stroke-width:1.12253034;stroke-miterlimit:4;stroke-opacity:1;stroke-dasharray:none;stroke-dashoffset:0;display:inline"
           inkscape:connector-curvature="0" />
        <rect
           clip-path="url(#clipPath3997)"
           transform="matrix(0.42152425,-0.42152425,0.42152425,0.42152425,204.51807,65.208657)"
           ry="6.8861918"
           y="-4.4009666"
           x="-6.6337185"
           height="61.946373"
           width="61.946373"
           id="rect3911"
           style="fill:none;stroke:#404040;stroke-width:1.12253034;stroke-miterlimit:4;stroke-opacity:1;stroke-dasharray:none;stroke-dashoffset:0;display:inline" />
        <g
           id="g4227"
           style="display:inline;filter:url(#filter3107)"
           transform="matrix(0.66916873,0,0,0.66916873,201.88851,62.579094)">
          <path
             sodipodi:type="arc"
             style="fill:#e0e0e0;fill-opacity:1;stroke:#333333;stroke-width:1.66604102;stroke-miterlimit:4;stroke-opacity:1;stroke-dasharray:none;display:inline"
             id="path8879"
             sodipodi:cx="128.96875"
             sodipodi:cy="94"
             sodipodi:rx="11.34375"
             sodipodi:ry="12.0625"
             d="m 140.3125,94 c 0,6.66193 -5.07877,12.0625 -11.34375,12.0625 -6.26498,0 -11.34375,-5.40057 -11.34375,-12.0625 0,-6.661935 5.07877,-12.0625 11.34375,-12.0625 6.26498,0 11.34375,5.400565 11.34375,12.0625 z"
             transform="matrix(0.74273845,0,0,0.698482,-37.26461,-7.182747)" />
          <path
             sodipodi:nodetypes="cc"
             inkscape:connector-curvature="0"
             id="path4750"
             d="m 52.238788,58.474868 8.032355,-4.2e-4"
             style="fill:none;stroke:#333333;stroke-width:4;stroke-linecap:butt;stroke-linejoin:miter;stroke-miterlimit:4;stroke-opacity:1;stroke-dasharray:none;marker-end:none;display:inline" />
          <path
             style="fill:#333333;fill-opacity:1;stroke:none"
             d="m 57.5625,52.4375 0,6 0,6 7.9375,-6 -7.9375,-6 z"
             id="path4222"
             inkscape:connector-curvature="0" />
        </g>
      </g>
    </g>
  </g>
</svg>
