<?xml version="1.0" encoding="UTF-8" standalone="no"?>
<!-- Created with Inkscape (http://www.inkscape.org/) -->

<svg
   xmlns:dc="http://purl.org/dc/elements/1.1/"
   xmlns:cc="http://creativecommons.org/ns#"
   xmlns:rdf="http://www.w3.org/1999/02/22-rdf-syntax-ns#"
   xmlns:svg="http://www.w3.org/2000/svg"
   xmlns="http://www.w3.org/2000/svg"
   xmlns:sodipodi="http://sodipodi.sourceforge.net/DTD/sodipodi-0.dtd"
   xmlns:inkscape="http://www.inkscape.org/namespaces/inkscape"
   width="16"
   height="16"
   id="svg5361"
   version="1.1"
   inkscape:version="0.92.2 (5c3e80d, 2017-08-06)"
   sodipodi:docname="g_restart_action_man_icon_16x16.svg"
   inkscape:export-filename="C:\GOn\graphics\GOn version 5.8\Management\Icons\Gateway servers\g_restart_action_man_icon_16x16.png"
   inkscape:export-xdpi="96"
   inkscape:export-ydpi="96">
  <defs
     id="defs5363" />
  <sodipodi:namedview
     id="base"
     pagecolor="#ffffff"
     bordercolor="#666666"
     borderopacity="1.0"
     inkscape:pageopacity="0.0"
     inkscape:pageshadow="2"
     inkscape:zoom="22.627417"
     inkscape:cx="13.838184"
     inkscape:cy="5.4425731"
     inkscape:document-units="px"
     inkscape:current-layer="layer1"
     showgrid="false"
     inkscape:window-width="1680"
     inkscape:window-height="987"
     inkscape:window-x="1672"
     inkscape:window-y="23"
     inkscape:window-maximized="1" />
  <metadata
     id="metadata5366">
    <rdf:RDF>
      <cc:Work
         rdf:about="">
        <dc:format>image/svg+xml</dc:format>
        <dc:type
           rdf:resource="http://purl.org/dc/dcmitype/StillImage" />
        <dc:title />
      </cc:Work>
    </rdf:RDF>
  </metadata>
  <g
     inkscape:label="Layer 1"
     inkscape:groupmode="layer"
     id="layer1"
     transform="translate(0,-1036.3622)">
    <circle
       cy="1044.3623"
       cx="7.9999957"
       id="path3830-35"
       style="fill:#173e86;fill-opacity:1;stroke:none;stroke-width:1.73486578"
       r="8" />
    <g
       id="layer3-37"
       inkscape:label="pictogram"
       style="display:inline;stroke:#ffffff"
       transform="translate(0,980.36215)">
      <g
         id="g3865-1"
         style="stroke:#ffffff">
        <path
           inkscape:connector-curvature="0"
           id="path3834-1"
           d="m 8,57.987977 v 3.012046"
           style="fill:#e0e0e0;fill-opacity:1;stroke:#ffffff;stroke-width:1.99999976;stroke-linecap:round;stroke-linejoin:miter;stroke-miterlimit:4;stroke-dasharray:none;stroke-opacity:1" />
        <path
           style="fill:#e0e0e0;fill-opacity:1;stroke:#ffffff;stroke-width:1.99999976;stroke-linecap:round;stroke-linejoin:miter;stroke-miterlimit:4;stroke-dasharray:none;stroke-opacity:1"
           d="M 8,66.987954 V 70"
           id="path3863-2"
           inkscape:connector-curvature="0" />
      </g>
      <g
         id="g3869-9"
         transform="rotate(-45,8.0000007,63.993988)"
         style="stroke:#ffffff">
        <path
           style="fill:#e0e0e0;fill-opacity:1;stroke:#ffffff;stroke-width:1.99999976;stroke-linecap:round;stroke-linejoin:miter;stroke-miterlimit:4;stroke-dasharray:none;stroke-opacity:1"
           d="m 8,57.987977 v 3.012046"
           id="path3871-6"
           inkscape:connector-curvature="0" />
        <path
           inkscape:connector-curvature="0"
           id="path3873-9"
           d="M 8,66.987954 V 70"
           style="fill:#e0e0e0;fill-opacity:1;stroke:#ffffff;stroke-width:1.99999976;stroke-linecap:round;stroke-linejoin:miter;stroke-miterlimit:4;stroke-dasharray:none;stroke-opacity:1" />
      </g>
      <g
         transform="rotate(-90,8.0000005,63.993988)"
         id="g3875-4"
         style="stroke:#ffffff">
        <path
           inkscape:connector-curvature="0"
           id="path3877-3"
           d="m 8,57.987977 v 3.012046"
           style="fill:#e0e0e0;fill-opacity:1;stroke:#ffffff;stroke-width:1.99999976;stroke-linecap:round;stroke-linejoin:miter;stroke-miterlimit:4;stroke-dasharray:none;stroke-opacity:1" />
        <path
           style="fill:#e0e0e0;fill-opacity:1;stroke:#ffffff;stroke-width:1.99999976;stroke-linecap:round;stroke-linejoin:miter;stroke-miterlimit:4;stroke-dasharray:none;stroke-opacity:1"
           d="M 8,66.987954 V 70"
           id="path3879-0"
           inkscape:connector-curvature="0" />
      </g>
      <g
         id="g3881-1"
         transform="rotate(-135,8.0000013,63.99399)"
         style="stroke:#ffffff">
        <path
           style="fill:#e0e0e0;fill-opacity:1;stroke:#ffffff;stroke-width:1.99999976;stroke-linecap:round;stroke-linejoin:miter;stroke-miterlimit:4;stroke-dasharray:none;stroke-opacity:1"
           d="m 8,57.987977 v 3.012046"
           id="path3883-79"
           inkscape:connector-curvature="0" />
        <path
           inkscape:connector-curvature="0"
           id="path3885-7"
           d="M 8,66.987954 V 70"
           style="fill:#e0e0e0;fill-opacity:1;stroke:#ffffff;stroke-width:1.99999976;stroke-linecap:round;stroke-linejoin:miter;stroke-miterlimit:4;stroke-dasharray:none;stroke-opacity:1" />
      </g>
    </g>
  </g>
</svg>
