<?xml version="1.0" encoding="UTF-8" standalone="no"?>
<!-- Created with Inkscape (http://www.inkscape.org/) -->

<svg
   xmlns:dc="http://purl.org/dc/elements/1.1/"
   xmlns:cc="http://creativecommons.org/ns#"
   xmlns:rdf="http://www.w3.org/1999/02/22-rdf-syntax-ns#"
   xmlns:svg="http://www.w3.org/2000/svg"
   xmlns="http://www.w3.org/2000/svg"
   xmlns:xlink="http://www.w3.org/1999/xlink"
   xmlns:sodipodi="http://sodipodi.sourceforge.net/DTD/sodipodi-0.dtd"
   xmlns:inkscape="http://www.inkscape.org/namespaces/inkscape"
   width="74"
   height="22.799999"
   id="svg3526"
   version="1.1"
   inkscape:version="0.48.0 r9654"
   sodipodi:docname="image_logo.svg"
   inkscape:export-filename="C:\Users\emo.GIRITECH\Documents\Shared Graphics\Android\Icons\ldpi\image_logo.png"
   inkscape:export-xdpi="90"
   inkscape:export-ydpi="90">
  <defs
     id="defs3528" />
  <sodipodi:namedview
     id="base"
     pagecolor="#ffffff"
     bordercolor="#666666"
     borderopacity="1.0"
     inkscape:pageopacity="0.0"
     inkscape:pageshadow="2"
     inkscape:zoom="2.8"
     inkscape:cx="109.7697"
     inkscape:cy="-7.9416975"
     inkscape:document-units="px"
     inkscape:current-layer="layer1"
     showgrid="false"
     fit-margin-top="0"
     fit-margin-left="0"
     fit-margin-right="0"
     fit-margin-bottom="0"
     inkscape:window-width="918"
     inkscape:window-height="954"
     inkscape:window-x="391"
     inkscape:window-y="-7"
     inkscape:window-maximized="0" />
  <metadata
     id="metadata3531">
    <rdf:RDF>
      <cc:Work
         rdf:about="">
        <dc:format>image/svg+xml</dc:format>
        <dc:type
           rdf:resource="http://purl.org/dc/dcmitype/StillImage" />
        <dc:title></dc:title>
      </cc:Work>
    </rdf:RDF>
  </metadata>
  <g
     inkscape:label="Layer 1"
     inkscape:groupmode="layer"
     id="layer1"
     transform="translate(-275.41364,-487.48489)">
    <image
       style="display:inline"
       y="487.48489"
       x="275.41364"
       id="image3172"
       xlink:href="data:image/png;base64,iVBORw0KGgoAAAANSUhEUgAAAXIAAAByCAYAAABOU1q9AAAABHNCSVQICAgIfAhkiAAAH5NJREFU eJztnXucHFWZ97/VQy5AApGEqwiVgILIpZKTbLiDIJeSIOByvwRwdWVl5UVfQV3FFdRFEFTkBXQB UUQJIK8aWCtigEDQFcJDCqKRi0CxqBDutwRIMtP7x6kOnclMpvqc013dPef7+dRnLjnn1DOT6aee fs55fk9QrVbpBkTkXcA4YP0BrgrwOvBa/0sp9XYpBncYInI48IuCwz+vlLqwmfY0QhrGFWAr4H3A dvnH9wIbAWOAsfnHMUAv8EZ+vZ5/fB54DHi0dkVZ8rfW/hQez+AEneTIRWQTYBqwLTARCPOPE9Ev RhOWo516BjwMPJJ/fBh4zDt6jYjMBg4tMHQl8B6l1LNNNmmtpGG8I7B/fu0DbOD4Fi8AdwK3A7dH WfIXx+t7PIVpW0cuIusAEbBrfu0GTGqxGX1oB/8gcAdwh1JqcYttKB0R2Qx4GlinwPDZSqnDmmzS gKRhvAdwCvqBs2mLb/8/wP8HfhhlyaIW39vTQubNmzd6zJgxXzCcfs/UqVPnLly4cIfe3t6ja98M gmCBUuq/hposIttUq9WT6r5139SpU39d5IXZMkRkFHAgcCTwEXSqpEwq6IfHJOAIABF5Bu3Ubwfm KKWeKc+8ljGTYk4c4IfNNKQ/aRhvibbvFHS6pCy2As4EzkzD+H707+H6KEteKdEmTxMYN27c6N7e 3n83nH4BMLe3t3e3IAjq1/gLMKQjBz4VBMFna19Uq9XrgPIdeR55HwocBczAPEXSKjYHTsivXhFJ gKuBW5VSK0u1rHmcWnDcEor9MVqThvEk4BzgRIo/ZFrF1Py6MA3j/wdcFGXJiyXb5HFEb29vFRgo 5VoBRuSf9wErBhizAiAIggm15YAeYFsRma6Uunew+9500009kyZNOi7/ciWwTqVSGQ8lvgBEZCPg n4HTgS3LssOSHvTDZwawREROV0rdXLJNThGR3YDtCw6/ttkPszSMJwJfprF3CWUxBvgCcHoaxpcC F0dZ8lLJNnksUUq9Cozu//37779/3yAI7sy//IlS6pS1LFNz5A+ig8PNgyA4ERjUkW+zzTYfqlar mwPPVavVh4Mg2LtarY4H/QRpKSKyvYhcgc65nk/nOvH+bAosK9uIJvCxBsY2La2ShvHoNIzPR29G f4z2d+L1jAX+DXgiDeN/KtsYT1swAaBarb4dBMHc/PNj5s2bN+jfdV1uPAmCoBYwtdaRi8i7ReRH wGLgNGC9Vt27RbyBzp13DSKyHnBMweG/V0o93Aw78k3MFB3djhhieDuzIXBVGsZz0jB+T9nGeEpl AkClUlne19c3N//exmPGjDlwoMGLFy8eAxwOUK1Wb62+c0qlNY5cRNYTka+iz9+eDATNvmdJzOnC o4pHUnzPwnk0nobxunlKYj76/He3cBDwxzSMG3m34+kuahH58p6enpojJ0+vrMGyZcs+iq6JWdHb 23tbEAR9+T9teNNNN/U01ZGLyAnoQop/p/si8P78qmwDmkBRR7MUuMHljfOI9R7gX+nOh/8GwNVp GF+ehnEnpYk8bqjlyJdPnjz57+hMBcBhefS9GpVKpZZWuWf69OmvAbWIPNh22203aoojF5FxIjIL uA7Yohn3aDNW0qLTGq1CRLYB9i44/Eal1Buu7p2G8Z7A/cAUV2u2Mf8C3JaG8fiyDfG0lJojXwYQ BMGt+dfrLVu27Ij6gQsXLtyiWq3ul4+bnX98q/bvfX19451HAiKyF9qBb+V67TZmvlLq5bKNcMyp FI+Er3Z10zSMPw5cTvNy4X9D59tT4HHgVeCV/ONydKQ8Dp3P3hRdlDYFeD/6lFIz+CBwbxrGh0RZ 8kiT7uFpE+bNm7fO2LFjN8y/fAWgr69vVhAEZ8Oq9MpPauOr1eoJ6DR4b7VavSH/Xr2/meDMkYtI Bfgq8CVat4n6V/TplxeGuALW1F9ZL/+4MatrcGxI43RVWiX/vzy54PBHlFK/c3HfNIzPBL7jYq1+ PAhcCdwYZcnzJgukYbwusC/6yOyhuHfq2wB3pGG8jy/3727WXXfd8eRBUrVafQVg6tSpC0XkUbQP 2n/BggWbTZs27dl8TC2tcnutALFarb4cBDrOqlarbiJyERmNfoIc6WK9tfASWt9iLjBXKeX8D15E NkU79Z2AA4D9GHrDb7ZrO0rmAIofC3WyydkEJ/46cD1wVZQlC2wXi7LkTSABkjSM3w18PL9cHp/d Au3M946yJHO4rqeNqFQqE+o+r6/8vQFd5NbT09NzKHDlfffdN7Gnp2cnWFXFCUAQBPURub0jzwt7 ZgN72K41AG+hN7zm5tdCpVTf2qfYoZRagq5QvBu4TERGALsDBwMfBnbuN2WRUurJZtpUAkU3OVcC 19rezLETvx/4PjArypKljtZcjVz58Nw0jL8OHAJ8Eohxsyn7Ht6JzJ92sJ6n/ZhQ9/mrtU8qlcqs vr6+cwD6+voOBq7s6ek5KP/npeutt169+ujLdfPsHLmITERHKa6Phj0HXAxc7nITzQSl1Argrvz6 oohMRr9wj0dH6t2WVtkIKCp69WtblcM0jE/FjRNfgU7rXRRlSUuU4KIs6UUHMbPTMD4AvTe0iYOl JwK/SsN41yhLljtYz9NG1JXnQ54jB5g8efJiEVkE7BQEwf55Lr3myH+5ww47vFG3xku1o+TVanW8 cS5bREJ0tOzSiT8DfBaYqJS6sGwnPhBKqYVKqdPQb4M/AfysZJNcczwwquBYq7RKGsbTgSts1sh5 HNg9ypJvtcqJ9yfKkt+iN0bvHGpsQSYD5zlay9NerHLktRx5jSAIZuWfbjhmzJg90aldgiC4rn5c X1/faqkVI0cuIhsDt+HuaOHfgDOASUqp7yil2r7UXSn1hlLqKqXUn8u2xTFF0ypWAllpGG+Gln0t +tAYjOuAyVGW3G+5jjVRljwDfAg4Fy2aZMtZaRjv42AdT3sxqCPv6+ubVffluehTVEsef/zx39aP 6+npsXPkIjIWnU5xIRn6KvAptAO/VCn11lATPM1DRCJ0JFgEY4GsNIxHAjdjFwi8AcyMsuSkKEte t1jHKVGW9EVZ8lX0hrFtc40KcG0axiYnqTzty6COfOrUqU8EQbAAIAiCvfMx1x911FG99ePqI/KG UysiMhLd7ks1bvsa/AmYppS6Qinl84DtQasEss5DbyCbshTYJ8qSnww5siSiLLkD/VB8wnKprdDn 6j3dwypHPnLkyDX06qvVan1UTqVSua7/mBEjRqxS0QyCoOGI/GJ06yxbbgJ2VUo95mAtjwPyh/QJ BYcbC2SlYTwF+JzJ3Jw+4LgoSx6wWKMlRFnyLPpUi21ziePTMD5u6GGeDmGVIw+CYI2/jZUrV97I OyX4D0+ZMkX6j1mxYsVqBUGFHbmIHIbWvbChFzhbKXV0O25kDnMOQzcjLoJRNJ5rivwQu2Kaz0RZ covF/JYSZcnD6KYptjrtl3vFxPamWq2+EgTBXUEQ3IXu+TsgQRA8mY+5Y+edd17jiOz06dP/ig52 LgiC4KyB1shP0/0mX+ehQj07RWRLdHVc0Rf6QLwAHKuUut1iDU+TyDsdHVxg6FJgM5MHcRrGXwK+ 3ui8Oi6NsuQMi/mlkYbxPwM/sFxmHrBfWSdzPO3LkBG5iPQAP8XOiWeA8k68Pckf1APqIA+AkUBW GsZbo6vWTLkV+IzF/FKJsuQ/gW9bLrMvuvDI41mNIqmV/0NxFbyBWAYcrpT6H4s1PM1lJsX1cUwF sr6C+VHDRcCxeQFOJ3MWYJsW+uzQQzzDjbWmVnLdkUfRZxlNOVYp5VSr2uMWEXkM2LbA0EeUUkX7 d64iDeP3An/GPDe+b5QldxnObSvSMN4crdG/vsUyUZQlDzoyydMFDBWF/Qd2TvwC78TbGxHZm2JO HMyPHJ6LuRP/Zbc4cVhVNHSh5TIdm2LyNIdBHbmITENrUpsyB91w1tPeNFUgKw3jHSne97M/K4Cz Dee2Mxehq5lNOS6P7D0eYO0R+SWYq7k9BhzXbKVCjx15lW5R6eHEUCDrTMz16S+LsqTrag2iLFmG FvgyZSRwuiNzPF3AgC8wEdkP2M1wzeXozU3bIghP8zma4rnahjc50zDeADi20Xk5L9PdolHXAgst 5p+WN7voatIwDtIwHpeG8RZpGHd7319jBpOxtam8u0YptXjoYZ42oNkCWSdhvql3XpQl3dY+bxVR llTTMP6/wB2GS4xHd3H6vjuryiMN4wnAdGDX/ONE4F35Vakb9xa6JuVZ4A9oeem7oyx5rtU2txNr nFoRkQ+gj3uZpFVWANv6o4btj4hsx1qqz/rxLaVUw7nqNIwfQndaapQlwHuiLFlhMLejSMN4Luay F48A73dZIJT3TG2kT8EteaMNk3tthpaFmMmaDVsa5WFgFnDFcHTqA/2HfQ7z3Pg13ol3DE0VyErD eDfMnDjADcPBiedci7kj3w6tgW6TounPRTTWt/bvNLhxm4bx/ujz8Afhrvfp9uiewV9Mw/hnwHei LFnkaO22Z7Ucea4zfrzhWivQxxU9bU5erXvSkAM1pgJZhxrMqbGG2lsX8wvgTYv5rvXK325w/Lii A9MwnpKG8W3oto0fxn0Da9BFZ6cCD6VhPDuP+rue/pudH0XviJvwI6XUU5b2eFpDDBQ9vmZ6dnxf w3mPuWiW3CnkWuo2zbtdO/JGewIM6cjTMB6VhvGV6H6qBxhZZcahaId+SAvvWQr9HflRhuv4aLyz KJpWWYru7N0QaRivD0xtdF7OTw3ndTI270D2SsPYRdPnGk4deR4R3wV8HDfNqRtlY+DWNIy/l4bx 6BLu3xJWOXIRmYB5FHWtUipzYZCnueTpsxkFhxsJZAF7ACMM5kH39UAtwm+AFw3njgc+4NAWZ448 DWOFjsKnW1nkhk8Dv8uPxHYd9RH5EZjnrK53YIunNZxIcSdrKpC1r+G8+7qxAGgo8o3dGy2WcJle cZIjT8P4GGA+8G5ri9wxBbg5DWPTIKNtqXfk/2i4xpvAPQ5s8bSGommVR5RSvzO8xwcN5w3ngGDW 0EMGxaUjbzQif1f/b6Rh/DX0z9OOBUsfAq4s2wjXVGDVKYY9DNeYr5Rq9CnuKYFcP2fHgsNNuwCN wTw/Pt9wXjdwL3qvyQQbmen+WKVW0jA+DfiyO3OawslpGJ9bthEuqUXkETDGcI25jmzxNJ+mCmTl 7EFjBSU1VgB/NLxnxxNlyduY//ybpmHcsLzwIBg78jSM349984xW8ZU0jE2PWrcdtRecaTQO8FsX hniai4iMprjuialAFpjnxxfnzmw4I8Bkw7l7U7xSd20Y5cjTMB6FTo01mk7pQ//cd6I7iT2bX6PR +fXatQP6b8vl2fNvpWH8y1zErKOpOfI9Dec/j+7l6Wl/Pkrx4g3TTU4wd+QuqxM7lfvRx/RMmAr8 pwMbTCPy84FdGpj3ALqKdE5RTZ38KOOx6A171YiRg7AFcAbwTQdrlYptRH67Uso3gu0Mmi2QRa7G Z5of945cO3JTNnZkQ6OOfIM0jGO0XHERBPhylCVzGrwPUZY8C3wX+G4axh8BrsL+5/58GsY/6HSB toqIjEc/mUzw+fEOQES2BvYrOPxapdRKw1tthll+HHSENtxZhJaBNmG8IxsadeQVdGPsoYp9VqA3 QaebOPH+RFkyG63lYxR01DEO+IKtPWVTASZZzL/XlSGepnIKxavqTEvyASYYzqviU3REWbIceMhw elmOHIZuHPIC2oF/w2UD7ShLlkRZMgO4wnKpT6dh3E7n3RvG1pEvcWWIpzmISIB25EUwFciqYerI /5JrjnjMT664cuSuN5zfAOIoS5qZOvs0urWkKesCn3JkSylUgG0M5/ZhXlbsaR37AWHBsTbROJg7 8qct79tNvGQ4byNH9zeJyAdjOXBElCU2uf8hyaP8o7E7vnqwI3NKwSYif8n35OwImiqQ1Q9TR+7b Ar6D6e9ihCMdEVeOvA84McqSluyj5e/oPmGxxOQ0jDdxZU+rqVA8WuvP8w7t8DQBEdkQraFTBFOB rHq8I7fH5vSEi/SKK0d+epQlNzlaqxBRlvwB+JXh9IDWSuw6pQKYPsW9I29/jqN4gYbN2fEa3pHb Y/O7cOHIXeTI746ypKxeol9GvxswoWPTKxXMm+MOu754HUgrBLLq8Y7cnrIduYuI/DwHaxgRZckf gVsMpx/oWNu9ZayDuSNvu4hcREbRPidp5iqljizr5iKyIzCt4PBrHN3WO3J7ynbktr1Sfx9lye0O 7LDhZuAwg3mb4L4HakvoKkeOznM10ji2mZiKkLni1ILjVgI/dnRPU0fiHfk72Pwu1pCULYHSovE6 bkE/kEx0x/emAx25TWrFHz1sU0RkBMWbK9sIZPXHR+T22OSoTStyXXFflCW/KdkGoix5BZhnOL0j mzVX0F2nTWhH0XiPZgbFNShcbHLWMD3LbNNFvtuweUdZtorfJSXfv547DOeZBiOlUsH8P99VJZnH PU0XyBqEpYbziqoyDgdsfhdlPxDnlXz/ehYbznMlPtZSvCPvMkRkM4ofo7IRyBoI03RbO+R22wWb 30WZEfmTUZb8vcT792fYOXLTKMo78vZkJsUVCG1L8vvzguE8V+Xl3YBNRF6mI29qGb4BT2K23zDs Uisd+QMPA4qeVrEVyBoIH5Hb06mO3PQh3hRy/ZUnDab6iNxTLiKyO1C0d6PraBx8RO4Cm4damad/ 2rExw2sGc8alYWyqqV8aFcx+WPCOvB0pGo27EMgaCB+R22MTkZepItmOR0hNtIMCOtC3VdANT03Y KNe69rQBIrI+cEzB4S4EsgbCO3J7TB35c1GWlHlqxbYitBmYatx33CmqdYAnDOf2oM+8ts2TWCn1 log0wyncinlf01ZxJDC24NhmpFXAPLXSkXnJJjHRcN5TTq3oDkyDlY4LUNcBHreYHwKpG1PcoJRy /mARkbIr5orQiEDWPU2ywTQi3z4N41FRlrjuTtNR5LnZyHC6d+Rr0gmvWydUMI/IAfZxZYjHHBHZ Bq0RUQRXAlkDYRqRjwR2cWlIh7IjMNpwrnfkw5gKdhH5B10Z4rGiDIGsgbDR3/kHZ1Z0LlMt5toE ZJ4Op6KUehlzbfF9RGSoDtqeJpL//k8uONylQNZAPAWYdkn3jry47PBAtFtBjqeF1JzwHwznj8M8 p+dxw4HAlgXHuhTIWoMoS17DfM/EO3LziHw58KBLQzydha0jB92l3VMeRdMqrgWyBmOe4bz3pWHc LlryLScN41HATobTHxruG8XDnZoj/2+LNXyevCREZCOKd0JxLZA1GPMM5wXY5Yg7nV0wa4QAcJ9L QzydR82RL8A8t7mXiHRcSWuXcALF9eSbdXa8P/Mxb367p0tDOox9LeYucGWEpzOpACillgKLDNcY i90mjcecomfHmyGQNSBRlryKeZ78RJe2dBg2P/t8Z1Z4OpL6Eyc2+dNP2RriaQwRiSi+0dyqaLzG PMN526ZhXPQ8fNeQhvFkzPPji6MssTlC7OkC6h35zy3WOVZEQktbPI1RNBpvlkDW2phnMbfoz9VN zLSYO9uZFZ6OZZUjV0qlmBcVrAOc5cQiz5CIyCh0frwIzRLIWhs2efIj0zAuqhnT8eRl+cdbLOEd uYf+xTw3W6z1MRHZ1MYYT2EOo7iGd6vTKrUu5qZ58vWBox2a0+4cBGxiOHcJcK9DWzwdiktHPhr4 jMV8T3GKnh1/tIkCWUMx12LucEqvFK3KHYjZUZaYvvPxdBGrOXKl1L3AHy3W+xcR6Tgt305CRLZE V3MWoeXReB0/wPxI6+5pGL/fpTHtSBrGGwEfsVjiKle2eDqbgXRSLrFYbwPgdIv5nqE5mYH/3/rT bIGstRJlyRPALyyWON+VLW3MVyheB9CfB6Is8YVAHmBgh3Addo1UzxaR91rM9wxC3pGpaFql2QJZ RbjIYu5haRgf5MySNiMN4x2wC3oud2WLp/NZw5Erpd4Cvm+x5gbAz0VkXYs1PAOzF7BNwbFNFcgq QpQl9wI2OfpL0jA2LVtvd76LPu1lwivA9Q5t8XQ4g71FvxytqGbKzsAVFvM9A1N0E7BVAllFsInK twPOcGVIu5CG8eHAARZLXBNlyTJX9ng6nwEduVLqGeB7lmufLCKfsFzDkyMiY9F9OYvQKoGsItwC PGox/ytpGG/mypiyyVUOL7ZYYilwgSNzPF3C2jbNvg48b7n+pSIyxXINj+YY9BnrIpR5WmU18uNx 37FYYgPgm47MaQc+B0yymP/tKEuWuDLG0x0M6siVUq8C51iuPwqdL29GZ/vhRtFNzpYJZDXAj7Hb QJ+ZhvERrowpizSMdwH+zWKJ54FvOTLH00UMdYztKsxVEWtMBG4VkY0t1xm2iMj2wO4Fh7dNNF4j ypI3gUstlgiAn6ZhXPR30HakYbw1kADrWSzzjShLXndkkqeLWKsjV0r1opUNbavHdgcWiMjOlusM V4pG42UIZBXlQuyKzdYFZqdh/D5H9rSMvPBnDrC5xTKL8QcIPIMwZGFJXuL9Hw7utTXwexHp+LfI rSRv2lFUHa8MgaxCRFnyFloc6i2LZcYDc9Iw7hhNnzSMR6OFrba3WGYlMDPKEpuTZJ4upkiFIMC5 uBHnWR+4WURsc+/DiRgoemqj7dIq9URZsgg423KZicB/pWFcdOO3NNIwrgA/A/awXOr8KEvEgUme LqWQI8+Psp0AuIj2AuA8EbnBFw0VohMEsgoTZcmlwK8tl1HAze0sd5uGcQ+6HsP2HWgKfM3eIk83 UzQiRyn1ONqpuFJbOxr4k4icIiI9jtbsKvIN4hkFh7d1NN6PU9FFSzYcBKRpGO/qwB6npGE8EbgL +KTlUm8AJ0VZssLeKk83U9iRAyilfg78q8P7TwSuAf4sIseLSEP2DANOolhn9VIFsholypLngFOA quVSk4D5aRifk0fApZOG8UnoKNo2ndIHnBBlic0GsWeY0LDjVEpdgVZtc8l7gZ8Ci0TkqFwcytNZ AlkNEWXJHOyrh0HrlZwHzMuP+JVCGsbj0jCeBVyLLmKy5fNRlvjuP55CGEXASqmvYSd3Oxg7ADcC C0XkJBEx7ZziDBGZQPFuPC7vOw3YseDw0gWyDPk8cL+jtfYEHkzD+OS8fVrLSMP4QOAhdPWtC34Y ZYmNRo1nmGH8B6+UOlNEnkdvxLiOoHdBRzZVEXkQ+C1wG3BPrs7YVERkDLA3+u3/YcDIZt9zADpR IKshoix5Ow3jg4E70EJrtmwI/Ai4IA3jHwNXR1lio/MyKLn+y0z0/9N2Dpe+GTjN4XqeYYBV5KKU +oaIPI5+8ZgK5K+NAIjy6yzgTRGZj3bsfwCeBZ7P5QQaQkQ2QJ9Lrl3vBv4B2BUdCZeWc81P8xxX cHg7CWQ1TJQlL6Zh/CHgTuADjpbdFH3M8ew0jO9GVyj/PK8wNSaP9A9BO+8PY/n6GYAfA/8UZYlp ZyXPMMX6D1EpNUtEngZ+CUywN2mtrItuc7ZaqzMRWQ48h9aieK7uWpHbNH6Aq511rj+Kji6L0Emn VQYkypLn0zDeH+3MXbd42zu/vpeG8a+Bx4EMeCr/+HT/QpvcYW8JbJVfW6M35megHxLN4DLg01GW 2G4Ae4YhTiIKpdTvRGQ6urvQbi7WbJCR6BfeliXcuxkU3eT87zYUyDIiypIlaRjvCdwE7NeEW4xD V5b2py8N42fQTj1AO+4tMNw/MqAKnBtlybktup+nC3H2x6qUegLdweaL2DWlGNaISEhxR9apm5wD EmXJS+jz4TYCW41SQafV9kBrAm1J65z4S8AM78Q9tjj9g1VK9SqlvglMQ+/iexrnFIptHrezQJYx UZasjLLkDODjdHdAsACYEmWJbZWrx9OcyEMp9RDamX8OeLEZ9+hG8vPzpxQc3rYCWS6IsuRqYArQ bZ3iV6A7/OwZZclTZRvj6Q6a9hZSKbVcKXUxulnw19ERpGft7IfeWCtCx29yDkWUJX9CpzvOAqxO nLQJdwOToyz5glcy9Lik6blApdSrSqlz0A79EuC1Zt+zRPqAeWgN96LSs/UUPTveEQJZLoiypDcv jtkF+FXZ9hiyBDglypJ98oeTx+OUllXAKaWWAGeKyJfQZ6Q/CUxt1f2bSC/we3S++mbTUnkRGYc+ dliEro/G+xNlyWPA4WkYK7Ss8iElm1SEJ4CL0F3vm17I5hm+tLSUGUAptRRdoHGViCh05LoPsBOt Oy1gQy/wADryvguYr5Ry8S7jOGB0gXEdJZDlmlyXe0YaxtPRRT8zKKfydm0sAL4N3OSLezytoOWO vB6llAACICIbovOhe+XXNJpTLdoorwJ/AuajHfc9Sqlm9E3sWoGsZhBlyb3AP+Zt1I4DTkb/zZTB W8DtwK3ArVGW/LUkOzzDlFIdeT15mX2SX4jIKPQLcy+0INIeFK92NOGvwJ+Bh+s/tsJpisiOFHdC XXV23Jb87PllwGVpGG+H7qi0H/pdngsVwsH4G1rj5lbg9ihLljXxXq3kGeA3BvMyx3a4YBFmP0vH nQYLqtXOqQjO9VE26neNH+R7I9Ebq68OcNV//0X05mFp/3ki8m3gMwWGLgG27GRtlVaR65NPRQcC 26OFrbYDNm5gmRXo3/kStK7Ps+i895woSx5warDHY0FHOfJuRERGoKO7Ig7mIqXUWU02qatJw/hd QIiO1sfk11j0/sRLaGddc9wvee0TTyfQNqmVYcwMikeJPq1iSZQlLwMvl22Hx+OSTjgl0u0UPTve NQJZHo/HLd6Rl4iIbI7enCuCj8Y9Hs+AeEdeLjMp1sCiKwWyPB6PG/4Xp7woXPMjBmsAAAAASUVO RK5CYII= "
       height="22.799999"
       width="74" />
  </g>
</svg>
