<?xml version="1.0" encoding="UTF-8" standalone="no"?>
<!-- Created with Inkscape (http://www.inkscape.org/) -->

<svg
   xmlns:dc="http://purl.org/dc/elements/1.1/"
   xmlns:cc="http://creativecommons.org/ns#"
   xmlns:rdf="http://www.w3.org/1999/02/22-rdf-syntax-ns#"
   xmlns:svg="http://www.w3.org/2000/svg"
   xmlns="http://www.w3.org/2000/svg"
   xmlns:xlink="http://www.w3.org/1999/xlink"
   xmlns:sodipodi="http://sodipodi.sourceforge.net/DTD/sodipodi-0.dtd"
   xmlns:inkscape="http://www.inkscape.org/namespaces/inkscape"
   width="455"
   height="295"
   id="svg2"
   sodipodi:version="0.32"
   inkscape:version="0.48.2 r9819"
   version="1.0"
   sodipodi:docname="gon_client_installer_splash.svg"
   inkscape:output_extension="org.inkscape.output.svg.inkscape"
   inkscape:export-filename="C:\Users\emo.HEADQUARTERS\Documents\Shared Graphics\Splash screens\Client installer\Version 15\gon_client_installer_splash.png"
   inkscape:export-xdpi="90"
   inkscape:export-ydpi="90">
  <defs
     id="defs4">
    <linearGradient
       id="linearGradient3321">
      <stop
         style="stop-color:#ffffff;stop-opacity:0.39500001"
         offset="0"
         id="stop3323" />
      <stop
         style="stop-color:#ffffff;stop-opacity:0"
         offset="1"
         id="stop3325" />
    </linearGradient>
    <linearGradient
       id="linearGradient3277">
      <stop
         style="stop-color:#440008;stop-opacity:1;"
         offset="0"
         id="stop3279" />
      <stop
         style="stop-color:#880000;stop-opacity:1;"
         offset="1"
         id="stop3281" />
    </linearGradient>
    <inkscape:perspective
       sodipodi:type="inkscape:persp3d"
       inkscape:vp_x="0 : 526.18109 : 1"
       inkscape:vp_y="0 : 1000 : 0"
       inkscape:vp_z="744.09448 : 526.18109 : 1"
       inkscape:persp3d-origin="372.04724 : 350.78739 : 1"
       id="perspective10" />
    <inkscape:perspective
       id="perspective2447"
       inkscape:persp3d-origin="372.04724 : 350.78739 : 1"
       inkscape:vp_z="744.09448 : 526.18109 : 1"
       inkscape:vp_y="0 : 1000 : 0"
       inkscape:vp_x="0 : 526.18109 : 1"
       sodipodi:type="inkscape:persp3d" />
    <filter
       color-interpolation-filters="sRGB"
       y="-0.25"
       x="-0.25"
       height="1.5"
       width="1.5"
       inkscape:label="Drop shadow"
       id="filter3033">
      <feGaussianBlur
         result="blur"
         stdDeviation="2"
         in="SourceAlpha"
         id="feGaussianBlur3035" />
      <feColorMatrix
         values="1 0 0 0 0 0 1 0 0 0 0 0 1 0 0 0 0 0 0.5 0 "
         type="matrix"
         result="bluralpha"
         id="feColorMatrix3037" />
      <feOffset
         result="offsetBlur"
         dy="2"
         dx="2"
         in="bluralpha"
         id="feOffset3039" />
      <feMerge
         id="feMerge3041">
        <feMergeNode
           in="offsetBlur"
           id="feMergeNode3043" />
        <feMergeNode
           in="SourceGraphic"
           id="feMergeNode3045" />
      </feMerge>
    </filter>
    <linearGradient
       gradientUnits="userSpaceOnUse"
       y2="108.26157"
       x2="35.989838"
       y1="51.432434"
       x1="35.989838"
       id="linearGradient3803"
       xlink:href="#linearGradient3797"
       inkscape:collect="always" />
    <linearGradient
       id="linearGradient3781">
      <stop
         id="stop3783"
         offset="0"
         style="stop-color:#440008;stop-opacity:1;" />
      <stop
         id="stop3785"
         offset="1"
         style="stop-color:#232723;stop-opacity:0;" />
    </linearGradient>
    <linearGradient
       id="linearGradient3789">
      <stop
         id="stop3791"
         offset="0"
         style="stop-color:#440008;stop-opacity:1;" />
      <stop
         id="stop3793"
         offset="1"
         style="stop-color:#880000;stop-opacity:1;" />
    </linearGradient>
    <linearGradient
       id="linearGradient3797">
      <stop
         id="stop3799"
         offset="0"
         style="stop-color:#ffffff;stop-opacity:1;" />
      <stop
         id="stop3801"
         offset="1"
         style="stop-color:#ffffff;stop-opacity:0.16470589;" />
    </linearGradient>
    <linearGradient
       id="linearGradient3816">
      <stop
         id="stop3818"
         offset="0"
         style="stop-color:#ffffff;stop-opacity:0.25882354;" />
      <stop
         id="stop3820"
         offset="1"
         style="stop-color:#ffffff;stop-opacity:0;" />
    </linearGradient>
    <inkscape:perspective
       id="perspective2545"
       inkscape:persp3d-origin="36 : 24 : 1"
       inkscape:vp_z="72 : 36 : 1"
       inkscape:vp_y="0 : 1000 : 0"
       inkscape:vp_x="0 : 36 : 1"
       sodipodi:type="inkscape:persp3d" />
    <inkscape:perspective
       id="perspective2477"
       inkscape:persp3d-origin="372.04724 : 350.78739 : 1"
       inkscape:vp_z="744.09448 : 526.18109 : 1"
       inkscape:vp_y="0 : 1000 : 0"
       inkscape:vp_x="0 : 526.18109 : 1"
       sodipodi:type="inkscape:persp3d" />
    <linearGradient
       inkscape:collect="always"
       xlink:href="#linearGradient3277"
       id="linearGradient3283"
       x1="22.086903"
       y1="980.85535"
       x2="22.086903"
       y2="1051.9417"
       gradientUnits="userSpaceOnUse" />
    <inkscape:perspective
       id="perspective2515"
       inkscape:persp3d-origin="372.04724 : 350.78739 : 1"
       inkscape:vp_z="744.09448 : 526.18109 : 1"
       inkscape:vp_y="0 : 1000 : 0"
       inkscape:vp_x="0 : 526.18109 : 1"
       sodipodi:type="inkscape:persp3d" />
    <inkscape:perspective
       id="perspective2565"
       inkscape:persp3d-origin="372.04724 : 350.78739 : 1"
       inkscape:vp_z="744.09448 : 526.18109 : 1"
       inkscape:vp_y="0 : 1000 : 0"
       inkscape:vp_x="0 : 526.18109 : 1"
       sodipodi:type="inkscape:persp3d" />
    <linearGradient
       inkscape:collect="always"
       xlink:href="#linearGradient3277"
       id="linearGradient3087"
       gradientUnits="userSpaceOnUse"
       x1="22.086903"
       y1="980.85535"
       x2="22.086903"
       y2="1051.9417" />
    <linearGradient
       inkscape:collect="always"
       xlink:href="#linearGradient3277"
       id="linearGradient3090"
       gradientUnits="userSpaceOnUse"
       x1="22.086903"
       y1="980.85535"
       x2="22.086903"
       y2="1051.9417"
       gradientTransform="matrix(6.4072142,0,0,4.1541279,-3.15972,-4074.5985)" />
    <filter
       color-interpolation-filters="sRGB"
       inkscape:label="Excitor Shadow"
       id="filter3027">
      <feColorMatrix
         values="1 0 0 0 0 0 1 0 0 0 0 0 1 0 0 0 0 0 0.33 0 "
         result="result2"
         id="feColorMatrix3813" />
      <feOffset
         in="result2"
         result="result1"
         id="feOffset3029"
         dy="9.6999999999999993"
         dx="9" />
      <feMerge
         id="feMerge3035">
        <feMergeNode
           in="result1"
           id="feMergeNode3037"
           inkscape:collect="always" />
        <feMergeNode
           in="SourceGraphic"
           id="feMergeNode3039"
           inkscape:collect="always" />
      </feMerge>
    </filter>
    <filter
       color-interpolation-filters="sRGB"
       inkscape:label="Excitor Shadow"
       id="filter3027-7">
      <feColorMatrix
         values="1 0 0 0 0 0 1 0 0 0 0 0 1 0 0 0 0 0 0.33 0 "
         result="result2"
         id="feColorMatrix3813-5" />
      <feOffset
         in="result2"
         result="result1"
         id="feOffset3029-1"
         dy="9.6999999999999993"
         dx="9" />
      <feMerge
         id="feMerge3035-3">
        <feMergeNode
           in="result1"
           id="feMergeNode3037-3"
           inkscape:collect="always" />
        <feMergeNode
           in="SourceGraphic"
           id="feMergeNode3039-7"
           inkscape:collect="always" />
      </feMerge>
    </filter>
    <filter
       color-interpolation-filters="sRGB"
       inkscape:label="Excitor Shadow"
       id="filter3027-5">
      <feColorMatrix
         values="1 0 0 0 0 0 1 0 0 0 0 0 1 0 0 0 0 0 0.33 0 "
         result="result2"
         id="feColorMatrix3813-2" />
      <feOffset
         in="result2"
         result="result1"
         id="feOffset3029-8"
         dy="9.6999999999999993"
         dx="9" />
      <feMerge
         id="feMerge3035-9">
        <feMergeNode
           in="result1"
           id="feMergeNode3037-9"
           inkscape:collect="always" />
        <feMergeNode
           in="SourceGraphic"
           id="feMergeNode3039-2"
           inkscape:collect="always" />
      </feMerge>
    </filter>
    <filter
       color-interpolation-filters="sRGB"
       inkscape:label="Excitor Shadow"
       id="filter3027-4">
      <feColorMatrix
         values="1 0 0 0 0 0 1 0 0 0 0 0 1 0 0 0 0 0 0.33 0 "
         result="result2"
         id="feColorMatrix3813-24" />
      <feOffset
         in="result2"
         result="result1"
         id="feOffset3029-4"
         dy="9.6999999999999993"
         dx="9" />
      <feMerge
         id="feMerge3035-4">
        <feMergeNode
           in="result1"
           id="feMergeNode3037-39"
           inkscape:collect="always" />
        <feMergeNode
           in="SourceGraphic"
           id="feMergeNode3039-76"
           inkscape:collect="always" />
      </feMerge>
    </filter>
  </defs>
  <sodipodi:namedview
     id="base"
     pagecolor="#ffffff"
     bordercolor="#666666"
     borderopacity="1.0"
     gridtolerance="10000"
     guidetolerance="10"
     objecttolerance="10"
     inkscape:pageopacity="0.0"
     inkscape:pageshadow="2"
     inkscape:zoom="1"
     inkscape:cx="246.91071"
     inkscape:cy="36.217508"
     inkscape:document-units="px"
     inkscape:current-layer="layer4"
     showgrid="false"
     inkscape:window-width="1680"
     inkscape:window-height="988"
     inkscape:window-x="1272"
     inkscape:window-y="-8"
     inkscape:showpageshadow="false"
     showborder="false"
     showguides="false"
     inkscape:guide-bbox="true"
     inkscape:window-maximized="1">
    <sodipodi:guide
       orientation="0,1"
       position="119.31322,43.085328"
       id="guide2571" />
    <sodipodi:guide
       orientation="0,1"
       position="-5.1545699,64.233871"
       id="guide2573" />
    <sodipodi:guide
       orientation="0,1"
       position="206.75,11.5"
       id="guide3092" />
  </sodipodi:namedview>
  <metadata
     id="metadata7">
    <rdf:RDF>
      <cc:Work
         rdf:about="">
        <dc:format>image/svg+xml</dc:format>
        <dc:type
           rdf:resource="http://purl.org/dc/dcmitype/StillImage" />
        <dc:title></dc:title>
      </cc:Work>
    </rdf:RDF>
  </metadata>
  <g
     inkscape:groupmode="layer"
     id="layer7"
     inkscape:label="Background"
     style="display:inline"
     sodipodi:insensitive="true">
    <rect
       ry="0"
       y="6.150626e-005"
       x="2.0476912e-006"
       height="295"
       width="455"
       id="rect2996"
       style="fill:url(#linearGradient3090);fill-opacity:1;stroke:none" />
  </g>
  <g
     inkscape:groupmode="layer"
     id="layer2"
     inkscape:label="Copyright"
     style="display:inline"
     sodipodi:insensitive="true">
    <text
       xml:space="preserve"
       style="font-size:40px;font-style:normal;font-variant:normal;font-weight:normal;font-stretch:normal;fill:#ffffff;fill-opacity:1;stroke:none;display:inline;font-family:Gill Sans MT;-inkscape-font-specification:Gill Sans MT"
       x="117.54028"
       y="285.70026"
       id="text3957"><tspan
         sodipodi:role="line"
         x="117.54028"
         y="285.70026"
         style="font-size:9.5px;font-style:normal;font-variant:normal;font-weight:normal;font-stretch:normal;fill:#ffffff;fill-opacity:1;font-family:Gill Sans MT;-inkscape-font-specification:Gill Sans MT"
         id="tspan3959">Copyright 2003-2012 by Giritech A/S. All rights reserved</tspan></text>
  </g>
  <g
     inkscape:groupmode="layer"
     id="layer4"
     inkscape:label="Logo and Name">
    <g
       inkscape:label="Layer 1"
       id="g3939"
       transform="matrix(0.75196304,0,0,0.75196304,-119.2066,-239.13714)"
       style="display:inline">
      <g
         transform="translate(107.4221,-343.25617)"
         style="display:inline"
         id="g3941">
        <g
           transform="matrix(1.4382715,0,0,1.4382715,-202.95209,341.56228)"
           id="g3943">
          <polygon
             transform="matrix(2.2838041,0,0,2.2838041,-36.27695,193.39935)"
             id="polygon3945"
             points="164.182,71.596 150.653,80.214 137.12,71.594 150.651,62.908 "
             style="fill:#ffffff" />
          <polygon
             transform="matrix(2.2838041,0,0,2.2838041,-32.624405,197.38053)"
             id="polygon3947"
             points="118.877,59.058 132.409,50.371 145.94,59.06 132.411,67.678 "
             style="fill:#ffffff" />
          <polygon
             transform="matrix(2.2838041,0,0,2.2838041,-32.59129,188.95478)"
             id="polygon3949"
             points="132.396,92.77 118.862,84.15 132.394,75.464 145.926,84.153 "
             style="fill:#ffffff" />
        </g>
        <text
           xml:space="preserve"
           style="font-size:36.3540535px;font-style:normal;font-weight:normal;line-height:125%;letter-spacing:0px;word-spacing:0px;fill:#ff8c14;fill-opacity:1;stroke:none;font-family:Sans;-inkscape-font-specification:Sans"
           x="238.20842"
           y="923.62939"
           id="text3951"
           sodipodi:linespacing="125%"><tspan
             sodipodi:role="line"
             id="tspan3953"
             x="238.20842"
             y="923.62939"
             style="font-style:normal;font-variant:normal;font-weight:bold;font-stretch:normal;fill:#ff8c14;font-family:Gill Sans MT;-inkscape-font-specification:Gill Sans MT">G/ON<tspan
   style="font-weight:normal;fill:#ffffff;-inkscape-font-specification:Gill Sans MT"
   id="tspan4020"> Client Installer</tspan></tspan></text>
      </g>
    </g>
  </g>
  <g
     inkscape:groupmode="layer"
     id="layer3"
     inkscape:label="Beta"
     style="display:none"
     sodipodi:insensitive="true">
    <text
       xml:space="preserve"
       style="font-size:33.5075798px;font-style:normal;font-weight:normal;letter-spacing:-0.03324573px;fill:#ffffff;fill-opacity:1;stroke:none;display:inline;font-family:Bitstream Vera Sans"
       x="312.40228"
       y="44.053711"
       id="text2434"><tspan
         sodipodi:role="line"
         id="tspan2436"
         x="312.40228"
         y="44.053711"
         style="font-size:46.54402161px;font-style:normal;font-variant:normal;font-weight:bold;font-stretch:normal;letter-spacing:-0.03324573px;fill:#ffffff;fill-opacity:1;font-family:Gill Sans MT;-inkscape-font-specification:Gill Sans MT Bold"
         dx="0 0 1.3298292">BET<tspan
   style="letter-spacing:0px"
   id="tspan3985"
   dx="-2.6596584">A</tspan></tspan></text>
  </g>
</svg>
