ldd: warning: you do not have execution permission for `/usr/lib/python2.7/site-packages/gtk-2.0/gio/_gio.so'
ldd: warning: you do not have execution permission for `/usr/lib/python2.7/site-packages/gtk-2.0/gio/unix.so'
ldd: warning: you do not have execution permission for `/usr/lib/python2.7/site-packages/glib/_glib.so'
ldd: warning: you do not have execution permission for `/usr/lib/python2.7/site-packages/gobject/_gobject.so'
