<?xml version="1.0" encoding="UTF-8" standalone="no"?>
<!-- Created with Inkscape (http://www.inkscape.org/) -->

<svg
   xmlns:dc="http://purl.org/dc/elements/1.1/"
   xmlns:cc="http://creativecommons.org/ns#"
   xmlns:rdf="http://www.w3.org/1999/02/22-rdf-syntax-ns#"
   xmlns:svg="http://www.w3.org/2000/svg"
   xmlns="http://www.w3.org/2000/svg"
   xmlns:xlink="http://www.w3.org/1999/xlink"
   xmlns:sodipodi="http://sodipodi.sourceforge.net/DTD/sodipodi-0.dtd"
   xmlns:inkscape="http://www.inkscape.org/namespaces/inkscape"
   width="16"
   height="16"
   id="svg2"
   version="1.1"
   inkscape:version="0.48.0 r9654"
   inkscape:export-filename="C:\Users\emo.GIRITECH\Documents\Shared Graphics\Management\Icons\g_security_status_16x16.png"
   inkscape:export-xdpi="90"
   inkscape:export-ydpi="90"
   sodipodi:docname="g_security_status_16x16.svg"
   style="display:inline">
  <defs
     id="defs4">
    <linearGradient
       id="linearGradient5008">
      <stop
         style="stop-color:#333333;stop-opacity:1;"
         offset="0"
         id="stop5010" />
      <stop
         style="stop-color:#e0e0e0;stop-opacity:1"
         offset="1"
         id="stop5012" />
    </linearGradient>
    <linearGradient
       id="linearGradient5002">
      <stop
         id="stop5004"
         offset="0"
         style="stop-color:#333333;stop-opacity:1;" />
      <stop
         id="stop5006"
         offset="1"
         style="stop-color:#e0e0e0;stop-opacity:1" />
    </linearGradient>
    <linearGradient
       id="linearGradient4994">
      <stop
         style="stop-color:#333333;stop-opacity:1;"
         offset="0"
         id="stop4996" />
      <stop
         style="stop-color:#e0e0e0;stop-opacity:1;"
         offset="1"
         id="stop4998" />
    </linearGradient>
    <linearGradient
       id="linearGradient3816">
      <stop
         style="stop-color:#ffffff;stop-opacity:0.25882354;"
         offset="0"
         id="stop3818" />
      <stop
         style="stop-color:#ffffff;stop-opacity:0;"
         offset="1"
         id="stop3820" />
    </linearGradient>
    <linearGradient
       id="linearGradient3797">
      <stop
         style="stop-color:#ffffff;stop-opacity:1;"
         offset="0"
         id="stop3799" />
      <stop
         style="stop-color:#ffffff;stop-opacity:0.16470589;"
         offset="1"
         id="stop3801" />
    </linearGradient>
    <linearGradient
       id="linearGradient3789">
      <stop
         style="stop-color:#003399;stop-opacity:1;"
         offset="0"
         id="stop3791" />
      <stop
         style="stop-color:#003399;stop-opacity:1;"
         offset="1"
         id="stop3793" />
    </linearGradient>
    <linearGradient
       id="linearGradient3781">
      <stop
         style="stop-color:#003399;stop-opacity:1;"
         offset="0"
         id="stop3783" />
      <stop
         style="stop-color:#6699ff;stop-opacity:1;"
         offset="1"
         id="stop3785" />
    </linearGradient>
    <linearGradient
       inkscape:collect="always"
       xlink:href="#linearGradient3797"
       id="linearGradient3803"
       x1="35.989838"
       y1="51.432434"
       x2="35.989838"
       y2="108.26157"
       gradientUnits="userSpaceOnUse"
       gradientTransform="matrix(1.2057712,0,0,1,-7.3425861,-72)" />
    <linearGradient
       inkscape:collect="always"
       xlink:href="#linearGradient3816"
       id="linearGradient3822"
       x1="34.371315"
       y1="1052.3622"
       x2="34.371315"
       y2="981.34082"
       gradientUnits="userSpaceOnUse"
       gradientTransform="matrix(1,0,0,0.63512546,0,-596.51749)" />
    <clipPath
       clipPathUnits="userSpaceOnUse"
       id="clipPath3997">
      <rect
         ry="3.5977538"
         y="16.596304"
         x="9.3698635"
         height="38.807392"
         width="53.260277"
         id="rect3999"
         style="fill:none;stroke:#ffffff;stroke-width:1.70720434;stroke-miterlimit:4;stroke-opacity:1;stroke-dasharray:none;stroke-dashoffset:0;display:inline"
         transform="matrix(0.70710678,0.70710678,-0.70710678,0.70710678,0,0)" />
    </clipPath>
    <clipPath
       clipPathUnits="userSpaceOnUse"
       id="clipPath4001">
      <rect
         ry="3.5977538"
         y="16.596304"
         x="9.3698635"
         height="38.807392"
         width="53.260277"
         id="rect4003"
         style="fill:none;stroke:#ffffff;stroke-width:1.70720434;stroke-miterlimit:4;stroke-opacity:1;stroke-dasharray:none;stroke-dashoffset:0;display:inline" />
    </clipPath>
    <filter
       id="filter3846"
       inkscape:label="Drop shadow"
       width="1.5"
       height="1.5"
       x="-0.25"
       y="-0.25"
       color-interpolation-filters="sRGB">
      <feGaussianBlur
         id="feGaussianBlur3848"
         in="SourceAlpha"
         stdDeviation="2"
         result="blur" />
      <feColorMatrix
         id="feColorMatrix3850"
         result="bluralpha"
         type="matrix"
         values="1 0 0 0 0 0 1 0 0 0 0 0 1 0 0 0 0 0 0.5 0 " />
      <feOffset
         id="feOffset3852"
         in="bluralpha"
         dx="2"
         dy="2"
         result="offsetBlur" />
      <feMerge
         id="feMerge3854">
        <feMergeNode
           id="feMergeNode3856"
           in="offsetBlur" />
        <feMergeNode
           id="feMergeNode3858"
           in="SourceGraphic" />
      </feMerge>
    </filter>
    <radialGradient
       inkscape:collect="always"
       xlink:href="#linearGradient5008"
       id="radialGradient5000"
       cx="19.563505"
       cy="47.418575"
       fx="19.563505"
       fy="47.418575"
       r="7.921875"
       gradientTransform="matrix(2.0133727,0.07759529,-0.0951494,2.4688508,-15.313273,-69.348755)"
       gradientUnits="userSpaceOnUse" />
    <radialGradient
       inkscape:collect="always"
       xlink:href="#linearGradient5008"
       id="radialGradient5020"
       cx="14.153434"
       cy="35.634476"
       fx="14.153434"
       fy="35.634476"
       r="12.288284"
       gradientTransform="matrix(2.8110056,0.01177943,-0.01057415,2.5233827,-25.255144,-51.407093)"
       gradientUnits="userSpaceOnUse" />
    <radialGradient
       inkscape:collect="always"
       xlink:href="#linearGradient3781"
       id="radialGradient5028"
       cx="55.427292"
       cy="23.548294"
       fx="55.427292"
       fy="23.548294"
       r="16.56867"
       gradientTransform="matrix(-0.32532993,-0.94560057,1.7306689,-0.5954294,32.705149,90.287635)"
       gradientUnits="userSpaceOnUse" />
    <radialGradient
       inkscape:collect="always"
       xlink:href="#linearGradient3781"
       id="radialGradient5036"
       cx="48.077999"
       cy="43.506603"
       fx="48.077999"
       fy="43.506603"
       r="15.332618"
       gradientTransform="matrix(-2.3019741,-0.0561036,0.03802679,-1.5602686,164.84822,109.72097)"
       gradientUnits="userSpaceOnUse" />
    <radialGradient
       inkscape:collect="always"
       xlink:href="#linearGradient3781"
       id="radialGradient5040"
       gradientUnits="userSpaceOnUse"
       gradientTransform="matrix(-2.3019741,-0.0561036,0.03802679,-1.5602686,168.55637,100.24457)"
       cx="48.077999"
       cy="43.506603"
       fx="48.077999"
       fy="43.506603"
       r="15.332618" />
    <radialGradient
       inkscape:collect="always"
       xlink:href="#linearGradient5008"
       id="radialGradient5048"
       cx="60.420895"
       cy="23.575012"
       fx="60.420895"
       fy="23.575012"
       r="17.734188"
       gradientTransform="matrix(-3.672856,-0.00872331,0.00674717,-2.8407753,291.38908,89.747312)"
       gradientUnits="userSpaceOnUse" />
    <radialGradient
       inkscape:collect="always"
       xlink:href="#linearGradient5008"
       id="radialGradient5056"
       cx="33.167385"
       cy="66.694183"
       fx="33.167385"
       fy="66.694183"
       r="11.212446"
       gradientTransform="matrix(2.8689053,0.36868673,-0.20524787,1.5971192,-47.496896,-59.791464)"
       gradientUnits="userSpaceOnUse" />
    <radialGradient
       inkscape:collect="always"
       xlink:href="#linearGradient5008"
       id="radialGradient5062"
       gradientUnits="userSpaceOnUse"
       gradientTransform="matrix(-3.672856,-0.00872331,0.00674717,-2.8407753,291.38908,89.747312)"
       cx="60.420895"
       cy="23.575012"
       fx="60.420895"
       fy="23.575012"
       r="17.734188" />
    <radialGradient
       inkscape:collect="always"
       xlink:href="#linearGradient3781"
       id="radialGradient5064"
       gradientUnits="userSpaceOnUse"
       gradientTransform="matrix(-2.3019741,-0.0561036,0.03802679,-1.5602686,168.55637,100.24457)"
       cx="48.077999"
       cy="43.506603"
       fx="48.077999"
       fy="43.506603"
       r="15.332618" />
    <radialGradient
       inkscape:collect="always"
       xlink:href="#linearGradient3781"
       id="radialGradient5071"
       gradientUnits="userSpaceOnUse"
       gradientTransform="matrix(-2.3019741,-0.0561036,0.03802679,-1.5602686,170.18137,99.86957)"
       cx="48.077999"
       cy="43.506603"
       fx="48.077999"
       fy="43.506603"
       r="15.332618" />
    <radialGradient
       inkscape:collect="always"
       xlink:href="#linearGradient5008"
       id="radialGradient5074"
       gradientUnits="userSpaceOnUse"
       gradientTransform="matrix(-3.672856,-0.00872331,0.00674717,-2.8407753,293.01408,89.372312)"
       cx="60.420895"
       cy="23.575012"
       fx="60.420895"
       fy="23.575012"
       r="17.734188" />
    <radialGradient
       inkscape:collect="always"
       xlink:href="#linearGradient5008"
       id="radialGradient5081"
       gradientUnits="userSpaceOnUse"
       gradientTransform="matrix(2.8689053,0.36868673,-0.20524787,1.5971192,-47.496896,-59.791464)"
       cx="33.167385"
       cy="66.694183"
       fx="33.167385"
       fy="66.694183"
       r="11.212446" />
    <radialGradient
       inkscape:collect="always"
       xlink:href="#linearGradient5008"
       id="radialGradient5083"
       gradientUnits="userSpaceOnUse"
       gradientTransform="matrix(-3.672856,-0.00872331,0.00674717,-2.8407753,293.01408,89.372312)"
       cx="60.420895"
       cy="23.575012"
       fx="60.420895"
       fy="23.575012"
       r="17.734188" />
    <radialGradient
       inkscape:collect="always"
       xlink:href="#linearGradient3781"
       id="radialGradient5085"
       gradientUnits="userSpaceOnUse"
       gradientTransform="matrix(-2.3019741,-0.0561036,0.03802679,-1.5602686,170.18137,99.86957)"
       cx="48.077999"
       cy="43.506603"
       fx="48.077999"
       fy="43.506603"
       r="15.332618" />
    <radialGradient
       inkscape:collect="always"
       xlink:href="#linearGradient3781"
       id="radialGradient3050"
       gradientUnits="userSpaceOnUse"
       gradientTransform="matrix(-2.3019741,-0.0561036,0.03802679,-1.5602686,171.24387,99.80707)"
       cx="48.077999"
       cy="43.506603"
       fx="48.077999"
       fy="43.506603"
       r="15.332618" />
    <radialGradient
       inkscape:collect="always"
       xlink:href="#linearGradient5008"
       id="radialGradient3053"
       gradientUnits="userSpaceOnUse"
       gradientTransform="matrix(-3.672856,-0.00872331,0.00674717,-2.8407753,294.07658,89.309812)"
       cx="58.83448"
       cy="24.606651"
       fx="58.83448"
       fy="24.606651"
       r="17.734188" />
    <radialGradient
       inkscape:collect="always"
       xlink:href="#linearGradient5008"
       id="radialGradient3056"
       gradientUnits="userSpaceOnUse"
       gradientTransform="matrix(2.8689053,0.36868673,-0.20524787,1.5971192,-46.434396,-59.853964)"
       cx="33.167385"
       cy="66.694183"
       fx="33.167385"
       fy="66.694183"
       r="11.212446" />
    <radialGradient
       inkscape:collect="always"
       xlink:href="#linearGradient5008"
       id="radialGradient3051"
       gradientUnits="userSpaceOnUse"
       gradientTransform="matrix(2.8689053,0.36868673,-0.20524787,1.5971192,-46.434396,-62.634257)"
       cx="33.167385"
       cy="66.694183"
       fx="33.167385"
       fy="66.694183"
       r="11.212446" />
    <radialGradient
       inkscape:collect="always"
       xlink:href="#linearGradient5008"
       id="radialGradient3058"
       gradientUnits="userSpaceOnUse"
       gradientTransform="matrix(2.8689053,0.36868673,-0.20524787,1.5971192,-46.434396,-62.634257)"
       cx="33.167385"
       cy="66.694183"
       fx="33.167385"
       fy="66.694183"
       r="11.212446" />
    <radialGradient
       inkscape:collect="always"
       xlink:href="#linearGradient5008"
       id="radialGradient3060"
       gradientUnits="userSpaceOnUse"
       gradientTransform="matrix(-3.672856,-0.00872331,0.00674717,-2.8407753,294.07658,89.309812)"
       cx="58.83448"
       cy="24.606651"
       fx="58.83448"
       fy="24.606651"
       r="17.734188" />
    <radialGradient
       inkscape:collect="always"
       xlink:href="#linearGradient3781"
       id="radialGradient3062"
       gradientUnits="userSpaceOnUse"
       gradientTransform="matrix(-2.3019741,-0.0561036,0.03802679,-1.5602686,171.24387,99.80707)"
       cx="48.077999"
       cy="43.506603"
       fx="48.077999"
       fy="43.506603"
       r="15.332618" />
    <radialGradient
       inkscape:collect="always"
       xlink:href="#linearGradient3781"
       id="radialGradient3076"
       gradientUnits="userSpaceOnUse"
       gradientTransform="matrix(-1.0384344,-0.02530867,0.01715412,-0.70384661,63.498889,90.732156)"
       cx="48.077999"
       cy="43.506603"
       fx="48.077999"
       fy="43.506603"
       r="15.332618" />
    <radialGradient
       inkscape:collect="always"
       xlink:href="#linearGradient5008"
       id="radialGradient3082"
       gradientUnits="userSpaceOnUse"
       gradientTransform="matrix(1.2941805,0.16631681,-0.09258856,0.72047013,-34.697094,17.453891)"
       cx="33.167385"
       cy="66.694183"
       fx="33.167385"
       fy="66.694183"
       r="11.212446" />
  </defs>
  <sodipodi:namedview
     id="base"
     pagecolor="#ffffff"
     bordercolor="#666666"
     borderopacity="1.0"
     inkscape:pageopacity="0.0"
     inkscape:pageshadow="2"
     inkscape:zoom="1"
     inkscape:cx="-107"
     inkscape:cy="8"
     inkscape:document-units="px"
     inkscape:current-layer="layer5"
     showgrid="false"
     borderlayer="true"
     inkscape:showpageshadow="false"
     showborder="false"
     inkscape:window-width="1680"
     inkscape:window-height="970"
     inkscape:window-x="-8"
     inkscape:window-y="-8"
     inkscape:window-maximized="1" />
  <metadata
     id="metadata7">
    <rdf:RDF>
      <cc:Work
         rdf:about="">
        <dc:format>image/svg+xml</dc:format>
        <dc:type
           rdf:resource="http://purl.org/dc/dcmitype/StillImage" />
        <dc:title />
      </cc:Work>
    </rdf:RDF>
  </metadata>
  <g
     inkscape:groupmode="layer"
     id="layer3"
     inkscape:label="pictogram"
     style="display:inline"
     transform="translate(0,-56)"
     sodipodi:insensitive="true">
    <path
       style="fill:url(#radialGradient3082);fill-opacity:1;stroke:#333333;stroke-width:0.45110604px;stroke-linecap:butt;stroke-linejoin:miter;stroke-opacity:0.4"
       d="M 5.9847851,65.734167 C 5.7488587,70.909444 3.965001,70.91475 3.965001,70.91475 c 2.6119636,0.06877 5.2204812,0.0252 7.830763,-0.07975 0,0 -1.729989,0.08195 -1.8369376,-5.343089 -0.032817,-1.664647 -3.8837121,-1.739202 -3.9740413,0.242256 z"
       id="path4992"
       inkscape:connector-curvature="0"
       sodipodi:nodetypes="sccss" />
    <rect
       ry="1.1986632"
       y="57.095203"
       x="0.26871911"
       height="10.845048"
       width="15.462563"
       id="rect4946"
       style="fill:#646464;fill-opacity:1;stroke:#333333;stroke-width:0.53743762;stroke-linecap:round;stroke-linejoin:miter;stroke-miterlimit:4;stroke-opacity:0.4;stroke-dasharray:none;stroke-dashoffset:15.94950091" />
    <rect
       style="fill:url(#radialGradient3076);fill-opacity:1;stroke:#333333;stroke-width:0.45110604;stroke-linecap:round;stroke-linejoin:miter;stroke-miterlimit:4;stroke-opacity:0.4;stroke-dasharray:none;stroke-dashoffset:15.94950091"
       id="rect4944"
       width="13.382167"
       height="8.8285131"
       x="1.3089162"
       y="58.10347"
       ry="0.97578317" />
  </g>
  <g
     inkscape:groupmode="layer"
     id="layer5"
     inkscape:label="Tick"
     style="display:inline">
    <path
       style="fill:none;stroke:#e0e0e0;stroke-width:1.99278402;stroke-linecap:butt;stroke-linejoin:miter;stroke-miterlimit:4;stroke-opacity:1;stroke-dasharray:none;display:inline"
       d="M 6.4261335,6.747342 C 7.1947807,7.3309447 8.06329,8.0033315 8.9860486,9.0087473 10.262617,6.7849697 11.80464,4.3733567 13.808221,3.1928076"
       id="path3066"
       inkscape:connector-curvature="0"
       sodipodi:nodetypes="ccc" />
  </g>
</svg>
