<?xml version="1.0" encoding="UTF-8" standalone="no"?>
<!-- Created with Inkscape (http://www.inkscape.org/) -->

<svg
   xmlns:dc="http://purl.org/dc/elements/1.1/"
   xmlns:cc="http://creativecommons.org/ns#"
   xmlns:rdf="http://www.w3.org/1999/02/22-rdf-syntax-ns#"
   xmlns:svg="http://www.w3.org/2000/svg"
   xmlns="http://www.w3.org/2000/svg"
   xmlns:xlink="http://www.w3.org/1999/xlink"
   xmlns:sodipodi="http://sodipodi.sourceforge.net/DTD/sodipodi-0.dtd"
   xmlns:inkscape="http://www.inkscape.org/namespaces/inkscape"
   width="512"
   height="512"
   id="svg2"
   version="1.1"
   inkscape:version="0.48.2 r9819"
   sodipodi:docname="dme_icon_android_512x512.svg"
   inkscape:export-filename="C:\Users\emo.HEADQUARTERS\Documents\Shared Graphics\DME Client\DME Icon\Android\dme_icon_android_512x512.png"
   inkscape:export-xdpi="90"
   inkscape:export-ydpi="90">
  <defs
     id="defs4">
    <linearGradient
       id="linearGradient3824">
      <stop
         style="stop-color:#07446c;stop-opacity:1;"
         offset="0"
         id="stop3826" />
      <stop
         style="stop-color:#4e7ea6;stop-opacity:1;"
         offset="1"
         id="stop3828" />
    </linearGradient>
    <linearGradient
       inkscape:collect="always"
       xlink:href="#linearGradient3755"
       id="linearGradient2999"
       gradientUnits="userSpaceOnUse"
       gradientTransform="translate(540.36218,-1052.3622)"
       x1="0"
       y1="796.36218"
       x2="512"
       y2="796.36218" />
    <linearGradient
       id="linearGradient3755">
      <stop
         style="stop-color:#440008;stop-opacity:1;"
         offset="0"
         id="stop3757" />
      <stop
         style="stop-color:#880000;stop-opacity:1;"
         offset="1"
         id="stop3759" />
    </linearGradient>
    <linearGradient
       inkscape:collect="always"
       xlink:href="#linearGradient3824"
       id="linearGradient3830"
       x1="356"
       y1="0"
       x2="356"
       y2="512.87817"
       gradientUnits="userSpaceOnUse" />
  </defs>
  <sodipodi:namedview
     id="base"
     pagecolor="#ffffff"
     bordercolor="#666666"
     borderopacity="1.0"
     inkscape:pageopacity="0.0"
     inkscape:pageshadow="2"
     inkscape:zoom="1"
     inkscape:cx="270.29358"
     inkscape:cy="150.56558"
     inkscape:document-units="px"
     inkscape:current-layer="layer1"
     showgrid="false"
     inkscape:showpageshadow="false"
     inkscape:window-width="1680"
     inkscape:window-height="988"
     inkscape:window-x="1272"
     inkscape:window-y="-8"
     inkscape:window-maximized="1"
     showborder="false" />
  <metadata
     id="metadata7">
    <rdf:RDF>
      <cc:Work
         rdf:about="">
        <dc:format>image/svg+xml</dc:format>
        <dc:type
           rdf:resource="http://purl.org/dc/dcmitype/StillImage" />
        <dc:title></dc:title>
      </cc:Work>
    </rdf:RDF>
  </metadata>
  <g
     inkscape:groupmode="layer"
     id="layer2"
     inkscape:label="Background">
    <rect
       style="fill:url(#linearGradient3830);fill-opacity:1;stroke:none"
       id="rect3018"
       width="512"
       height="512"
       x="0"
       y="3.9826432e-014"
       rx="80.812202"
       ry="80.812202" />
  </g>
  <g
     inkscape:label="Logo"
     inkscape:groupmode="layer"
     id="layer1"
     transform="translate(0,-540.36218)">
    <g
       id="g4752"
       transform="matrix(3.2182254,0,0,3.2182254,-655.34112,-351.32347)">
      <polygon
         style="fill:#ffffff"
         points="137.12,71.594 150.651,62.908 164.182,71.596 150.653,80.214 "
         id="polygon4754"
         transform="matrix(2.2838041,0,0,2.2838041,-36.27695,193.39935)" />
      <polygon
         style="fill:#ffffff"
         points="145.94,59.06 132.411,67.678 118.877,59.058 132.409,50.371 "
         id="polygon4756"
         transform="matrix(2.2838041,0,0,2.2838041,-32.624405,197.38053)" />
      <polygon
         style="fill:#ffffff"
         points="132.394,75.464 145.926,84.153 132.396,92.77 118.862,84.15 "
         id="polygon4758"
         transform="matrix(2.2838041,0,0,2.2838041,-32.59129,188.95478)" />
    </g>
  </g>
</svg>
