<?xml version="1.0" encoding="UTF-8" standalone="no"?>
<!-- Created with Inkscape (http://www.inkscape.org/) -->

<svg
   xmlns:dc="http://purl.org/dc/elements/1.1/"
   xmlns:cc="http://creativecommons.org/ns#"
   xmlns:rdf="http://www.w3.org/1999/02/22-rdf-syntax-ns#"
   xmlns:svg="http://www.w3.org/2000/svg"
   xmlns="http://www.w3.org/2000/svg"
   xmlns:xlink="http://www.w3.org/1999/xlink"
   xmlns:sodipodi="http://sodipodi.sourceforge.net/DTD/sodipodi-0.dtd"
   xmlns:inkscape="http://www.inkscape.org/namespaces/inkscape"
   width="48"
   height="48"
   id="svg4109"
   version="1.1"
   inkscape:version="0.48.0 r9654"
   sodipodi:docname="ic_menu_forward.svg"
   inkscape:export-filename="C:\Users\emo.GIRITECH\Documents\Shared Graphics\Android\Icons\mdpi\ic_menu_forward.png"
   inkscape:export-xdpi="90"
   inkscape:export-ydpi="90">
  <defs
     id="defs4111">
    <linearGradient
       id="linearGradient3866">
      <stop
         style="stop-color:#b2b2b2;stop-opacity:1"
         offset="0"
         id="stop3868" />
      <stop
         style="stop-color:#8c8c8c;stop-opacity:1"
         offset="1"
         id="stop3870" />
    </linearGradient>
    <linearGradient
       y2="36.041847"
       x2="26.961161"
       y1="3.9229853"
       x1="26.961161"
       gradientUnits="userSpaceOnUse"
       id="linearGradient4146"
       xlink:href="#linearGradient3866"
       inkscape:collect="always"
       gradientTransform="matrix(1.25,0,0,1.25,2.8633429,949.98627)" />
    <linearGradient
       inkscape:collect="always"
       xlink:href="#linearGradient3866"
       id="linearGradient4729"
       gradientUnits="userSpaceOnUse"
       gradientTransform="matrix(1.25,0,0,1.25,2.8633429,949.98627)"
       x1="26.961161"
       y1="3.9229853"
       x2="26.961161"
       y2="36.041847" />
    <filter
       color-interpolation-filters="sRGB"
       id="filter4705"
       inkscape:label="Menu Icon"
       x="0"
       y="0"
       width="1"
       height="1">
      <feOffset
         dx="0"
         dy="0.69999999999999996"
         id="feOffset4707"
         result="result4" />
      <feOffset
         dx="0"
         dy="-1"
         id="feOffset4709"
         result="result1"
         in="SourceAlpha" />
      <feComposite
         id="feComposite4711"
         in2="result4"
         operator="out" />
      <feGaussianBlur
         stdDeviation="1"
         id="feGaussianBlur4713"
         result="result2" />
      <feComposite
         id="feComposite4715"
         in2="SourceGraphic"
         result="result3"
         operator="in" />
      <feBlend
         blend="normal"
         id="feBlend4717"
         mode="darken"
         in2="SourceGraphic"
         result="result9" />
      <feOffset
         dx="0"
         dy="-0.69999999999999996"
         id="feOffset4719"
         in="SourceGraphic"
         result="result6" />
      <feOffset
         dx="0"
         dy="1"
         id="feOffset4721"
         in="SourceGraphic"
         result="result5" />
      <feComposite
         id="feComposite4723"
         in2="result6"
         operator="out" />
      <feGaussianBlur
         stdDeviation="1"
         id="feGaussianBlur4725"
         result="result7" />
      <feColorMatrix
         id="feColorMatrix4731"
         values="1 0 0 1 0 0 1 0 1 0 0 0 1 1 0 0 0 0 1 0 " />
      <feComposite
         id="feComposite4727"
         in2="SourceGraphic"
         operator="in"
         result="result8" />
      <feBlend
         blend="normal"
         id="feBlend4729"
         in2="result9"
         in="result8"
         mode="normal" />
    </filter>
    <linearGradient
       inkscape:collect="always"
       xlink:href="#linearGradient3866"
       id="linearGradient3863"
       x1="14.016798"
       y1="7.788116"
       x2="14.016798"
       y2="22.17116"
       gradientUnits="userSpaceOnUse" />
  </defs>
  <sodipodi:namedview
     id="base"
     pagecolor="#ffffff"
     bordercolor="#666666"
     borderopacity="1.0"
     inkscape:pageopacity="0.0"
     inkscape:pageshadow="2"
     inkscape:zoom="1"
     inkscape:cx="-11.65625"
     inkscape:cy="27.609373"
     inkscape:document-units="px"
     inkscape:current-layer="layer2"
     showgrid="false"
     showborder="true"
     inkscape:showpageshadow="false"
     inkscape:window-width="1680"
     inkscape:window-height="970"
     inkscape:window-x="-8"
     inkscape:window-y="-8"
     inkscape:window-maximized="1" />
  <metadata
     id="metadata4114">
    <rdf:RDF>
      <cc:Work
         rdf:about="">
        <dc:format>image/svg+xml</dc:format>
        <dc:type
           rdf:resource="http://purl.org/dc/dcmitype/StillImage" />
        <dc:title></dc:title>
      </cc:Work>
    </rdf:RDF>
  </metadata>
  <g
     inkscape:label="xx Background"
     inkscape:groupmode="layer"
     id="layer1"
     transform="translate(0,-1004.3622)"
     style="display:none"
     sodipodi:insensitive="true">
    <rect
       style="fill:#000000;fill-opacity:1;stroke:none"
       id="rect4725"
       width="71.875"
       height="71.875"
       x="0.0625"
       y="980.42468" />
  </g>
  <g
     inkscape:groupmode="layer"
     id="layer2"
     inkscape:label="Icon"
     style="display:inline">
    <g
       style="fill:url(#linearGradient3863);fill-opacity:1;stroke:none;display:inline;filter:url(#filter4705)"
       id="g3850"
       transform="matrix(2.0952432,0,0,2.0952432,-9.1818663,-7.4430133)">
      <g
         style="fill:url(#linearGradient3863);fill-opacity:1.0;stroke:none;display:none"
         transform="translate(0,-1022.3622)"
         id="layer1-9"
         inkscape:label="Layer 1">
        <image
           width="103"
           height="79"
           xlink:href="data:image/png;base64,iVBORw0KGgoAAAANSUhEUgAAAGcAAABPCAIAAAB53Ez1AAAAA3NCSVQICAjb4U/gAAAIMklEQVR4 nO2bzU8TWxvAT6dfwzAXW6VBa1q/wGDgAgYkaoIfcYEsMAaXbkzUP8AlKxeGGBcmsnKlC5ImGKKu TINiYopIUhFBeO2L9AolONVMX3k7nbbT6cyZuxjpLbf0zEeLDWR+q36cec7Dj2fOOXNmagoGg4Ig QAhDoRDHcadOnXr3HxoYIMEqncC2xLCmB8OaHgxrejCs6cGwpgfDmh4Ma3owrOnBsKYHw5oeDGt6 MKzpwbCmB8OaHgxrejCs6cGwpgfDmh4Ma3owrOnBkv+moaGhvb2dhlSlstkuGLWmB8OaHgxrejCs 6cGwpgdL4UcXT7h/fx7bi39bGx0drUge24sN1oaHhyuVx/Zig7VYLFapPLYXG6xJklSpPLYXG6yJ olipPLYXhjU9GNb0sMEahLBSeWwvjFrTwwZrgiAUa8fzfCqV4nneZDKVpWNJkmw2G0EQNptN5SE8 tHAmp4ARpecgSZIFpnBpzYYV/ZMRqKq1dDptNpvb2trcbncZrVEUFQqFWJatqqpSbM8BEvvDe8C9 3+l0lsXa2toaRX1LJlZwwGo9XLnWstlsTU1NZ2cnSZLq60INBEHs3bs3GAwyDGO1WhEts8BO7D16 5MgRHMctlk2unXVgt9sdDsdff+Gp77NWkNF0rHKtYRjW0tJCkiQAgOf5UhIthCTJlpaWd+/eoYdU c43b6/XiOA6Qw4hWcBz3er2LCVpkwpoOVK41l8tFkqR6XxBCmqbr6upUtidJ0ul00jTqBzW7drlw HC+jrxw4jhO7XPGf/9V0lLI1kiQ1pSsIQjgc/vr1a2trq8qziSTJaDSKaIBXVW/d/I5XVf9P4/9D eb1mNpuz2az6iFar1efzDQ4O+v3+9vZ2h8OheIjZbEYvFTEM2zprGIZpXagq15ogCJmM8mDJcVwk EqEoKplM3r179/79+6dPnx4YGKitrfV6vRiG2jQWBAFdzqIoov9zoVDowIEDBEEo5rlpcK3nvvJs IAiCYq2trq5Go9HOzs4bN24cO3ZMnhCvXLnS1NTU39//5cuXw4cPI5YLgiCgSwlCiG5w+fLlFy9e 4DheW1uLno51BC+kDNa+ffvmcDgGBwcvXLjwr68aGxufP3/+4MGDqakpRARFa6IoohucOXOmubn5 6dOnoVCIJEmXy4Wubk3BC1Ee19BnRzqd3rdv37179zwez8+fP+fm5iiK6uvrs9vtcoPx8fFYLCYI AmLzThRF9MgCIVQ8iXbv3n3z5s2lpaVXr17Nzs7u37+/uroafUguePnHtWw2i1h2MAxz69Ytj8ez uLj47Nmzjx8/chzX19cHAFheXh4ZGZmenuY4Dp1ENptVHNdUlsOhQ4euXbsWCoVGRkZisVhtba28 ykMHL2lc27Qc0EHPnj17/vx5mqaHh4eDwSAAwGazxWKx9+/fP3nyhGVVXayIoojeRtY09NhsttbW 1qNHj46NjY2Pj/M8X1dXh1gDQQi1bmIrj2toa+fOnQMATE5Oyr8El5MYGBhYWlqSG0iSJNe/2Wwu FkSxlHQM2FVVVb29vSdPnpycnBwbGyMIotgaqNTZoNi4hrB2/PhxAMCnT5/yT8PFxcXca4qiIpGI xWI5ceJEsSBqxjV9e38ul+vSpUstLS0TExORSKRcwTdYi8fjhS0YhkEEldcTiUSCpunCtYUkSRcv Xrx9+zbDML29vcWCsCy7adc50ul0KXeCrFar2WxOJBKbfstxHLr3QlRNz6biLCwsAAAaGxs5jiv8 luO45ubmmpqaaDSKCKIpY02sra0FAoHHjx/Pzs6WMWypz3lMTEwAALq7u5uamuLxeK4qIYTxeLyp qam7uxsA8Pbt2xI70grP8xMTE48ePfL7/alUqrzBla+u0eUwOjra1dXV0dHR399/586dqakpeXkJ IZQ/dLvdU1NTo6OjiCCK5aapJAVBiEQiL1++XF1dlSRJTXCVkXOUusNH07TP5/N4PB0dHQ8fPvT7 /TMzMwCAtra2np4et9v948cPn8+H3ggqI9FoNBgMTk9Pa9px0EoZ9kUDgYDJZLp69Wp7e/v169fz v/rw4YPP5wsEAqX3ogjLsm/evJmbmys26peRUs9QmUAgEAqFenp6urq66uvrAQDhcHh8fNzv9286 txZ2oSYNxLefP39+/fr19+/fVUYrkfLswQMAaJoeGhoaGhoqV0BN+Hy+39md8aykHpStmUymLX3W SNU0BzRfKmroHWi+6sAUhy2LxbKl9+RFUVS8vYBJ/BY9TQEhxCTNN97+qbVi7iCEZb+hlw/PKxuB yaggbMlKQhCyMIm60bMpymfoysoKQRCpVAq9s6gVSZIEQUilUgRBrKysoBtHwvO4lMhkMop7Sup7 F0Uxk8ngUiISntd6uPIcmkwmo9HowYMHWZZNJpPlEmcymex2u9PpXF5eTiaTCjmwiejSrLf+z3QW z0gWqeRJzASg1ST8YeZWwnNJVvP67pc19OhGURTLsl6vd8+ePeV6aIHneYZh5ufnGYZR055ajbAJ xnuofleNo/QceJ5PMP//vBRm4ms6DreovMST/0IdHZQRJr42P/O+sjnI/Cr1rd6x2WEorzwMCsF+ z+7gDgMD6ys1w5p6sJwyw5p6TDMzM/IDAwsLC+I6cJ3cW/kGXQ5JkuSFIgBAygOs31Td2T+TsYD1 QmtoaMj3IssqVCbLkqXk9OVbk9nh1nJTAYZhue2H/A8BABDC3FsIodxSkqTci8Ja29n8Yy03tMlq 8j0W6pO3jza96paD7Gx3v87QnKB8ZXJZye3yX4N1Kfm1BjaOaDvb2t/DrO42lpDbggAAAABJRU5E rkJggg== "
           id="image2993"
           x="-54.994007"
           y="984.48407"
           style="fill:url(#linearGradient3863);fill-opacity:1.0;stroke:none" />
      </g>
      <g
         inkscape:label="Tegning"
         id="layer2-4"
         style="fill:url(#linearGradient3863);fill-opacity:1.0;stroke:none">
        <path
           transform="matrix(1.3773947,0,0,1.3773947,-2.6764614,-3.6085843)"
           style="fill:url(#linearGradient3863);fill-opacity:1.0;stroke:none"
           inkscape:transform-center-x="-2.1866668"
           d="m 18.638301,13.509987 c 0,0.246143 -0.228213,0.368236 -0.228213,0.368236 l -8.252769,4.764738 c 0,0 -0.2421855,0.142258 -0.4542118,0.01985 C 9.491081,18.540396 9.5226583,18.273268 9.5226583,18.273268 l 0,-9.5219006 c 0,0 -0.034098,-0.2585287 0.1802556,-0.3822862 0.2143541,-0.1237574 0.4643421,0.013673 0.4643421,0.013673 l 8.239442,4.7570398 c 0,0 0.231603,0.12405 0.231603,0.370193 z"
           id="path2999"
           inkscape:connector-curvature="0"
           sodipodi:nodetypes="zcczcczccz" />
      </g>
    </g>
  </g>
  <g
     inkscape:groupmode="layer"
     id="layer4"
     inkscape:label="xx Work Layer"
     style="display:none"
     transform="translate(0,12)">
    <g
       style="display:inline"
       id="g3883"
       transform="translate(29.5,-1030.081)">
      <path
         transform="matrix(1.3580902,0,0,1.254902,-4.4137931,993.30399)"
         d="m 15.03125,38.570312 c 0,0.880204 -0.659331,1.59375 -1.472656,1.59375 -0.813326,0 -1.472656,-0.713546 -1.472656,-1.59375 0,-0.880203 0.65933,-1.59375 1.472656,-1.59375 0.813325,0 1.472656,0.713547 1.472656,1.59375 z"
         sodipodi:ry="1.59375"
         sodipodi:rx="1.4726562"
         sodipodi:cy="38.570312"
         sodipodi:cx="13.558594"
         id="path3877"
         style="opacity:0.77999998;fill:#d18c8c;fill-opacity:1;stroke:none"
         sodipodi:type="arc" />
      <path
         inkscape:connector-curvature="0"
         id="path3879"
         d="m 13.718263,1041.9877 0.563475,-0.5635"
         style="fill:none;stroke:#000000;stroke-width:0.01;stroke-linecap:butt;stroke-linejoin:miter;stroke-miterlimit:4;stroke-opacity:1;stroke-dasharray:none" />
      <path
         style="fill:none;stroke:#000000;stroke-width:0.01;stroke-linecap:butt;stroke-linejoin:miter;stroke-miterlimit:4;stroke-opacity:1;stroke-dasharray:none"
         d="m 14.281747,1041.9877 -0.563494,-0.5635"
         id="path3881"
         inkscape:connector-curvature="0" />
    </g>
  </g>
  <g
     style="display:none"
     inkscape:label="xx lpdi: Guide Rectangles (page 36x36)"
     id="g4713"
     inkscape:groupmode="layer"
     sodipodi:insensitive="true">
    <rect
       y="19.0625"
       x="7.062499"
       height="21.875"
       width="21.875002"
       id="rect4715"
       style="fill:none;stroke:#b65100;stroke-width:0.1;stroke-miterlimit:4;stroke-opacity:1;stroke-dasharray:none" />
    <rect
       style="fill:none;stroke:#002fb6;stroke-width:0.10000001;stroke-miterlimit:4;stroke-opacity:1;stroke-dasharray:none"
       id="rect4717"
       width="23.875006"
       height="23.875004"
       x="6.0624971"
       y="18.062498" />
  </g>
  <g
     inkscape:groupmode="layer"
     id="layer3"
     inkscape:label="xx mpdi: Guide Rectangles (page 48x48)"
     style="display:none"
     sodipodi:insensitive="true">
    <rect
       transform="translate(0,-1004.3622)"
       style="fill:none;stroke:#b65100;stroke-width:0.10000002;stroke-miterlimit:4;stroke-opacity:1;stroke-dasharray:none"
       id="rect4701"
       width="29.875004"
       height="29.875002"
       x="9.0624981"
       y="1013.4247" />
    <rect
       transform="translate(0,-1004.3622)"
       y="1012.4247"
       x="8.0624981"
       height="31.875002"
       width="31.875004"
       id="rect4703"
       style="fill:none;stroke:#002fb6;stroke-width:0.10000001;stroke-miterlimit:4;stroke-opacity:1;stroke-dasharray:none" />
  </g>
  <g
     style="display:none"
     inkscape:label="xx hpdi: Guide Rectangles (page 72x72)"
     id="g4719"
     inkscape:groupmode="layer"
     sodipodi:insensitive="true">
    <rect
       y="-9.9374962"
       x="14.062502"
       height="43.874992"
       width="43.874996"
       id="rect4721"
       style="fill:none;stroke:#b65100;stroke-width:0.10000002;stroke-miterlimit:4;stroke-opacity:1;stroke-dasharray:none" />
    <rect
       style="fill:none;stroke:#002fb6;stroke-width:0.1;stroke-miterlimit:4;stroke-opacity:1;stroke-dasharray:none"
       id="rect4723"
       width="47.874992"
       height="47.874989"
       x="12.062504"
       y="-11.937494" />
  </g>
</svg>
