<?xml version="1.0" encoding="UTF-8" standalone="no"?>
<!-- Created with Inkscape (http://www.inkscape.org/) -->

<svg
   xmlns:dc="http://purl.org/dc/elements/1.1/"
   xmlns:cc="http://creativecommons.org/ns#"
   xmlns:rdf="http://www.w3.org/1999/02/22-rdf-syntax-ns#"
   xmlns:svg="http://www.w3.org/2000/svg"
   xmlns="http://www.w3.org/2000/svg"
   xmlns:xlink="http://www.w3.org/1999/xlink"
   xmlns:sodipodi="http://sodipodi.sourceforge.net/DTD/sodipodi-0.dtd"
   xmlns:inkscape="http://www.inkscape.org/namespaces/inkscape"
   width="375"
   height="175"
   id="svg2"
   version="1.1"
   inkscape:version="0.92.2 (5c3e80d, 2017-08-06)"
   sodipodi:docname="g_enduser_connecting_screen.svg"
   inkscape:export-filename="C:\GOn\graphics\GOn version 5.8\Connecting screen\g_enduser_connecting_screen.png"
   inkscape:export-xdpi="96"
   inkscape:export-ydpi="96"
   style="display:inline">
  <defs
     id="defs4">
    <linearGradient
       id="linearGradient3757">
      <stop
         style="stop-color:#440008;stop-opacity:1;"
         offset="0"
         id="stop3759" />
      <stop
         style="stop-color:#880000;stop-opacity:1;"
         offset="1"
         id="stop3761" />
    </linearGradient>
    <linearGradient
       gradientUnits="userSpaceOnUse"
       y2="79.642326"
       x2="154.70297"
       y1="-0.22277227"
       x1="154.70297"
       id="linearGradient3791"
       xlink:href="#linearGradient3785"
       inkscape:collect="always" />
    <linearGradient
       id="linearGradient3785">
      <stop
         id="stop3787"
         offset="0"
         style="stop-color:#440008;stop-opacity:1;" />
      <stop
         id="stop3789"
         offset="1"
         style="stop-color:#880000;stop-opacity:1;" />
    </linearGradient>
  </defs>
  <sodipodi:namedview
     id="base"
     pagecolor="#ffffff"
     bordercolor="#666666"
     borderopacity="1.0"
     inkscape:pageopacity="0.0"
     inkscape:pageshadow="2"
     inkscape:zoom="2"
     inkscape:cx="166.33074"
     inkscape:cy="123.02269"
     inkscape:document-units="px"
     inkscape:current-layer="layer1"
     showgrid="false"
     inkscape:window-width="1680"
     inkscape:window-height="987"
     inkscape:window-x="1672"
     inkscape:window-y="23"
     inkscape:window-maximized="1"
     showguides="true"
     inkscape:guide-bbox="true"
     fit-margin-top="0"
     fit-margin-left="0"
     fit-margin-right="0"
     fit-margin-bottom="0"
     borderlayer="true"
     inkscape:showpageshadow="false" />
  <metadata
     id="metadata7">
    <rdf:RDF>
      <cc:Work
         rdf:about="">
        <dc:format>image/svg+xml</dc:format>
        <dc:type
           rdf:resource="http://purl.org/dc/dcmitype/StillImage" />
        <dc:title></dc:title>
      </cc:Work>
    </rdf:RDF>
  </metadata>
  <g
     inkscape:label="Layer 1"
     inkscape:groupmode="layer"
     id="layer1"
     transform="translate(-170,-394.36218)">
    <rect
       y="394.36218"
       x="170"
       height="175"
       width="375"
       id="rect3755"
       style="fill:#ffffff;fill-opacity:1;stroke:none" />
    <g
       id="g1107"
       style="display:inline;fill:#b7193f;fill-opacity:1;stroke-width:5.85319567"
       transform="matrix(0.17084685,0,0,0.17084685,185.98045,360.95246)">
      <path
         style="clip-rule:evenodd;fill:#b7193f;fill-opacity:1;fill-rule:evenodd;stroke-width:5.85319567"
         inkscape:connector-curvature="0"
         id="path3"
         d="m 123.09442,415.04671 c -6.1,2.35 -18.31,5.789 -32.550003,5.789 -15.96,0 -29.1,-4.069 -39.43,-13.93 -9.08,-8.771 -14.71,-22.859 -14.71,-39.3 0,-31.48 21.75,-54.49 57.12,-54.49 12.200003,0 21.900003,2.66 26.440003,4.85 l -3.44,11.12 c -5.63,-2.66 -12.68,-4.54 -23.320003,-4.54 -25.66,0 -42.4,15.97 -42.4,42.43 0,26.771 15.96,42.59 40.68,42.59 8.920003,0 15.020003,-1.25 18.150003,-2.819 v -31.47 H 88.354417 v -10.96 h 34.740003 z" />
      <polygon
         transform="translate(-54.115583,-51.43329)"
         style="clip-rule:evenodd;fill:#b7193f;fill-opacity:1;fill-rule:evenodd;stroke-width:5.85319567"
         id="polygon5"
         points="185.82,477.439 229.32,363.92 240.12,363.92 196.3,477.439 " />
      <path
         style="clip-rule:evenodd;fill:#b7193f;fill-opacity:1;fill-rule:evenodd;stroke-width:5.85319567"
         inkscape:connector-curvature="0"
         id="path7"
         d="m 231.37442,410.34671 c 21.6,0 33.81,-19.88 33.81,-43.84 0,-20.98 -10.96,-42.9 -33.65,-42.9 -22.69,0 -33.96,21.14 -33.96,44 0,22.229 12.21,42.74 33.65,42.74 z m -0.62,11.12 c -28.01,0 -47.42,-21.61 -47.42,-53.55 0,-33.51 20.66,-55.43 48.83,-55.43 28.951,0 47.57,22.08 47.57,53.39 0,36.17 -22.07,55.59 -48.82,55.59 z" />
      <path
         style="clip-rule:evenodd;fill:#b7193f;fill-opacity:1;fill-rule:evenodd;stroke-width:5.85319567"
         inkscape:connector-curvature="0"
         id="path9"
         d="m 296.94542,364.46671 c 0,-7.98 -0.16,-14.24 -0.63,-20.51 h 12.209 l 0.78,12.37 h 0.32 c 3.75,-7.04 12.51,-14.09 25.029,-14.09 10.49,0 26.76,6.26 26.76,32.261 v 45.25 h -13.77 v -43.69 c 0,-12.21 -4.54,-22.55 -17.529,-22.55 -8.92,0 -15.961,6.42 -18.461,14.1 -0.63,1.72 -0.939,4.22 -0.939,6.42 v 45.721 h -13.77 v -55.282 z" />
      <path
         d="m 403.30442,334.15671 -0.77,-11.57 c -0.09,-1.49 0,-3.32 -0.051,-5.2 h -0.14 c -0.479,1.78 -1.06,3.81 -1.641,5.49 l -3.989,11.04 h -2.22 l -3.9,-11.33 c -0.479,-1.54 -0.96,-3.42 -1.391,-5.2 h -0.149 c -0.05,1.83 0,3.47 -0.101,5.2 l -0.72,11.57 h -2.789 l 1.489,-19.18 h 3.811 l 3.75,10.41 c 0.479,1.44 0.87,3.03 1.35,4.82 h 0.101 c 0.43,-1.79 0.859,-3.47 1.35,-4.87 l 3.75,-10.36 h 3.76 l 1.44,19.18 z m -18.53,-19.18 v 2.46 h -5.88 v 16.72 h -2.89 v -16.72 h -5.82 v -2.46 z"
         id="path13"
         inkscape:connector-curvature="0"
         style="clip-rule:evenodd;fill:#b7193f;fill-opacity:1;fill-rule:evenodd;stroke-width:5.85319567" />
    </g>
  </g>
</svg>
