<?xml version="1.0" encoding="UTF-8" standalone="no"?>
<!-- Created with Inkscape (http://www.inkscape.org/) -->

<svg
   xmlns:dc="http://purl.org/dc/elements/1.1/"
   xmlns:cc="http://creativecommons.org/ns#"
   xmlns:rdf="http://www.w3.org/1999/02/22-rdf-syntax-ns#"
   xmlns:svg="http://www.w3.org/2000/svg"
   xmlns="http://www.w3.org/2000/svg"
   xmlns:xlink="http://www.w3.org/1999/xlink"
   xmlns:sodipodi="http://sodipodi.sourceforge.net/DTD/sodipodi-0.dtd"
   xmlns:inkscape="http://www.inkscape.org/namespaces/inkscape"
   width="16"
   height="16"
   id="svg2"
   version="1.0"
   inkscape:version="0.92.2 (5c3e80d, 2017-08-06)"
   inkscape:export-filename="C:\GOn\graphics\GOn version 5.8\Tokens\g_mobile_android_16x16.png"
   inkscape:export-xdpi="96"
   inkscape:export-ydpi="96"
   sodipodi:docname="g_mobile_android_16x16.svg"
   style="display:inline"
   sodipodi:version="0.32"
   inkscape:output_extension="org.inkscape.output.svg.inkscape">
  <defs
     id="defs4">
    <linearGradient
       id="linearGradient3789-46-9">
      <stop
         style="stop-color:#242424;stop-opacity:1;"
         offset="0"
         id="stop3791-3-8" />
      <stop
         style="stop-color:#b2b2b2;stop-opacity:1;"
         offset="1"
         id="stop3793-05-8" />
    </linearGradient>
    <linearGradient
       id="linearGradient3816-2-36">
      <stop
         style="stop-color:#ffffff;stop-opacity:0.25882354;"
         offset="0"
         id="stop3818-96-00" />
      <stop
         style="stop-color:#ffffff;stop-opacity:0;"
         offset="1"
         id="stop3820-67-9" />
    </linearGradient>
    <linearGradient
       id="linearGradient3797-7-48">
      <stop
         style="stop-color:#ffffff;stop-opacity:1;"
         offset="0"
         id="stop3799-3-7" />
      <stop
         style="stop-color:#ffffff;stop-opacity:0.16470589;"
         offset="1"
         id="stop3801-87-4" />
    </linearGradient>
    <linearGradient
       inkscape:collect="always"
       xlink:href="#linearGradient3789-46-9"
       id="linearGradient3796"
       gradientUnits="userSpaceOnUse"
       x1="34.479824"
       y1="980.94946"
       x2="34.479824"
       y2="1052.0378" />
    <linearGradient
       inkscape:collect="always"
       xlink:href="#linearGradient3816-2-36"
       id="linearGradient3798"
       gradientUnits="userSpaceOnUse"
       gradientTransform="matrix(1,0,0,0.63512546,0,-596.51749)"
       x1="34.371315"
       y1="1052.3622"
       x2="34.371315"
       y2="981.34082" />
    <linearGradient
       inkscape:collect="always"
       xlink:href="#linearGradient3797-7-48"
       id="linearGradient3800"
       gradientUnits="userSpaceOnUse"
       gradientTransform="matrix(1.2057712,0,0,1,-7.3425861,-72)"
       x1="35.989838"
       y1="51.432434"
       x2="35.989838"
       y2="108.26157" />
    <clipPath
       clipPathUnits="userSpaceOnUse"
       id="clipPath4001-4">
      <rect
         ry="3.5977538"
         y="16.596304"
         x="9.3698635"
         height="38.807392"
         width="53.260277"
         id="rect4003-5"
         style="display:inline;fill:none;stroke:#ffffff;stroke-width:1.70720434;stroke-miterlimit:4;stroke-dasharray:none;stroke-dashoffset:0;stroke-opacity:1" />
    </clipPath>
    <clipPath
       clipPathUnits="userSpaceOnUse"
       id="clipPath3997-0">
      <rect
         ry="3.5977538"
         y="16.596304"
         x="9.3698635"
         height="38.807392"
         width="53.260277"
         id="rect3999-9"
         style="display:inline;fill:none;stroke:#ffffff;stroke-width:1.70720434;stroke-miterlimit:4;stroke-dasharray:none;stroke-dashoffset:0;stroke-opacity:1"
         transform="rotate(45)" />
    </clipPath>
  </defs>
  <sodipodi:namedview
     id="base"
     pagecolor="#ffffff"
     bordercolor="#666666"
     borderopacity="1.0"
     inkscape:pageopacity="0.0"
     inkscape:pageshadow="2"
     inkscape:zoom="35.651555"
     inkscape:cx="7.6863598"
     inkscape:cy="7.9494229"
     inkscape:document-units="px"
     inkscape:current-layer="layer2"
     showgrid="false"
     borderlayer="true"
     inkscape:showpageshadow="false"
     showborder="false"
     inkscape:window-width="1280"
     inkscape:window-height="961"
     inkscape:window-x="3352"
     inkscape:window-y="23"
     inkscape:window-maximized="1"
     showguides="false"
     inkscape:guide-bbox="true"
     inkscape:snap-global="false"
     objecttolerance="20"
     inkscape:object-paths="true"
     inkscape:snap-smooth-nodes="false"
     inkscape:object-nodes="false">
    <sodipodi:guide
       orientation="1,0"
       position="7.9985018,14.002917"
       id="guide3837"
       inkscape:locked="false" />
  </sodipodi:namedview>
  <metadata
     id="metadata7">
    <rdf:RDF>
      <cc:Work
         rdf:about="">
        <dc:format>image/svg+xml</dc:format>
        <dc:type
           rdf:resource="http://purl.org/dc/dcmitype/StillImage" />
        <dc:title />
      </cc:Work>
    </rdf:RDF>
  </metadata>
  <g
     inkscape:groupmode="layer"
     id="layer3"
     inkscape:label="xx Work Layer"
     style="display:inline"
     transform="translate(0,-72)" />
  <g
     inkscape:groupmode="layer"
     id="layer1"
     inkscape:label="xx Photo"
     style="display:none"
     sodipodi:insensitive="true"
     transform="translate(0,-16)">
    <image
       style="display:inline"
       y="15.490318"
       x="-2.0368631"
       id="image3081"
       xlink:href="data:image/jpeg;base64,/9j/4AAQSkZJRgABAQEAYABgAAD/2wBDAAgGBgcGBQgHBwcJCQgKDBQNDAsLDBkSEw8UHRofHh0a HBwgJC4nICIsIxwcKDcpLDAxNDQ0Hyc5PTgyPC4zNDL/2wBDAQkJCQwLDBgNDRgyIRwhMjIyMjIy MjIyMjIyMjIyMjIyMjIyMjIyMjIyMjIyMjIyMjIyMjIyMjIyMjIyMjIyMjL/wAARCALXAoUDASIA AhEBAxEB/8QAHwAAAQUBAQEBAQEAAAAAAAAAAAECAwQFBgcICQoL/8QAtRAAAgEDAwIEAwUFBAQA AAF9AQIDAAQRBRIhMUEGE1FhByJxFDKBkaEII0KxwRVS0fAkM2JyggkKFhcYGRolJicoKSo0NTY3 ODk6Q0RFRkdISUpTVFVWV1hZWmNkZWZnaGlqc3R1dnd4eXqDhIWGh4iJipKTlJWWl5iZmqKjpKWm p6ipqrKztLW2t7i5usLDxMXGx8jJytLT1NXW19jZ2uHi4+Tl5ufo6erx8vP09fb3+Pn6/8QAHwEA AwEBAQEBAQEBAQAAAAAAAAECAwQFBgcICQoL/8QAtREAAgECBAQDBAcFBAQAAQJ3AAECAxEEBSEx BhJBUQdhcRMiMoEIFEKRobHBCSMzUvAVYnLRChYkNOEl8RcYGRomJygpKjU2Nzg5OkNERUZHSElK U1RVVldYWVpjZGVmZ2hpanN0dXZ3eHl6goOEhYaHiImKkpOUlZaXmJmaoqOkpaanqKmqsrO0tba3 uLm6wsPExcbHyMnK0tPU1dbX2Nna4uPk5ebn6Onq8vP09fb3+Pn6/9oADAMBAAIRAxEAPwD3+iii gAooooAKKKKACiiigAooooAKKKKACiiigAooooAKKKKACiiigAooooAKKKKACiiigAooooAKKKKA CiiigAooooAKKKKACiiigAooooAKKKKACiiigAooooAKKKKACiiigAooooAKKKKACiiigAooooAK KKKACiiigAooooAKKKKACiiigAooooAKKKKACiiigAooooAKKKKACiiigAooooAKKKKACiiigAoo ooAKKKKACiiigAooooAKKKjmmit4mlmkSONBlnc4AHuTQBJRXJ6t4witbQ3KSQWVl0F7fZUP/wBc 4/vOfTp+NeZa98U9PUsqpc6if+el/N5MOfUQpyR9QDQB7Vca1pdqxWfULZGHVTKN35darjxNpTfc nlk/6528jfyWvm25+MOpoStnPbWa/wByyskUfm+41jzfFTXpSSdX1b/gNyEH5KBQB9VHxFZdob5v pZy//E0f8JFaf8+2of8AgHJ/hXyY3xJ1tuup6sfrqEn9DTf+Fjaz/wBBLVf/AAYS/wCNAH1r/wAJ Fa/8+2of+Acn+FH/AAkVr/z66h/4Byf4V8lf8LG1n/oJat/4MJf8aP8AhY2s/wDQS1b/AMGEv+NA H1r/AMJFa/8APrqH/gHJ/hR/wkVr/wA+mo/+Acn+FfJP/CxdZ/6CWq/+DCX/AOKpf+Fi6x/0EtW/ 8GMv+NAH1r/wkNt/z6aj/wCAcn+FZqeP9El1htKQXzXykgxCzkyCBk9vSvlz/hYusf8AQS1f/wAG Mv8AjVRfGNyl8b1Zr9bskkzi8cOcjB+bOelAH2B/wkNv/wA+eo/+Acn+FH/CQ2//AD56j/4BSf4V 8k/8LE1f/oJav/4MZf8AGj/hYmsf9BLV/wDwYy/40AfW3/CQ2/8Az56l/wCAcn+FH/CRWw62eo/+ Acn+FfJP/Cw9X/6CWr/+DGX/AOKo/wCFh6v/ANBLV/8AwYy/40AfWv8Awkdt/wA+mo/+Ab/4Un/C SWv/AD6aj/4Bv/hXyUfiDqx/5iOrf+DCX/GrWneL9e1a/jsbS/1R55SQitqci5IGepbHagD6r/4S S1/59dQ/8A3/AMKP+EktP+fXUP8AwEf/AAr5zNv49/v6j/4OD/8AFUfZ/Hv9/Uf/AAbn/wCKoA+j P+EktP8An11D/wABH/wo/wCEltP+fW//APAR/wDCvnP7N48/vaj/AODg/wDxVH2Xx5/f1H/wbn/4 qgD6N/4SS1/59b//AMBH/wAKP+EjtT/y63//AICP/hXzl9l8ef39R/8ABwf/AIqj7L487Saj/wCD c/8AxVAH0d/wkVt/z63/AP4Cv/hR/wAJFa/8+1//AOAr/wCFfOH2Tx4f+Wmo/wDg3P8A8VR9j8ef 89NR/wDBuf8A4qgD3Jtd1iTV5jsuYrDP7oLYFjjHU5Oc5+lRnXde+0MFjuTFn5T9hIJH514j9j8e f89dR/8ABuf/AIqj7J49H/LbU/8Awbn/AOKoA9y/tnWCM770e39n5/rR/bGsf89b3/wXf/Xrw37J 49/576n/AODc/wDxVJ9k8e/899U/8G5/+KoA9z/tjWP+et5/4Lv/AK9A1jVxyZbz/wAF9eGfZvH3 /PfVf/Buf/iqXyPH4/5eNX/DVz/8VQB7r/bepG3mHmXay4Hl/wDEvJBPvV7SPELHTYhqqzreDIkK 2jhTycHgHtivnvb8QV6T6x+Gq/8A2VL9p+IsfIn13/gOoBv60AfSg1/TD1ugn++jL/MCrUF9aXJx BdQyn0RwT+lfMqeJviPZncZddwP+ekSTD9Qali+LOv2smzVbWwuva8sjA/4MuOfwoA+naK8Y0H4v aTMUS5lu9Ic8Ayt9ptj/AMCHzL+gr02x1+GeCKSZohFL/q7qGQSQSfRh0/H8zQBtUUUUAFFFFABR RRQAUVDczC3tZpyMiNC+B3wM18933xO8aXEjywahHbxsSVjSBCFHYZIJP4mgD2278Y+H7G7ktbjU 41miO11Cs20+hIBGag/4T3wx/wBBVP8Av2//AMTXD+FPDw1Tw/FqF8TNd3UjzzSEAFmZsk8dOa2v +EPtP+edIZvf8J74Y/6Cqf8Aft//AImj/hPfDH/QVT/v2/8A8TWCfBtmesdH/CG2g/5Z0AdTpvir RNWu/stjqEcs5UsI8MpIHXGQM/hWzXivjTTLjwvaWesaNK1tewTELIFDcMu08EEdDVDw18SfFh1y wh1C7ju7aadIpEaFFOGOMgqAcjNMR7zRRRQAUUUUAFFFFABRRRQAUUUUAFFFFABRRRQAUUUUAFFF FABRRRQAUUUUAFFFFABRRRQAUUUUAVr69g06zkurl9saegySTwAB3JPAFeVeOfHiaQwN4kc2oY8y DT2bMVqOzzY+8/ov5Y6m1478aJptmdUXa7F2h0mFuVdxw9ww7heg/wDsuPmfV9Vn1K7leWZ5S7l3 kc5aRj1YmgDS8QeMNS1u/e6nupJ52486TqB6KOij2Fc47tI252LH1JzTaKACiiigAooooAKKKKAC iiigAooooAKKKKACiiigAq1p95Jp2o215EcPBIsi49jmqtFAH0tBPHc28dxEcxyorofYjIqTNcj8 OtT+3+E4oWOZbNzCf93qv6Ej8K6vNAD80ZpmaXNADs0ZpuaM0AOzRmm5ozQA7NGabmkzQA+jNNzR mgB2aM03NJmgB+aM03NJmgB+abKiTxmOaNJUPVZFDD8jRnijNAHM6n4E0i93SWYbTrg8h4PuE+6H j8sVzdlqXib4cagNrJ9kmbDKcva3PsR/A3vwfqK9KzUNzbQXtrJbXUSzQSDa8bjII/z3oA67wX42 sNc043FkXWKLAurGRt0loT3X+9H9PwxyK71WV0V1YMrDIIOQRXyXcR6n8OvE9tqGmTMYSx+zu/R1 /ihk9cjv9CORX0P4N8SWesaba3dm2LK8B2ITzbyj78R/HJH/ANcUAdfRRRQAUUUUAVNT/wCQTef9 cH/9BNfM21fsqcdVr6Y1Y40e+P8A07yf+gmvl57gLbIM9FoA+gPBUar4Q04Y6xA10Gxa5bwndiPw rpgJ62yN+YFbX25fWkMv7Fo2LVH7cvrR9uX1oA5f4nxqfCmcdJl/mK8t0dV/tjTT6XcP/oYr0n4l XQfwfOQfuyRn82FeXaJOH1jTQP8An7i/9DFMR9O0UUUAFFFFABRRRQAUUUUAFFFFABRRRQAUUUUA FFFFABRRRQAUUUUAFFFFABRRRQAUUUUAFYniW5kWwjsYHKXF/J5CsDyikZdvwUH8SK2682+I+tNp 1prd7G+H0/TxBD7TTtjI9wApoA8E+I/iZdb8QXDWpxZQf6JZqOiwpxkf7xyfpj0rhKs3rfv9g6Rg KKrUAFFFFABRRRQAUUUUAFFFFABRRRQAUUUUAFFFFABRRRQAUUUUAd18MNT+y69NYO2Eu4jtBP8A GvI/TcK9bzXzrpl9JpuqWt7H9+CVXH4GvoWOZJoo5ojmORQ6H1BGRQBLmjNNzRmgB2eaXNMzRmgB 2aM03NGaAHZozTc0ZoAdmjNNzSZoAfmjNNzSZoAfmjNMzS5oAdmjNNzRmgB2aM03NGaAKes6XDre kz2E+AJB8j90cfdYfQ/pmud+E2tT6d4iufDd45iF6xVQT/qruPkEf7wH44FdbmvNvGAk0TxnBqtq djuEulI7SRsM/mAPzoA+rLC5+2WUU5GGYYZfRhwR+YNWqw/D93HcrK8R/czrHdRf7si5/mP1rcoA KKKKAKerf8ga+/695P8A0E18k3U5VMZ6CvrfVP8AkEXv/XB//QTXx7fEh3HuaAPcdK1H7P4e0mMH n7DCx/FAatjWDnrXPwI/9k6SQODp1t/6LFAjf3FIaOgOsn+9QNYJ71z/AJUgOBn1oCSd80AP8bX5 uPBGoc/daI/+RAK8/wDDMvma/pi563cX/oQrrfE6OvgnVy3T9xx/21FcV4Q58T6UP+nqP/0IUITP raiiimAUUUUAFFFFABRRRQAUUUUAFFFFABRRRQAUUUUAFFFFABRRRQAUUUUAFFFFABRRRQAV4L8X rwtoF4pOGu9cEf1WJMfzAr3qvnD4sy7tL0fP/LTUr2U/99Y/rQB4lK26Z29WJplB60UAFFFFABRR RQAUUUUAFFFFABRRRQAUVLDC00m0HA6k+grQTTbdxjzH3evH8qAMqip7m2e1l2PyOoYdCKgoAKKU DJwKsra4A3Mc+goAq0Vb+yp6tR9lT1agCpXtPgHU/wC0PCsCM2ZLVjA30HK/ocfhXkX2WP1etzw9 r914b+0fZUSVZwu5ZQcAjOCMEc8mgD2jNGa8z/4WNqf/AD6Wn5N/jR/wsbU/+fO0/wC+W/xoA9Mz RmuK0Xx7Fe3SW2oQJbNIdqSoSUyegIPI+tdlnsaAH5ozTM0ZoAfmjNMzRmgB+aM0zNGaAH5ozTM0 ZoAfmjNMzRmgB+aM0zNGaAH5ozTM0ZoAfmuK+I0Ia00y4xys7Rk+zL/9auyzXLfEAbvDkbf3buI/ zFAHrPwvvGuvC3h+Zzlm09oSf+ub7R+gr0KvKfg9KX8IaIOyTXUY+m4mvVqACiiigCrqf/IKvP8A rg//AKCa+Pr8fvJP9419g6l/yCrz/ri//oJr5AvvvyfU0Ae46XaCXw9oz466fb/+ixVr7AMcrU+g qD4W0Q/9Q+D/ANFir+wY6UhmR9hGelH2Ff7orUKZPAoVBnGKBnHeObYQ+AtVbHUwj/yIK838Hj/i qdJ/6+o//QhXq3xFQL8PtSI/vw/+jBXlfhD/AJGfSv8Ar6j/APQhTJZ9ZUUUUAFFFFABRRRQAUUU UAFFFFABRRRQAUUUUAFFFFABRRRQAUUUUAFFFFABRRRQAUUUUAZ+rXs1jao1vCk08kqxojvsBJPr j0Br52+KTs+ieGmYbWaW8ZgDnBLjIr3vxTn7Pp2P+f8Aj/k1eBfFD/kB+GP9+8/9DFAHjdFFFABR RRQAUUUUAFFFFABRRRQAUUUUAX9OAZpFH3iAfwrbis96psC4A5BHzFvX8PeuYjkeJw6MVYdCK008 QXkabVWIH+9t5/niqjK1yXG4/XlEckEZPzhSSPQHp/KsapJpZJ5Wklcu7HJYnk1HUlEkRAlUn1rt fC1rps0Ugu9vng/dY9R2xz/n8crw1XbXU57Q8BXH+0KAPTv7P0Y4wsPtyPb6eo9OvbjYn9n6Nx8s P5j2+nqPTr242eff8JFcf88IfyP+NIfENwf+WMX5H/GgD0H7Box6CH25Ht9PUenXtxsT7BoxxgQ+ 3I9vp6j069uNnn3/AAkFx/zxi/I/40n9vz/88Yv1/wAaAPQPsOjHoIT+I9vp6j069uNh9h0Y9BD+ Y9vp6j069uNlXwxpdnr+ji7klkSZXKSImMAjkdfUEfrWz/wh9j/z8T/p/hQBy+saA02ybTLdnQsF JTpk9Mf/AKvy6D0uIMkMau251UBj6kDk1TsLCHToBFCXYDu5yat5oAfmjNMzRmgB+aM0zNGaAH5o zTM0ZoAfmjNMzRmgB+aM0zNGaAH5ozTM0ZoAfmjNMzRmgB+a5nx6f+KYP/XzF/M10ea5nx4f+KYP /XxF/M0Aeh/Br/kU9L9ry6/ka9bryX4Nf8inpf8A1+3X8jXrVABRRRQBV1L/AJBV3/1wf/0E18gX 335Pqa+v9T/5BV5/1wf/ANBNfIF99+T6mgD6F8P8eFtE/wCwfB/6AKmnlfzCiHYAOSByTUOgf8ip on/XhB/6AKfKMzv9R/IUhjbeK5lmbzJJlt9vySBlyzZweMdBjrT7RrtQIr5EWbbvBQ5DLkj0HPH6 1bt8fYLf6N/6G1Mm/wCP2D/r2P8A6GaAOb+I/wDyT3Uv9+H/ANGCvKfCP/Iz6V/19R/+hCvV/iOP +Leal/vw/wDowV5R4R/5GfSv+vqP/wBCFMTPrKiiigAooooAKKKKACiiigAooooAKKKKACiiigAo oooAKKKKACiiigAooooAKKKKACiiigDC8Tj9xp//AF/R/wAmrwD4n/8AID8M/wC9ef8AoYr3jxjI 8dlp5jUs5vowAOp+Vq8G+J3/ACAfC+ePmu/w+YUuoHjtFFFMAooooAKKKKACiiigAooooAKKKKAC iiigAooooAKKKKACiiigAooooA7j4baj5Op3Ngx+W4Teo/2l/wDrE/lXpma8I0i+bTNXtb1f+WUg Y+47j8s17krqwDIcqwyp9QelAEmaXNR54ozQBJmjNRlqM0APzRmmZozQA/NLmo80ZoAkzRmo91Ga AJM0ZqPNGaAJM0ZqPNGaAH5pc1HmjNAD81zfjo/8Uyf+vmL+Zrod1c345P8AxTR/6+Iv5mgD0r4N f8ijpf8A1+3X8jXrNeTfBr/kUdL/AOvy6/ka9ZoAKKKKAKup/wDIKvP+uD/+gmvkC++/J9TX1/qf /IKvP+uD/wDoJr5BvvvyfU0AfQmgf8itov8A2D4P/QBT5f8AXv8AUfyFR6CP+KW0T/sHwf8AosVJ KP37/UfyFIZbtj/oEH0f/wBDamzj/TYD/wBOx/8AQzT7Yf6BB/wP/wBDamzDN9B/17H/ANGGgDm/ iP8A8k91L/fh/wDRgryjwh/yM+lf9fUf/oQr1j4kcfDzUv8Afh/9GCvJ/CH/ACM+lf8AX1H/AOhC mJn1lRRRQAUUUUAFFFFABRRRQAUUUUAFFFFABRRRQAUUUUAFFFFABRRRQAUUUUAFFFFABRRRQBna vp8uo20aQXAgmimWVJCm7BHXjI7E186/FAFdF8MqTuKveAnpk7xzX03XzL8U/wDkE+HP+ul5/wCh igDxqiiigAooooAKKKKACiiigAooooAKKKKACiiigAooooAKKKKACiiigAooooAK9g8Iaj/aHhq2 LHMkIML88/L0/QivH67b4d6h5d7dWDH5ZkEiD/aXr+h/SgD0bdS5qLdRmgCTdRuqPdRmgCTdRuqP dRmgCTdRupmaN1AD91G6o80ZoAk3UbqjzRmgCTdRmo91GaAJM0bqjzRmgCTdXO+Nznw4f+viP+Zr fzXO+NT/AMU7/wBvEf8AM0AeofBr/kUdL/6/Lr+tesV5P8Gf+RR0z/r8uv616xQAUUUUAVdT/wCQ Vef9cH/9BNfIF/8Afk+pr6+1P/kFXn/XB/8A0E18hah9+T6mgD6F8Pj/AIpXRP8AsHwf+gCrE8Tb y6jcCOcdQag8P5/4RXRP+wfB/wCixWjSGZYub62HlLaGaEBihUfMCTkAj0yTz71ashdTBZ72NI5v LCCNDkKMknn3Jq1j1paAOW+JX/JPNS/34f8A0YK8m8If8jPpX/X1H/6EK9Z+JX/JO9SH+3D/AOjB Xk/hD/kZtL/6+Y//AEIUxM+saKKKACiiigAooooAKKKKACiiigAooooAKKKKACiiigAooooAKKKK ACiiigAooooAKKKKACvmT4pf8gvw7/10vP8A0MV9N18yfFL/AJBfh7/rpef+higZ43RRSqMsB60C Epa07bS5bqFpYkQorbSS2Dmp10G7dwqxIWPQBs5p8rfQh1IJ2bMWkrcfw/eRNteGNTgHBfsab/YV 1/zzj/76p8r7C9rDuYtFbNvolzdMUhjRnHBTd835U6XQbyCcQyQqshG7G7oPejlY/aQ3uYlFbD6L cRozskYCjJO6mf2TcBQxhAB7k9PrRyvsL2sO5lUVtf2Fc/8APOL/AL6pP7Cuf+ecf/fVHLLsHtqf cxqK2F0W5YcRp+LYp39hXX/POP8A76o5Zdg9rDuYtFbX9hXP/POP/vqk/sS53bfLjzjP3qOWXYPa w7mPRWx/YV1/zzj/AO+6DodyASUiAHU76OWXYPa0+5jUVtDQ7kjIjjx/v0DQronAjj6E/f8AQZ/p RyvsHtYdzForWXSZnGUSM84+9yP0qT+wrr/nnH/33RyvsHtYdzFq9o98dN1e1ux0jkBb3Xof0Jq5 /YV1/wA84/8AvqkGh3Rbb5cY9y3FHLLsHtYdz1vcCMg5BGQfUUuaq+G4Lm70G2Z1QyRr5T/N3Xgf pitX+zrj+4v/AH1SsylOPcqZozVr+zp8Z2L/AN9Cj+zrj+4v/fVFmHNEq5ozVoadOcjYv/fVH9nT jqqf99CizDmiVc0Zq3/Z0/8AcX/vqj+zrj+4v/fVFmHNEqZozVr+z58kbUz/AL1L/Z1x/cX/AL6o sw5kVM0Zq3/Z0/8AdX/vqj+zp/7qf99CizDmRUzRmrf9m3H9xP8Avqk/s6f+6v8A31RZhzIq5o3V a/s6f+4v/fVRT2zwAeYAM9MHNFhqSZFmue8ZnPh7/t4j/ma3c1geMTnQP+3iP+ZpDPVfgz/yKOmf 9fd1/WvWK8n+DP8AyKOmf9fd1/WvWKACiiigCpqf/IKvP+uD/wDoJr5C1D/WSfU19e6n/wAgm8/6 4P8A+gmvkDUT+9k+poA+ifD/APyKmif9g+D/ANAFaFZ3h7nwpon/AGD4P/QBWlSGAooooA5f4lf8 k81L/fh/9GCvJfB//IzaX/18x/8AoQr1n4ln/i3mo/78P/owV5L4OOfE+mf9fMf/AKEKYH1nRRRQ IKKKKACiiigAooooAKKKKACiiigAooooAKKKKACiiigAooooAKKKKACiiigAooooAK+ZPil/yC/D 3/XS8/8AQxX0TreqHR9LkvFtpLlwyokKHBZmIA57da+cvibIZNG8NOV2lmu2Kk9MsDigDx+nJ/rF +tNpyf6xfrQB1ehDNm/H/LQ/yFdBpul3up3sFtZREyzMVjZjtUkAkjceM4BrE8MzpbxCV44pQk24 xyjKvgDgj0rsLbxvd2CW8NtbWiRW9010iKp2qWBBGM9MMcDrXRFvlVjzqkYuo3I2vD/gy2e70mXU yblbw3CS25yAjR5GdwOTyK4W2jhS+/02eVbNWPmFEBfAzgL2yTgc+ua6W38c6hbPZukdqTaPM6ZU 8mQktnntk4rFtr6K1mWcRxSybjujmQNGykEEEe+evbqOaav1FLk0sbg8P2ul3st873cdvbWCXUiE oZQXbaIw+Np5wSwHA461na9aqv2S6+z6hAtyhO27GcYI+44A3Agg9BjNKvih/OVVtbUWa232X7Ey sY2j3biCSck7jnOcg1BqGsfbrW2tVgtra3ti5ijhBwu7Gckkk9OpOefpQr3uEnFxsjJli8yBo89u D/Kp5LUCJo5nWOR4w6gfMD7ZH403cv8AeFIzDgIy5Pc9KoySsNfcAAoGScZPQU4Kwyr9QfTFAdSQ Q2Mc4zRkHdukzu9TRcXKLyQO4AwMU1clcnGfY5FLk7yIwnY5LYAoWRGRTkDPbPSi4coYxjjrRjil 3J03CgGMDAKgDsKdw5RpyMAKTn07VasIIbjUrWC5l8mCSZFkk/uKSAT+AquzDHysufU06OVY3V8o SpBwQCpI9Qeo9qVwUdTrtZ8OW0dkLg2kejhL/wCyh2laVHiIJEpGSe3UcHPA4qjoOgWs9vfT38Tz SS2s72YUsFVY1P7w465bgD2PtVW48RLMIETT7CG2jn+0PboreXM+MZYEnjHAAwBnim6f4n1HT1db a8kWFo3jWHzGCRhs8qM8EZyDU62NrwvcemmWH/CJXV6I5jqMM8CM8hwqq244UDrnHU/hVbQtLXVt ctLWUHyd/mS47RqNzfoMfjUJ1p4tOubB3DpcvHI7HLMNmQOfTk9aWw1uTRluGtZQk1xF5SzLkvGM gkrjoeAM+lPWxFo8yOhOh2EvjLRpIrV00nUoxKto5OFwCGTJ56jPXvVu00HSjc6zJLaBoJITJYKW OIx5Jlz15xlRzmsS28ZagI7R7iWK9ltJmmhmn3M4yMFSc9PakTxVdpbWkGICltby26ZByVkGCTzy QOB9KnU0vAt+DLvbLPaMeHUSL9Rwf0x+VdfmvNNLvkstTt5Q4+Rhu91PB/Q16TuXswI/nRLcdLaw 7nJOePSlzVea5SIAD5nPRR3qJXuWIYyRgdduOvtmoNS7mkOD1qH7UjTlChjyPly2QfxqTcvrTuAY fBO79OlKAR1YnIppdegYA0oYD+LP1oAfn8qrmWSUnyiET+8Rkn6CnOVdGQOASpHWmwyI6hchXUYK nqKQDfNlhIMrB4ycbgMFa1njiFgHzlCx2HHzA8cHsRwazZgDCyj5iwwq9yfSrQu82oRsGQjafQLx wB+FA0PtFV7jDruUIzFT0OFJGfyrqv8AhF4cffj/AO/R/wDiq4+G4EEocBWwCCrdCCMEcexq5N4n nhUYTcx4VRNJz/49SaZUWlubt34fgtYlkPluGdUIEZB5OMg7utcPrkTW8yRMcspIzgjPA7HpWq3i C/mXDrCvcZeRsHscFsZFc9qBkHl+ZL5nXGetJ3sUmubQz81g+Lz/AMSIf9fEf8zW3msLxcc6GP8A rvH/ADNQbHrXwa/5FHTP+vu6/rXrFeUfBr/kUNM/6+7r+ter0AFFFFAFTU/+QTef9cH/APQTXx/q B/eyn3NfYGqf8gm8/wCuD/8AoJr5B1AfvJPqaAPofw9/yKmif9g+D/0AVpZrK0BseFNF9tPg/wDQ BVKTX3utU/szSoPOmX/WzEHy4R6se3sOSfTvSGdDS5rK+zawBkajbM390wkL9M9f0qvp3iAXF7Lp 95A9rexnGxwQH91PcHsR+nSgCn8S/wDkneo/9dIf/RgryTweceJ9L/6+Y/8A0IV6z8STn4eaj/10 h/8ARgryjwgB/wAJNpf/AF8x/wDoQpiPrKiiigAooooAKKKKACiiigAooooAKKKKACiiigAooooA KKKKACiiigAooooAKKKKACiiigDL1q9gsY7N7ggI10iZPrgn+lfO3xPIbSvDhHQveEf99ivafibZ 3N/4btYbXPnG+iIx9GH9a8Q+IqsmgeFkf7yrcg/UEZoA8jpyf6xfrTacn+sX60AewfDKxSTw7Neh 4ty3bRSRk/MylVIOPQEHn3Ndr5Kc/IvIx0HSuN+F5P8Awjl2FA3/AGk7dxwCdo4rugpwCQAcc46V 2037qPExEb1WymVIYkQKYgcFxjI5x0xUvkp/cX8hV6COSYNDGECsPnJAAxnOSasnSUIwbtORjAQm pniKdN2kzNUZS2MVUhlAZPLZRkArgiob+aKxs2nMIduFRABl2JwB+JrfGjxL926jXgDiI84GKgvN Aju7fyjfKjBg6MIiSrA5Bx9aj65R/mK+rz7HJJpF1c/vbu/ukmbkrbvsRfYD29e9XrqS4iv4muI7 d7KdlhCxwhTG2OCeTkHHJPc10ttpW2NTPdQmQD5ikZK59s0+O0vLe4It7+3it3UrKDCWZwe3PAHf I5oeMo9JAsPPqYUuyLYqwGR3OERVGT378Ae5pYhHNGHEYXkgqygFSDgg1oy6aLRlmXZKqsTuDNwS Mcg9B+nAqH5mJLkEk8YAGB6VtCpGavEh0mtGV0gRJTIqLllKsMcEEY5HTOO9AhjUACNQBwBgVLKr mJghw2OD6GrUGmtnal0skWAfMcn5SRyp4ySPb1puairscKM6j5Yq7KBijAOUXH0FJGsUqB0VSp77 cfzrY/syMf8AL4n/AH7P+NNXS4wMC8XH+4f8az+sU+51f2Xiv5GZH2f96WyNuMbNox/LNP8AJT+4 v5Ctb+zE/wCftf8Av2f8aP7MT/n7X/v2f8aPrFPuP+y8V/IzJ8lP7i/kKQxoBkov/fNa/wDZif8A P2v/AH7NVp7V7dhuKsp6MvIP+FVGtCWiZlVwNekuacWkZ6xWiXSGaNPnG0gEBmxnGM/X0qstgpvI 2SNQjqsJLADZgnB+nPNaKqjFiAjHG0nrjBzS8EkAjI61dzm5Cr/Z1tF54HzPI5VwANhA4BB6nP8A ICnLbQoMJEiL6BRitix0a4vo/NDJFFnAd88/QDk1d/4Rh/8An+h/74alzFqjJ7HO+Wu0qFXaeSAo 5+tdFYuJrSMkDIG08dxxR/wjDjn7bCRnptYZ9s1d03QpoPOVryF1J3LtRht9jUTkrG1KlNMxdNhE 7T3rgGSSQqOPuqDgAVoiNR/CPyq9b+H5LaeXZdRG3kJfYVOVY9cexq2uksM7LiPJGMFT0qLnR7Nm LLGViEyRRu8B81A65XIHf2PSpAVlAkEaqHG7aBwM84rQiuJdNeWMwrucY+bkY9apd80k9QashoVB n5F5xyRzRtX0H5UtaNto1zcRiQlY1PI3dT+FNtIFBy2McviYxpBvyRkgZOfYUTWkE3+shViO+MEf j1roF0G4U/LcRg5B3BeeOnNN/wCEen/5+I/yNTzor2UzMuZjdGIyrHmH/VkKMr2qLavXA/Ktj/hH pv8AnvF+Ro/4R6f/AJ+IvyNHNEfspsx9kY+4m0eh5qhcxqmqW0jKNrq0efRuo/PmulfQLlUyskbn 05FY15aedG9vKCjg9e6sOhppp7EuEo7ieWo/hH5Vy/jNdq2XGMl+30ro47xoAFvI3WRf+WkaFlb3 46fSuf8AG8kctppsq+YHdpSVkUqcfLg8+vWlN6FUY++jit3WsPxYc6IP+u8f8zWxnmsXxUf+JMP+ u8f8zWB3HsPwZP8AxSOmD/p6uf616vXk/wAGf+RR0z/r6uf616xQAUUUUAVNT/5BN5/1wf8A9BNf IOoH95J9TX19qf8AyCrz/rg//oJr5A1H/WSfU0Ae7WbSHwdoUEJxLcWdtEp9MoBWvZ2NtptuLa0T bGCSSeWdj1Zj3J6k1iQSi08JeGb5gTHbQWkkmOy7Vya6GSNCxBWOQDoSoYEdiM+tIYEkSKQThkJx 2GDTLiyi1BPKlUbjny3xyjdiD9etKyRny0MMRUAkDy1wCT9KcHhs1e4YLHFEDI+AAMD/APVQByPj qdp/hheyP9/fCG+okAP8q8x8IH/iptL/AOvmP/0IV6V40Rl+FN60gIZ5InIPbMgP9a818Hf8jNpf /XzH/wChCmhM+s6KKKACiiigAooooAKKKKACiiigAooooAKKKKACiiigAooooAKKKKACiiigAooo oAKKKKAMnxFY3l/pJj0+SJLuORJYjLnaSrA4OOmRnmvnX4lh10fw0JMbwbsNjpncM4r6gr5i+KP/ ACDvD3+/ef8AoYoA8dpyf6xfrTacn+sX60Aew/C27tf7FubJ50W5a4LrGWwxXaOR69D0rut8JuGI QrKxwzCMhWI/DFcB8MNNjk059Timlt72C5ZY5o9rYG0dVYEEc12djrd3fanqFlfQwx3MBUl4EKJM vTfgk4J4OBxz7V0wfuo82rG82akdwIlKg98n0p/2z3PP5msi5n2Tlc9BnnoKtaNZza1qC20LbVxu kkPO1fX+gr5/Ec067S7mCq+9yLcui7LMFHLdgOf/ANdW1tdRddy2N0VP/TI812On6fZaVEEtYgGx zI3LN9TVszn1rphgHb3mdsaLtqzzuWaWB9kyPE3o6lfyz1pn2z/9Wf516HMIbqIxXESSxn+FxkVw XibQzpBF1alms3bBUnJjY9AT3HpWNfCTprmWqMqsZQXMnoQG73Kwz1GCaoXEkYVEaWFZMhgJMc++ M1TF1k/eHXGew9hWnAke6UuAVkHpnJAwAfb/AOvXXlknaSOeEvaDzVKTVfKkMQPCcYqxKxgt/kTc VAVVBxk9B9BUB8DahqLm8ivvLjmO5U8sHA9M966sWpSilE93JKlGhWlKt2Luka5aJLOt5IEjkj2B iM4ywyR9Bk1oT63o1w5czR4VAGzuB2hW+4B1bOOtYX/CuNT/AOgl/wCQh/jSj4baqRkaicf9cR/j XEqdVK1j3p4rAylzczRrf2to7bwrxK65EZdn2sdqnLfjuFWJdV0aaV2R0mkkmGyNNwYjeBgf8Bye 1YX/AArTVf8AoIn/AL8//XoPw21Uc/2iR/2xH+NPkqdiXiMF/PIl1LU4bbUJbeB9yQkR78/fYDk/ nVQ6ibpHtwxzIpA5xzjipP8AhXGpj/mJf+Qh/jQPBV/pTrfS33mRxHLL5YGc8evvRTp1FNMMRjcH LDSp3bdu3kOSxjSK2uLdEidmwyr8pAGMhh368VPK7KgCjcS2FXOOTT1ORTWx3r1rnxPIjr23QAR4 wqgAY6Y7VLCpniYq/wA6n7pqkmp5IVxlc4PvWigihRivGetcGcZh9SpJbSex0YKisRN22RZVE+zi NhjdyfY4o80ed5YwFOB+lYWq69BpcKzSvxkjaOprCXx3AbkZt5PJHVgQSPw/OvmYYnE1ffXqe99X pwVmehSLuKhB/wDqquXAPBosr2G+so54JQ8brwynrRPHwNgVVAySa9vA5jGTVOoedicO1eUSjqeT CmD8wbAPoD1qhhl4JViD1HQ1Zu5N0Sgf3v6GqoJ2nue3avYlozhjqrk9kqyX0KMMguMj1rrPMrlL M7b63yV3bhnb0rofN96xmdNFWRa31i6h4x0PTJGiuL9GlHBjiBkI+uOB+dcV458WzefJpFhKURPl uJEOCx/ug9gO/r0rjLXTXuAC5IBPAUVBsevW3j/w9cuE+2tCScAzRlR+fSuijnSWNZInV42GVZSC CPYivA5dLVVJilbcOxrQ8NeJrvw7ehHZns2P72HORj+8vof50WC9z27zKwdcVRdxuAAzpyfXB4rS juUmiSWNwyOoZWHQgjINZGtOzXEGAMbDkk479vWqjuZ1VeJSHsa5Dx3wth9X/pXWGQrIBt+U9Tnp XJePuFsPrJ/7LVyehjTXvHDZrG8UHOjgf9N4/wCda2axvExzpK/9d4/51kdR7P8ABof8Ujpf/X1d f1r1evKPg1/yKOl/9fV1/M16vQAUUUUAVNT/AOQVef8AXB//AEE18g6l/rJPqa+vtT/5BV5/1wf/ ANBNfIWojMkn1NAH0BosKT+D9GilUNG+nQKwPQgxissvrXhspALV9U0lOI2i5ngX+6R/EB29u/at rw8P+KU0T/sHwf8AoArR/nSGc23i/SzH+5jv5Z+0C2bhifTkYH50WkOra46vqkC2OnqwdbQHLykd N57AdcetdLn3NFAHKfEoD/hXeoj/AKaQ/wDowV5R4PH/ABU2l/8AXzH/AOhCvWPiTz8PdSH+3D/6 MFeUeDx/xU2l/wDXzH/6EKYmfWNFFFABRRRQAUUUUAFFFFABRRRQAUUUUAFFFFABRRRQAUUUUAFF FFABRRRQAUUUUAFFFFABXzF8UT/xL/D49HvP/Q6+na+Yfih/x46B/v3f/odAzx6nJ/rF+tNpyf6x frQI9s+FAH/CL3bsQqrdMSScADavJrfsI/tOqX2qqCIJwkcOeNyqOWx6E9K5j4YWT33hq4jlkH2N bxi8IBzK21eGP90enc9a7rUZTaWFxMijMUTMoxxkDgVtF6HHON5NnMavdlNSZEZXCqNwz90+/v7V 3nw5kiOjXlyc+a9xsZmHYKCPw5NebXVgtk0cIwWEYZzjG5z1Y+5NdV4B1iKxvJdOuXCRXRBjdjgC QcY9gRx9QK4I8ixF2eJRqqGNfMz0/wAxG6OPzo3D+8Pzqu0JBIIpvle1ehZHv3ZZ3qOrD86pa0YL jQdQhkIZTbufoQMg/mKlEJPaub8b6tDp2jyaerBru7TbsB5WM9SfTPQfj6VFVxUHcxr1FCnJy2PM zfSMy7SF5A3nt9BXZxkYA7+lcPGn7xOgwRg9h9K7SKWISCPcPMI9P0z/AErlwaSTseVlb5lL5DiC Ayu4fdzggDA9PcV6J4fRBoFiABjyh0+prz2RATuIyR0J6j2HtXoegH/iQ2P/AFyH8zXVNnt0VZmo ET0ryvx78OfEPiTxTJqOm3NrHbGGNAsk7Kcgc8AEV6oGp4aszoPnbVfhf4k0XTLjUb/U7GG1gXc7 G5kP0AG3kk8Aepqx8HNL1HUPF66oDIbGyRxK7ucFmUgKPU859gPpVn4seI7rxL4stvCWlkvHBMsb Kp4luG459lzj65r2Hw1oNr4Y0C10q0AKxL88mMGRz95j9T+mB2oA1Ci+lY3iZVHh+6IHZf8A0IVs E1j+Jj/xT939F/8AQhTW4pbHBLyvBom2jIQnb2LdaEzjkgDt602YhVJYgKOSSeBW6ZxOIlpqam6W G7idvn2nyzgn866w3EccAWMnCrgbjk/rWJHptncXiyJC07clgPun61d8wqhEiLEBwFHp2r57jOnU qezdNOy37X8lvf5F8Nrkc1Va8vQ8/wDHF+yahCjPGqbcqN4B6kHj8vyrE0nVAXmiuPL+ziNmZyQN pA459zx+Ndd4v8K2/iK2RXZkkjJKFccZ9R3rhrP4aXTGSO41BfILDiNTk8n1PHT9a8/L8bhlhkpy s1ufR18JVnU5oao9R+HerGfSPLLjaHJT5s5HHSuyvblBaMTIBwcAjr7Vw3h6yg0mCziiTy0jXZx+ prrJlWWNh1OQSKxwNSWIxqVNaJ/hczzCnGjRfM9bfiZ5uzK4BHy5GAOamVUADYPmc7j6imPEsfzA Y5xT0GSBnqccnFfdYhrn0Pm8Mn7PUltmxewn/bFa0tz5MEkvXYhbH0Ga4+0mv7vWY5CwgtIpioRc EyYJGSfT6V0jOHRkb7rAqfoa55HZT2PGJZXluPMZsySyZJPqT1/Wu10q+trC3WO2FvPdykIA4OYe +T2Ix+p71yOoWEtvNNbkESwPx74/+tzVuzmSSeKcttGQWx2oha4TvY1b7S57R98aOxY7mCjIOeci udvSFvSgHVd2PT1/UGu/l8RadbaWx3i6vf4G52p9T0x3x1NeekNc3Uty2dp+Vc9/U/59aqdhU7nq ngu8abwvbhzzEzRgn0ByP0NXdVlAeNmIChDkntzWd4at2sNBt4nG12zIw9Cxz/LFWr/EpjB9Dg+n NQip7DIZY5xlTkr1BBBH4GuS+IHC6f8AWT/2WuwVIw5MakAgDk8n6/nXF/EOVN2nxBhvAdiPQHGP 5GqexnBanB7qyfEZzpa/9d4/51pbqyvEJzpi/wDXdP51mbntnwa/5FHS/wDr6uv616vXlHwa/wCR R0r/AK+rr+Zr1egAooooAq6n/wAgq8/64P8A+gmvkLUP9ZJ9TX15qf8AyCbz/rg//oJr5E1H/WSf U0AfQfh7/kVdF/68IP8A0AVo1m+Hj/xSei+v2CD/ANAFaOfypDHUoxTc0UAcv8Sf+Sfal/vw/wDo wV5T4Q/5GbS/+vmP/wBCFeq/Ek5+H2o/9dIf/QxXlXhD/kZdM/6+Y/8A0IUxM+sKKKKACiiigAoo ooAKKKKACiiigAooooAKKKKACiiigAooooAKKKKACiiigAooooAKKKKACvmH4oY/s7w+f9u8/wDQ xX0H4mj1GfT4LfTLprWaa5jR5V+8qclseh4r55+JalNJ8Oq7FmU3YLHqTuHNAHkNOT/WL9abTk/1 i/WgD2/4TRJN4TulcZAvWOM45Criuzu9kxe3kRmDoQTjjBB4z68GuP8AhIyx+Eb13IVVu2JJ7AIt djJdA7d0M0ayHCs6YBPbPpntnFaLYwktTm9Qt2a6+dvMZVABIwO/J9aqG0z1zz3xy309BW1eoPtI B6kZAPT61X8vvzz37n6V4GKnKNVpnhYnCp1W2dZoHiNdM0Bjq139pmz/AKPboQ0ipjjce3Pr2/Kp 18fWJUF9Muwx6AMh/rXGeUOmBx27D6+9L5f15792qlmFRJJG8a1WMVFPY6PUPHl1JG0enWaW5xzL K28r9AOM/nXG3CTXVw807vLJIcszHLOfc9hV7y/YcfkP8TR5Y9Dz+bVjPF1J/EzCrGdb42Z8drh1 PGQw57Lz0HrXRSSwWlg8koKxxkSFs5JbPQDHOSQBWcqfOowCc4AHQfStO7t3ms8Iu50dJFX+8VYH H44r0sucnFtnZgKHs4uxU+23bxvLNpjoq8qscwdz9RgDIHbJr0zw5Mk3hzT5Ym3RvCCCO45riYlg ltZ50Zh5GC6lCG57AYyT9K6fwjqCXWjRW5QQ3EGQ0GeVUklT+R59816Ej06aszpQapazqa6NoWoa m2CLW3ebB6EqpIH4nAqyDVDXdIh8QaFeaTcyyxQ3SbHeIgMBkHjII7VBqeGfBeyfWfH8+qXRMjWk L3DM3OZHO0E+/LH8K+hy1cl4N8B6Z4IN4dPubqc3ewObgqcbc4xgD1P5V1RagBSayfEhzoF19F/9 CFaZNc/4pv4orH7EGBuJyPkHUKDkk+nTFCE9jk48gcUydEdCskYdSPuk4Ge364qQq7QOInCuVO1j 0B9ajNk8EUc0crPC6t/rJdzE5HODyOh9q1uYNHRWdpLZA4n+U9eK4RZdX8ReIhdw28kllbyFofMf ZGCM7WPqc4OPSvR7ERanYrNEQysNrrnlT3BqwuneWgRFCqowABgCqxMViFyzenU4YUnT+HocPpdl qWl21zJqv+mXR3ylo2yG9AM4xgdqk0+KQ+aSjPwDgDnjn+tdVqmns9hJjG5AW/DGD+hNZngu2kl8 K2ty7tI0zSPljkgbyAPwAFfNVshp1cRKMZWT1/4B71DNqtOnyuNynby2MlwdPa7gW72hvI8wCTBz zt610MER8pDk5xg8dccVz/iv4e2/iSRLqMpDdoQRKQQQR0IZeQabY+EPElzILXXddFxpqlf3UClX lA7O2ASDxnrmvUy/A0sErRXvbX7nFisTUxUve27GvLNFcwb4TujEm0ODw2Ac4PcZ4z7VWnthPYzW ynaJEK564yOtXNWkjt5YrK3jVmjUEopCqi9AP/rVDC4kTOCpBwQeoNd85XdzOnG0bFDTpwhhtp1E NzEAuw8BgBjKnuK0/NqGXAwxXO056ZxURk6YOQehHeoZtHQoa3o66iRcQkLcqMHPAcdvx965Oexe CUiWOSCTuQMA++On5V3XmUhcMMEAj0PNKxRwYtRIQC0sp7L0/lzW/pPh8mVJ71AsaYKRHv6ZHYe1 bilU+4qr9ABTvMosBc82mStuKH2P86reYc8dacJVyAT04yBnnvTJexbQhVJJ4Aya4Hxsp8jT7hzl 5y8hOOgIXA/AYFd60fmQSRg4LKVz6ZGK4Xx6w+x6QvRkDoynqpAXih7EpanBZ5rL18501R/02T+d aGeazNdOdPT/AK7J/OpNT3H4Nf8AIo6V/wBfV1/M16xXk/wb/wCRR0r/AK+rr+Zr1igAooooAqan /wAgq8/64P8A+gmvkTUP9ZJ9TX13qf8AyCrz/rg//oJr5D1H/WSfU0AfQXh8f8Urov8A14Qf+gCr +8DqeKzNGmWHwfo0jnCrp8BP/fArNjttS1y5We4kNrpqtlYgP3k49f8AZU9j1PtmkM6IXUDNgTxl vQMM1Lu96z20jTWj2/Y0Ax1VmB/PNZlrFq2jTSiaUXmng5VwMPGuehHt6jg+goAj+I//ACT7Uv8A fh/9DFeVeEP+Rl0z/r5j/wDQhXqPxDcP8PNRZSCC8JBHp5gry3wh/wAjNpn/AF8x/wDoQpiPrGii igAooooAKKKKACiiigAooooAKKKKACiiigAooooAKKKKACiiigAooooAKKKKACiiigDmvGuuDw/p lnfMMr9sRD9Crf4V4B8SJfP0jw5IP4/tTfmQa948f6ZFquiWkE7hIhfRMzE9Oo/rXgvxGQR6R4cR T8qi6UH1AIFLqB5NTk/1i/Wm05P9Yv1pge5/CSJZvB99G+drXbA46/dWu4uoXnthE7qWJ+dguMgE EYGeDxXF/B3/AJFS7/6/G/8AQFrvnXNUtjNrUy5tPa/bykieR+SAgyR7jFZcmk3SRCfzpxExKq5H BI6gGulhuhp0zXO8owikWMgE5cr8o49TT31jSwViWbzLaKRzCWjOFzGcMQVPAckdD0zgiolCMviQ ckXucmmnyyrK8l6sYVjsRerDH069RUJtZ3Ck3LqR1245+tdTFremNcPHJNZISEDyou5mwCCQDHtb qMgBSTgg1HFqWmvZ20c08MJjMeVSDeeG+YupXKnHJO4g8YFT7Kn/ACoXso9jmGtZ5JliiupFJG4n AIUdM/UmpIbKclle8dmDFcgAZrq1u7W9Rms2hN6luVNytqZljbzO4EYByhwCFx296lu9U0611G8t ttusqTv5iSJtWUFVAC4RuQc8Agg4zR7Kn/Kg9lHsc9a2kdvmV3LFRksx6D+lSpqiRvmW0uY7fdtF wwBTrgE4OQPcitG9ms9W0w2QliEjKFMcKZAAXBJyoK8gZBJyelRfZ5rvTZba4jSKVmVWZTuV0/iI 7g8YwfXrxWsUkrILW0Q+RX8wZdQvIC45PHX69eKpz27NKskTyRTKfleJiGH0xWrJEjEMyKSv3SRk j6elNgnSxvYLt0Z44ZA7hRk4B5IHcjr+FA0jNuj4ksiouNT1GHd93zCRn8xVf7X4gMTSjWb7y1IU sG4BPQZ/A1ftn06ykBj1l54y7yN8jPCr7ThmLg4cnA6EDqatf21pImBbbJEZLd5VSMlciN1ZiNoB AcrnA5HOKRRh/wBo65/0HL3/AL7qSK78QTOEj1i+dsE7VbJwBkn8q021a38mQwvZm62xBZViEgbD kt1jVchcDIHT1NWP7X02Kd2trm3gizcgxNbkvLuBERRtuQMEDGRjnPWgDFW91puDrd4R/v0+C2yx dneR3PzvIdxcehJrUi1nSYvskMkkM5WSNsCD7qBCHyNowA5UYJYk81Wgn8+2S7ldSZAGJCBBk9go 6emKYmSxQogIjQIuchR2okTg1JvO0eVG0uRu+UgcfjSsVKBiQA3TJxTJMzbNb3Hn2s8kEncxsQG+ o709ZfE8tu1yl9qJtlBPmhBs4ODg47VZeI55pZb8x29nHZwRyXUEMsbySSOBDvZuNo4Y7TnJpXHZ GVcXWugmKfVbsErkq2BkEZHboRVFV161so4tG1i4gFsCyRDHllc8gjHTnr2rqW1aweX/AElknt1a 18tRB82FXEvOMnHGQfTio49WgSJ1OoWstw9vPE91FbbYyWIMakbeowecdwDS63HyoyNJ1jxDfTND c6jfWbIhYs7I6HHYEd6bZ+JtUub2KCO61SeF2KTSOvkqi+oJGSc4wBW22qacWJWW1ki8yFoLdrYg 24UfP5pC5IP45PIqO4nt76VJLeUSEJiTaBhWyeNwVQ3GOcD0p3FymjaW8SzgyMQp++QMk+9WdqeY 5TO0noeo4qusm2183GSF6ep6fzqaKRzmOZAjoN3ByCPUHFADJyEjLEEgdgMk1n7PM3NDJJEc/MuM YP0NaTgTqNpIZSGAII/Q9qI2W2uEuDFnY6uyr3wRnA/CgZny2N9bRf6RJcIzH5GKgAj3yKrlbj/n 6f8AIVqxvYw3JkGqNKkkpkcbGZBwcM4YcHJA6HFPk1fT4pEMbRNcP5HmbYt5IDESHlQMYxyAM9qQ zH23H/Py/wCQpwjuD/y8v+QrUXULV4/3rxLP++EckcexYwWHl5+Uj7ucEg89af8Ab7ZnRBJbohmL yssG792AoyMgcFgTwPwxQBmJBK3DzyMPQcZ/Kr0MYQAAYA6YqScQai0TRyxsY02yFSVAcscEkBQe McgUsaOseOC4Hc8E0CZMgOOevtXCfEtQP7NbaAx8wE+o+Wu7G9MKyZbuUOQPeuE+Jxwml/WX/wBl pvYFuebE8ms7Wz/oCf8AXZP51d3daz9ZObFP+uyfzqSz3f4N/wDIo6T/ANfV1/M16vXlHwb/AORQ 0n/r6uv5mvV6ACiiigCrqf8AyCrz/rg//oJr5C1H/WSfU19e6n/yCrz/AK4P/wCgmvkLUf8AWSfU 0Ae42gEvhXwzbN9ye3tY39wVGR+Vbcsr7siN2yc4QA4rCjgnk8DaLJajNzBZW00Q9WVQcfjWvZX1 tqVml5asGiftnlG7qR2I6Uhj/Nk728//AHyP8altz5koV42CsdrK4xkHg/oaTrmqeoanFpqDBDXc nywQjlnftx6DqT7UAc14xP8AxbHUVznZLEgPsJQK858If8jLpn/XzH/6EK9L8cW32T4ZX0ROWUwb j6nzBn9a808H/wDIy6Z/18x/+hCmJn1jRRRQAUUUUAFFFFABRRRQAUUUUAFFFFABRRRQAUUUUAFF FFABRRRQAUUUUAFFFFABRRRQBS1TS7TWNPksb6LzYJMEgMVOQcggjBBBAr5p+JiJFp+gRIMKhulA PPAbA/lX1HXzB8UBiy0I+r3n/oVAI8fpyf6xfrTacn+sX60Ae8fBwZ8KXn/X63/oC16EVzXn3wb/ AORUvP8Ar9b/ANAWvRMeppollC5MnmqkSOcYZiMdPTmpDCpGRgg9x0NWtgY9Mk8e59qieaBDte4g UjqDKoI/WhtLcEm9it9mX+4OD6VTeO6lnl8gRIsZ24dcl+AeTngc1oGSzaVZTc229RgHzl/xp63N orOfPtCXTYxMqHj86XNHuPkl2KK20d1BHIVdMjI2sVI9RkVNHZRRxqixqFXoMdKnNzbKvFxbnHQC ZP8AGnLc2zAH7TbgkdDMmR+tHNHuHJLsMEWGGAvqx71ME9qrW2mxQ+XchsTZIZwd3mgjqW7844/l TXtDeahLHPI+zaDEgkKrwCSeCOcj+VUSTu6KWBDEqMnapP0/H2ppMbOEDDcRuC98U+1EiwlZHZxn CswwWXtn3681NE/nO8EJLtxvVR6UAU2tYywbYNw4zz0+nSmm3HoPyrU+w3P/ADxP5j/Gg2FyODCf zH+NOzFdGV9nHQL+QpRb55KjNaf2C4/54n8x/jUFzpE9y8ebcsEyShIwc/j1FFmF0QR2sJbcyhXG cNjOR6fn3p8MEMDIEiBjViyo5zyck88epq4LC4VQohbAGOWyT9eeTUbI0bFWUqw6gjBpWHoMOPMM iqEPP3RjGeoqJoY2JLRqxK7fmGcCpxnJz07UmP8AOaAIDEPwquiO4DPCUVxuQ5zkf49K04reW4bb DE0hHXaM4p7WN0U8poX2jI2kjAz14zUSqRh8TsNJvYyXtFkADA4zkgHGfagWqrkKvy5JAPPetcaR eKoVbORVHAAHSl/sq+/59JfyqrhYyRbjngflRKqWlu80w2Iqlj0PH4fypYvCt1KbyeWynS6Ejssq khyP4dpzzgY46e1Xn0a/n08xXFm+948NxwGx149DzTuhalXTLyO7L27wzRPt3BJkxuHcggkccd8i thmZwoY52rtBxzj+tUUWFDBLIhS4j3CQg/LgjnjGe1XFYOuVz+Iwf1oGhW5VRjAAxxUPDMQFbAJG 4jgkdQKaLQGb7SjqzF8k5IO0jGMHqKmn+0R2kk0FpLcleiR4yx/HigRCYh6Yz7YqGO0RJZHZcmQ5 LY9sAfhVMnxbg3B0m2MY5MAk/eEfXOM1uQwXE0CSG2kjLDOx8Bl9jzRZhdDLeK0w4mzjHy4HU1C0 YLZCgY4FSyW9+XKQ2wAUjc0h4I9sHmpVt7lpXQ2zoAcqSwII7c+vqKLMLorCMDtSTzR2sDTSnCL1 wMk9gAPWrhtZ1XJibA645x+VVLm3FzEqk4KOrrnoSDkZ9qBkEWpxtNHFJBPCZDhDKmAx9M561xnx QOE0v6y/+y13k1qtxZbS+yQsOBnK4IOQa4H4pn5dK+sv/stJgjzEnk1n6uc2af8AXVP51cLcmqOq nNqn/XVP50ij334N/wDIpaR/19XX8zXq9eT/AAcP/FJ6QP8Ap6uv5mvWKACiiigCrqf/ACCrz/rg /wD6Ca+QtR/1kn1NfXmp/wDIKvP+uD/+gmvkPUf9ZJ9TQB9A6CP+KU0T/sHwf+gCqN34eIvn1HSb x9PvJP8AW7VDRS/76Hg/Wr+gn/iltEH/AFD4P/QBV6kMwGh8Vyp5Ru9IhzwZo4ZCw9wCcZqbSPDk GmTNdyzS3l9J9+5nOW+gHYVsgUo6UAcx8Rv+Se6l/vw/+jBXlfg//kZdM/6+Y/8A0IV6r8R/+Se6 l/vw/wDowV5V4P8A+Rl0z/r5j/8AQhTEz6xooooAKKKKACiiigAooooAKKKKACiiigAooooAKKKK ACiiigAooooAKKKKACiiigAooooAK+YvikP+JfoJ/wBu8/8AQhX07XzL8VBjTPD5/wBu9/8AQhQB 41Tk/wBYv1ptOT/WL9aAPefg3/yKd5/1+t/6Atd/GsiAF5d+4fMCANpz29q4D4N/8inef9frf+gL XfucZpksxNanuLy+g0a2maETKXnkX72wdh9ai/4RbSEZYI7F7icjO3zDnHqxJAA96fH83jZCegtj WlZ3OI2k/ilO9j6+g/AYFefKDqVnd6I63NU6atuU08CWknLRWMX+yGkkI/HIFSf8K+sf79n/AN+p P/i6147r3qcXXHWt/ZQ7GHtpdzn28AWSjINk3sUkH67jVWTwrplswW605FVjtWWOVmQnsCeCp+o/ Gume696qy3KurIwDIwIYHoQe1TKhCSsio1pJ6nPfZm8M31u1rI50+5k8uSB2yFY9GFdKAobdtBbJ +bHPbIzXOa4xfRrMklil4EyepxnB/LFbqhpWUCcRAAkkrnJxwKMJzWcX0KxFnaSLBakS6WFNicDv jvzn+tQtIRJt2HGM7uMZ9PWsOe92XEi56MRXrYSHPI8zF1OSCOkF9yOe9PmvsTyDP8R/nXKi/wDm Hzd6kub/ABdTDPRz/OvQ9jqcHt9Do/t3vT4L7MyjP+cVyn2//arQ0bztS1OO3hYA7WYs3QADv+JA /GlKkkrsI1uZ2Rri+4HNDXYmXYSMj7hPY/4VzTXjRu0cmVdCVZT1BBwRT7e7E1wkZdl3HGVOCOKm pRXI2XTr++kdCrEqN2A3cA8UFqjVuOTTJMsVxIUUHLYGSfavHbsevY7e1t47YR26gYABPuccmsyT HnsAON1QPr1y3KRQocYzyaqfbZTyQpb196+GzvMqGJjCNJ3ad2erRwtSN20dDfXlvptnJdTkLBDF 5j+4ANcLafFbTXQm8spYnzwIiGDDORnpzWhrurXsnhy8iVYmkEWVYJk8EE8HIPArhdJvIry0vJbq 4aPyULCRYIhHGNpILErySwChRyck9q+ty+azCk6uHlotHcx9rhsK/Z4mDbe1mdVD8V9Oe6kE1jJF BxsKEMSP9ofhV3TPiTpup+IrewSzMdvOdiyyEbt56cenb6kVzYtMx6exuCGkwbkCOIlQYTLjG35C QCADnI59qz/tk8HiWyt7WQMkpgnjDwx7grKHwSFHIBPIx0zXY8HVinKU1ZK45Y/LpaRpSu9Fr1PU /ENtGixXCKFYnY3vxkGs0OWhBTG4jv0Bo1TVJL2FEeNEAfcCpPoar2smUIz7iufC4mniKftKbujj qU5U5WkWlbAG859SOM1M14WI5AA4AHQVmzvKsTOQmzJHBII/xqoLr3r1cLTUotnlY2s4SUTb+1e9 KLkms+0U3EigHr3Nay3UNt8sCjj+NhkmvMxuZRoTcEd2EwUq0VJkJuGFNF0e5qydR8wbZVWRfRhV C9jVAJIiTG3Iz1B9DWWEzSNWooye5ricC6cHJFgXZBBDYI7ioJb2JrpIicSyKWAxw2Ov+NZRuucZ qTyje2E/yqykhOT0JHX8K9vEUkqfMeRha7lV5TVySpxwfU1538UwVj0kFy3MvJGCfu13rs0No5T5 mjjJGe5A715n8QomSz0eWS4lnklEjs7tkchTwOgHPavPPVPOyeTVLUz/AKMg/wCmq/zqyTyap6if 9HT/AK6r/OkUfQXwc/5FLSP+vq6/ma9Yryf4O/8AIp6P/wBfV1/M16xQAUUUUAVdT/5BV5/1wf8A 9BNfIWpf62T6mvrzU/8AkE3n/XB//QTXyHqX+tk+poA+gdA/5FbRD/1D4P8A0AVoe1Z+gf8AIraJ /wBg+D/0AVfPSkMWim0vegDmfiP/AMk91L/fh/8ARgryvwf/AMjLpn/XxH/6EK9T+Ix/4t7qf+/D /wCjBXlng/8A5GXTP+viP/0IUxM+saKKKACiiigAooooAKKKKACiiigAooooAKKKKACiiigAoooo AKKKKACiiigAooooAKKKKACvmb4q/wDIM8Pf797/AOhCvpmvmb4rf8gvw7/vXv8A6GKAPGacn+sX 602nJ/rF+tAHu/wcdR4WvEz832xjjHX5VrvLiTy0LEE47DvXC/Bwn/hEbsZ4+2scf8AWu5nPFMkx 7TdJ4uO5GRhaSAq3UECsy01tPKQOjKQAMg5FbWloZvGKjqWtZBXIwwnG0jkEgj0I4rjTtORtW+GJ 08WrwH/lpj6g1YGqQY/1y/nXNxwH0qYQnFXzGBsyatAB/rR+GTVGbW4VztDsfYYqg8BqtJARnNHM K5r3Exu/DME+3bnUcYznoK6GNuKwFhKeCbNiOH1EsPpyP6VtRNwBmih8UjpqfBEmduK4HUNURNVu o3JUrKQD2Nd1IeK4TV/DGsS6t5sdjLJFeS4gkTDKxPQEjp75xjFe1lzipvmZ4+YxbguXuMS+DEEN nkdDXTRaSLywvLl5mS9leV7GD/nqsZy5P15A+lZ7ab4ZXbok8hhkgIL6vEC2+XPzrt7pjhT6jPQ0 9NbaTxtZ3yjyrOCZIYos8JDnae/XBJPua9CTlNe4mra/16nlJ06btOV76GP9tyAc10ulzfYdFSV2 23GqPiPnlYEyS3/Anx+ArG07RPsnibUTqAc6fpDtJMrcCTDfu0/4EcfhmoLvUrvU9TW7uGVGCCNE hGxEUA4VQDwOv51bXtXyrbqRKp9XXNLfoddPZWOrh9Ua8UXN9ZNNBbRnnzkQ+YW9sr+JJrB8OAX8 k14ZNlvbYG48b5G4VB6nGSfpWPpd1LpOpwX8Kh3ibO1jwwIIIPPcEj8a2WurCe607TNLt5IdLhZp DHM2WeVgdxJB5wMKPYVjVpThCUVqrfcb0MRSqTjJ6O/3nVAF1AEnl/7WM/pRKwwaZGcqAp47ZP8A Wo3kV8hWBKnBAOcV4O59Ejq20WEr8s8qnHfB/pVQaeuMNK5bHUYFayTB+h6cEdCPqK8p1Hxldxyv NFdSx3Mc7qbcqvlBAcAdMk+vNfK5pk9Oai6CUXfU9vARr4htJ7Ho6aRCI182eV2YdFAGeOe1cdqv grUrRLn/AIRfURFbznfNZylCM4xkNg8YJ7cetdtbzGeOFnQrvRSVPb5QcH8T+gqxK37snOGUblPo R3r38DTp4L+ArX38zysQnW0qdDyOLwx4+le3jfdDHZkNFI9wm1cDAIIJLYHAznjjpXbaD4ISymk1 DVL+S81SUkPKoAVQOMKCPYDPHHGBXRNIPs0oHABYAeg9KlSThuf42/8AQjXbiMTLEQdOaVmc9LDx pS5luYut6fFa2sTRyy5aQA5YdME+lULd9rg9j1/GrPjDVbTTNPtZL2YQxyXAQOQdoO0kZPYcdaz0 YFAwIIIBBB4IPQ1z0KMKMOWmrI1qTc5XkTapOYdPnkxnahOK5+LUY5CNrgH0bitTWi8mlyYYhSh3 YGSfb2Fcbhj2r38thzU36nzWcVVCrH0PQtMmLQOR1244qxgmuX8PXi2jAEll6Nn37V2kKxSqHjYM p/SvzbimnWwuLlJp8r2PrslxlOphYpblQqRTZXItJAegIIrQeFMEkgD1Nc9rV/Fs8iJvlHJI7mvO yT22KxMYwT31OvHYmnChLmMq5vUic73Ue1XtCvBdLOVB2q4HPfiuRmH71inINdD4XRRFO5Ubt4wf Tiv17GU+XD/cfA5dXU8WkvM6qHOz5tzA8ZZQN3rjHavOPibb/ZYdJiVyYQZRGpHKD5eM9x6V6NEe leffFj7ukn3l/wDZK8I+oPKSeT9aq35zBH/11X+dTluT9aq3pzFH/wBdV/nSGfQ/wd/5FLR/+vq6 /ma9Yryf4Pf8ino3/XzdfzNesUAFFFFAFTU/+QVef9cH/wDQTXyHqX+tl+pr681P/kE3n/XB/wD0 E18h6l/rpPqaAPoHQf8AkVdE/wCwfB/6LFXqoaD/AMiton/YPg/9Fir9IYUdqTvmloA5n4i/8k+1 P/fh/wDRgryzwf8A8jLpn/XxH/6EK9S+IvHw+1P/AH4f/Rgry3wf/wAjLpv/AF8R/wDoQpiZ9Y0U UUAFFFFABRRRQAUUUUAFFFFABRRRQAUUUUAFFFFABRRRQAUUUUAFFFFABRRRQAUUUUAFfNHxWH/E r8Of717/AOhivpevmr4sDGkeGj6ve/8AoQoA8Vpyf6xfrTacn+sX60Ae8fBz/kUrz/r9b/0Ba7mf pXDfBwf8Unec/wDL43H/AAFa7qcdaYmVdBXPjOL/AK9n/pVbxP4duNN1CbULaFpLGZt7lRnyWPXI 9CeQffFSaVeQ2HjK2kuXCRSRtHuJwAT0z+OPzrjNW1vWovFN3bvHqP8AwkP2si18p22hN3yqqYwU Ixz0x1ritebOicVKKRuQOjqOh+lWgExXok2jWDwGebSraW4CbmWOMAs2MkA8dT61h3KW0FwI18ML jcQNyHLY8zpgf7AP0YUrsw9k+5yUpjAJqC00271u6FtYxFucPLj5Ix6k/wBOpr0qz0fTbhS8mhxw EdBKgOf8+9eZfEXUZ9K8UNb3kF1HpvkL/Z62zGKMNj5m+UYLBu3XGKa1dhqi+rOs8VWEWneHNNtI QfLhuI1UnqeDkn6nJqpD0FVb7UrybwZ4ftdVLf2tIyyyo/3woJClx2JBHXnrVyEcVph1qzSr8MQk 6VyjXN1aXd39luJYBKzLII2KhhnviutkHFctdR7bqUerE/nXuZZyubUux83nspwpRlHuZwhxjA/z +VK8OXbjqTVraPSnOmHYccE17t0fJe0e4661O/vNPhsZ5t8MRBGV+ZscAMccgZOPrVFIsOOKtbB6 UoQZHFKKjFWSsVPETnrJ3Kfk+3+fyq1pse3UYTjo39D7UuwelSQmSOTzIYvMkQFlT1OKzxEl7KXo zfBzcsRBLujqoySKjlCqigKBtGBj0zS2y3KoUuljEgPDRk7WBAIIzyOuMe1ULi9upJZltLWOSOJi jNJLtLEdQowenTJr5Q/QTtyhBBRugwMkggegPp7HPtiub1DS7BdTt7+S2g83y5GdmAwzADBPHJ56 1sx6gjxo4AwwBH7xf8az57H7bcQXMl1J5CDd9m2qVY49euOB37V4Oa1o0lFzdr3X4HbQlON+RlbT r3WrmWKQINhOSWPBG0V08rnyHz12n+VZ0chcB41PAXG3BAwCOegPB6A9utSNJM6lChwRg4UA/mSc frXrLYwLJk/0aY+7VJG/yt/vt/6EaznnAiki43nIJLADJ9ATnFSC6WMHO0gsxBEi4POfX3FMCLX4 Y7uyjhljWSNnwyMMgjB6iuU8OJ5OlyQoxa1iuJUtnJyWjDcc+gOQPYCug13be2UMHnSxrKdzBDhm XHIJ6gHPbmqsMaRRLHGgREAVVUYAA6AVrDYyktSC7LNYTIMYKkknnjFc35IrppxkMGPDDB/GofsK /wB2vay2qoQaZ8xnuGnVqxcexiRZicEHgfp71uaeuq3SNJY20sqKdpKEDBxnHX3FJ9hHpVuwtoLa Sa6ZlWeOM/Zwx5LnjIHcjrV4yFCvH3opnHgY4ijK3NZFWT+257aWX7LOUiZg5J6Y4PGece1Zd3Bd KqyTIVR+mSDg4B/A4I4PY11GmxwWzRzTXsZUROhEj/voCQf9WD13E5zWa0EsqKssjuF6A44OMZ4H JwAMnJwKzwlOjRlaEEkjbFxq1aa5pttnOeSK3dAXZDIB3b+lP+wr6VZsoRCXA7nNbY6vGVFxRGUY WpTxSk/M1ou1effFk/JpH1l/9kr0CLtXnvxbPyaR9Zf/AGSvCPsDyYnk/Wq92cxxj/pqv86kLcn6 1Bcn5Y/+uq/zpDPoz4Pf8ilov/X1d/1r1ivJ/g8f+KT0Uf8AT1d/1r1igAooooAqan/yCrz/AK4P /wCgmvkPUv8AWy/U19ean/yCrz/rg/8A6Ca+QtT/ANbL9TQB9AaDn/hFtE/7B8H/AKAKv+lZ+g/8 iton/YPg/wDRYq/zSGLS00GjOaAOa+I3/JPtT/34f/Rgry3wf/yMum/9fEf/AKEK9Q+Iv/JPtT/3 4f8A0YK8u8H/APIy6b/18R/+hCmhM+sqKKKACiiigAooooAKKKKACiiigAooooAKKKKACiiigAoo ooAKKKKACiiigAooooAKKKKACvmz4tf8gfwyP9q9/wDQxX0nXzZ8WxjR/DJ/273/ANDFAHidOT/W L9abTk/1i/WgD3n4Of8AIp3n/X63/oC13coyDXCfBv8A5FO8/wCv1v8A0Ba79xmmJmBqmnrexgEl XHKsO1ZIj1u3ASLUZQqjCgORgenBrqZY89v1qzGY57W0E6JDLcTi0mnwAAi4O4DszAqufY+tRKEX q0XGpJaI4wy+IB/zEp/+/rf40nn+IB/zEp/+/rf412DaXHJEwaymtr1oJXSzMm9sqyhW6AkEE8Y/ hOKd5cun3GqW1u0Yjis/MjEsKSFZSEJOSOepGOlT7KHYftZ9zjvN8Qf9BKf/AL+t/jTg2vtgHUpv UfvGP9a7O30yNbiG6aNmRntGV2xscuRv4xggHIwOnSgafbFyZrSa3uCJmS1aQsZQpXDDauQDuPAB +6cUeyh2D2s+5yun6XItx9pupWmmJzknPPrXQxrwOP8A61LNDEl06RLIqrj5ZAQynAJByAfzAqVF wK0UVFWREpOTuyJ14rEvLRrk+bFuRvRxjcOxroGXiqlwFjRnc4VR9auMnF3i9TKpThVjyTV0cw9t dr/yzj/76oeO8Z2YxR5JJ+8a6nTpZWgn+ywXBbeuZbeBJpI+vymJ+Sp4yR6e9W2sYJQkTwRSOLq4 RpLZtqysqBljGc4ycgDJxg4zW/1yt/McX9k4P+Q4fyr3LDyY8j7p3HB/zzT0jvFcERRnH+2a68aZ EULLp08l55cTvpyzgPHuZgSWIzgAA8j+IZpZbS1k0y3ZFL3KRktCrAMsfnMpkJHDkcLgH36UfXK3 8wf2Tg19g5FbW8bjy0/76rUsLIwnzJDl/RRwK1tUtYrRVe3gdQd+1HZg52kdVZQQeeSMj0NQWolJ KzIisACCjEgg/UVE8RVqK0ma0cBh6MuanCzLKLxVdbcW9482Q0MhLSRMP4iMZB7dsjmrRDLE4iA3 gfKDzzRGlxCcSyK7rgrIgxkEZ6diORWJ1mbbz32lIUtXWaIksUnyeSckgjpk9ulEet6o03lvaWqJ t4kaRuPY1akip2mII9UhcorhQ7bGAIOEYjP4iubEYSjiElVjexcZyjsUl8SaqqqGsrUsBg4dsUv/ AAk2q/8APjbf99tW21rBNai1jgjYy3EU4IIVtkgchQ2DjhRxg9elQPpcAjaSCwuLmXyIpRapIUOW dlP3lzjC55Ga25UK7MweJdVP/Ljbf99tSJrWqmQsttbKTnkknGcf4VqSaZZiO7EKSSGF5QsrsQmF xjDAFSRzkEgnjFZ0cXTinyoLsdEJpJGmuJDJM3U4wB7AdhV1V+Wo4o8YqwEHXFUSVZkyD6Hsah33 UK4jCSJjgPwR7Zq7Imafp+BdpEwUpLmE7hnG4EA+2DiqjJx2ZM6cZq0kZZvbwf8ALtD/AN9Gk+33 v/PtD/30a6OZbZ4wG8qIPMtgWAHAVss/1IAGfeoG0+33sRaTgorF4mLjjcFDD5dx6nOBjPOcVXtp 9zP6pR/lMP7fe/8APtD/AN9GlF9en/l2h/76NdGlpbwShFtN6RT3UbSFhlgseVB4xk9vTGaggsbS SJJRBKzvDE/2ZXZiu4kEgqpJxj0xk80e2n3D6pR/lMYXF7Jx5UMef4uTirttHsXBJJzkk9TVi4ht 4kgWCOVvMDMZXYDgOygbcdTjPWiNeen41Mpyluy4UoU/hQv2WGaRZJEDMowpP8JznI9DXn3xZlR1 0nYc4aYHj/cr0VhKdixMiEnlmGQBXnXxcJ8rRh0wZuPT7lSaI8jJ5P1qCc8R/wDXRf508nk/Wo5j /qv+ui/zpDPo/wCD4/4pPRD/ANPV3/WvWa8m+EB/4pTQx/09Xf8AWvWaACiiigCrqf8AyCrz/rg/ /oJr5B1L/WyfU19fan/yCrz/AK4P/wCgmvkHUv8AWy/U0Ae/6F/yK+if9g+3/wDRYq9xVDQs/wDC L6J/2D4P/QBV6kMX3paTNJn3oA5v4if8k+1P/fh/9GCvLfB3/Iy6Z/18R/8AoQr1H4if8k/1Pn+O H/0YK8v8H/8AIy6Z/wBfEf8A6EKYmfWNFFFABRRRQAUUUUAFFFFABRRRQAUUUUAFFFFABRRRQAUU UUAFFFFABRRRQAUUUUAFFFFABXzd8XP+QL4Y/wB+9/8AQxX0jXzd8XP+QN4Y/wB+9/8AQxQB4jTk /wBYv1ptOT/WL9aAPefg2P8Aik7z/r9b/wBAWvQmBPSvPfg3/wAinef9frf+gLXotMTK7IAOTx6m q0ljFIzs0YJddrZ7j0q/gUbaBGOdItQhTyuCQSSTnI6c9acunQqiIsYCodyj0NaUkbsQI2C9SSVz n2/H1p2welAzJGk2u9n8kbmznk9+tOTSLRVKCEckHOTnjpg9q0pGWKMuwOB2AyT2AFMMaXkSg71Q P+8Q5U8dQf50CGQWyQRhI12qOgqcLihUEMW0FnCg4z1I7CobWeeUgTwom5N6MpJGM4wcjr/9egCc rxUMkCupVlyD1FSzTRwsEHmSNjcdqcgep/WnAqyhgcqRkH1oAoXdhBdymSSFQ3qny9sdqrSaZaKh LRKEC4OM4wOnArYwKQqO9AGL/Zdm0S/uwFzkEkgkng5PXnpzU39l2xI/cr7Y47YrSeNJOHUNznkZ 5p20UAZVjDarIwgRwxH3mB+YDjgntWikeO1Nkty/kxxyGFAxDMoGVB54yDxnrU8assah2DOBgsBg H3oAQLxQy0k6yNbyLC22QoQh9Djg1Hb6d9hk3R3LyQyRjKSSM7BweuT0yPSgAaPNQS2iTJsddwPa rxApMCgDmY47eVwTpzrbSOVSbeOSTgEgcgEjg/TpV4aYiRSwxjbDKVaVepYrkg56jqa10WKO1a3W KPYZPMBIyQevB7DPNJtU0AZJ0qDKGOJQQQBknaMdyB1xVuJSwII+Yd8EBucZHtVzaKXcOFLdOg9K AIlTFSBQOg5789aeAKbH5hXdIqLn7oU5IHv70ANZc1GYVfKOuVYYI9asYHqc+9Rq6NIyqfmXr1/y aAIDYQDJ8ocrsPfj0qI6XbYx5ZP4nP0z6VqDBANGBQBmDTYARiPgADrxx0pzadA+f3Y3ZJzkjk/0 rQwKXAoGVLe1EC4ABJ6lRgflVlVqHyJ3leUXDLsYbI+ApXPp3PXvVliFUnBOOcDqaAFArzT4vnCa N9Zv/ZK9LUkqCQVPcHqK8y+MB+TRvrN/7JQCPHyeT9ajkOTGP+mi/wA6Unk/WmMctF/10X+dIZ9J /CD/AJFTQ/8Ar6u/6161XkvwgP8AxSmhf9fV3/WvWqACiiigCrqf/IKvP+uD/wDoJr5B1L/XS/U1 9e6n/wAgq8/64P8A+gmvkLUv9dL9TQB79of/ACK2if8AYPg/9Fir1UdD/wCRX0T/ALB9v/6LFXaQ xfrSGgZzRmgDmviEf+Lf6n/vw/8AowV5f4P/AORl03/r4j/9CFen/EL/AJJ/qeP78P8A6MFeYeDv +Rl03/r4j/8AQhTQmfWVFFFABRRRQAUUUUAFFFFABRRRQAUUUUAFFFFABRRRQAUUUUAFFFFABRRR QAUUUUAFFFFABXzd8Xf+QP4Y/wB69/8AQxX0jXzf8Xv+QP4Y/wB+9/8AQxQB4hTk/wBYv1ptOT/W L9aAPefg3/yKd5/1+t/6Atehk1558G/+RTu/+v1v/QFr0B2xTEzn/E3iR9JKW1tt+0yLuLkZ2L0G B6muSbxJqbEk6jdc/wDTUj+tVvHF4G8RsULFfJTBCnB6+1c39qb0b/vk1zTu5HTT5VE6z/hItR/6 CN1/3+b/ABo/4SLUv+gjdf8Af5v8a5P7WfRv++TR9rbsH/75NRZl8yOs/wCEi1L/AKCN1j/rs3+N H/CRal1/tG6/7+t/jXJ/a29G/wC+TR9rPo3/AHyaLMOZHoei+L7hLuO3v5jNDIQvmOfmQnoc9x9a 7hJFdQyMGU9CpyDXg0N4fPj6/fHY+te5okUUspiyI3YMARjBwM1vSbtqc9W17osxMkc5lePfldpU nAPofwzWL4k1+fw9a2lnpcUTalcxGUSzLuW3iB2ghTwWJB68DFaCkquHkLMeewx7DHauP+IMpj1K CZQCyaQrDPqGc1qjIh/4SvxfyT4jPHcW0OB/47xSx+JvGs0yxRa/I7twqraxEk/9816R4cENz4V0 u70dtPfTpLYGdZ1zkkDccjvnIIb8a8cl1S1XUb68091+xxXkqW7pkgoGwCD6f0pp7jsdSb74i9Bq 0x4z/wAe0H+FVV8QeOXnMC67J5i53KbWIYx1zlags9RvLy7uI2uBFJEAGQqCOmexx0qLSLi2j8Wa et9IHtprgpKzcBsgkZ9iQM1lGvGUnHsbSoSjFS7mgut+PGxt1ws2MgG3hO76cc/hXReHNdl1/T7k XsMUOp2WwymEbUmjbgOB2ORgjpW14kAttB1ebUUtY4Nu+zaNiWLhQFJ9DnA44xXD+Am/f6w56myi zj/roKuMua5nKNjsg1Bb1qugX523yF2PTd8oGOw9aj2w2kJK7lAHzknIJ9cev86ZBuwGOBMKBv7u Rk59vQVYS7bOCeRWB9sw55yM/jV+xjkvpAsOCRyWPQD3NbclkdHJZGotwTkZ6GnNM3HPamK1jCSq hrlxwWJwv4Yp32m3bhrKLH+ydp/Opt5E2G/aGJwD1prXee+V7AjrTpLVJomezZmIGWif7wHt61gX F6EbaDk+1NRuNRuW7xYwwkjAUHgqOgPtVfPfP4Y/rVZ7lmi+UF23DCggfqafvO3IGT1xUSVmZTVn YnQF5FQHG44zWxGUgjCRALjvjkn3rn45WV0ZwFIOSA2QPxqx9u+bk8eta0YcyuZTdjeiuiwwTz0+ lSrMWAPfvWfYRtchpt4SFPvyN0+g9TV5ZrRR+7iEn+1Kc5/DpVSSvZIlPux7SkE+gpnnkE5PAHNO 8+3f71vHj1j+U/pUNxCFgM0Dl4lOWB+8n19RSSXVBfswacOCHCsD2IyBWXcqscvyfdbkD09qjlvR uwp49TULziRlwc4FOrTtG44Su7E4NeYfGE/Jo31m/wDZK9MU5rzH4xH93o31m/8AZK5jVHjpPzH6 00n54v8Arov86Qn5jSA/vYh/00X+dIZ9LfCD/kVtC/6+rv8ArXrdeSfCH/kVtB/6+rz+tet0AFFF FAFTU/8AkFXn/XB//QTXyFqf+uk+pr6+1P8A5BV5/wBcH/8AQTXyDqf+tk+poA980T/kWNE/7B8H /oAq9VDRD/xTGi/9g+D/ANFiro47Uhik0ZpM0ZoA5z4hZ/4V/qf+9D/6MFeYeDv+Rl03/r4j/wDQ hXp3xCP/ABQGp/70P/owV5j4P/5GXTP+viP/ANCFNCZ9ZUUUUAFFFFABRRRQAUUUUAFFFFABRRRQ AUUUUAFFFFABRRRQAUUUUAFFFFABRRRQAUUUUAFfN/xe/wCQT4Y/373/ANDFfSFfN/xf/wCQT4Y/ 37z/ANDFAHiFOT/WL9abTk/1i/WgD3j4Of8AIp3n/X63/oK13srYzXBfB3/kU7z/AK/W/wDQVruZ j1piZq6PYWVzaGWeHe4cqDtJwB0HSrsemad5zA22ev8AAfb2qLw6ZDprbQpHmt1JHp7VpIZRcN8q d/4j7e1eFWk/ay1OiK0IhpemDj7Gh+sZ/wAKX+y9M/581/74NXAZf7qf99H/AAp373+6n/fR/wAK SbAo/wBl6YP+XKM/WM/4Uv8AZmmdrGP8Yj/hV3MvZU/M/wCFGZP7qfmf8Kd2BSlsLBYJNtpGCFOM Q+30rj45QNgLKCw4BPJ+ld1MZPs8mQn3D3Pp9K8+hjjYbnTcdoAPdcHIIrvwWzMqnQsthSxBOW9S SPyrkvG+x9Wst/Q6YoPpje2c11UjcVxnj5yLmAjqNJ44yfvNXetyPIwYdA0lbORIrlEgcjfEJnUP nP8AD36elRpZ2sNsbW3VTbjIATOPXvzmqthqVk+kxMbWGTYFLzmRgwyW4wDjjIPSo9GuPPsXdDlD K+0kdRU05uTs0b1qMYRun1L6WcVuCIhImRk4c80+SFJURGViM8c8/nTndsdvu0m5iV5HWteSK6HP zy2uOczTw+XNPcyRp91XlJA/A11HgY4k1njH+iRD/wAfrlVJ2PyK6fwWSH1np/x7xDj/AHzScUlo Lmb3OtRsjFRNcI24I2SvX2pYzxTLh/3ITCgKpAwADzzye9QUjGtdQM481GDoTkMpyDXZ3VyNI0e0 slO2e6Tzpz3x2H9PwPrXiOmyNC5MRmHzc7WxnmvSfiFf3Vt4htng2m3ktEZMjjqc/wBK75w1SPRd K8kjodKlW7v4oWcqHJBIx0AJ/pW352gwsA135pzjAcn/ANB4rzzwfqN1c6/bo8I2AOWKg8fI3X0q vpU+p6jdRpaWLTFWUvs/hGe56CspU9dxSou712OyvdSNjqcvkttMMhCjPbPSq3iURrLBfwKBDeR+ Zz2bv/MfjmuU8TapdRa/qMcaoFW4cA4JPWrfia4nX4feHfNYrNJ5jHHGV5I/QimoaxYKl8L7i2Wo Ry37WwlVpAu7aDkgZx/WtlW4rzvwf/yHLg4/5Yn/ANCFd+p4rKurTscuIjyzsV9SultbGadm2rGp Yk9qydP1CW8liSEhzIwVSpyCScCp/Epz4fvx/wBMWriPBTtb+KtKkPmLELuPed2BjcBzXZhI3pSl 2POrztJI9c17U0sbiPSbd9sVoo3dtzkZyfz/ADJpum3T3ayt5qpEiF2YnoB6eprmr3V59G+KV6b6 2a6tvOO2AKpLb1G3GeMciuq1XxNp+g3aWFzaee2BcXKW6rtDn7q84BAHP4A96HGSjGMVe6uR7SLb cnaxO98JdPS+iOQD5cwH8Ldj9CP1qtaa79mvo5CwMZO2ReuVPX/GqU3jrSruRIYLCWzjmPlTSPGp QIf4sKeSpwR+NY/jHX5ZpLfT7fT2s7y3JSZjGqiUkDaVHXB6jPrRGnJvllEUqsUuaLNfxEP7L1Oa BSFj4dP90/4cj8Ko6NqEd753lyB/LYKxB4BPas74ou/9sWtvuJaOyjEgzxuyetUvAo22d1x/y1H8 qdWP+zczNISXteVHdRmvNPjEf3ejfWb/ANkr0iI9K81+MZ/d6L/vTf8AsleYdaPGifmNCHM0X/XR f50xj8x+tOi/18X/AF0H86Qz6Z+EJ/4pbQB/09Xn9a9bryP4Q/8AIr6B/wBfd5/I165QAUUUUAVd S/5BV5/1xf8A9BNfIGp/66X6mvr/AFP/AJBV5/1wf/0E18gan/rZPqaAPe9F/wCRZ0X/ALB0H/os Vdz6iqGif8i1ov8A2D7f/wBAFXhSGLn3ozSfyo5oA5z4g/8AIgap/vw/+jBXmXg7/kZdM/6+Y/8A 0IV6Z8Qf+RA1P/fh/wDRgrzLwd/yMumf9fEf/oQpiZ9Z0UUUAFFFFABRRRQAUUUUAFFFFABRRRQA UUUUAFFFFABRRRQAUUUUAFFFFABRRRQAUUUUAFfOHxg/5Bfhgf7d5/6GK+j6+bvi/wD8g7w1/v3n /oQoA8Rpyf6xfrTacn+sX60Ae7/B3/kU7z/r9b/0Ba7ifoa4X4PvjwtdrtY5vG5A4Hyr1rup6Ymb nh0r/ZpzKUPmtxuA7CtKPZ9ob9+e/wDGPaszw6y/2c48ssRKeQB6CtJGH2lv3Dd+w9vevn67tWkd MPhLIKf89z/32KcNh/5eD/30KYGHTyG/If407cO0LfkP8aUZAO+T/nsf++xR8n/PY/8AfQpNw/54 N+Q/xo3D/ng35D/GquIZNs+zyfvjnYf4h6VwUH3FrvLmREtZmaJgFjYk4HAAPvXn9pIJI/uspGMh hg16GB2ZnUJpOlcj4yb/AImdj/2DwP8Ax8110mMEd65LxcD9vsZOQpsyoOOCQ5yP1H516EdzJnN+ Tbf88IsEjjaOaUbFBVQFAHQHAqUsBt+b07UhcZPPb0rQkGYYP09aQMuVOT1PelZxzgjp6U3f06fl QA5WTa/JrpPBzDdq+D/yxhH/AI8a5lWGx+n5V0vg7ONVcD5dsKZH97LHFJ7DR1Uf3Qf6VHP9w/Sp I+lMmX93uyPTHesylueeWcHlMRIdqljx1J59K9HW1XxZ4Wgii/5CemrtVSRuki6f0H4j3rijZss7 kDAydzHrWnp15PYzJNbSNE8ZypH9fb2r0J6q63PanHmSa3R0emeJRo/h19Mt9OCXADBpCcZJzywx nI6Y9qo6Br13oME9vbxQsshDZcHIOMdjzWsNY0vVkDavpxFwcAz2x2k/UZ/xoC+FoWEmy/nOfuMQ B+OMVhdbNGXuq6lF6mDZ6FdeJNYYsxCs/mXM5HCg8n2yew/wqr441WDUNQWG1G2ys08iDHTjqfbo APYCt/UtekuLNrGxgSytR/yyj6uP9o+/+c1yN5bif5hkHpn09jWkLt3ZpBNvmlpbYp+E4z/atwxH HlY/UV3S9K5nQbX7NcyfLtyuMduvaulQALwAKwxDvM8/F/xDN10b9Hu1HUxMK4ayi8tlYk7lOVC9 QR0Oe1d9qi77GdfVCP0rkI7fb1GF9K9TLLezkn3PlM5runUjZ9DvL1H8Q2tl4n0xFbU7NQt1ABkk gHDAd8dcen0rjAZZ52eQklj8xPXOetXNN1G80u5W4tJWikHHHQj0I7iulbXdE1Ib9V0bFyeWmtW2 7j6kZH6k10Ri6Lso3X4nnSxaxEV7/LLz2fmcpCgClWx6c+9dZpdtJqUtprWsokWn6XEAJCvzXBX7 o98H8+nc0LqXhezO+20ie4k6r9of5c/mf5Vk61rl5rO3z2CQR/cgj4UD+p96mSlWdlGy7v8AQqGL jh1ec1J9lt82c/4g1N9Z1S5v5FKtK+VGc4UcAfkBWn4PBFrcZH/LQfyrLmg3nI6n9a3fDUXlW8ox jL9PwqcbGMcPZeR05Xi5VsQlJ9zqIjxXm3xkP7vRf96b/wBkr0iHpXm3xkP7vRfrN/JK8E+oR4uf vH60+E/6RF/10X+dMP3jToP+PmL/AHx/OkM+mvhF/wAix4f/AOvu8/ka9cryP4R/8ix4e/6+7z+R r1ygAooooAqan/yCrz/rg/8A6Ca+QdT/ANbL9TX19qf/ACCrz/rg/wD6Ca+QdT/1sn1NAHvGjH/i mtF/7B9v/wCgCr2e1UNH48N6L/2D7f8A9AFXM/nSGPPTrRSZ96TPvQBz3xA/5EDU/wDeh/8ARgrz Lwd/yMumf9fMf/oQr0zx/wD8k/1T/fh/9GCvNPB3/Iy6Z/18x/8AoQpiZ9ZUUUUAFFFFABRRRQAU UUUAFFFFABRRRQAUUUUAFFFFABRRRQAUUUUAFFFFABRRRQAUUUUAFfN/xgH/ABLfDX/XS8/9CFfS FfOPxhH/ABLfDP8A10vP/QhQB4fTk++v1ptOT76/WgD3X4Pf8ipd/wDX43/oK13U3Oa4X4Pn/ilL v/r8b/0Fa7uQUxMr22p3OkztLCglifiSInGcdCPery+NrJJSzw3a5zx5AOOn+17VmypmqjxAkZzj PauarhKdSXM1qVGbWh0H/Ce6eP8Allef+A3/ANlSjx/pw/5ZXn/gP/8AZVVudBtpJrxbIu6LOlvE XONkm/Y6t69iPYiqNvpljKjz/bzJbCOcqywspDxgEgg9sEH3FR9RpD52bI8f6d/zyvP/AAG/+ypw 8e6ceBFef+A//wBlWQ2geW6Ry3kEUm5FcS/KF3DIwT97HAOO5FV7mxNpceUS5+UN88ZQjPqD/TI9 6PqVIOdmlqHiabVomtraBobZuJHkGGcegAJwPXmoIx3PJ/wqvGgGOKspE2WfzMYxhMcEd66KdONN WiQ23uD52kdjWPqEMU8DQXdsbi2Lbl2NteJvVT/StpxxVWWM5/8Arda0EcsdK0UHk6vx7J/hSHTN FHOdX59o/wDCuzttOtp5tHR1f/S5HWXDejYGPSq7afam1SWJmkLWYuHDZXaTLs4459MH0z6U7sdj k/7O0U5A/tfpzxH/AIUf2Zonrq/5J/hXaS6RZJPcK7tFHGbvYwyzHysYyMY7/jTF0MPtcypBG3lK p5YbmQNknjaORk9s0XYrHIrpWi4wP7XOe37sf0rbsIkigSC3tvs1qh3BCcs7HqzHuavvpgisluRM sgOM+WpZQSSMbxxkY5Bx+NNiTFK4FhB8tMlGRUowq5JAA6knAFI4yMjpQBhXC+U5EkTPHnhkGT+I qt9ot1PMc/8A37/+vW3IlKII4rSG4ktPtCvcGEqJih6Kc9COM1oqslodEcTUirXMpdTtlI/d3GB/ 0y/+vStqtqRjy7jt/wAsvb61t3GkRTag8Nsgt0W+Niu9y5c8kP0GB7VXXSFeFSl0hmaD7QsWwjKb 9n3umc9qPayK+tVDKbUbZmBEdx7/ALv/AOvTPPgZyVinO7qpjxn9a320FY7jyjexBg7xsrLtYsoz hAT82eQDxkiq8lqba6eEljt4JKFD07gjIo9rIPrVQgsYmHzuu3PRc5wPf3rTUHHA5/KoIkx3JqyB xUN31Zzyk5O7K06B0I5wRXOzwNC5DRscdCoyDXTyLkVYGkiTR5LgxTmco8yMFPlhEIBBPqckj2Wt KNedF3gzjxWCo4pWqrY4neoPKSf98GnCePus34R11S6Kk1x9njvI2nXyTIhjYbVlwFOeh5YZA9ao XNnFHbR3NvcrcQs7xkqjKQ64yMHr1GD3ro/tCscP9g4Tz+8xxNGRwJuP+mZo3qT92XH/AFzNdTFZ add3KJaoHtfOjjNzDcB3AY4/exEBkJPAwMetMGlwlwqXQ8yUSvbxmNvnSMnJJ6KflOAeuKP7Qrdw /sHCdn95zaRh22rHI2e23FbthAYIgp+8f0rQTSYw8o+1qwhSNpdkTEqXAKjHfg5OOmKaYTBM8e9H 2kruQ5B9waxrYmpV0k9DrwuXUMK+amtSZCQVAQtnqRjgV5t8ZD+60X6zf+yV6WleZfGT/V6N/vTf ySsDuR40ep+tPg/4+Yf98fzph6mnwf8AHzD/AL4/nSGfTPwj/wCRX8O/9fl7/I167XkPwj/5Fjw7 /wBfl7/I169QAUUUUAVdT/5BV5/1wf8A9BNfIGp/62T6mvr7U/8AkE3n/XB//QTXyDqf+tl+poA9 10jjw5ov/YOt/wD0WKuA1S0n/kXNF/7B1v8A+gCrgpDHZ59fWgGk6UZyelAHP+Pz/wAUBqn+9B/6 MFeaeDv+Rl0z/r4j/wDQhXpXj4/8UBqv+9B/6MFea+Dv+Rl0z/r4j/8AQhQgPrOiiimIKKKKACii igAooooAKKKKACiiigAooooAKKKKACiiigAooooAKKKKACiiigAooooAK+cvjF/yC/DH/XS8/wDQ xX0bXzl8ZONM8Mf9dLz/ANDWgDw6nJ99frSUqffX60gPc/hB/wAipef9fjf+grXfNXAfCE48LXf/ AF+N/wCgrXf5qhMhdagkiyCBwex9KtkU3APOD+IoEUnW83ysL+ZTM4lmKgDfIDkP04IPpihpNSkk Esl+TIqsoxCgUK33gVAwd3ckZq5tFGwUDuUQt9lSbzJTG1jChY4GAGbGXAHGDnipESdgvny+YVAV AqBFRR0CqAAB1/OrWwUu0UCI1TFTqOKQACnDFACEcVE6ljyfzqYe4I4zg8UhAzwf0oApiS/hDR2t +8MRJJQIrFSRglWIyue+KiK3gi8lbtlhC+WqBF4TO7bnGcZANXyCVx6dKaUwSMg+470AU9+ob9/2 5y+XbJjUgl/v5GMHd3H5UgF8CSL3dnaCJIUcDaMKQCCAQOMjmruyjYPSgCrGt0o8s3WYcKpURqGY DoGYDLAdgTVhUqTaKX6CgBrRLIAGAIDA4PQ0pRFyEXameFznHtTqO3IIPoRQBA6VC6TFdgmYRA71 TAwr4A3fkB7VaeCOZkWRvk3ZIPI/KmNax7yAz7FzswSMeh/+tQBVN1qFszSpqbRPJIJJGMSNuk5+ YZBweT07Uwx3Zj8v7ZIF8vyeFGfLJ3bc4455z1q/sGc4o2D0oApEXzsXe6RnOck20eHz13jHzk+p zUuZMeZdTl3JALsAoPGAABgAAYGBVnZRsBxkAgZwDyORg0DGomKlApAAOB0p1AhjLVV47ozrOL2Z Zo18uMjG1UwRt29CME9RnmrlNIoAia/v2uYJ24ht2iYWqlRvMYAGXAyQcE4OQCarSG7ujuu7hpCM 7FChQmTk4AAyT3PU4q6VFJsHpQO5TZ9SkbMmoOSCrB1iRXZl5UuwGXx1Gc1KG1Bo3i+3N5cpJdRG gPzfe2nGVB7gYFT7Keq8UBcgxdklxdZdgFfzIkdXUY2gqRjjAwcZqaJCo+ZtzE5ZiAMnueKfinCg Ljl4rzH4xZ8vRjkfem479Er02vMfjDzHo3+9N/JKAR44epqSD/j5h/3x/OmHqfrT4P8Aj5h/3x/O kM+l/hH/AMiz4c/6/L3+Rr16vIPhJ/yLXhz/AK/L3/0E16/QAUUUUAVNU/5BN5/1wf8A9BNfIGp/ 62X6mvr/AFP/AJBN5/1wf/0E18gan/rZfqaAPdNJ/wCRc0X/ALB1v/6LFXAap6T/AMi3ouP+gdb/ APosVaHFIodmjNJ2pM0AYPj3/kQNV/3oP/Rgrzbwd/yMumf9fEf/AKEK9I8en/igdV5z80H/AKMF eb+Dv+Rl0z/r4j/9CFCJZ9Z0UUUwCiiigAooooAKKKKACiiigAooooAKKKKACiiigAooooAKKKKA CiiigAooooAKKKKACvnT4yj/AIlXhb/rpef+hrX0XXzr8Zv+QV4W/wCul5/6GtAHhnalT76/WkHS nJ98fWkB7f8ACM48L3f/AF+N/wCgrXelq8/+Exx4Xuh/0+N/6CtdyzDnIyexz0qhMlaeOJGklYBF BYknAAHcn0/U9BUkFzJIoYaNO0fQFiqE/gXyPxAqpKFW0incjabuNee+MkD8wPyq2NTyQA3P3cZy R0+Xr196QIti4j/i0C4Jzg/6QnX0+9S/aIf+heuOuP8Aj4Tr6ffqG3upbmG4lhO4W6BpADkhe469 R61YjW4mt9NmjyVvmKIeTtwe/PoCc+1FxjTcRdvD1x1x/wAfCdfT79VbiW4Kn7PosiHp80iNz6ff qdppftV9DGd4sdwlbPCgHgHnqe1Vf7VH9/8A2fvf+O9evvQBlQ6y4vPst5B5Ds2wEAjDdQrAk4J7 EEg1qB6zNUVNTnGOXSEkkHptdCAeeoyeferaSBiCTwfSmJlo8KDvDEjJAH3fakzUQalzQIUIvmGQ s+/I24PGMcjH60/PPao91GaAJM0Zpm7rSbqAJM0ZqPPrRuoAkzRmo88570ZoAlDYPbpjkZxQT1qI scdKayRSOBIS4XONpI5xwaAJjkfeUqeuD6GjNR5OKMjHAGcnJ7mgCTtkkc9h1FGaZnKk5HHvzSbq AJM01ZVkcxxujODgjdjH1pu6k4VR8gUAkg9zk8/yoAl3UZqPdkZFGeSd34YoAkzRnmo80ZoAkzSq eaizRuoAsZpMngAZJ6VHupd1AD815l8X/wDV6N/vTfySvSs15n8XTmPR/wDel/8AZKBo8hPU0+D/ AI+Yf98fzpp6n60+D/j5i/3xSGfSvwl/5Frw3/1+3v8A6Ca9frx/4S/8i34a/wCv29/9BNewUAFF FFAFTU/+QTef9cH/APQTXyBqn+tl+pr6/wBU/wCQTef9cH/9BNfIGqf62X6mgD3XScf8I3oo/wCo db/+ixVgmquk8eHNG5/5h1v/AOixVgnvSKFzRmkzSZ60AYfjwg+AdV/3oP8A0YK838Hf8jJpv/Xx H/6EK9H8d8+ANV/3oP8A0YK848Hf8jJpv/XxH/6EKESz60ooopgFFFFABRRRQAUUUUAFFFFABRRR QAUUUUAFFFFABRRRQAUUUUAFFFFABRRRQAUUUUAFfOvxm40vwt/10vP/AENa+iq+dfjP/wAgzwuP +ml3/wChrQB4aOlKn3x9aaOlOT74+tID2n4UHHhi6/6+2/8AQVrtZHIGSCPQ+tcP8Kzjwzdf9fbf +grXYyv1qhMk1acQeD45twU/2ii5Pf5W4+pqDR4LnU7RL3SrqNru0mVZbeViCuCGAyCQSR3Pv1pN ae9HgSJ9ORXuV1RGVWAIYBWyCDxg1nXfiqy0K3t5JdHEFzqC+Xcx27hWRRkE5BweTxgg89aGCOq1 Hxfomg6rePpkH2m9lxFMiShYUYEnBP8Ae55AH1xWI3xJ1mGMLbwaXBEnyrEI2IU/3Pvjn6DFcodI Ehhk0O5WexkO0M74MK9wwzkn3xn2rZt/Dlihjae/uJGUjhQApAIODkknp160hnW6n4tsbTT7aw1u 1e2m1e3El5LZAYiZsAZySScDGRnGO9Jqdg96bGPSDbxaRFblzdtLkNk88g5JwAc1wHjKW7XVZNRY +Zby7Y0KnGwAYCEZ4JOSG96r+F/EYWWXRbtS2nXuY9hkI2Oe2Qc89CR1OKAOl0e+jm1S6CS+bGlr Iqv043pgEZPPfPvWjE/Arn4LnZrV3Fb6WbOyhs2RJWBzM3mJzkk8en51sQvwKYmaKtT91VVmGQAG buSoyAPepc0CJd1JknjIHuelR5oDZHf8eKAJd1IGBGQQR7VGcEEHoeKPkXhIwg7gd/egCXdQSPXN RZozQBJupd1RZoyTwASfQDJoAkyPQZz17/Sl3ZAGeBUWaa8ojAJzyegGTQBPupMnrkc9gOlRbxgE dD0x3o2ozBmUEjofT3FAE26k3VHmjNAEm6lBJ6AnHP0qLNAagCVnLMWJ5PJoDY6VFmkZiBkKWPYD vQBNmk3VGG45BB9D2ozQBJuoLhRkkAep4qPNAWJ5IzMpdFOSvrQBOG4pd1QrtTAThew64HpS7qAJ d1ebfFo5j0j/AHpf/Za9F3V5x8WDmPSf96X/ANloGjyY9T9afBxcw/74ph6mnRcXEX++P50hn0n8 Jf8AkXPDR/6fb3/0E17DXjvwm/5F3wz/ANf19/6Ca9ioAKKKKAKmqf8AIJvP+uD/APoJr5B1T/Wy fU19fap/yCb3/rg//oJr5A1P/WyfU0Ae5aUf+Kd0Uf8AUOt//RYqwT61W0v/AJF7Rf8AsHW//osV MTSGhcg/SlB5pufejNAzE8c/8iDqw94P/Rgrznwd/wAjJpv/AF8R/wDoQr0bxyQfAOrfWD/0YK85 8Hf8jJpv/XxH/wChChCPrSiiimIKKKKACiiigAooooAKKKKACiiigAooooAKKKKACiiigAooooAK KKKACiiigAooooAK+dvjSP8AiWeF/wDrpd/+hLX0TXzt8af+Qb4X/wB+7/8AQloA8MHQU5Pvr9aa OlOX74+tAHsXwuOPDV1/19t/6CtdfM3WuN+GBx4buf8Ar7P/AKCtddLkqxyoA7E8n6UxEevyIvw/ QtctbbdVjbzFOCPlPc/1rgNcuDc6grluBGEDE9cnp1HX1r0qxNnfafNpV9OkME0hUyOQAhZGAbnj IOMe9Ta18NLS/Pn6beRqsjQRCQjIit0TEhABw7sQD26/Wkxo868PXCWlvOVOHZwGHpgDA6nPU1rp c3E/mSi7WMK6pFAIyzTE9Tntiub1K1n0G4WGeGWJ5l81YHOZIo8kKXHYnHQ898DioI9XljVljnZV bqFbGaAOovbxJra4t5XHlsrKzdh7/wBa5pILJHjdNYjDo42kL6EED7361ClwbyRLYSLGsjrEZJDh QT0BPbPr2r0HQfhhJfWrNqCvaM8EkLJIDvt51cFWXBw6EDrnueehoAyYrqWa9unNxujFqQsIUDad 6c575rord8gHBx78GrfiLRdJ05r1tNlhe5uiJZkQqTHt2LjjnBOTz647VQiYn5j3Oc+tCA0o3YkA E5xjj0p+6qyNxUm6mIl3UFyepqLdRuoES7qN1RbqN1AEu6jdUW/tmlDDPIyKAJScEjIPuDSbqi3U bqAJd1KkhR1dThlOQfSqyPKQGdMI2dpGe3Y+9P3UATbzndnnOc0m6ot1IpfqwXBzgA8/jQBNupV3 OwVELMegUZJqHdxnilDkHIOD6igBzYdSp6HtilOz5gqhVP8ACD0z6VHupGcqBjLEnAVRzn0oAnJQ HEcYjTsoJIH50m6ogwIzuI44GOv+FG6gCQOD0IP0pd1RtIWCg4+UbRgYpN1AEu6jdUW6jdQBLu6U /dVfdT1bigCbNec/FY5j0n/el/8AZa9B3V538UzlNK+sv/stA0eWnr+NPi/4+If98U09T9adF/x8 Rf74pDPo/wCEv/IveGf+v29/9BNex1458Jv+Rd8L/wDX9ff+gGvY6ACiiigCpqn/ACCb3/rg/wD6 Ca+QNU/1kv1r6/1T/kE3v/XB/wD0E18gan/rZPrQB7fph/4p/Rf+wdb/APosVOTk1X03/kX9G/7B tv8A+ixU3rSGhQRRupoNKDQMxfHH/IhasfeD/wBGCvO/B3/Iyab/ANfEf/oQr0Lxsc+AtW+sH/ow V574P/5GTTf+viP/ANCFCEfWlFFFMQUUUUAFFFFABRRRQAUUUUAFFFFABRRRQAUUUUAFFFFABRRR QAUUUUAFFFFABRRRQAV87/Gr/kHeF/8Arpd/+hLX0RXzv8av+Qf4Y/66Xf8A6EtAHhg6CnL94U1f uinL94fWgD1z4ZnHhy5/6+m/9BFdZKQc1yHw1OPD1z/18t/6CK62Rjt254znFMRk3xMbszIZIHXb IgODwcgj0IIBFW9GumtJ1msNatrQ5+eOdCquPRlBx+IwaJRnPFTS6DbR6ZDeXFwIjPG0kRNuxiOC RtMg4Dkg4B9skZpAa2uWOneIYCsmv6Ra7yGm8qQK05AwodsZIHp/gK4yT4cWz8nxfoWRwOWOB6df 1ratvCd7dXMEP2WOLziFDSMMISpYBgDlSQMgEZNRy+GZIbVLiRY9r2zXCiPD4AcJg4PHJ68jt1zg GSeHvCun6JL50vifSLhmVo5omcNDOh5AZTnkHnI9PrW5rEsmqEQ/8JPpMNoBgwxyMN5/2iDyPbpX PP4W1CKaOJ9OYSSSGNVG0ncBkg4PBxzzjjnpTx4ZvRLsayAYoH3M6BSCcKQxODkggc89qYXLbDR9 MspbXT7hb6+uMCaeNNsaKOw/M9ySeT0ApkR4AqmkJhZoymxlJBUjBBHUVYUStIqR7RnJyRn8KBF5 TxTw+M8DkY5FV43JQFsZ9qfuoAl3UhIYEHoRio91G7igB6tjO2IpHkhTnjjqB+dO3VFupC/YDcfQ GgCbf2HSjdUIbjkY9jS7vccepoAl3UF2Zi235e7DA5Pt+FRbuaN1AEu/t2pQ5ByDg1DuoGMFjId2 cBMcY9c+tAEu6jdULHcpBPXrilJAJCjavYZzj2oAl3Ubqi38Zx+FKwkjIWVAjdcA5oAk38Y7Ubu4 qLdRuGOvPpQBNkgZzkevv34pN1RlyeppN1AEu4egHv60bqi3Y7ijdQBLuo3f5FRbqN1AEpYgkEEE cEGlVucVDv59vWjfg5oAnaQrgKjOT2WuA+KJBj0rjvL/AOy13yysoIViAw5x3rz74nHKaX9Zf/Za APNCOTTov9fD/vimkU6P/Xxf74pDPo74T/8AIu+F/wDr+vv/AEBq9jrxz4Tf8i74X/6/77/0Bq9j oAKKKKAKmqf8gm9/64P/AOgmvkDU/wDWyfU19f6r/wAgi9/64P8A+gmvkDU/9ZJ9aAPbdNP/ABT+ jf8AYOt//RYqY1BppxoOjf8AYOt//RYqYnt3pDQnbmlzSdBjH50ntQMx/G3/ACIerc94P/Rorz3w f/yMmm/9fEf/AKEK9B8af8iFq2PWD/0YK8+8H/8AIyab/wBfEf8A6EKZLPrSiiigAooooAKKKKAC iiigAooooAKKKKACiiigAooooAKKKKACiiigAooooAKKKKACiiigAr52+Nf/ACD/AAx/10u//Qlr 6Jr52+Nn/Hj4Z/66Xf8A6EtHUDw4dBSqPmH1pB90fSnL94fWgD1X4cHHh+4/6+T/AOgiutY1x/w6 ONBuP+vk/wDoIrrS1MQ114HI57DtUttqk2no4tbIJM8bxGVbllicMCN0kWMOwB4OQOBkcVGabjNA FxvEd615FdNZhpklSWUG4PlylVKjCgfLkEnJJwemBxVVdTkjshaRafGgW1e0V/OJxG0nmDjHUHI9 89qjKjOe9JgUAX4del+3TyzW8EMV3dSXE5O9xh4yjIQvOMH7w5HoakOuW9s9qmmWpltoLVICqSsi MVdmxh1O9fmwdyg5zjFZu2gK+eFG0dSTg/hQA8sZZHlMccRdi3lxjCrk5wPYdKkWoxTgaAJg1Rid i5ynyZ25zz+VJkYHU+uad5h8vZn5c7sY70APUIoG0EHHzEnqfWlLd8dah3UbqAJt1G9zwF+Qck56 E/8A6qh3UbqAJs5OM49+tG4YIIHPqOah3UbqAJt3J4A9hSjG1naUDBAEe3r75qDfS7yM4NAEu6jd UO6jdQBNuo3VDuo3UATbqVSCcFgo9SCahDLzkHpxg45pN1AE4OWAJAz3PQUZHzfMOOnHWoN1BagC bdSngA5HPof51Buo3UATbqN1Q7qN1AE26jdUO6lDDIyTjvjrQBLuo3VDupckKGOMHOOefyoAnV+K 4T4lHMemfWT/ANlrtVfnFcP8RzlNN+sn/stAHnZ6mlj/ANfF/wBdBSHrSx/6+L/fFIZ9G/Cf/kXf C/8A1/33/oDV7JXjfwn/AORd8L/9f99/6A1eyUAFFFFAFTVf+QRe/wDXB/8A0E18gan/AK2T619f 6r/yCL3/AK4Sf+gmvkDU/wDWyUAe1af/AMgHRv8AsHW//osVMfWoNP8A+QFo/PP9nW//AKLFSk+v SkNC9RS8U3PpR6GgDH8af8iHq31g/wDRorz/AMH/APIyab/18R/+hCu/8Z/8iHq2PWD/ANGiuA8H /wDIyab/ANfEf/oQpgfWlFFFAgooooAKKKKACiiigAooooAKKKKACiiigAooooAKKKKACiiigAoo ooAKKKKACiiigAr52+Nn/Hn4a/66Xf8A6EtfRNfO3xs/49PDX/XS7/8AQloA8OHQfSnL94fWkH3R 9Kcv3h9aAPTPh82NCuP+vk/+giut31x3gJsaJP8A9fB/9BFdTvpiLG+k3j1qvI7bDtOD6+lKu+MB WbcpAZScE80AT7qXeMY4qDfSb6AJjKAQMH6gcCl3VDvpN9AE++l31BvpN3OaALG+jce1Qbx3/SlD rg5Bz2weBQBNvpN/XnpUO+kDKBwoySSSOpoAsb6lt5EEvzlcYOCwyAe2faqRc4OMZ7ZpS2Mjduxx uAxmgC/dAKI5AUIYYJQ8Fh14/KpNJntItWtZL9DJaq4MigZyO3HcZxxWYXBJIAA9B2pVkKsGBwQc 0AdL4tvdJu9TjfSEQII8SMibFZs8YGB0HfFZFlNClyDOAUxxkZANUDIck560m+gC9dyxPcu0Awh9 BgE96m0+e2jdzcAcj5SRn61lBGmlx5wjAUkEnAzTt5xz1oAtSyIZnMYwhJ2j0FM31X396XfQBOHw c9frRvquO7AuWJxj+HH+NKWIJB6jrQBPvo3jA5qFWViAWCDHXGcmm76ALBfJyTmjfUG6lYgORnIH Q9M0ATbuM5Hp1o31X30F8DNAFjfRv+v4VB+9UKZYjGWG4A9xQJCDkHkdDQBNvpdxJAAJJ4wOpqFp SzFmOSTkk96Tf3oAnD1xfxEOU076yf8AstdbvrjfH7bo9P8AYyf0oA4TvSp/rov98UUqf66L/fFI Z9F/Cc/8U/4WH/T/AH3/AKA1ey14z8Jv+QB4X/6/77/0W1ezUAFFFFAFTVP+QRe/9cJP/QTXx/qf +tk+tfYGq/8AIIvf+uD/APoJr4/1T/WyUAe02H/IB0c9v7Ot/wD0WKlNQ2B/4kWj/wDYNtv/AEWK kJ5/xpDFzxRkUhNL260AY/jL/kRNX+sH/o0VwPg//kZNN/6+I/8A0IV33jM/8UHq494P/RorgPB3 /Iyab/18R/8AoQpgfWtFFFAgooooAKKKKACiiigAooooAKKKKACiiigAooooAKKKKACiiigAoooo AKKKKACiiigAr53+Nv8Ax6eGv+ul3/6EtfRFfO/xt/49fDX/AF0uv/QloA8PUfKKcOopF+6PpSjr QB6H4GbGjTj/AKeD/IV0++uT8FNjR5h/03P8hXS7hgnJz2FMRraXpzajK26Ty4U+8wGST6Aetb40 HSQMEXJPc+cB/wCy1kaLceXYkZxmQ9Op6Vpfa+2Rx27CvNr4mam0jhq4lxk0ib+wtJ/uXPt++H/x NH9haT/duf8Av8OP/Hah+1Hbu5weA2OtH2v3HH5CsfrNTuR9aZN/YWkf3Ln/AL/D/wCJo/sLSf7t z/3+H/xNQfa/fr+Zo+2e4+vYUfWancPrT7lTVdEjtoWuLOR2RRl45MFgPUEYz9MVhb66aW6zC4Pd Tx3PHeuRD8A13YWq6idzpoVfaJlgsQcHgjsa3dC0D+00NxcytFbA4UKPmcjrjPAHvXNmQkkk5J6k 122kXYTSLVQcYjFelh6PtZWZOLxHsYJou/8ACK6L63f/AH9H/wATR/wiui+t3/3+H/xNH233o+2+ 9dv1OPY83+0Zdw/4RXRfW7/7/D/4mj/hFdF9bv8A7/D/AOJo+2/7VH233o+px7B/aMu4f8Irovrd /wDf4f8AxNc7ruhnSgs0EpmtWO3LDDIfQ46/Wui+2+9Z2uXYk0a4UnPA/mKipg0oto0o5g3NJ9Tl N9JvqAuM9OPQ0b6809c6/RvDEVzbJc6hNIiuMpFHgHHYknOM+mK1f+EV0T1u/wDv8P8A4mmi92qA DwAABR9sJ5Jr1I4JW1PDlmbvoxT4Y0RQTm7wO/nDj/x2k/4RvQmK4e7LNz/rR1z/ALtMuLpngYIf m7D1qa91P7Tb2Y2SLODy5XAaMEhT9c5FN4OKtoJZjJ31AeGNFxt3XmM5x5w6/wDfNNbwpoxUhXu1 PY+YDj8NtIb4HqaZFqYkGVbK9mHek8LC/L1NPr1Tl5uhzGsaXJpN0EZ/MicExyAYyPQjsRWdvrof E9wJLKHPUS9fwNcxvHauCvT9nNxPSwtb21NSLG4sBjk/dAA5rtdL8ERNAsup3EqyMM+TDgbfYkg5 P0H41x+h+X/btgNg5mUt/tc5Ga9T+0e/415uKxLpNJHp4agqibZmf8IRo3/PS9/7+r/8TR/whGi/ 89b3/v6v/wATWvbv59zFCWwHbHHWrEkmmxSujXNwWRipIjzyOuOKwhXqSXMnobzoU4u1tTAPgnRi eZb4n3lX/wCJo/4QnRT/AMtb3/v6v/xNbpn03p9ouv8Av3/9akvRHbmFopWeOWPepIwcf5NVKvUU XK4lRptqNjnbjwLprxEW13cxS9jIQ6/iAAa4jULW4sL6W2u/9ch6g5DehB7givUPtHauG8cyA6ha uBljCQffDcfzqsNinUnysjEYZQjzI57fXIeOz8tgCQeXPB9hXTjb8xZT5mRg56eork/HDZWwPu/9 K9A4Tj6VP9dF/vik70q/62L/AHxSGfRXwm/5AHhf/r/vf/RbV7NXjPwm/wCQB4X/AOwhff8Aotq9 moAKKKKAKeq/8ge9/wCuEn/oJr5A1P8A1slfYGq/8ge+/wCveT/0E18f6n/rJPrQB7PY4/sLR/8A sHW3/osU/P8AKorI/wDEk0f/ALB1t/6LFSE0hjifXrijOKQcigAdTQMyfGP/ACImr/WD/wBGiuB8 H/8AIyad/wBfEf8A6EK77xj/AMiHq/1g/wDRorgfB/8AyMem/wDXxH/6EKYj61ooooEFFFFABRRR QAUUUUAFFFFABRRRQAUUUUAFFFFABRRRQAUUUUAFFFFABRRRQAUUUUAFfO/xu/49vDf/AF0uv/Ql r6Ir53+N3/Hv4b/66XX/AKEtAHiK/dH0pR1oQfIv0p2KAO38HNjSpR/02P8AIV0G+ub8IuF02Qsu 4eceM9eBW8zAYIbOe2MYpiNiwuPLtzzjLHkdT7CtbSFXUNZsrKQ4SWUKwB6DqefUgYrlYZGUFlJG T1659hVu2v5rS5hni+WSFxIuDwCDnmvLqU17W72PlsTXccS77XPddVsI7/RptPRVjUx4iwMBCPu/ qBXjv2ogkHAK8MM8Kf6mvSZ9SPiPwpJLpczwzTxkKccgj7yZ7Z5GffNeRSOYnaKRSjxkqyMPukdQ fetsZBSs0jozOtZxlBaGn9r4789B3b/AUv2vqcjjqew/xNZPnr6t83tyaQ3BB4HT16D/ABNcXsjy /rEzVe6+QjnkdO59z6CsUPwKJZXdCDnDfwjq31quH4H0rvwkOVM9zKKjmpX8ixvroLK82WUK56IK 5jfVmG5ljRQCGXHAPavfyxJ1HfsLO+b2MeXueqeGtFstW0Y3t0kzsJWQiOQjAHoB1rei8G6LNGsk bXDI3IInODWZ8OLgy+F2JGCLlxj8Frcuhc2k5udNAeQ/NLbMcLIO5z/C3v375rDE16saskpdTowe EoyoQcoq9iL/AIQfSP8Ap5/7/NUc3g7RIIzJK9wqjqTO1Xj4ks/sImVZGnY7Ba4xJu9COw9+lR2a XE832rUiPtI5SFfuRD29T7/yrH6xW/mZ0/UsP/IvuOT8UaRaaNpsF1bpMjSShMSSFjjBOT6HiuL1 C88yxlXPUf1ru/ibOY9CsyFyTdYx/wAAavM7u01BbFriWPyoQAdp4JH0r1qEnLCyc3rqeBiqfJj4 xgrK6KW+jfULFlxuGCRnr2ppfgivDW59PLY64ahyMngelTfamNZOgaamp3Qt3uZZFEJkZYI8shBA wSxUAc9SSK0oYtPh1aaxuNSFnAmAjT4mY8f3o8r+tfU+0gnyvofCVMJXkueLNGC0ubm1FykkKwgl Xd5NojPv357YzVvVrvTrmys1sL1GltIfLlDo67+nKkjnnPHXmkuNGGpX+naPpV6s9mYzcS3CfdOW ILHHGRgKB6/jWP4o0xNLW1js7oyfaGdTGVwyYOM5HBBHevKxuKnFL2KvJ7L8NT2sqwEJOX1l8sEt X3troZ09+bmUwRuRGOHbu3t9P881aW8VECrwB2rTHhzTTotndPqkVlcNF80LRlt5BI3YByMgelZc ej2L2oluNSuFnZmEaRQblfBI4yQe3PHFdODhGlC9Rtye7/roYY+pLEVeWjaMEvdV+nd+bKmrXYmt IxnkSdPwNY++m3Bx5TfaRMSOQARsPpyOai3+9cGYfxtD1soi44ZJ+Zq6NIRrNn/12Fejfaffp37C vLdOcnUrcDrvFdql3Io5IbHc9q+Qzio41Ipdj7DKqXPTk/M6bTJ86rajOMyDjueDUd3cYvbjnpK3 P4npWfo92DrFoCGGZOnUng9a376w0iFnurq6lh8xieWAGT2AxWdCnUr4ZuHRmlaUaOItLqjKNxxj 9P8AGtDU5ttvppz1txyPwpltZ6FesY7e9mdhyU3YP5EVX8SSx2z2UUe7akRUZ64BFU6NSlh5zk01 pt6iVSFWvCCVnr+RF9o7fp6fWuP8Yy7721IOf3TdfrWs1254VQPY849zXMeIpCbuBmJYlDye/IrL LKrliEjTMaPLh2zNJ+XaWByOSOK5bxqVK2Wxdq5fj04FdFvrmPF5yln9X/pX0582cwORSp/rYv8A fFNX0p6f66L/AHxQM+iPhN/yL/hj/sIXv/otq9nrxj4Tf8gDwx/2EL3/ANFtXs9ABRRRQBU1X/kD 3v8A17yf+gmvj/U/9bJ9a+v9V/5A99/17yf+gmvkDU/9ZJ9aAPY7I/8AEl0gf9Q62/8ARYqTnP8A SorQn+xdH/7B1t/6LFSd+tIaFJ4560u6mfzpQSBn9KBmX4wIPgTV/rB/6NFcH4P/AORj03/r4j/9 CFd34v8A+RE1f6wf+jRXCeD/APkY9N/6+I//AEIUITPrWiiimIKKKKACiiigAooooAKKKKACiiig AooooAKKKKACiiigAooooAKKKKACiiigAooooAK+dvjd/qPDn/XS6/8AQlr6Jr52+N3EHhw/9NLr /wBCWgDxRfuL9KdSJ9xfpS0AdZ4XbGmy/wDXU/yFdXYW6SwvJIu75sDJP41x/htsafJ/11P8hXcW S+XZxL3K7j+PNMRG8SI2I12j65pPL7Y6dv8AGryRbwW6c43dT9BTvs3bA4/hzwPcmvJrVUptHyGN pSeIk13LXhzXptBuySrS2kv+tjHU+hX0I/Wu3v8AQNH8XWwvbWYLMR/r4hk5x0de5H4H3rz77OOu Tg9Wxy3sB2FT2kl1YTebZzvBKB1jbAA9/X6VcMWkuWWqNMPWlCPs6q5onoOk+CtPstMe1uoY7uSX mWVlwT6Be6gexrifF/h+00LUII7R3KTIX8t+fL5xwe+eevpWpF421+OHyzLbv2EjwfOfwBA/Sufu 3ub+6e5u52mnb7zuchfb/wCsOKqpiaTjaKNsVOjOkoUoamSsQZgpBIY4I7mttdIsMDNsOn94/wCN VBbgEHnBI/3m/wABWquCBn0rTCT5kzqyaDipX8iuNH0//n3H/fTf41lTWqxzMka4QHCj0FdBuA6m uht/BA1DS4r2CYs8se4pxw1e5l9aFKbc2a5vQq1aSVNXsy38PCyeG3jQZc3Ln2AwvJrsY18tcDJJ 5JPUmvIbmz1DSZGgaS5txu5EcjKpP4HGajaa+XG69vRnkZuH/wAa6qmX+1m5qWjPPpZ1GhBU5wd0 ewCGIS+aIxv9cc06RTIB1DD7releN/aL3/n/ALz/AMCH/wAakiubnzE8y9vSuecXLjj86h5XJL4j RcRUm7crOv8AHlyYdNsS0YLLdAlT0PytyPauHab+0bkR3LNIkh5UkgAelauo3NjPtjWO5kVed0lw z4PcgEkVUZLU3Ub2yOg7qxzjjrmuqnT9nhpRfZnBWxMa+NhOL6oQaHpmDm1H13t/jTW0PTQrf6MO n99v8a0encUjH5D9K+fjufYS2ON+zZYgjqKmttOluZ47e3iLyyMFRF7k1pGAEA46VaguJLKBhZ/J dSqVefHMSnqE9z3P4DvX1s7qPu7n5/TrRlP33ZI3JdVtPC2mR6BaTmW5Yk3U0Y3BCeoHI+UenU8n vWbNo6aTLb6nq9+LtLyPdEtuh3MvB74CDkVkiBIUJCknqcnJJ9Sa0tTN0YrGG7CAQwKqANnKtlgR 2IxgE+orkhheSSd9Xv8A8A76mZe2pyio+6tv+Cak/wBl1WU3Vrkw4CqjDHl4AG3/AD1zXNa9bRrc LCkQDAbmbPXPaui0AqlpdA8+X+82juMf/WFYV1m7uHkcffOT7egrWimpuN9EcdapDkjU6yM3TrCG efbPHuTaSASeOnpWp/Y2n84tunX52/xpsZFvIG2kjBHFTG8H9w/nXjZl/HPqMlnz4VPzYyHSrKOe N47fDg/KQx6/nWn5J68cd+y/T1NU7ScS3sEew/M4GM10f2bvxx7cL9PU18JxBW9nWivI+1ympy05 LzK+hwH+3bIHIBk6dzweTV3UbZtR8WfZZZDHGJBErH+EYzxnuT396n0iAR6xaMflHmZ56ng9a6LW vDqajN9pgdUnwA27kH/A+9TgXOvg3yK9parui8RiIxxPNLT3bX7HJa5pKaJe25spnLbTIFJ5Ug9S fQ/41a8WxEy2EmNpaEk+o5HArVsvCbfaVkvZVaNSCUDFi5HqT29qTxZGJLy2wQCsbc9SOR0ravz0 8JVqSjyptWRnTrxlXpq/M1fU4jyT0x77fT3JrI1e2ikmiMqbztOCcjv2rr/so6bffb/Umud8Rp5d zByTlCc9uvauHJa6ni4r1N8yq82HaOR1GBYWjaLCKQcjk5Irj/FbZW0+rf0ruNTXfZMR1Qhv6H+d cJ4mbK231b+lfbHzRzw609f9dF/vimU+P/Wxf74oGfQ/wm/5AHhj/sI3v/otq9orxf4S/wDIB8MD /qI3v/otq9ooAKKKKAKeq/8AIHvv+veT/wBBNfH+p/6yT619gar/AMge+/695P8A0E18f6n/AKyT 60AexWn/ACBNIH/UOtv/AEWKdxmmWp/4kuj/APYNtv8A0WKd0Ht3pFDsjHFLkjkfTpTc9j+dGe1A GX4u/wCRF1jnvB/6NFcN4P8A+Rj03/r4j/8AQhXceLSP+EE1f/th/wCjRXDeD/8AkY9N/wCviP8A 9CFCEfW1FFFMQUUUUAFFFFABRRRQAUUUUAFFFFABRRRQAUUUUAFFFFABRRRQAUUUUAFFFFABRRRQ AV87/G//AFHhz/rpdf8AoS19EV88fHD/AFHhz/rpdf8AoS0AeJp9xfpTqRPuL9BSmgDpPDamS2MY 6tNj9BXebgOB07VxPg9dxY9kZm/QAfzrsA1AFqC8jt5NsxCI/SQ9AfT2+taIMTKMOhXqAGGPqTWM EWUEOMr3HrUtnolvfX8FpHDGss8gjUtwuT0zXn4jDRnO6ep51fDQnO63NT5OvmLzxnIyfYUvydNy cds8D61FH4PiuAGsns7yNllw8BY5aMAsmCAc8jHHOahi8MyyXEtuukztNEMyRiIkoPcY4rH6l5mP 1Jdy38nXeOe+eT9PSj5Om5OO2eBVVPDwa0N2NOl+zAZMvlnaBnGc9OuRTpvD6WqRvcafJEkoyjOh UN9CaX1LzD6mu4554zIIomDSHrg5IHqfSrgPAFVIYIYFxCip64FTBveu/DUo042R3YalGnG0SyrY Oa6jwt4ht7cpp91crbSIT5bSMAsinnGTwCOmPpXIhqsR2kNzGPPjWRT0U9BXUm0bSSe56ZqUtpcK Hma3dBzjeKyVm0eZmR0hKN8pBI4riG0XTh/y7Rj8KsQ+FbOWwN4sMJjEoh25+bccY49OR+dbRqtK xy1MPGUrnSX+jaQYm+xTRFzggbgAKwfsCI+CUB9dwqO78K29rcTwpZCcwBTI0KF1AIyOQPSqb6HY x2b3QiiZEEROFIP7wErjIGfunnp6Zrop4ypFWOGvldCcr2t8i61pApPzJj13Cqe+BrgJbsH28u6n IHtnuaom0sM/LaJ+NP3GJAIQI06YUYFFXF1JQaJw2WUKdVTe6NQsoyTj6monuogpGck+g6VmFy3J JP1NJurzz3TUsbuzusxO6RXC8FHIGfcetXms7dv40z/vCuektbedf30SsfQjpUll4fsr2d0EcaKk bSu7ZwqqMkkAEn6AE16EcXUS1PCqZbQlJ2NqWzikjK+ZGCTwQw4pzwvLbW8Es9uYozvCqfunoQPQ HAJ9yaxB4btp5dthBFqC7BIHtAXGPcYypz2IBqQ+E/8ARrScafvN0zCOJEJchepIxgD8av67Mz/s mn3N63227OVkjw67WG4DI+tQtDaxIWaSJVHUlwAPxrDj8LiSQqdOdFVxG7NE2EJIHOBnuPfmqb6V ZRysvkRnYSOV64OKn63PoV/ZtOyTZbu72G5m22p3QR9ZB0Y+3sPWq+6msixYCDC9h6UzdXFVnKcr yPXw9KFKmow2JVmeGRZY8b0YMuemRXb6ZrOn6pEGimjSYD54XYBoz9O/1FcHyTtA59KkfT7WTBli V37sRzXhZvl1LGRXM7SR6WGrTp3tsejnyiCDImD23Dn60YhznzE+u4cfSvN4dFsp544VhQGRgoJU nBJx0AJ/IVeTwjayRw7ZLLzp1keG3YsHkEZIYjjH8J6kV4cOH2vhqv7v+CdTxj6o7rbD03r9N/8A Oj9yDnzI8+u4V5y/hxUt4rh9NkWGYgRyGM7XJ6AHvmn3vhdNPgglu7MQmYuFjdSHG3GSQR7jFDyC TWtV/d/wQWMfRHe3V3Y2UJlubmGKMc/O4Gf8foK4PVdUGq3zXCBlgA2RBhglR3x2yf6VSGm2SnIg TPriopAYX2547Z9K9XKcqpYSo5815HPiMROpG3QdKoljeM9GBX86868RE4tweoLA/pXoPmZ71wfi 1PLvVXsWLD8QDX0BxnPU6P8A10X++KSlT/XRf74oA+hvhL/yAfDP/YQvf/RbV7TXi3wl/wCQF4Z/ 7CF7/wCi2r2mgAooooAp6t/yB77/AK95P/QTXx/qf+sk+tfYGrf8ge+/695P/QTXx/qX+sk+tAHs Fqf+JLpH/YNt/wD0WKOnWktv+QNpHH/MOt//AEWKXNIaHZA9KBkd6TqBzRnnPagZmeLP+RF1f/th /wCjRXD+D/8AkZNN/wCviP8A9CFdx4r/AORG1j/th/6NFcP4P/5GPTf+viP/ANCFCEfW1FFFMQUU UUAFFFFABRRRQAUUUUAFFFFABRRRQAUUUUAFFFFABRRRQAUUUUAFFFFABRRRQAV87/HD/UeHP+ul 1/6EtfRFfO/xw/1Hhz/rpdfzWjqB4sn3F+gpT0oT/Vr9BSkcUAdf4OXbYXEncy7R+AH+NdIGri9A 8WSaDYyWq2gmDyGTcZCuOAMYx7Vrf8LHm/6Bq/8Af8/4UAdEj4WrunX503U7S+8vzhbzLL5anBbB zjJ6VyH/AAseb/oGr/3/AD/hR/wsib/oGL/3/P8AhWbhrcxdNt3O3TxBfNNPLeSzXIkt5oI0BWMQ +YMFgFAHpnucVaHiaORYornTrp44XtpIvs84VvMhTZ8xI+6evqPevP8A/hZE3/QMX/v+f8KevxNm QYGlp/3/AD/hQospQfU79vEF1M/nPYsJfstxb4WQBN0shfcB6DIGOpxTNU8RtqYlAt5rbzp/tEyt 5e3fgj5Sqhj1PJPTjB61wv8AwtCfvpaH/tuf8Ka/xNncgnS04/6bn/Cm4g4aWOqE7YyGP1zQJpP7 7Vyn/Cy5s5Glp/4EH/Cnf8LOn/6Baf8Af8/4U4xsEIcp1XnSf32/Or0d+UhVQWyByc1xH/Czp/8A oFp/3/P+FJ/ws6f/AKBaf9/z/hVq3UqSb2Oye6eQ5Zj9Kv2XiJ9Pt44BZNMEeRyd4AJZU28f7LID 71wK/FK4QYGlJ/4EH/Cnf8LVuP8AoFR/+BB/wq3NbWIVNp3ueiW/itILqG5fS5nmjMZDCRTuCxCM jkHbyC2Ryc4JqvNrpurI2jWrpujt03lwQPJDAnGP4t34Yrg/+Fq3H/QKj/8AAg/4Uv8Awta4/wCg TH/4EH/ClzIbgdgzKOQ4pruNuAc1x7fFO4bg6Un/AIEH/Cm/8LRn/wCgUn/gQf8ACnz3RPsrO6Ou 3UuenOPU1yP/AAtKf/oFJ/4EH/Cj/haU/wD0Ck/8CD/hWZsdgZDUttdi1nFwY7hyoP8Ax7TGKRCe NyN6j0PBrif+FoT/APQKT/v+f8KUfFGcEEaUnH/Tc/4Vq56GCpWdz0QeKIzKsr6bcSugi2zyPGZZ CjFiZBt25OQA2CRjrzTZ9fjlYNLpkpBS4CkSAlTK+4HaeGx0IPBzmvPD8UJic/2Sg+lwf8KVvilO wA/slOBgf6Qf8KnmRfKz0iXxQ13cxTmynjWK8S78szD5tqIu3gAZ+QnOMc9KxZrgyTyylSu92cqT kjJJx+tciPilOBgaUn/f8/4U0/E+cnJ0pP8Av+f8KakkTKm5bnVu+QKj3Vy//Czp/wDoFp/3/P8A hR/ws6b/AKBaf9/z/hUyd3cuEeVWOpjfEqn0NWvOx0PNcZ/ws6fr/Zaf9/z/AIUv/Cz5/wDoFp/3 /P8AhXPUp87ubwlynb2V8LPULW62GTyJkk2A4LbSDjPbpVq88Q3UtnFZwNJaIglEm3aTIHcsRuxk DBwQDzXn3/CzpwQf7LT/AL/n/CkPxOnJz/Zadc488/4UQpuMbIJSTdz0iLxcIbo3UOmuLqQwGfzJ gYSIsYCDGQTjqenPWqN9qcFxaWtpbWtzDFbNKwa4mEjNvIJ6DjBH61wjfE2dj/yC0/7/AJ/wob4m ztjOmJx/03P+FVKDcbMSaTudZ5wqrdOGZcelc3/wsqb/AKBi/wDf8/4Uh+JMx/5hq/8Af8/4VFOj yyuVKaasbhauT8Zrl7STuQyn8Mf41f8A+Fjzf9Axf+/5/wAKxPEPiR/EAtw1qIPJLHiQtnOPb2rc yMSlT/XRf74paF/1sX++KAPoT4Sf8gPwz/2Eb3/0W1e1V4p8JP8AkCeGh/1ELz/0W1e10AFFFFAF PVv+QPff9e8n/oJr4/1P/WSfWvsDVv8AkDX3/XvJ/wCgmvj/AFL/AFklAHr1t/yBtIHb+zbb/wBF ijP0ptuf+JPpHvp1t/6LFHXvxSGh2ecClz79KbxnFL7/AM6Bmd4r/wCRG1j1/cf+jRXEeD/+Rk03 /r5j/wDQhXbeKj/xQ+sc5/1H/o0VxPg//kZNN/6+Y/8A0IUIln1tRRRTAKKKKACiiigAooooAKKK KACiiigAooooAKKKKACiiigAooooAKKKKACiiigAooooAK+d/jh/qfDv/XS6/mlfRFfO3xw/1Ph3 /rpdfzWgDxhP9Wv0FOpqf6tfoKdQAUUUUAFFFFABRRRQAUUUUAFFFFABRRRQAUUUUAFFFFABRRRQ AUUUUAFFFFABRRRQAUUUUAFFFFABRRRQAUUUUAFFFFABRRRQAUUUUAFC/wCti/3xRQv+tj/3xQB9 B/CT/kC+Gv8AsIXn/otq9rrxL4R/8gfw3/1/3n/otq9toAKKKKAKerf8ga+/695P/QTXx/qf+sk+ tfYGrf8AIGvv+veT/wBBNfH+p/6yT60AetwHGkaR/wBg22/9FigHPNJAf+JRpH/YNtv/AEWKPcmk NDsjORSmmjPb6UoNAzN8Vf8AIjax/wBsP/Rori/B/wDyMmm/9fEf/oQrtPFJ/wCKH1j6Qf8Ao0Vx fg//AJGTTf8Ar4j/APQhQiWfW1FFFMAooooAKKKKACiiigAooooAKKKKACiiigAooooAKKKKACii igAooooAKKKKACiiigAr52+OH+q8Pf8AXS6/mtfRNfM3xg1rTtUOixWVyJnt5bkSgKRtyy46gZ6H pQB5Qn+rX6CnU2P/AFa/QU6gAooooAKKKKACiiigAooooAKKKKACiiigAooooAKKKKAClClugJHr WhZ6W86iST5U9+/09f5fWrrwRxDCKOO55NAGIYnA5xTSMfxL+eKvT1mT0ASEEdRRVRZHjPynA9Ox /CrEcqycdG9Ox+lAD6KKKACiiigAooooAKKKKACiiigAooooAKKKKACiiigAoH+sj/3xRSD/AFkf ++KAPoL4R/8AII8N/wDX/ef+i2r22vBPhDq1mw8PaYJT9rW8u3KbTgAxtg56V73QAUUUUAU9W/5A 19/17yf+gmvj7Uv9ZJX2Dq3/ACBr7/r3k/8AQTXx/qX+sk+tAHrMJxpOkY/6B1t/6LFH1H51zcHj jRhYWETNch4LSGBwYsjcqBTjnpkUv/CbaLj79z/35/8Ar0hnR5596cOR6Gub/wCE30Xu1x+EP/16 cPHGiD+O5/78/wD16ANDxT/yI+sev7j/ANGiuM8H/wDIyab/ANfEf/oQrY1rxZpeo+F9SsrYzmaU Rbd0eBxICcnPtWP4P/5GTTP+viP/ANCFCEz62ooopgFFFFABRRRQAUUUUAFFFFABRRRQAUUUUAFF FFABRRRQAUUUUAFFFFABRRRQAUUUUAFfMnxd0DT9HOjT2Ubo9zLcmUs5bJDLjGenU19N187/ABw/ 1Hhz/rpdf+hJQB4vH/q1+gp1NT7i/SnUAFFFFABRRRQAUUUUAFFFFABRRRQAUUUUAFFFFABWroum /bJjJIP3Sck+voPx/lmstRuYD1OK7vT7YWmkQqBhnXe349P0xQBXmAAwAABwAOgrNn71pT96ZY6a NRmlMswgtoEMk0pGdq9OB3JPSgDnZ+9Zk/euxlTwmM7ptXPuI0GapPD4NkbYbvWISeN7RIwX3IHa gDkW60nuK09d0iTRNTa0eVZkKiSKVOkiMMhhWZSAuRSeYmf4h1/xp9VIW2yj0PBq3TAKKKKACiii gAooooAKKKKACiiigAooooAKKKKACj/lpH/viik/jj/3xQB7n8IdIs1/4R3VAjfa2u7tC284wI2H SvfK8T+Ef/IG8M/9ft6f/HGr2ygAooooAp6t/wAga+/695P/AEE18fal/rJPrX2Dq3/IGvv+veT/ ANBNfH2p/fk+tAHokXhrRH03TZW02DfLYwSSHkbmMYJPXqTS/wDCL6H302H82/xrVtx/xKdJ/wCw dbf+ixSgDpSGZP8AwjGh5x/ZkP5t/jQPDOh99Mh/Nv8AGtX2pRxx3oA53X9C0qx8I6rc21jFHKoh AcZJGZADjJrnfB//ACMmmf8AXzH/AOhCuz8VD/ih9XPb9x/6NFcZ4P8A+Rk0z/r5j/8AQhQhM+tq KKKYBRRRQAUUUUAFFFFABRRRQAUUUUAFFFFABRRRQAUUUUAFFFFABRRRQAUUUUAFFFFABXzt8cP+ Pfw5/wBdLr/0JK+ia+efjiuLTw6f+m90v/jy0AeKp9xfpTqan3B9KdQAUUUUAFFFFABRRRQAUUUU AFFFFABRRRQAUUUUASW43XCL6n+lejXQCLtHRRgV5xCdsyH3r0WZxNAko6OgYfiM0AZc/ep7H/kA a7j/AJ5R/wDodQT1a0lGuNM1m0iG6eSBWRB1ba2Tj14oA5CfvWZcdDWrcxuCQUcH02ms54J5nEcc MjuxwFVCSTQBseM/v6J/2Cof61zFdR44Hlahp1m+POtdPhilUfwvjJH1GRXL0gD3q+epqiBlgPXi rx6mmAUUUUAFFFFABRRRQAUUUUAFFFFABRRRQAUUUUAFIP8AWR/74paB/rov97+hoA+g/hIhXSvC +ehuL1h+RFe11478KYyNK8I8f8sr2U/i+P617FQAUUUUAU9W/wCQNff9e8n/AKCa+P8AU/vyfU19 gat/yBr7/r3k/wDQTXx/qf8ArJKAPWIMDSdJP/UOtv8A0WKXNNiJGlaRj/oHW2f+/a0gNIZJSjHr TM46fpSg5zQMoeKR/wAUNrB/64f+jRXF+D/+Rj03/r5j/wDQhXaeKP8AkR9Y/wC2H/o0Vxfg/wD5 GPTf+viP/wBCFCEfW1FFFMQUUUUAFFFFABRRRQAUUUUAFFFFABRRRQAUUUUAFFFFABRRRQAUUUUA FFFFABRRRQAV4N8c7YnQ9MnA4t9TmjJ9Nw3D+Ve815V8Y9La88G6yqqS1s8N+gHoDtb9MmgD5lXg Y9CR+tLQ3ErjsTu/P/JooAKKKKACiiigAooooAKKKKACiiigAooooAKKKKADkciuz0W9F3pYiJ+e HjH+yen5cj8BXGVa0++exuVkU8dwehHcUAdVPVHz5baYTQSNHIpyrKcEfjVr7RHcxeZEcg9R3Hsa oz0AWZfGOvp01FvqY1J/lVCfxv4j2lRqjrnjKooP5gVSnrMn70AQTSSTStLK7PI5LMzHJJPcmo6V qVEMjYH5+lICS3XL7j0X+dWaRVCKFXoP196WmAUUUUAFFFFABRRRQAUUUUAFFFFABRRRQAUUUUAF Cn9/H7ZP6UU+1ge7vFgiBZ3KxKB1LMcCgD6Z+F9uYoNAgYf6jRTL9DJIp/kDXqVcd4KslgvdRKcx WscFhG3/AFzTLfq4/KuxoAKKKKAKer/8gW//AOveT/0E18gakPnkr6/1YZ0e+H/TvJ/6Ca+QtSX5 5PrQB6lGpOl6T6f2bbf+i1pQpHY5q1aQF9G0hh0On24/8hipBan09qRRS2kDmn4I6Vb+ymlFqQel AGF4n/5EfWP+2H/o0VxvhAf8VHpv/XxH/wChCu78XQlPA2re5g/9GCuH8IL/AMVHpv8A18R/+hCh CPrKiiimIKKKKACiiigAooooAKKKKACiiigAooooAKKKKACiiigAooooAKKKKACiiigAooooAKw/ EVlFcwjz13W8yNa3A/2HGP5/zrcqK4gS5t5IJBlJFKmgD4l13SZ9C1i6025GJbOUwOf7wzlWHsRg /jVCvc/i94Nlvbdtct4i97ZJ5WoRoOZYR92UDvgdfb6V4Xgo2xjk9Q3Zh60ALRRRQAUUUUAFFFFA BRRRQAUUUUAFFFFABRRRQAUUUUATW91LbNlGOPSr41FJlw4w3tWVRQBdmYN0P6VQlR2PCk/hTulH XrQBCLYk/OwHsOTUoAVdqjA/n9aWigAooooAKKKKACiiigAooooAKKKKACiiigAooooAKKKKAEJC qSe1dt8MNIFx4hOq3an7HpUZvZjjq+MRqPfPOPauNtbaa/uooYImmZ3CRxqMmRyeFFfSXgHwcunw W+kELIttIt3qsw5EtxgFIge4Xgn6D1oA9B8MafJp2gwR3AxdS5nuOP8Alo53EfhnH4VsUUUAFFFF AFTUxnSrwesD/wDoJr5L1CLLOfc19bah/wAgy7/64v8A+gmvle7izk46mgD1/R7PzfDmjtj/AJcY R/44Kuf2f7Vd8NQh/C+k8dLSIf8AjorU+zj0pDMD7Bx0o+w8dK3/ALOPSj7OPSgDz/x3beX4F1Hj q8Q/8iCvOvCUWPEemf8AXzH/AOhCvW/iLEF8FXi46vF/6GK8x8Lx7fEOmHH/AC9R/wDoQpiZ9O0U UUAFFFFABRRRQAUUUUAFFFFABRRRQAUUUUAFFFFABRRRQAUUUUAFFFFABRRRQAUUUUAFFFFAGdqW nm6VZoSq3MYIUsPldT1VvY/pXzz8Qfhi0BuNU0K2kNsrFrmwUZktG6lkH8Sd8Dp2yOn0vVG+02K9 KyBjFcIMJMg5HsfUe1AHw6weLHmcqejjof8AClHPI5FfR/i/4X6ZqkktzLCdMvH5a7tY98Ep9ZI+ x9+Pqa8o1f4T+ItP3S21oL6DtNp0gkB+qH5h+RoA4iirFzpl7ZSGOdGideqzxNGR+Yqv5U/ZYm+k goAKKPKuP+eI/wC+xS+Vc/8APAf99igBKKPKuf8Anh/4+KXyrn/nh/4+KAEopfKuf+eH/j4o8q5/ 54D/AL7FACUUvlXP/PEf99ijyrj/AJ4D/vsUAJRS+Vcf88R/38FHlXH/ADxH/fwUAJRS+Vcf88R/ 38FHlXH/ADxX/v4KAEopfKuP+eS/9/BR5Vx/zyX/AL+CgBKKXyrj/nkv/fwUeVP/AM8l/wC/goAS il8qf/nmn/fwUeVP/wA80/7+CgBKKPLm/uJ/38FL5c39xP8Av6KAEopfKm/uJ/39FHlzf3I/+/oo ASil8ub+7H/38FHlzf3Y/wDv4KAEopfLl/ux/wDfwUnly/3Y/wDv4KACijy5fSP/AL+Cjy5fSP8A 7+CgAopfLl9I/wDv4KPLk7tCPrKKAEoo2nODNAP+Bk/0q/Y6HqGpuEsrS9u29La3Yj8zxQBnlgoy TirFpYXOoXUVtDBLJLKdscEa5kkPoB2HvXc6b8LtQQpNrVxbaNC3QSMJrh/ZUHf/ADivW/CXgEWE JXTLSXS4JBia/usNezjuFB/1Y+vtx3oA5rwH4Cl0S5UKIpvETphmX54dLjYcknoZCO3f6ZJ9r0vT LfSNPjs7YHYuSzscs7HqzHuSeSaNN0y00mzW1soRFGDk92YnqzE8kn1NXaACiiigAooooArah/yD br/ri/8AI18v3ONpr6ivEaSynRBlmjYAepINfJd5dNE8kcgKOrFWVuCCD0IoA+hfCkqnwvpntbIP 0FbJcYrg/Cetxf8ACM6fiQECFVODnkDBrcGtw9N4pDOg3ClDCufGtw93H50f25D/AHxQBQ+JDgeE Zx6yR/8AoQrzPw2R/b2mf9fUf/oQrq/iNrUT+GmjEgy0igAnryDXDeEppLnxTpEMSs7tdR8LzwGB J/AUxH1LRRRQAUUUUAFFFFABRRRQAUUUUAFFFFABRRRQAUUUUAFFFFABRRRQAUUUUAFFFFABRRRQ AUUUUAFFFFADHD4+U1g32iec5kigSOU/xxEoT9cdfxroaKAOEudN8RopSPZcR/3JwGH8qxZ9F1Zj mXwdo9wfUwJn+Veq0UAePvol7/0TrSW+kUf+FRHQr7t8ONL/AO+I/wDCvZaKAPGToV+f+acaX/3x H/hTToGoH/mnWl/98R/4V7RRQB4t/wAI/qP/AETvS/8AviP/AApv/CPal/0TvS/++I/8K9rooA8T /wCEd1L/AKJ5pf8A3wn+FIfDmqf9E90r/vhP8K9tooA8S/4R3Vf+ieaT/wB8J/hSf8I5qv8A0T3S f++E/wAK9uooA8R/4RzVs/8AJPdI/wC/af4Un/COav8A9E90j/v2le30UAeH/wDCN6v/ANE+0j/v 2lH/AAjesf8ARPtH/wC/aV7hRQB4d/wjes/9E+0f/v2lH/CN6z/0T7Rv+/aV7jRQB4d/wjetf9E+ 0b/v2lJ/wjWtf9E/0b/v2le5UUAeG/8ACNa1/wBE+0b/AL9JS/8ACN61/wBE+0b/AL9JXuNFAHh3 /CN61/0T7Rv+/SUf8I3rX/RPtG/79JXuNFAHh3/CN61/0T7Rv+/SUf8ACOaz/wBE+0X/AL9JXuNF AHh3/COa1/0T7Rf+/SUf8I5rP/RPdF/79JXuNFAHh3/COa1/0T7Rf+/SUHw5rX/RPtF/79JXuNFA Hhw8N6z/ANE+0X/v0lSJ4b1nPHgLQ19zCpr22igDx+28O+JUYGHw/o1mexjtVyK27fw34huNov76 42f3IGEQ/wDHRn9a9FooA5/SNAg0tvMt7KCOY/elI3SH6ucn9a3UDAfMafRQAUUUUAFFFFABRRRQ AVSn0rTrqQvcafazO3VpIVYn8SKu0UAeeSfDR47y7ez1GOK3nneZYjDgR7jkqMEDA7e1KPhzd99U j/79H/GvQqKAPPv+FdXZ/wCYpHn/AK5H/GmN8OLw/wDMVj/79H/GvRKKB3OB0z4brBrdrf6jeRXk VtvK27QZViyleck9M5+tdpb6dY2bbrayt4WxjMUSqcfgKtUUCCiiigAooooAKKKKACiiigAooooA KKKKACiiigAooooAKKKKACiiigAooooAKKKKACiiigAooooAKKKKACiiigAooooAKKKKACiiigAo oooAKKKKACiiigAooooAKKKKACiiigAooooAKKKKACiiigAooooAKKKKACiiigAooooAKKKKACii igAooooAKKKKACiiigAooooAKKKKACiiigAooooAKKKKACiiigAooooAKKKKACiiigAooooAKKKK ACiiigD/2Q== "
       height="16.906975"
       width="15" />
  </g>
  <g
     inkscape:groupmode="layer"
     id="layer2"
     inkscape:label="User"
     style="display:inline"
     transform="translate(0,-16)">
    <g
       style="display:inline"
       id="g3034-4"
       transform="matrix(0.03469866,0,0,0.03469866,5.0059225,25.956644)">
      <g
         id="g3023-0"
         style="display:inline"
         transform="translate(0,-980.3622)">
        <g
           id="g3018-3">
          <rect
             rx="12.72973"
             ry="12.72973"
             y="980.85535"
             x="0.49315068"
             height="71.013702"
             width="71.013702"
             id="rect2996-0-5"
             style="fill:url(#linearGradient3796);fill-opacity:1;stroke:#ffffff;stroke-width:0.98630136;stroke-miterlimit:4;stroke-opacity:0.16470588;stroke-dasharray:none;stroke-dashoffset:0" />
        </g>
      </g>
      <path
         inkscape:connector-curvature="0"
         id="rect3812-94-8"
         d="m 5.09375,26.375 c -2.2610833,0 -4.11757053,1.574365 -4.59375,3.6875 l 0,28.71875 C 0.5,65.83352 6.1664798,71.5 13.21875,71.5 l 45.5625,0 C 65.83352,71.5 71.5,65.83352 71.5,58.78125 l 0,-28.71875 C 71.023821,27.949365 69.167333,26.375 66.90625,26.375 l -61.8125,0 z"
         style="fill:url(#linearGradient3798);fill-opacity:1;stroke:none;display:inline" />
      <path
         inkscape:connector-curvature="0"
         id="path3779-81-9"
         d="M 13.21875,0.5 C 6.1664798,0.5 0.5,6.1664798 0.5,13.21875 l 0,16.59375 c 9.718665,3.893295 22.057287,6.25 35.5,6.25 13.442713,0 25.781335,-2.356705 35.5,-6.25 l 0,-16.59375 C 71.5,6.1664798 65.83352,0.5 58.78125,0.5 l -45.5625,0 z"
         style="fill:url(#linearGradient3800);fill-opacity:1;stroke:#ffffff;stroke-width:1.09807611;stroke-opacity:0.07051284;display:inline" />
      <text
         xml:space="preserve"
         style="font-style:normal;font-weight:normal;line-height:0%;font-family:sans-serif;letter-spacing:0px;word-spacing:0px;display:inline;fill:#333333;fill-opacity:1;stroke:none"
         x="15.08374"
         y="55.824219"
         id="text3821-3"><tspan
           sodipodi:role="line"
           id="tspan3823-1"
           x="15.08374"
           y="55.824219"
           style="font-style:normal;font-variant:normal;font-weight:900;font-stretch:normal;font-size:56px;line-height:1.25;font-family:Avenir;-inkscape-font-specification:'Avenir Heavy';fill:#333333;fill-opacity:1;stroke:none">G</tspan></text>
    </g>
    <path
       style="fill:#373737;fill-opacity:1;stroke:#5e5e5e;stroke-width:0.25000045;stroke-miterlimit:4;stroke-opacity:1;stroke-dasharray:none;display:inline"
       d="m 1.4791609,16.125 c -0.75817144,0 -1.35416256,0.563176 -1.35416256,1.240157 l 0,13.30066 c 0,0.676982 0.59599112,1.209153 1.35416256,1.209153 l 6.0416563,0 c 0.7581715,0 1.3541626,-0.532171 1.3541626,-1.209153 l 0,-13.30066 c 0,-0.676981 -0.5959911,-1.240157 -1.3541626,-1.240157 l -6.0416563,0 z"
       id="path3898-7"
       inkscape:connector-curvature="0" />
    <path
       style="fill:#ffffff;fill-opacity:1;stroke:none;display:inline"
       d="m 0.66783936,18.82234 7.66429944,0 0,10.293285 -7.66429944,0 0,-10.293285 z"
       id="rect3110-0"
       inkscape:connector-curvature="0" />
    <path
       sodipodi:type="arc"
       style="fill:#787878;fill-opacity:1;stroke:none;display:inline"
       id="path3892-9"
       sodipodi:cx="4.047936"
       sodipodi:cy="14.593875"
       sodipodi:rx="0.7243675"
       sodipodi:ry="0.7243675"
       d="M 4.7723035,14.593875 A 0.7243675,0.7243675 0 0 1 4.047936,15.318242 0.7243675,0.7243675 0 0 1 3.3235685,14.593875 0.7243675,0.7243675 0 0 1 4.047936,13.869507 0.7243675,0.7243675 0 0 1 4.7723035,14.593875 Z"
       transform="matrix(0.99670707,0,0,0.99212392,0.46538398,15.978445)" />
    <rect
       style="fill:#8c8c8c;fill-opacity:1;stroke:none;display:inline"
       id="rect3894-3"
       width="3.1852157"
       height="0.48615393"
       x="2.9073846"
       y="17.267805"
       rx="0.10652485"
       ry="0.10652485" />
    <path
       style="fill:#ffffff;fill-opacity:1;stroke:none;display:inline"
       d="M 9.7806615,20.656229 8.1244084,21.15623 7.0207563,23.000943 6.877656,23.329259 5.783849,23.216388 l 0,4.927665 2.2699442,0 1.579948,-4.496769 z"
       id="path3438-7"
       inkscape:connector-curvature="0"
       sodipodi:nodetypes="ccccccccc" />
    <g
       id="g1663"
       transform="matrix(0.49997434,0,0,0.49997434,-5.4160141,11.866736)">
      <g
         id="g2162"
         style="display:inline"
         transform="translate(10.862026,8.2672351)">
        <rect
           style="display:inline;fill:#676699;fill-opacity:1;stroke:#ffffff;stroke-width:0.06821768;stroke-miterlimit:4;stroke-dasharray:none;stroke-dashoffset:0;stroke-opacity:0.16470588"
           id="rect2996-3"
           width="4.8950109"
           height="4.9283919"
           x="10.063839"
           y="6.6608047"
           ry="0.88345063"
           rx="0.87746674" />
        <circle
           r="18"
           cy="38"
           cx="39"
           style="fill:#ffffff;fill-opacity:1;stroke:none"
           id="path3011"
           transform="matrix(0.06746555,0,0,0.06792563,9.880188,6.5438276)" />
      </g>
      <g
         id="g2142"
         style="display:inline"
         transform="translate(10.862026,8.2672351)">
        <rect
           style="display:inline;fill:#3a680e;fill-opacity:1;stroke:#ffffff;stroke-width:0.06756609;stroke-miterlimit:4;stroke-dasharray:none;stroke-dashoffset:0;stroke-opacity:0.16470588"
           id="rect2996-93"
           width="4.864759"
           height="4.864759"
           x="3.3488705"
           y="13.339759"
           ry="0.87204391"
           rx="0.87204391" />
        <g
           id="g4086"
           style="stroke:#cccccc;stroke-opacity:1"
           transform="matrix(0.06850451,0,0,0.06850451,3.3150875,13.305976)">
          <path
             inkscape:connector-curvature="0"
             id="path3905"
             d="M 48.625,16.625 15.875,40.75 56.125,40.375 23,16.625 36,57.75 Z"
             style="fill:none;stroke:#cccccc;stroke-width:1px;stroke-linecap:butt;stroke-linejoin:miter;stroke-opacity:1" />
          <path
             inkscape:connector-curvature="0"
             id="path3903"
             d="M 15.875,40.75 36,57.75 56.125,40.75 48.75,16.625 23,16.75 Z"
             style="fill:none;stroke:#cccccc;stroke-width:1px;stroke-linecap:butt;stroke-linejoin:miter;stroke-opacity:1" />
          <circle
             r="6.125"
             cy="33.375"
             cx="31.625"
             id="path3889"
             style="display:inline;fill:#880000;fill-opacity:1;stroke:#cccccc;stroke-width:1;stroke-miterlimit:4;stroke-dasharray:none;stroke-dashoffset:0;stroke-opacity:1"
             transform="translate(4.375,23.980616)" />
          <circle
             r="6.125"
             cy="33.375"
             cx="31.625"
             transform="translate(24.375,7.480616)"
             style="display:inline;fill:#880000;fill-opacity:1;stroke:#cccccc;stroke-width:1;stroke-miterlimit:4;stroke-dasharray:none;stroke-dashoffset:0;stroke-opacity:1"
             id="path3887" />
          <circle
             r="6.125"
             cy="33.375"
             cx="31.625"
             transform="translate(-15.625,7.480616)"
             style="display:inline;fill:#880000;fill-opacity:1;stroke:#cccccc;stroke-width:1;stroke-miterlimit:4;stroke-dasharray:none;stroke-dashoffset:0;stroke-opacity:1"
             id="path3891" />
          <circle
             r="6.125"
             cy="33.375"
             cx="31.625"
             id="path3850-4"
             style="display:inline;fill:#880000;fill-opacity:1;stroke:#cccccc;stroke-width:1;stroke-miterlimit:4;stroke-dasharray:none;stroke-dashoffset:0;stroke-opacity:1"
             transform="translate(17.125,-16.519384)" />
          <circle
             r="6.125"
             cy="33.375"
             cx="31.625"
             id="path3893"
             style="display:inline;fill:#880000;fill-opacity:1;stroke:#cccccc;stroke-width:1;stroke-miterlimit:4;stroke-dasharray:none;stroke-dashoffset:0;stroke-opacity:1"
             transform="translate(-8.375,-16.519384)" />
        </g>
      </g>
      <g
         inkscape:label="Layer 1"
         id="layer1-9"
         transform="matrix(1.3498313,0,0,1.3498313,-216.0098,-197.79507)"
         style="display:inline">
        <g
           style="display:inline"
           transform="matrix(0.26458333,0,0,0.26458333,145.10506,154.65417)"
           id="g1085">
          <rect
             rx="2.297436"
             ry="2.297436"
             style="display:inline;fill:#ffffff;fill-opacity:1;stroke:#3a3a3a;stroke-width:0.81199998;stroke-miterlimit:4;stroke-dasharray:none;stroke-opacity:1"
             id="rect2985-6"
             width="13.188"
             height="13.188"
             x="11.406"
             y="-109.594"
             transform="rotate(90)" />
          <text
             xml:space="preserve"
             style="font-style:normal;font-variant:normal;font-weight:900;font-stretch:normal;font-size:0.328125px;line-height:0%;font-family:Avenir;-inkscape-font-specification:'Avenir Heavy';letter-spacing:0px;word-spacing:0px;display:inline;fill:#b7193f;fill-opacity:1;stroke:none;stroke-width:0.02734375"
             x="97.988373"
             y="22.646276"
             id="text3763-5"><tspan
               style="font-size:13.125px;line-height:1.25;fill:#b7193f;fill-opacity:1;stroke-width:0.02734375"
               sodipodi:role="line"
               id="tspan3765-5"
               x="97.988373"
               y="22.646276">G</tspan></text>
        </g>
      </g>
      <g
         id="g2158"
         style="display:inline"
         transform="translate(10.862026,8.2672351)">
        <rect
           style="display:inline;fill:#6699ff;fill-opacity:1;stroke:#ffffff;stroke-width:0.06844653;stroke-miterlimit:4;stroke-dasharray:none;stroke-dashoffset:0;stroke-opacity:0.16470588"
           id="rect2996-9"
           width="4.9281507"
           height="4.9281507"
           x="3.3171744"
           y="19.94787"
           ry="0.88340735"
           rx="0.88340735" />
        <g
           id="g2151">
          <rect
             transform="matrix(0.06939718,0,0,0.06939718,3.2829511,19.913648)"
             rx="3.2050393"
             style="display:inline;fill:#ffffff;fill-opacity:0.8;stroke:#404040;stroke-width:1.52085364;stroke-miterlimit:4;stroke-dasharray:none;stroke-dashoffset:0;stroke-opacity:1"
             id="rect3840-4"
             width="47.446629"
             height="34.571354"
             x="12.276687"
             y="18.714323"
             ry="3.2050393" />
          <path
             transform="matrix(0.0618221,0,0,0.0618221,3.555654,20.186351)"
             clip-path="url(#clipPath4001-4)"
             id="rect3911-5"
             d="M 26.625,36 -2.9375,65.53125 c -2.6975772,2.697577 -2.6975772,7.052423 0,9.75 l 34.0625,34.0625 c 2.697577,2.69758 7.052423,2.69758 9.75,0 l 34.0625,-34.0625 c 2.697577,-2.697577 2.697577,-7.052423 0,-9.75 L 45.375,36 l -4.5,4.5 c -2.697577,2.697577 -7.052423,2.697577 -9.75,0 z"
             style="display:inline;fill:none;stroke:#404040;stroke-width:1.12253034;stroke-miterlimit:4;stroke-dasharray:none;stroke-dashoffset:0;stroke-opacity:1"
             inkscape:connector-curvature="0" />
          <rect
             rx="6.8861918"
             clip-path="url(#clipPath3997-0)"
             transform="matrix(0.04371483,-0.04371483,0.04371483,0.04371483,3.555654,20.186351)"
             ry="6.8861918"
             y="-4.4009666"
             x="-6.6337185"
             height="61.946373"
             width="61.946373"
             id="rect3911"
             style="fill:none;stroke:#404040;stroke-width:1.12253034;stroke-miterlimit:4;stroke-dasharray:none;stroke-dashoffset:0;stroke-opacity:1" />
        </g>
      </g>
    </g>
    <path
       style="fill:#ffffff;stroke:#ffffff;stroke-width:0.25000000000000000;stroke-linecap:butt;stroke-linejoin:miter;stroke-miterlimit:4;stroke-opacity:1;stroke-dasharray:none;fill-opacity:1"
       d="m 8.8749798,2.8411847 c 0,0 -1.0495408,0.2945925 -1.814923,1.3873033 C 6.1281443,5.5589486 6.1897843,6.546922 6.1897843,6.546922 l -0.0336,6.226903 c 0,0 -0.012458,0.776727 0.3163975,1.086099 0.3968157,0.373305 1.1288163,0.334666 1.1288163,0.334666 l -0.012742,1.678951 c 0,0 0.5638392,-0.03202 0.8559304,-0.299988 0.3959951,-0.363295 0.4042352,-0.665607 0.4042352,-0.665607 L 8.8749798,4.4723598 z"
       id="path4683"
       inkscape:connector-curvature="0"
       transform="translate(0,16)"
       sodipodi:nodetypes="csccsccsccc" />
    <path
       id="path4873-5"
       style="font-size:medium;font-style:normal;font-variant:normal;font-weight:normal;font-stretch:normal;text-indent:0;text-align:start;text-decoration:none;line-height:normal;letter-spacing:normal;word-spacing:normal;text-transform:none;direction:ltr;block-progression:tb;writing-mode:lr-tb;text-anchor:start;baseline-shift:baseline;color:#000000;fill:#58a23e;fill-opacity:1;stroke:none;stroke-width:0.40000001;marker:none;visibility:visible;display:inline;overflow:visible;enable-background:accumulate;font-family:Sans;-inkscape-font-specification:Sans"
       d="m 10.436913,19.781227 c -3.3722466,0 -3.5312569,3.281256 -3.5312569,3.281256 l 7.1406389,0 c 0,0 -0.237136,-3.281256 -3.609382,-3.281256 z m -1.453128,1.359378 c 0.2459655,0 0.4375008,0.207155 0.4375008,0.453125 0,0.245966 -0.1915353,0.437501 -0.4375008,0.437501 -0.2459705,0 -0.4531259,-0.191535 -0.4531259,-0.437501 0,-0.24597 0.2071554,-0.453125 0.4531259,-0.453125 z m 3.031256,0 c 0.245965,0 0.437501,0.175905 0.437501,0.421875 0,0.245966 -0.191536,0.468751 -0.437501,0.468751 -0.245971,0 -0.453126,-0.222785 -0.453126,-0.468751 0,-0.24597 0.207155,-0.421875 0.453126,-0.421875 z M 7.7650327,19.359351 a 0.16948705,0.16948705 0 0 0 -0.09375,0.04685 0.16948705,0.16948705 0 0 0 -0.04685,0.0156 0.16948705,0.16948705 0 0 0 0,0.0156 0.16948705,0.16948705 0 0 0 -0.03125,0.04685 0.16948705,0.16948705 0 0 0 -0.0156,0.04685 0.16948705,0.16948705 0 0 0 0,0.03125 0.16948705,0.16948705 0 0 0 0.04685,0.07813 l 0.8593767,1.093752 c 0.1010101,-0.05128 0.2075603,-0.09823 0.3281256,-0.140625 L 7.8744329,19.437351 a 0.16948705,0.16948705 0 0 0 -0.03125,-0.04685 0.16948705,0.16948705 0 0 0 -0.04685,-0.0156 0.16948705,0.16948705 0 0 0 -0.03125,-0.0156 z m -0.8873767,3.969908 7.200014,0 0,4.704304 -7.200014,0 z m 0.9280818,1.401977 5.3438552,0 c 0.514156,0 0.928077,0.413926 0.928077,0.928082 l 0,2.84814 c 0,0.514156 -0.413921,0.928082 -0.928077,0.928082 l -5.3438552,0 c -0.514156,0 -0.9280818,-0.413926 -0.9280818,-0.928082 l 0,-2.84814 c 0,-0.514156 0.4139258,-0.928082 0.9280818,-0.928082 z M 5.783849,23.216388 c 0.4345858,0 0.7844465,0.349866 0.7844465,0.784452 l 0,3.358761 c 0,0.434586 -0.3498607,0.784452 -0.7844465,0.784452 -0.4345858,0 -0.7844465,-0.349866 -0.7844465,-0.784452 l 0,-3.358761 c 0,-0.434586 0.3498607,-0.784452 0.7844465,-0.784452 z m 9.402333,0 c 0.43458,0 0.784446,0.349866 0.784446,0.784452 l 0,3.358761 c 0,0.434586 -0.349866,0.784452 -0.784446,0.784452 -0.434586,0 -0.784452,-0.349866 -0.784452,-0.784452 l 0,-3.358761 c 0,-0.434586 0.349866,-0.784452 0.784452,-0.784452 z m -3.358767,3.855953 c 0.434586,0 0.784447,0.34986 0.784447,0.784446 l 0,3.358761 C 12.611862,31.650134 12.262001,32 11.827415,32 11.39283,32 11.042969,31.650134 11.042969,31.215548 l 0,-3.358761 c 0,-0.434586 0.349861,-0.784446 0.784446,-0.784446 z m -2.6958497,-0.0221 c 0.4345858,0 0.7844464,0.34986 0.7844464,0.784446 l 0,3.358761 c 0,0.434586 -0.3498606,0.784452 -0.7844464,0.784452 -0.4345858,0 -0.7844465,-0.349866 -0.7844465,-0.784452 l 0,-3.358761 c 0,-0.434586 0.3498607,-0.784446 0.7844465,-0.784446 z m 3.9616027,-7.76902 a 0.16948705,0.16948705 0 0 0 -0.0625,0.07813 l -0.968752,1.281253 c 0.12163,0.048 0.229565,0.08317 0.328125,0.140625 l 0.906252,-1.234377 a 0.16948705,0.16948705 0 0 0 0.03125,-0.04685 0.16948705,0.16948705 0 0 0 0.0156,-0.04685 0.16948705,0.16948705 0 0 0 -0.0625,-0.125 0.16948705,0.16948705 0 0 0 -0.03125,-0.03125 0.16948705,0.16948705 0 0 0 -0.03125,0 0.16948705,0.16948705 0 0 0 -0.04685,0 0.16948705,0.16948705 0 0 0 -0.04685,-0.0156 0.16948705,0.16948705 0 0 0 -0.03125,0 z"
       inkscape:connector-curvature="0" />
    <path
       sodipodi:type="arc"
       style="fill:#ffffff;fill-opacity:1;stroke:none"
       id="path5666"
       sodipodi:cx="144"
       sodipodi:cy="145.60938"
       sodipodi:rx="0.6640625"
       sodipodi:ry="0.6640625"
       d="M 144.66406,145.60937 A 0.6640625,0.6640625 0 0 1 144,146.27344 0.6640625,0.6640625 0 0 1 143.33594,145.60937 0.6640625,0.6640625 0 0 1 144,144.94531 a 0.6640625,0.6640625 0 0 1 0.66406,0.66406 z"
       transform="translate(-134.81065,-123.99997)" />
    <path
       transform="translate(-132.20909,-124.02341)"
       sodipodi:type="arc"
       style="fill:#ffffff;fill-opacity:1;stroke:none;display:inline"
       id="path5666-6"
       sodipodi:cx="144"
       sodipodi:cy="145.60938"
       sodipodi:rx="0.6640625"
       sodipodi:ry="0.6640625"
       d="M 144.66406,145.60937 A 0.6640625,0.6640625 0 0 1 144,146.27344 0.6640625,0.6640625 0 0 1 143.33594,145.60937 0.6640625,0.6640625 0 0 1 144,144.94531 a 0.6640625,0.6640625 0 0 1 0.66406,0.66406 z" />
    <path
       style="fill:#58a23e;fill-opacity:1;stroke:none"
       d="M 8.1581,20.75784 7.21279,19.59378 7.9081,18.98441 8.93154,20.32034 z"
       id="path5686"
       inkscape:connector-curvature="0" />
    <path
       style="fill:#58a23e;fill-opacity:1;stroke:none;display:inline"
       d="m 12.70498,20.72269 0.94531,-1.16406 -0.69531,-0.60937 -1.02344,1.33593 z"
       id="path5686-8"
       inkscape:connector-curvature="0" />
  </g>
  <g
     inkscape:groupmode="layer"
     id="layer6"
     inkscape:label="xx Guides"
     style="display:inline"
     transform="translate(0,-16)" />
</svg>
