<?xml version="1.0" encoding="UTF-8" standalone="no"?>
<!-- Created with Inkscape (http://www.inkscape.org/) -->

<svg
   xmlns:dc="http://purl.org/dc/elements/1.1/"
   xmlns:cc="http://creativecommons.org/ns#"
   xmlns:rdf="http://www.w3.org/1999/02/22-rdf-syntax-ns#"
   xmlns:svg="http://www.w3.org/2000/svg"
   xmlns="http://www.w3.org/2000/svg"
   xmlns:xlink="http://www.w3.org/1999/xlink"
   xmlns:sodipodi="http://sodipodi.sourceforge.net/DTD/sodipodi-0.dtd"
   xmlns:inkscape="http://www.inkscape.org/namespaces/inkscape"
   width="32"
   height="32"
   id="svg2"
   version="1.0"
   inkscape:version="0.92.2 (5c3e80d, 2017-08-06)"
   inkscape:export-filename="C:\GOn\graphics\GOn version 5.8\Tokens\g_usb_micro_smart_swissbitPE_32x32.png"
   inkscape:export-xdpi="96"
   inkscape:export-ydpi="96"
   sodipodi:docname="g_usb_micro_smart_swissbitPE_32x32.svg"
   style="display:inline"
   sodipodi:version="0.32"
   inkscape:output_extension="org.inkscape.output.svg.inkscape">
  <defs
     id="defs4">
    <inkscape:perspective
       sodipodi:type="inkscape:persp3d"
       inkscape:vp_x="0 : 8 : 1"
       inkscape:vp_y="0 : 1000 : 0"
       inkscape:vp_z="16 : 8 : 1"
       inkscape:persp3d-origin="8 : 5.3333333 : 1"
       id="perspective91" />
    <linearGradient
       id="linearGradient3927">
      <stop
         style="stop-color:#646464;stop-opacity:1"
         offset="0"
         id="stop3929" />
      <stop
         style="stop-color:#dcdcdc;stop-opacity:1"
         offset="1"
         id="stop3931" />
    </linearGradient>
    <linearGradient
       id="linearGradient3816">
      <stop
         style="stop-color:#ffffff;stop-opacity:0.25882354;"
         offset="0"
         id="stop3818" />
      <stop
         style="stop-color:#ffffff;stop-opacity:0;"
         offset="1"
         id="stop3820" />
    </linearGradient>
    <linearGradient
       id="linearGradient3797">
      <stop
         style="stop-color:#ffffff;stop-opacity:1;"
         offset="0"
         id="stop3799" />
      <stop
         style="stop-color:#ffffff;stop-opacity:0.16470589;"
         offset="1"
         id="stop3801" />
    </linearGradient>
    <linearGradient
       id="linearGradient3789">
      <stop
         style="stop-color:#440008;stop-opacity:1;"
         offset="0"
         id="stop3791" />
      <stop
         style="stop-color:#880000;stop-opacity:1;"
         offset="1"
         id="stop3793" />
    </linearGradient>
    <linearGradient
       id="linearGradient3781">
      <stop
         style="stop-color:#440008;stop-opacity:1;"
         offset="0"
         id="stop3783" />
      <stop
         style="stop-color:#232723;stop-opacity:0;"
         offset="1"
         id="stop3785" />
    </linearGradient>
    <linearGradient
       inkscape:collect="always"
       xlink:href="#linearGradient3789"
       id="linearGradient3795"
       x1="34.479824"
       y1="980.94946"
       x2="34.479824"
       y2="1052.0378"
       gradientUnits="userSpaceOnUse" />
    <linearGradient
       inkscape:collect="always"
       xlink:href="#linearGradient3797"
       id="linearGradient3803"
       x1="35.989838"
       y1="51.432434"
       x2="35.989838"
       y2="108.26157"
       gradientUnits="userSpaceOnUse" />
    <linearGradient
       inkscape:collect="always"
       xlink:href="#linearGradient3816"
       id="linearGradient3822"
       x1="34.371315"
       y1="1052.3622"
       x2="34.371315"
       y2="981.34082"
       gradientUnits="userSpaceOnUse"
       gradientTransform="matrix(1,0,0,0.6351255,0,-596.51749)" />
    <filter
       id="filter3033"
       inkscape:label="Drop shadow"
       width="1.5"
       height="1.5"
       x="-0.25"
       y="-0.25"
       color-interpolation-filters="sRGB">
      <feGaussianBlur
         id="feGaussianBlur3035"
         in="SourceAlpha"
         stdDeviation="2"
         result="blur" />
      <feColorMatrix
         id="feColorMatrix3037"
         result="bluralpha"
         type="matrix"
         values="1 0 0 0 0 0 1 0 0 0 0 0 1 0 0 0 0 0 0.5 0 " />
      <feOffset
         id="feOffset3039"
         in="bluralpha"
         dx="2"
         dy="2"
         result="offsetBlur" />
      <feMerge
         id="feMerge3041">
        <feMergeNode
           id="feMergeNode3043"
           in="offsetBlur" />
        <feMergeNode
           id="feMergeNode3045"
           in="SourceGraphic" />
      </feMerge>
    </filter>
    <linearGradient
       inkscape:collect="always"
       xlink:href="#linearGradient3797"
       id="linearGradient3790"
       gradientUnits="userSpaceOnUse"
       x1="35.989838"
       y1="51.432434"
       x2="35.989838"
       y2="108.26157"
       gradientTransform="matrix(1.2057712,0,0,1,-7.3425861,-72)" />
    <linearGradient
       inkscape:collect="always"
       xlink:href="#linearGradient3825"
       id="linearGradient3007"
       gradientUnits="userSpaceOnUse"
       gradientTransform="matrix(0.9736315,0,0,1.035386,-228.55154,-558.9601)"
       x1="139.31297"
       y1="505.0293"
       x2="139.31297"
       y2="627.19641" />
    <linearGradient
       id="linearGradient3825">
      <stop
         style="stop-color:#4e4e4e;stop-opacity:1;"
         offset="0"
         id="stop3827" />
      <stop
         style="stop-color:#e0e0e0;stop-opacity:1;"
         offset="1"
         id="stop3829" />
    </linearGradient>
    <linearGradient
       inkscape:collect="always"
       xlink:href="#linearGradient3825"
       id="linearGradient3256"
       gradientUnits="userSpaceOnUse"
       x1="139.31297"
       y1="505.0293"
       x2="139.31297"
       y2="627.19641"
       gradientTransform="matrix(0.9736315,0,0,1.035386,-57.748974,403.30318)" />
    <linearGradient
       gradientTransform="matrix(1.2057712,0,0,1,-7.3425861,-72)"
       y2="108.26157"
       x2="35.989838"
       y1="51.432434"
       x1="35.989838"
       gradientUnits="userSpaceOnUse"
       id="linearGradient3790-5"
       xlink:href="#linearGradient3797-5"
       inkscape:collect="always" />
    <filter
       color-interpolation-filters="sRGB"
       y="-0.25"
       x="-0.25"
       height="1.5"
       width="1.5"
       inkscape:label="Drop shadow"
       id="filter3033-9">
      <feGaussianBlur
         result="blur"
         stdDeviation="2"
         in="SourceAlpha"
         id="feGaussianBlur3035-3" />
      <feColorMatrix
         values="1 0 0 0 0 0 1 0 0 0 0 0 1 0 0 0 0 0 0.5 0 "
         type="matrix"
         result="bluralpha"
         id="feColorMatrix3037-1" />
      <feOffset
         result="offsetBlur"
         dy="2"
         dx="2"
         in="bluralpha"
         id="feOffset3039-1" />
      <feMerge
         id="feMerge3041-9">
        <feMergeNode
           in="offsetBlur"
           id="feMergeNode3043-9" />
        <feMergeNode
           in="SourceGraphic"
           id="feMergeNode3045-5" />
      </feMerge>
    </filter>
    <linearGradient
       gradientTransform="matrix(1,0,0,0.6351255,0,-596.51749)"
       gradientUnits="userSpaceOnUse"
       y2="981.34082"
       x2="34.371315"
       y1="1052.3622"
       x1="34.371315"
       id="linearGradient3822-4"
       xlink:href="#linearGradient3816-8"
       inkscape:collect="always" />
    <linearGradient
       gradientUnits="userSpaceOnUse"
       y2="108.26157"
       x2="35.989838"
       y1="51.432434"
       x1="35.989838"
       id="linearGradient3803-0"
       xlink:href="#linearGradient3797-5"
       inkscape:collect="always" />
    <linearGradient
       gradientUnits="userSpaceOnUse"
       y2="1052.0378"
       x2="34.479824"
       y1="980.94946"
       x1="34.479824"
       id="linearGradient3795-9"
       xlink:href="#linearGradient3789-2"
       inkscape:collect="always" />
    <linearGradient
       id="linearGradient3781-6">
      <stop
         id="stop3783-6"
         offset="0"
         style="stop-color:#440008;stop-opacity:1;" />
      <stop
         id="stop3785-2"
         offset="1"
         style="stop-color:#232723;stop-opacity:0;" />
    </linearGradient>
    <linearGradient
       id="linearGradient3789-2">
      <stop
         id="stop3791-4"
         offset="0"
         style="stop-color:#242424;stop-opacity:1;" />
      <stop
         id="stop3793-6"
         offset="1"
         style="stop-color:#b2b2b2;stop-opacity:1;" />
    </linearGradient>
    <linearGradient
       id="linearGradient3797-5">
      <stop
         id="stop3799-2"
         offset="0"
         style="stop-color:#ffffff;stop-opacity:1;" />
      <stop
         id="stop3801-3"
         offset="1"
         style="stop-color:#ffffff;stop-opacity:0.16470589;" />
    </linearGradient>
    <linearGradient
       id="linearGradient3816-8">
      <stop
         id="stop3818-8"
         offset="0"
         style="stop-color:#ffffff;stop-opacity:0.25882354;" />
      <stop
         id="stop3820-1"
         offset="1"
         style="stop-color:#ffffff;stop-opacity:0;" />
    </linearGradient>
    <linearGradient
       inkscape:collect="always"
       xlink:href="#linearGradient3789"
       id="linearGradient3950"
       gradientUnits="userSpaceOnUse"
       x1="34.479824"
       y1="980.94946"
       x2="34.479824"
       y2="1052.0378" />
    <linearGradient
       inkscape:collect="always"
       xlink:href="#linearGradient3816"
       id="linearGradient3952"
       gradientUnits="userSpaceOnUse"
       gradientTransform="matrix(1,0,0,0.6351255,0,-596.51749)"
       x1="34.371315"
       y1="1052.3622"
       x2="34.371315"
       y2="981.34082" />
    <linearGradient
       inkscape:collect="always"
       xlink:href="#linearGradient3797"
       id="linearGradient3954"
       gradientUnits="userSpaceOnUse"
       gradientTransform="matrix(1.2057712,0,0,1,-7.3425861,-72)"
       x1="35.989838"
       y1="51.432434"
       x2="35.989838"
       y2="108.26157" />
    <linearGradient
       inkscape:collect="always"
       xlink:href="#linearGradient3797"
       id="linearGradient3048"
       gradientUnits="userSpaceOnUse"
       gradientTransform="matrix(0.2675326,0,0,0.2220847,-1.6167136,40.021184)"
       x1="35.989838"
       y1="51.432434"
       x2="35.989838"
       y2="108.26157" />
    <linearGradient
       inkscape:collect="always"
       xlink:href="#linearGradient3816"
       id="linearGradient3051"
       gradientUnits="userSpaceOnUse"
       gradientTransform="matrix(0.2218768,0,0,0.1410517,1.243575e-2,-76.466136)"
       x1="34.371315"
       y1="1052.3622"
       x2="34.371315"
       y2="981.34082" />
    <linearGradient
       inkscape:collect="always"
       xlink:href="#linearGradient3927"
       id="linearGradient3977"
       gradientUnits="userSpaceOnUse"
       x1="30.261311"
       y1="2.3636146"
       x2="30.261311"
       y2="13.018085"
       gradientTransform="matrix(0.7071068,-0.7071068,0.7071068,0.7071068,23.425684,41.67551)" />
    <linearGradient
       inkscape:collect="always"
       xlink:href="#linearGradient3927"
       id="linearGradient3984"
       gradientUnits="userSpaceOnUse"
       gradientTransform="matrix(0.7071068,-0.7071068,0.7071068,0.7071068,23.425684,41.67551)"
       x1="30.261311"
       y1="2.3636146"
       x2="30.261311"
       y2="13.018085" />
    <linearGradient
       inkscape:collect="always"
       xlink:href="#linearGradient3927"
       id="linearGradient2473"
       gradientUnits="userSpaceOnUse"
       gradientTransform="matrix(1.4285419,-1.4292232,1.4285419,1.4292232,17.935743,10.638838)"
       x1="30.261311"
       y1="2.3636146"
       x2="30.261311"
       y2="13.018085" />
    <inkscape:perspective
       id="perspective2540"
       inkscape:persp3d-origin="372.04724 : 350.78739 : 1"
       inkscape:vp_z="744.09448 : 526.18109 : 1"
       inkscape:vp_y="0 : 1000 : 0"
       inkscape:vp_x="0 : 526.18109 : 1"
       sodipodi:type="inkscape:persp3d" />
    <linearGradient
       y2="796.36218"
       x2="512"
       y1="796.36218"
       x1="0"
       gradientTransform="translate(540.36218,-1052.3622)"
       gradientUnits="userSpaceOnUse"
       id="linearGradient3772"
       xlink:href="#linearGradient3755"
       inkscape:collect="always" />
    <linearGradient
       gradientTransform="translate(540.36218,-1052.3622)"
       gradientUnits="userSpaceOnUse"
       y2="796.36218"
       x2="512"
       y1="796.36218"
       x1="0"
       id="linearGradient3761"
       xlink:href="#linearGradient3755"
       inkscape:collect="always" />
    <linearGradient
       id="linearGradient3755">
      <stop
         id="stop3757"
         offset="0"
         style="stop-color:#440008;stop-opacity:1;" />
      <stop
         id="stop3759"
         offset="1"
         style="stop-color:#880000;stop-opacity:1;" />
    </linearGradient>
    <marker
       inkscape:stockid="Arrow1LstartL"
       orient="auto"
       refY="0"
       refX="0"
       id="Arrow1LstartL"
       style="overflow:visible">
      <path
         id="path4567"
         d="M 0,0 5,-5 -12.5,0 5,5 0,0 z"
         style="fill:#254614;fill-rule:evenodd;stroke:#254614;stroke-width:1pt;marker-start:none"
         transform="matrix(0.8,0,0,0.8,10,0)"
         inkscape:connector-curvature="0" />
    </marker>
    <marker
       inkscape:stockid="Arrow1LendM"
       orient="auto"
       refY="0"
       refX="0"
       id="Arrow1LendM"
       style="overflow:visible">
      <path
         id="path4570"
         d="M 0,0 5,-5 -12.5,0 5,5 0,0 z"
         style="fill:#254614;fill-rule:evenodd;stroke:#254614;stroke-width:1pt;marker-start:none"
         transform="matrix(-0.8,0,0,-0.8,-10,0)"
         inkscape:connector-curvature="0" />
    </marker>
    <linearGradient
       y2="320.55148"
       x2="703.47791"
       y1="265.93427"
       x1="703.47791"
       gradientTransform="matrix(1.388109,0,0,1.388109,-591.00234,-511.41199)"
       gradientUnits="userSpaceOnUse"
       id="linearGradient5121"
       xlink:href="#linearGradient3788"
       inkscape:collect="always" />
    <linearGradient
       id="linearGradient3788">
      <stop
         style="stop-color:#6e6e6e;stop-opacity:0.42857143;"
         offset="0"
         id="stop3790" />
      <stop
         style="stop-color:#6e6e6e;stop-opacity:0;"
         offset="1"
         id="stop3792" />
    </linearGradient>
    <linearGradient
       y2="327.34497"
       x2="719.75006"
       y1="379.53748"
       x1="719.75006"
       gradientTransform="matrix(1.388109,0,0,1.388109,-591.00234,-511.41201)"
       gradientUnits="userSpaceOnUse"
       id="linearGradient5124"
       xlink:href="#linearGradient3796"
       inkscape:collect="always" />
    <linearGradient
       id="linearGradient3796">
      <stop
         style="stop-color:#ffffff;stop-opacity:0.49107143;"
         offset="0"
         id="stop3798" />
      <stop
         style="stop-color:#ffffff;stop-opacity:0;"
         offset="1"
         id="stop3800" />
    </linearGradient>
    <linearGradient
       inkscape:collect="always"
       xlink:href="#linearGradient3927"
       id="linearGradient7418"
       gradientUnits="userSpaceOnUse"
       gradientTransform="matrix(1.4285419,-1.4292232,1.4285419,1.4292232,23.659971,45.994177)"
       x1="30.261311"
       y1="2.3636146"
       x2="30.261311"
       y2="13.018085" />
    <linearGradient
       inkscape:collect="always"
       xlink:href="#linearGradient3755"
       id="linearGradient7420"
       gradientUnits="userSpaceOnUse"
       gradientTransform="translate(540.36218,-1052.3622)"
       x1="0"
       y1="796.36218"
       x2="512"
       y2="796.36218" />
    <linearGradient
       inkscape:collect="always"
       xlink:href="#linearGradient3788"
       id="linearGradient8205"
       gradientUnits="userSpaceOnUse"
       gradientTransform="matrix(0.03600591,-0.03600591,0.03600591,0.03600591,-12.924248,21.710336)"
       x1="703.47791"
       y1="265.93427"
       x2="703.47791"
       y2="320.55148" />
    <linearGradient
       inkscape:collect="always"
       xlink:href="#linearGradient3796"
       id="linearGradient8208"
       gradientUnits="userSpaceOnUse"
       gradientTransform="matrix(0.03600591,-0.03600591,0.03600591,0.03600591,-12.924248,21.710335)"
       x1="719.75006"
       y1="379.53748"
       x2="719.75006"
       y2="327.34497" />
    <clipPath
       clipPathUnits="userSpaceOnUse"
       id="clipPath7336">
      <rect
         style="fill:#ffffff;fill-opacity:1;stroke:#000000;stroke-width:1.5;stroke-linecap:butt;stroke-linejoin:miter;stroke-miterlimit:4;stroke-opacity:1;stroke-dasharray:none;stroke-dashoffset:0"
         id="rect7338"
         width="38.125"
         height="14.5"
         x="-6.1875"
         y="-1.7500004" />
    </clipPath>
    <linearGradient
       inkscape:collect="always"
       xlink:href="#linearGradient3755"
       id="linearGradient7364"
       gradientUnits="userSpaceOnUse"
       gradientTransform="translate(540.36218,-1052.3622)"
       x1="0"
       y1="796.36218"
       x2="512"
       y2="796.36218" />
    <inkscape:perspective
       id="perspective91-0"
       inkscape:persp3d-origin="8 : 5.3333333 : 1"
       inkscape:vp_z="16 : 8 : 1"
       inkscape:vp_y="0 : 1000 : 0"
       inkscape:vp_x="0 : 8 : 1"
       sodipodi:type="inkscape:persp3d" />
    <filter
       color-interpolation-filters="sRGB"
       y="-0.25"
       x="-0.25"
       height="1.5"
       width="1.5"
       inkscape:label="Drop shadow"
       id="filter3033-4">
      <feGaussianBlur
         result="blur"
         stdDeviation="2"
         in="SourceAlpha"
         id="feGaussianBlur3035-36" />
      <feColorMatrix
         values="1 0 0 0 0 0 1 0 0 0 0 0 1 0 0 0 0 0 0.5 0 "
         type="matrix"
         result="bluralpha"
         id="feColorMatrix3037-5" />
      <feOffset
         result="offsetBlur"
         dy="2"
         dx="2"
         in="bluralpha"
         id="feOffset3039-3" />
      <feMerge
         id="feMerge3041-8">
        <feMergeNode
           in="offsetBlur"
           id="feMergeNode3043-3" />
        <feMergeNode
           in="SourceGraphic"
           id="feMergeNode3045-54" />
      </feMerge>
    </filter>
    <filter
       id="filter3033-9-0"
       inkscape:label="Drop shadow"
       width="1.5"
       height="1.5"
       x="-0.25"
       y="-0.25"
       color-interpolation-filters="sRGB">
      <feGaussianBlur
         id="feGaussianBlur3035-3-1"
         in="SourceAlpha"
         stdDeviation="2"
         result="blur" />
      <feColorMatrix
         id="feColorMatrix3037-1-4"
         result="bluralpha"
         type="matrix"
         values="1 0 0 0 0 0 1 0 0 0 0 0 1 0 0 0 0 0 0.5 0 " />
      <feOffset
         id="feOffset3039-1-2"
         in="bluralpha"
         dx="2"
         dy="2"
         result="offsetBlur" />
      <feMerge
         id="feMerge3041-9-8">
        <feMergeNode
           id="feMergeNode3043-9-6"
           in="offsetBlur" />
        <feMergeNode
           id="feMergeNode3045-5-7"
           in="SourceGraphic" />
      </feMerge>
    </filter>
    <inkscape:perspective
       sodipodi:type="inkscape:persp3d"
       inkscape:vp_x="0 : 526.18109 : 1"
       inkscape:vp_y="0 : 1000 : 0"
       inkscape:vp_z="744.09448 : 526.18109 : 1"
       inkscape:persp3d-origin="372.04724 : 350.78739 : 1"
       id="perspective2540-4" />
    <linearGradient
       id="linearGradient1070">
      <stop
         id="stop1066"
         offset="0"
         style="stop-color:#04a3e7;stop-opacity:1" />
      <stop
         id="stop1068"
         offset="1"
         style="stop-color:#67cffd;stop-opacity:1" />
    </linearGradient>
    <linearGradient
       id="linearGradient4427">
      <stop
         style="stop-color:#a3d2ff;stop-opacity:1;"
         offset="0"
         id="stop4429" />
      <stop
         style="stop-color:#cbecff;stop-opacity:1;"
         offset="1"
         id="stop4431" />
    </linearGradient>
    <inkscape:perspective
       id="perspective91-7"
       inkscape:persp3d-origin="8 : 5.3333333 : 1"
       inkscape:vp_z="16 : 8 : 1"
       inkscape:vp_y="0 : 1000 : 0"
       inkscape:vp_x="0 : 8 : 1"
       sodipodi:type="inkscape:persp3d" />
    <filter
       color-interpolation-filters="sRGB"
       y="-0.25"
       x="-0.25"
       height="1.5"
       width="1.5"
       inkscape:label="Drop shadow"
       id="filter3033-6">
      <feGaussianBlur
         result="blur"
         stdDeviation="2"
         in="SourceAlpha"
         id="feGaussianBlur3035-363" />
      <feColorMatrix
         values="1 0 0 0 0 0 1 0 0 0 0 0 1 0 0 0 0 0 0.5 0 "
         type="matrix"
         result="bluralpha"
         id="feColorMatrix3037-16" />
      <feOffset
         result="offsetBlur"
         dy="2"
         dx="2"
         in="bluralpha"
         id="feOffset3039-9" />
      <feMerge
         id="feMerge3041-1">
        <feMergeNode
           in="offsetBlur"
           id="feMergeNode3043-1" />
        <feMergeNode
           in="SourceGraphic"
           id="feMergeNode3045-0" />
      </feMerge>
    </filter>
    <filter
       id="filter3033-9-3"
       inkscape:label="Drop shadow"
       width="1.5"
       height="1.5"
       x="-0.25"
       y="-0.25"
       color-interpolation-filters="sRGB">
      <feGaussianBlur
         id="feGaussianBlur3035-3-83"
         in="SourceAlpha"
         stdDeviation="2"
         result="blur" />
      <feColorMatrix
         id="feColorMatrix3037-1-5"
         result="bluralpha"
         type="matrix"
         values="1 0 0 0 0 0 1 0 0 0 0 0 1 0 0 0 0 0 0.5 0 " />
      <feOffset
         id="feOffset3039-1-3"
         in="bluralpha"
         dx="2"
         dy="2"
         result="offsetBlur" />
      <feMerge
         id="feMerge3041-9-1">
        <feMergeNode
           id="feMergeNode3043-9-0"
           in="offsetBlur" />
        <feMergeNode
           id="feMergeNode3045-5-6"
           in="SourceGraphic" />
      </feMerge>
    </filter>
    <inkscape:perspective
       sodipodi:type="inkscape:persp3d"
       inkscape:vp_x="0 : 526.18109 : 1"
       inkscape:vp_y="0 : 1000 : 0"
       inkscape:vp_z="744.09448 : 526.18109 : 1"
       inkscape:persp3d-origin="372.04724 : 350.78739 : 1"
       id="perspective2540-7" />
    <linearGradient
       inkscape:collect="always"
       xlink:href="#linearGradient3789"
       id="linearGradient3968"
       gradientUnits="userSpaceOnUse"
       gradientTransform="matrix(1.0421868,0,0,1.0000521,-0.76757447,8.1019265)"
       x1="30.261311"
       y1="2.3636146"
       x2="30.261311"
       y2="13.018085" />
    <linearGradient
       inkscape:collect="always"
       xlink:href="#linearGradient3789"
       id="linearGradient3947"
       gradientUnits="userSpaceOnUse"
       gradientTransform="matrix(1.0845608,0,0,1.0000521,-2.2147617,8.1019265)"
       x1="30.261311"
       y1="2.3636146"
       x2="30.261311"
       y2="13.018085" />
    <linearGradient
       inkscape:collect="always"
       xlink:href="#linearGradient3789"
       id="linearGradient3917"
       gradientUnits="userSpaceOnUse"
       gradientTransform="matrix(0.97200709,0,0,1.081943,0.42256252,-0.64058702)"
       x1="30.261311"
       y1="2.3636146"
       x2="30.261311"
       y2="13.018085" />
    <linearGradient
       inkscape:collect="always"
       xlink:href="#linearGradient4427"
       id="linearGradient3091"
       gradientUnits="userSpaceOnUse"
       gradientTransform="matrix(0.08720406,-0.08720406,0.70710678,0.70710678,21.132278,20.45872)"
       x1="30.261311"
       y1="2.3636146"
       x2="30.261311"
       y2="13.018085" />
    <linearGradient
       inkscape:collect="always"
       xlink:href="#linearGradient4427"
       id="linearGradient3087"
       gradientUnits="userSpaceOnUse"
       gradientTransform="matrix(0.70710678,-0.70710678,0.70710678,0.70710678,-1.8023814,43.393379)"
       x1="30.261311"
       y1="2.3636146"
       x2="30.261311"
       y2="13.018085" />
    <linearGradient
       inkscape:collect="always"
       xlink:href="#linearGradient3927"
       id="linearGradient3997"
       gradientUnits="userSpaceOnUse"
       gradientTransform="matrix(0.70710678,-0.70710678,0.70710678,0.70710678,-17.985132,22.923534)"
       x1="30.261311"
       y1="2.3636146"
       x2="30.261311"
       y2="13.018085" />
    <linearGradient
       inkscape:collect="always"
       xlink:href="#linearGradient3927"
       id="linearGradient3984-0"
       gradientUnits="userSpaceOnUse"
       gradientTransform="matrix(0.70710678,-0.70710678,0.70710678,0.70710678,23.425684,41.67551)"
       x1="30.261311"
       y1="2.3636146"
       x2="30.261311"
       y2="13.018085" />
    <linearGradient
       inkscape:collect="always"
       xlink:href="#linearGradient3927"
       id="linearGradient3969"
       gradientUnits="userSpaceOnUse"
       x1="30.261311"
       y1="2.3636146"
       x2="30.261311"
       y2="13.018085"
       gradientTransform="matrix(0.70710678,-0.70710678,0.70710678,0.70710678,-20.770785,45.436248)" />
    <linearGradient
       inkscape:collect="always"
       xlink:href="#linearGradient3927"
       id="linearGradient3955"
       gradientUnits="userSpaceOnUse"
       x1="30.261311"
       y1="2.3636146"
       x2="30.261311"
       y2="13.018085"
       gradientTransform="matrix(0.70710678,-0.70710678,0.70710678,0.70710678,3.1627554,45.106526)" />
    <linearGradient
       inkscape:collect="always"
       xlink:href="#linearGradient3816"
       id="linearGradient3051-8"
       gradientUnits="userSpaceOnUse"
       gradientTransform="matrix(0.22187678,0,0,0.14105166,0.01243575,-76.466136)"
       x1="34.371315"
       y1="1052.3622"
       x2="34.371315"
       y2="981.34082" />
    <linearGradient
       inkscape:collect="always"
       xlink:href="#linearGradient3797"
       id="linearGradient3048-2"
       gradientUnits="userSpaceOnUse"
       gradientTransform="matrix(0.26753263,0,0,0.22208472,-1.6167136,40.021184)"
       x1="35.989838"
       y1="51.432434"
       x2="35.989838"
       y2="108.26157" />
    <linearGradient
       inkscape:collect="always"
       xlink:href="#linearGradient3816"
       id="linearGradient3952-5"
       gradientUnits="userSpaceOnUse"
       gradientTransform="matrix(1,0,0,0.63512546,0,-596.51749)"
       x1="34.371315"
       y1="1052.3622"
       x2="34.371315"
       y2="981.34082" />
    <filter
       color-interpolation-filters="sRGB"
       y="-0.25"
       x="-0.25"
       height="1.5"
       width="1.5"
       inkscape:label="Drop shadow"
       id="filter3033-9-5">
      <feGaussianBlur
         result="blur"
         stdDeviation="2"
         in="SourceAlpha"
         id="feGaussianBlur3035-3-4" />
      <feColorMatrix
         values="1 0 0 0 0 0 1 0 0 0 0 0 1 0 0 0 0 0 0.5 0 "
         type="matrix"
         result="bluralpha"
         id="feColorMatrix3037-1-3" />
      <feOffset
         result="offsetBlur"
         dy="2"
         dx="2"
         in="bluralpha"
         id="feOffset3039-1-1" />
      <feMerge
         id="feMerge3041-9-2">
        <feMergeNode
           in="offsetBlur"
           id="feMergeNode3043-9-3" />
        <feMergeNode
           in="SourceGraphic"
           id="feMergeNode3045-5-3" />
      </feMerge>
    </filter>
    <linearGradient
       inkscape:collect="always"
       xlink:href="#linearGradient3825"
       id="linearGradient3256-7"
       gradientUnits="userSpaceOnUse"
       x1="139.31297"
       y1="505.0293"
       x2="139.31297"
       y2="627.19641"
       gradientTransform="matrix(0.97363148,0,0,1.035386,-57.748974,403.30318)" />
    <linearGradient
       inkscape:collect="always"
       xlink:href="#linearGradient3825"
       id="linearGradient3007-1"
       gradientUnits="userSpaceOnUse"
       gradientTransform="matrix(0.97363148,0,0,1.035386,-228.55154,-558.9601)"
       x1="139.31297"
       y1="505.0293"
       x2="139.31297"
       y2="627.19641" />
    <filter
       id="filter3033-3"
       inkscape:label="Drop shadow"
       width="1.5"
       height="1.5"
       x="-0.25"
       y="-0.25"
       color-interpolation-filters="sRGB">
      <feGaussianBlur
         id="feGaussianBlur3035-2"
         in="SourceAlpha"
         stdDeviation="2"
         result="blur" />
      <feColorMatrix
         id="feColorMatrix3037-2"
         result="bluralpha"
         type="matrix"
         values="1 0 0 0 0 0 1 0 0 0 0 0 1 0 0 0 0 0 0.5 0 " />
      <feOffset
         id="feOffset3039-16"
         in="bluralpha"
         dx="2"
         dy="2"
         result="offsetBlur" />
      <feMerge
         id="feMerge3041-8-8">
        <feMergeNode
           id="feMergeNode3043-5"
           in="offsetBlur" />
        <feMergeNode
           id="feMergeNode3045-7"
           in="SourceGraphic" />
      </feMerge>
    </filter>
    <linearGradient
       gradientUnits="userSpaceOnUse"
       y2="13.636932"
       x2="24.507496"
       y1="3.9324322"
       x1="14.802996"
       id="linearGradient4121"
       xlink:href="#linearGradient3789"
       inkscape:collect="always" />
    <linearGradient
       inkscape:collect="always"
       xlink:href="#linearGradient3927"
       id="linearGradient3948"
       gradientUnits="userSpaceOnUse"
       x1="30.261311"
       y1="2.3636146"
       x2="30.261311"
       y2="13.018085" />
    <filter
       color-interpolation-filters="sRGB"
       y="-0.25"
       x="-0.25"
       height="1.5"
       width="1.5"
       inkscape:label="Drop shadow"
       id="filter3033-9-8">
      <feGaussianBlur
         result="blur"
         stdDeviation="2"
         in="SourceAlpha"
         id="feGaussianBlur3035-3-8" />
      <feColorMatrix
         values="1 0 0 0 0 0 1 0 0 0 0 0 1 0 0 0 0 0 0.5 0 "
         type="matrix"
         result="bluralpha"
         id="feColorMatrix3037-1-30" />
      <feOffset
         result="offsetBlur"
         dy="2"
         dx="2"
         in="bluralpha"
         id="feOffset3039-1-13" />
      <feMerge
         id="feMerge3041-9-6">
        <feMergeNode
           in="offsetBlur"
           id="feMergeNode3043-9-8" />
        <feMergeNode
           in="SourceGraphic"
           id="feMergeNode3045-5-9" />
      </feMerge>
    </filter>
    <filter
       id="filter3033-1"
       inkscape:label="Drop shadow"
       width="1.5"
       height="1.5"
       x="-0.25"
       y="-0.25"
       color-interpolation-filters="sRGB">
      <feGaussianBlur
         id="feGaussianBlur3035-0"
         in="SourceAlpha"
         stdDeviation="2"
         result="blur" />
      <feColorMatrix
         id="feColorMatrix3037-4"
         result="bluralpha"
         type="matrix"
         values="1 0 0 0 0 0 1 0 0 0 0 0 1 0 0 0 0 0 0.5 0 " />
      <feOffset
         id="feOffset3039-6"
         in="bluralpha"
         dx="2"
         dy="2"
         result="offsetBlur" />
      <feMerge
         id="feMerge3041-7">
        <feMergeNode
           id="feMergeNode3043-8"
           in="offsetBlur" />
        <feMergeNode
           id="feMergeNode3045-6"
           in="SourceGraphic" />
      </feMerge>
    </filter>
    <linearGradient
       y2="13.018085"
       x2="30.261311"
       y1="2.3636146"
       x1="30.261311"
       gradientTransform="matrix(0.70710678,-0.70710678,0.70710678,0.70710678,-37.171074,24.433491)"
       gradientUnits="userSpaceOnUse"
       id="linearGradient4424"
       xlink:href="#linearGradient4427"
       inkscape:collect="always" />
  </defs>
  <sodipodi:namedview
     id="base"
     pagecolor="#ffffff"
     bordercolor="#666666"
     borderopacity="1.0"
     inkscape:pageopacity="0.0"
     inkscape:pageshadow="2"
     inkscape:zoom="8"
     inkscape:cx="10.790206"
     inkscape:cy="22.936335"
     inkscape:document-units="px"
     inkscape:current-layer="layer2"
     showgrid="false"
     borderlayer="true"
     inkscape:showpageshadow="false"
     showborder="true"
     inkscape:window-width="1680"
     inkscape:window-height="987"
     inkscape:window-x="1672"
     inkscape:window-y="23"
     inkscape:window-maximized="1"
     showguides="false"
     inkscape:guide-bbox="true"
     inkscape:snap-global="true">
    <sodipodi:guide
       orientation="1,0"
       position="7.9985018,14.002917"
       id="guide3837"
       inkscape:locked="false" />
  </sodipodi:namedview>
  <metadata
     id="metadata7">
    <rdf:RDF>
      <cc:Work
         rdf:about="">
        <dc:format>image/svg+xml</dc:format>
        <dc:type
           rdf:resource="http://purl.org/dc/dcmitype/StillImage" />
        <dc:title></dc:title>
      </cc:Work>
    </rdf:RDF>
  </metadata>
  <g
     inkscape:groupmode="layer"
     id="layer3"
     inkscape:label="xx Work Layer"
     style="display:none"
     transform="translate(0,-56)"
     sodipodi:insensitive="true">
    <image
       sodipodi:absref="C:\GOn\graphics\GOn version 5.8\Tokens\GD token.tiff"
       xlink:href="GD token.tiff"
       style="display:inline"
       y="-16.40724"
       x="15.63295"
       id="image2542"
       height="35.354698"
       width="14.207962"
       transform="matrix(0.7071068,0.7071068,-0.7071068,0.7071068,0,56)" />
  </g>
  <g
     inkscape:groupmode="layer"
     id="layer2"
     inkscape:label="User"
     style="display:inline">
    <g
       id="g1112"
       transform="matrix(0.88762225,0.88762225,-0.88762225,0.88762225,16.084811,-6.1936681)">
      <rect
         y="16.320732"
         x="-10.814137"
         height="12.613358"
         width="12.613358"
         id="rect8223"
         style="display:inline;fill:#c8c8c8;fill-opacity:1;stroke:#646464;stroke-width:0.81249946;stroke-linecap:square;stroke-linejoin:miter;stroke-miterlimit:4;stroke-dasharray:none;stroke-dashoffset:0;stroke-opacity:1"
         transform="rotate(-45)" />
      <rect
         transform="rotate(-45)"
         y="24.915756"
         x="-5.9215169"
         height="2.481544"
         width="1.9088799"
         id="rect3013"
         style="display:inline;fill:#646464;fill-opacity:1;fill-rule:evenodd;stroke:none" />
      <rect
         transform="matrix(0.70710678,-0.70710678,-0.70710678,-0.70710678,0,0)"
         style="display:inline;fill:#646464;fill-opacity:1;fill-rule:evenodd;stroke:none"
         id="rect3017"
         width="1.9088799"
         height="2.481544"
         x="-5.9215169"
         y="-20.339069" />
      <path
         sodipodi:nodetypes="cccsscccccssccsscccccscc"
         style="display:inline;fill:#ffffff;stroke:#646464;stroke-width:0.81249946;stroke-miterlimit:4;stroke-dasharray:none;stroke-opacity:1"
         d="m 11.172753,10.372586 c -0.175136,0.175136 -0.175136,0.457123 0,0.632259 l 9.8224,9.822389 c 0.175136,0.175136 0.457123,0.175136 0.632258,0 l 1.60765,-1.607648 c 0.175136,-0.175136 0.175136,-0.457123 0,-0.632259 l -0.05795,-0.05663 6.57e-4,-6.58e-4 2.98808,-2.988079 0.05665,0.05795 c 0.175136,0.175136 0.457123,0.175136 0.632259,0 l 1.607649,-1.607648 c 0.175135,-0.175136 0.175135,-0.457123 0,-0.632259 L 18.640007,3.5376085 c -0.175136,-0.1751354 -0.457122,-0.1751354 -0.632258,0 l -1.60764,1.607646 c -0.175136,0.1751355 -0.175136,0.4571227 0,0.6322583 l 0.05795,0.05664 -2.988081,2.9880799 -6.57e-4,6.579e-4 -0.05664,-0.057958 c -0.175136,-0.1751348 -0.457122,-0.1751348 -0.632258,0 L 11.17277,10.372591 Z"
         id="path8221-1"
         inkscape:connector-curvature="0" />
      <circle
         transform="matrix(0.01654972,-0.01654972,0.01654972,0.01654972,4.7912361,16.538724)"
         id="path5111"
         style="display:inline;fill:#ffffff;stroke:#646464;stroke-width:34.71500397;stroke-miterlimit:4;stroke-dasharray:none;stroke-opacity:1"
         cx="693"
         cy="322.36218"
         r="56" />
    </g>
    <g
       id="layer3-0"
       inkscape:label="xx Work Layer"
       style="display:none"
       transform="translate(131.98752,-57.5)">
      <image
         sodipodi:absref="C:\GOn\graphics\GOn version 5.8\Tokens\GD token.tiff"
         xlink:href="GD token.tiff"
         style="display:inline"
         y="-16.40724"
         x="15.63295"
         id="image2542-4"
         height="35.354698"
         width="14.207962"
         transform="rotate(45,-67.59798,27.999997)" />
    </g>
    <g
       id="layer6-8"
       inkscape:label="xx Guides"
       style="display:none"
       transform="translate(131.98752,-1.4999999)">
      <rect
         style="display:inline;fill:none;stroke:#000000;stroke-width:0.1;stroke-miterlimit:4;stroke-dasharray:none;stroke-opacity:1"
         id="rect3910-2"
         width="16"
         height="16"
         x="-2.1061265"
         y="14.656439"
         rx="0"
         ry="0"
         transform="rotate(-45)" />
      <path
         style="display:inline;fill:none;stroke:#000000;stroke-width:0.1;stroke-linecap:butt;stroke-linejoin:miter;stroke-miterlimit:4;stroke-dasharray:none;stroke-opacity:1"
         d="M 20.986654,-1.5753577 36.932485,14.370473"
         id="path3912-7"
         inkscape:connector-curvature="0" />
      <path
         inkscape:connector-curvature="0"
         id="path2569-0"
         d="M 0.96478577,16.801654 16.910617,32.747485"
         style="display:inline;fill:none;stroke:#000000;stroke-width:0.1;stroke-linecap:butt;stroke-linejoin:miter;stroke-miterlimit:4;stroke-dasharray:none;stroke-opacity:1" />
    </g>
    <g
       id="g1051"
       transform="translate(0.13769492)">
      <path
         id="path7385"
         d="M 5.4133596,2.2512762 H 2.085946 c 0,0 -2.08594483731,-0.1762213 -2.08594483731,1.8364631 0,1.946354 1.78597273731,1.8562633 1.78597273731,1.8562633 h 2.0404044 c 0,0 0.5940042,-0.03762 0.5940042,0.6880551 0,0.855366 -0.5940042,0.8286359 -0.5940042,0.8286359 H 0.08019173 V 8.4180305 H 4.210501 c 0,0 1.4770905,0.04554 1.4770905,-1.8057729 0,-1.8869537 -1.3869998,-1.7562726 -1.3869998,-1.7562726 H 2.0602058 c 0,0 -0.7929956,0.09108 -0.7929956,-0.7880458 0,-0.8880363 0.7929956,-0.828636 0.7929956,-0.828636 h 3.3531538 z"
         style="fill:#02a7eb;fill-opacity:1;fill-rule:nonzero;stroke:none;stroke-width:0.0279402"
         inkscape:connector-curvature="0" />
      <path
         id="path7389"
         d="m 28.396484,2.2519531 c 0,0 -2.085937,-0.1767469 -2.085937,1.8359375 v 2.5234375 c 0,1.8513129 1.478515,1.8066407 1.478515,1.8066407 h 3.935547 V 7.4609375 h -3.552734 c 0,0 -0.591797,0.027241 -0.591797,-0.828125 V 5.9433594 h 4.144531 V 4.8554688 H 27.578125 V 4.0683594 c 0,-0.888036 0.794922,-0.828125 0.794922,-0.828125 h 3.351562 V 2.2519531 Z"
         style="fill:#3a3a3a;fill-opacity:1;fill-rule:nonzero;stroke:none;stroke-width:0.0279402"
         inkscape:connector-curvature="0" />
      <path
         id="path7391"
         d="m 17.053862,2.2720663 h 1.200879 v 6.1459642 h -1.200879 z"
         style="fill:#02a7eb;fill-opacity:1;fill-rule:nonzero;stroke:none;stroke-width:0.0279402"
         inkscape:connector-curvature="0" />
      <path
         id="path7393"
         d="M 14.075921,2.2720663 H 15.2768 v 6.1459642 h -1.200879 z"
         style="fill:#02a7eb;fill-opacity:1;fill-rule:nonzero;stroke:none;stroke-width:0.0279402"
         inkscape:connector-curvature="0" />
      <path
         id="path7395"
         d="m 6.9924209,2.2720663 h 1.1998886 v 3.8521176 c 0,0 -0.046531,0.7088451 0.2366116,1.0256473 0.276212,0.3078924 0.8919964,0.3108624 0.8919964,0.3108624 H 15.2768 V 8.4180305 H 9.3209175 c 0,0 -1.1830584,0.07821 -1.8295329,-0.5682643 C 6.8855002,7.2438821 6.9924209,6.1251739 6.9924209,6.1251739 Z"
         style="fill:#02a7eb;fill-opacity:1;fill-rule:nonzero;stroke:none;stroke-width:0.0279402"
         inkscape:connector-curvature="0" />
      <path
         id="path7397"
         d="m 10.534666,2.2720663 h 1.199889 v 6.1459642 h -1.199889 z"
         style="fill:#02a7eb;fill-opacity:1;fill-rule:nonzero;stroke:none;stroke-width:0.0279402"
         inkscape:connector-curvature="0" />
      <path
         id="path7399"
         d="m 17.053862,0 h 1.200879 v 1.255329 h -1.200879 z"
         style="fill:#02a7eb;fill-opacity:1;fill-rule:nonzero;stroke:none;stroke-width:0.0279402"
         inkscape:connector-curvature="0" />
      <path
         inkscape:connector-curvature="0"
         id="rect840"
         d="M 19.634868,10.668363 V 2.2478131 h 1.089131 v -4.5e-4 h 1.898298 c 0.626059,0 2.725809,0.006 2.723806,3.08166 -0.002,3.07568 -2.099468,3.07354 -2.723806,3.07354 h -1.789145 v 2.2657899 z m 1.198284,-3.2518099 h 1.618335 c 0.458423,0 1.620155,-0.0592 1.618772,-2.09449 -0.0014,-2.03524 -1.048192,-2.08867 -1.618772,-2.08867 h -1.618335 z"
         style="fill:#3a3a3a;fill-opacity:1;stroke:none;stroke-width:0.02876266" />
    </g>
  </g>
  <g
     inkscape:groupmode="layer"
     id="layer6"
     inkscape:label="xx Guides"
     style="display:none"
     sodipodi:insensitive="true">
    <rect
       style="fill:none;stroke:#000000;stroke-width:0.1;stroke-miterlimit:4;stroke-dasharray:none;stroke-opacity:1;display:inline"
       id="rect3910"
       width="16"
       height="16"
       x="-2.1061265"
       y="14.656439"
       rx="0"
       ry="0"
       transform="matrix(0.7071068,-0.7071068,0.7071068,0.7071068,0,0)" />
    <path
       style="fill:none;stroke:#000000;stroke-width:0.1;stroke-linecap:butt;stroke-linejoin:miter;stroke-miterlimit:4;stroke-dasharray:none;stroke-opacity:1;display:inline"
       d="M 20.986654,-1.5753577 L 36.932485,14.370473"
       id="path3912"
       inkscape:connector-curvature="0" />
    <path
       inkscape:connector-curvature="0"
       id="path2569"
       d="M 0.96478577,16.801654 L 16.910617,32.747485"
       style="fill:none;stroke:#000000;stroke-width:0.1;stroke-linecap:butt;stroke-linejoin:miter;stroke-miterlimit:4;stroke-dasharray:none;stroke-opacity:1;display:inline" />
  </g>
</svg>
