<?xml version="1.0" encoding="UTF-8" standalone="no"?>
<!-- Created with Inkscape (http://www.inkscape.org/) -->

<svg
   xmlns:dc="http://purl.org/dc/elements/1.1/"
   xmlns:cc="http://creativecommons.org/ns#"
   xmlns:rdf="http://www.w3.org/1999/02/22-rdf-syntax-ns#"
   xmlns:svg="http://www.w3.org/2000/svg"
   xmlns="http://www.w3.org/2000/svg"
   xmlns:xlink="http://www.w3.org/1999/xlink"
   xmlns:sodipodi="http://sodipodi.sourceforge.net/DTD/sodipodi-0.dtd"
   xmlns:inkscape="http://www.inkscape.org/namespaces/inkscape"
   width="32"
   height="30"
   id="svg3851"
   version="1.1"
   inkscape:version="0.48.0 r9654"
   inkscape:export-filename="C:\Users\emo.GIRITECH\Desktop\Current Projects\iPad\Icons\g_button_red_dark.png"
   inkscape:export-xdpi="90"
   inkscape:export-ydpi="90"
   style="display:inline"
   sodipodi:docname="g_button_red_dark.svg">
  <defs
     id="defs3853">
    <linearGradient
       id="linearGradient4403">
      <stop
         style="stop-color:#ffffff;stop-opacity:0.51785713;"
         offset="0"
         id="stop4405" />
      <stop
         style="stop-color:#ffffff;stop-opacity:0.02678571;"
         offset="1"
         id="stop4407" />
    </linearGradient>
    <linearGradient
       id="linearGradient4389">
      <stop
         style="stop-color:#000000;stop-opacity:1;"
         offset="0"
         id="stop4391" />
      <stop
         style="stop-color:#cccccc;stop-opacity:1;"
         offset="1"
         id="stop4393" />
    </linearGradient>
    <linearGradient
       id="linearGradient4381">
      <stop
         style="stop-color:#cccccc;stop-opacity:1;"
         offset="0"
         id="stop4383" />
      <stop
         style="stop-color:#cccccc;stop-opacity:1;"
         offset="1"
         id="stop4385" />
    </linearGradient>
    <clipPath
       clipPathUnits="userSpaceOnUse"
       id="clipPath3832">
      <rect
         style="fill:none;stroke:#000000;stroke-width:0.99101979;stroke-linecap:round;stroke-linejoin:miter;stroke-miterlimit:4;stroke-opacity:1;stroke-dasharray:none;stroke-dashoffset:0"
         id="rect3834"
         width="33.258976"
         height="28.88398"
         x="-204.00449"
         y="282.12048" />
    </clipPath>
    <linearGradient
       inkscape:collect="always"
       xlink:href="#linearGradient4403"
       id="linearGradient4436"
       gradientUnits="userSpaceOnUse"
       x1="12.767467"
       y1="-0.067989945"
       x2="12.767467"
       y2="15.01789" />
  </defs>
  <sodipodi:namedview
     id="base"
     pagecolor="#ffffff"
     bordercolor="#666666"
     borderopacity="1.0"
     inkscape:pageopacity="0.0"
     inkscape:pageshadow="2"
     inkscape:zoom="17.70124"
     inkscape:cx="3.0364343"
     inkscape:cy="12.757952"
     inkscape:document-units="px"
     inkscape:current-layer="layer1"
     showgrid="false"
     inkscape:showpageshadow="false"
     borderlayer="true"
     inkscape:window-width="1680"
     inkscape:window-height="970"
     inkscape:window-x="-8"
     inkscape:window-y="-8"
     inkscape:window-maximized="1" />
  <metadata
     id="metadata3856">
    <rdf:RDF>
      <cc:Work
         rdf:about="">
        <dc:format>image/svg+xml</dc:format>
        <dc:type
           rdf:resource="http://purl.org/dc/dcmitype/StillImage" />
        <dc:title></dc:title>
      </cc:Work>
    </rdf:RDF>
  </metadata>
  <g
     inkscape:label="Layer 1"
     inkscape:groupmode="layer"
     id="layer1"
     transform="translate(0,-1022.3622)" />
  <g
     inkscape:groupmode="layer"
     id="layer2"
     inkscape:label="Layer 2"
     style="display:inline">
    <rect
       style="fill:#440008;fill-opacity:1;stroke:none"
       id="rect3871"
       width="32"
       height="30"
       x="0"
       y="0"
       ry="3.79705" />
    <path
       style="fill:url(#linearGradient4436);fill-opacity:1;stroke:none"
       d="M 3.8125 0 C 1.7089343 0 -2.6898563e-017 1.7089343 0 3.8125 L 0 14.875 L 31.875 14.875 L 31.875 2.84375 C 31.452469 1.2070357 29.959834 -2.266306e-017 28.1875 0 L 3.8125 0 z "
       id="rect4401" />
  </g>
</svg>
