<?xml version="1.0" encoding="UTF-8" standalone="no"?>
<!-- Created with Inkscape (http://www.inkscape.org/) -->

<svg
   xmlns:dc="http://purl.org/dc/elements/1.1/"
   xmlns:cc="http://creativecommons.org/ns#"
   xmlns:rdf="http://www.w3.org/1999/02/22-rdf-syntax-ns#"
   xmlns:svg="http://www.w3.org/2000/svg"
   xmlns="http://www.w3.org/2000/svg"
   xmlns:xlink="http://www.w3.org/1999/xlink"
   xmlns:sodipodi="http://sodipodi.sourceforge.net/DTD/sodipodi-0.dtd"
   xmlns:inkscape="http://www.inkscape.org/namespaces/inkscape"
   width="18"
   height="18"
   id="svg2"
   version="1.1"
   inkscape:version="0.48.0 r9654"
   sodipodi:docname="zone_restriction.svg"
   inkscape:export-filename="C:\Users\emo.GIRITECH\Documents\Shared Graphics\iPad\Icons and Buttons\Apps\zone_restriction.png"
   inkscape:export-xdpi="90"
   inkscape:export-ydpi="90">
  <defs
     id="defs4">
    <linearGradient
       gradientUnits="userSpaceOnUse"
       y2="199.96223"
       x2="5.406518"
       y1="184.01372"
       x1="5.406518"
       id="linearGradient3814"
       xlink:href="#linearGradient3755"
       inkscape:collect="always" />
    <linearGradient
       y2="300.5159"
       x2="131.39745"
       y1="244.53461"
       x1="131.39745"
       gradientTransform="matrix(1.5256729,0,0,1.5256729,-48.921203,-107.7697)"
       gradientUnits="userSpaceOnUse"
       id="linearGradient5499"
       xlink:href="#linearGradient3877"
       inkscape:collect="always" />
    <linearGradient
       id="linearGradient3877">
      <stop
         id="stop3879"
         offset="0"
         style="stop-color:#320c0b;stop-opacity:1" />
      <stop
         id="stop3881"
         offset="1"
         style="stop-color:#673832;stop-opacity:1" />
    </linearGradient>
    <linearGradient
       gradientTransform="matrix(2.9907761,0,0,2.9907761,-350.0687,-732.10421)"
       y2="300.5159"
       x2="131.39745"
       y1="244.53461"
       x1="131.39745"
       gradientUnits="userSpaceOnUse"
       id="linearGradient3863"
       xlink:href="#linearGradient3877"
       inkscape:collect="always" />
    <linearGradient
       id="linearGradient3789">
      <stop
         style="stop-color:#050505;stop-opacity:1"
         offset="0"
         id="stop3791" />
      <stop
         style="stop-color:#787878;stop-opacity:1"
         offset="1"
         id="stop3793" />
    </linearGradient>
    <linearGradient
       gradientUnits="userSpaceOnUse"
       y2="314.00009"
       x2="91.407005"
       y1="0"
       x1="91.407005"
       id="linearGradient3472"
       xlink:href="#linearGradient3789"
       inkscape:collect="always" />
    <linearGradient
       y2="796.36218"
       x2="512"
       y1="796.36218"
       x1="0"
       gradientTransform="translate(540.36218,-1052.3622)"
       gradientUnits="userSpaceOnUse"
       id="linearGradient5408"
       xlink:href="#linearGradient3755"
       inkscape:collect="always" />
    <linearGradient
       y2="796.36218"
       x2="512"
       y1="796.36218"
       x1="0"
       gradientTransform="matrix(0.09375,0,0,0.09375,945.86214,-157.15896)"
       gradientUnits="userSpaceOnUse"
       id="linearGradient5398"
       xlink:href="#linearGradient3755"
       inkscape:collect="always" />
    <filter
       color-interpolation-filters="sRGB"
       y="-0.25"
       x="-0.25"
       height="1.5"
       width="1.5"
       inkscape:label="Drop shadow"
       id="filter5379">
      <feGaussianBlur
         result="blur"
         stdDeviation="5"
         in="SourceAlpha"
         id="feGaussianBlur5381" />
      <feColorMatrix
         values="-1 0 0 0 1 0 -1 0 0 1 0 0 -1 0 1 0 0 0 0.75 0 "
         type="matrix"
         result="bluralpha"
         id="feColorMatrix5383" />
      <feOffset
         result="offsetBlur"
         dy="0"
         dx="0"
         in="bluralpha"
         id="feOffset5385" />
      <feMerge
         id="feMerge5387">
        <feMergeNode
           in="offsetBlur"
           id="feMergeNode5389" />
        <feMergeNode
           in="SourceGraphic"
           id="feMergeNode5391" />
      </feMerge>
    </filter>
    <filter
       color-interpolation-filters="sRGB"
       inkscape:menu-tooltip="Blurred colorized contour, filled inside"
       inkscape:menu="Morphology"
       inkscape:label="Warm inside"
       id="filter5281">
      <feColorMatrix
         result="fbSourceGraphic"
         values="1 0 0 0 0 0 1 0 0 0 0 0 1 0 0 0 0 0 1 0 "
         id="feColorMatrix5283" />
      <feGaussianBlur
         result="result1"
         stdDeviation="3"
         id="feGaussianBlur5285" />
      <feOffset
         result="result6"
         dy="2"
         dx="2"
         id="feOffset5287" />
      <feComposite
         in="result6"
         result="result2"
         operator="in"
         id="feComposite5289"
         in2="result1" />
      <feColorMatrix
         type="hueRotate"
         result="result3"
         values="110"
         id="feColorMatrix5291" />
      <feBlend
         result="result4"
         in="result2"
         mode="screen"
         id="feBlend5293"
         in2="result3" />
      <feConvolveMatrix
         result="result5"
         in="result4"
         targetX="0"
         bias="0"
         divisor="2"
         kernelMatrix="-2 0 2 0 4 0 2 0 2"
         order="3 3"
         id="feConvolveMatrix5295" />
      <feComposite
         in="result2"
         operator="atop"
         id="feComposite5297"
         in2="result5" />
    </filter>
    <filter
       color-interpolation-filters="sRGB"
       inkscape:menu-tooltip="Blurred colorized contour, filled inside"
       inkscape:menu="Morphology"
       inkscape:label="Warm inside"
       id="filter5263">
      <feColorMatrix
         result="fbSourceGraphic"
         values="1 0 0 0 0 0 1 0 0 0 0 0 1 0 0 0 0 0 1 0 "
         id="feColorMatrix5265" />
      <feGaussianBlur
         result="result1"
         stdDeviation="3"
         id="feGaussianBlur5267" />
      <feOffset
         result="result6"
         dy="2"
         dx="2"
         id="feOffset5269" />
      <feComposite
         in="result6"
         result="result2"
         operator="in"
         in2="result1"
         id="feComposite5271" />
      <feColorMatrix
         type="hueRotate"
         result="result3"
         values="110"
         id="feColorMatrix5273" />
      <feBlend
         result="result4"
         in="result2"
         mode="screen"
         in2="result3"
         id="feBlend5275" />
      <feConvolveMatrix
         result="result5"
         in="result4"
         targetX="0"
         bias="0"
         divisor="2"
         kernelMatrix="-2 0 2 0 4 0 2 0 2"
         order="3 3"
         id="feConvolveMatrix5277" />
      <feComposite
         in="result2"
         operator="atop"
         in2="result5"
         id="feComposite5279" />
    </filter>
    <linearGradient
       id="linearGradient3755">
      <stop
         style="stop-color:#440008;stop-opacity:1;"
         offset="0"
         id="stop3757" />
      <stop
         style="stop-color:#880000;stop-opacity:1;"
         offset="1"
         id="stop3759" />
    </linearGradient>
    <linearGradient
       inkscape:collect="always"
       xlink:href="#linearGradient3755"
       id="linearGradient3761"
       x1="0"
       y1="796.36218"
       x2="512"
       y2="796.36218"
       gradientUnits="userSpaceOnUse"
       gradientTransform="translate(540.36218,-1052.3622)" />
    <linearGradient
       inkscape:collect="always"
       xlink:href="#linearGradient3755"
       id="linearGradient3772"
       gradientUnits="userSpaceOnUse"
       gradientTransform="translate(540.36218,-1052.3622)"
       x1="0"
       y1="796.36218"
       x2="512"
       y2="796.36218" />
    <filter
       color-interpolation-filters="sRGB"
       inkscape:menu-tooltip="Glow of object's own color at the edges"
       inkscape:menu="Shadows and Glows"
       inkscape:label="Glow"
       id="filter3952">
      <feGaussianBlur
         result="result91"
         stdDeviation="5"
         id="feGaussianBlur3954" />
      <feComposite
         operator="over"
         in="SourceGraphic"
         in2="result91"
         id="feComposite3956" />
    </filter>
    <linearGradient
       id="linearGradient5444">
      <stop
         id="stop5446"
         offset="0"
         style="stop-color:#440008;stop-opacity:1;" />
      <stop
         id="stop5448"
         offset="1"
         style="stop-color:#880000;stop-opacity:1;" />
    </linearGradient>
    <linearGradient
       inkscape:collect="always"
       xlink:href="#linearGradient3755"
       id="linearGradient3957"
       gradientUnits="userSpaceOnUse"
       x1="5.406518"
       y1="184.01372"
       x2="5.406518"
       y2="199.96223" />
    <linearGradient
       inkscape:collect="always"
       xlink:href="#linearGradient3755"
       id="linearGradient3963"
       gradientUnits="userSpaceOnUse"
       x1="5.406518"
       y1="184.01372"
       x2="5.406518"
       y2="199.96223"
       gradientTransform="translate(420,359.36218)" />
    <filter
       id="filter4465"
       inkscape:label="Drop shadow"
       width="1.5"
       height="1.5"
       x="-0.25"
       y="-0.25"
       color-interpolation-filters="sRGB">
      <feGaussianBlur
         id="feGaussianBlur4467"
         in="SourceAlpha"
         stdDeviation="8"
         result="blur" />
      <feColorMatrix
         id="feColorMatrix4469"
         result="bluralpha"
         type="matrix"
         values="1 0 0 0 0 0 1 0 0 0 0 0 1 0 0 0 0 0 0.8 0 " />
      <feOffset
         id="feOffset4471"
         in="bluralpha"
         dx="10"
         dy="15"
         result="offsetBlur" />
      <feMerge
         id="feMerge4473">
        <feMergeNode
           id="feMergeNode4475"
           in="offsetBlur" />
        <feMergeNode
           id="feMergeNode4477"
           in="SourceGraphic" />
      </feMerge>
    </filter>
  </defs>
  <sodipodi:namedview
     id="base"
     pagecolor="#ffffff"
     bordercolor="#666666"
     borderopacity="1.0"
     inkscape:pageopacity="0.0"
     inkscape:pageshadow="2"
     inkscape:zoom="1"
     inkscape:cx="9"
     inkscape:cy="9"
     inkscape:document-units="px"
     inkscape:current-layer="layer1"
     showgrid="false"
     inkscape:window-width="1197"
     inkscape:window-height="945"
     inkscape:window-x="44"
     inkscape:window-y="10"
     inkscape:window-maximized="0"
     fit-margin-top="0"
     fit-margin-left="0"
     fit-margin-right="0"
     fit-margin-bottom="0"
     inkscape:showpageshadow="false"
     showborder="true" />
  <metadata
     id="metadata7">
    <rdf:RDF>
      <cc:Work
         rdf:about="">
        <dc:format>image/svg+xml</dc:format>
        <dc:type
           rdf:resource="http://purl.org/dc/dcmitype/StillImage" />
        <dc:title></dc:title>
      </cc:Work>
    </rdf:RDF>
  </metadata>
  <g
     inkscape:label="Layer 1"
     inkscape:groupmode="layer"
     id="layer1"
     transform="translate(-420.33821,-540.43075)">
    <g
       id="g4479"
       transform="translate(0,-3.500005)">
      <path
         inkscape:export-ydpi="90"
         inkscape:export-xdpi="90"
         sodipodi:type="star"
         style="fill:#ffffff;fill-opacity:1;stroke:#880000;stroke-width:7.53142357;stroke-linejoin:round;stroke-miterlimit:4;stroke-opacity:1;stroke-dasharray:none;filter:url(#filter4465)"
         id="path5501"
         sodipodi:sides="3"
         sodipodi:cx="27"
         sodipodi:cy="296.25"
         sodipodi:r1="60.562469"
         sodipodi:r2="30.281235"
         sodipodi:arg1="-1.5707963"
         sodipodi:arg2="-0.52359878"
         inkscape:flatsided="true"
         inkscape:rounded="0"
         inkscape:randomized="0"
         d="m 27.000002,235.68753 52.448634,90.84371 -104.897274,-1e-5 z"
         inkscape:transform-center-y="-14.75038"
         transform="matrix(0.12777628,0,0,0.13797348,424.55004,512.41127)" />
      <text
         xml:space="preserve"
         style="font-size:10.72597599px;font-style:normal;font-weight:normal;line-height:125%;letter-spacing:0px;word-spacing:0px;fill:#000000;fill-opacity:1;stroke:none;font-family:Sans;-inkscape-font-specification:Sans"
         x="425.49097"
         y="556.42438"
         id="text5511"
         sodipodi:linespacing="125%"
         transform="scale(1.0002966,0.99970349)"><tspan
           sodipodi:role="line"
           id="tspan5513"
           x="425.49097"
           y="556.42438"
           style="font-style:normal;font-variant:normal;font-weight:900;font-stretch:normal;font-family:Avenir;-inkscape-font-specification:Avenir Heavy">!</tspan></text>
    </g>
    <g
       id="layer3"
       inkscape:label="xx Screenshot"
       style="display:none"
       transform="translate(420,359.36218)">
      <image
         y="-102"
         x="-250.5"
         id="image3061"
         xlink:href="data:image/png;base64,iVBORw0KGgoAAAANSUhEUgAABE8AAAGGCAYAAACKfa/MAAAABHNCSVQICAgIfAhkiAAAIABJREFU eJzs3Xt8FNXdP/DP7ObCvVxTBAIaNlxCKIJSMUFEBGRDkYgYQX81CjzJ05o2AQ2gYuUlsUVQzD7S amKthqfVEEEDliyIXASSojxVkSVAsmARiBgw3OQSLjm/P/Y2e5/dnc0FPu/Xa5TMzpz5ntmds3PO nnNGOn36tAARERFRC2U0GrF161b8+OOPTR0KkV9dunTB6NGjodfrmzoUIiIKgMTGEyIiIiIiIiIi 7zRNHQARERERERERUXPGxhMiIiIiIiIiIh8ibP8oLS1tyjiIiIiIiIiIiJqV1NRUALLGEwBIT09v kmCIiIiIiIiIiJqToqIi+785bIeIiIiIiIiIyAennieCz90hIiIiIiIiInLi0njC1hMiIiIiIiIi IjnnxpOmioKIiIiIiIiIqJlizxMiIiIiIiIiIh845wkRERERERERkQ8ctkNERERERERE5AOH7RAR ERERERER+cBhO0REREREREREPrgM21HeetL3wTwAwMHVC0IKwFM6aqUdCjVjaMo8hvs4zen9sx3X k2Bicc1Hc/hcEhERERERUeMLueeJWr1V5OmYVy1QNe1QqBmDp7TCncfGOpfN6f2zHd9GNzUPfR/M c1uvlC0fTZ0vIiIiIiIicnb27Fkc+e4/OFVXh1N1dQCATp07o1PnzojtfTM6dOigynGcGk+UdjzR PeT4hV83NQ/mD1T4Jb4ZVUjDkj/Acx6bUb5D0pzy4RKL+YMF0D2UF/x72ZzyRkRERERE1EK1XdDZ 6e/zeXVBpyWEQHX1AZi++RrXrl1zeu37mmP4vuYYDuyrROIvbkV8fH9IkhT0sYAQhu0o3S/+oZec /q7+4DmP620NFtUfPGd/zbatv7S8ve5tu0B5yp+/GOX5sJHn0XWdv1iDybunc+ntHLmm6e9cNuf3 z9fnUf6av3hc9wk0X0o+I0RERERERDeMKOcGjKDbIIRA+fbPcPz7Gp/bXbt2Dbu/+jd+OP49ku+6 O6QGlICH7fRLs1T8qkqes/8d/9BL9r+VbitfJ99GHoP834EcN5DtQsmfa4yu65XkUcmxgs27p3Pp 632ybeN6PPl2zf39cz2ut9cCicc1vUDz5eszQkREREREdMNo5dJ4EmSdqLrqgN+GE7nj39eguuoA 4vsNCO6AADTyP4QQfhfXbb3ta6tUHlj5rH3dgZXPArBUMH3t77ou0LT8badG/gJZ72udv1hDybuv OP2l75pOMHlr7PfPW15djx/sZzPQfCl9P7lw4cKFCxcuXLhw4cLlRlgQJTktwaRx9swZ7N2zG4Ha u2c3zp45E1i8Mi7Ddnwb8PAfAQD7Vz5r33b/ymcx4OE/ov/Df8R+a2XRV5q2bVzXK5kOxFt8wW7n So38+VofyJQnjZF3T/lVIti8hfv9s+lvzZecpzwGG4+/vz19xpUem4iIiIiI6LoV5fxnMPWiI0cO u81xosS1a9dw5MhhDBw0OIijug3bURa6t+08rQ8lTdd1So8bSHyBbBdI/pRuq3aelG43cNqfAAD7 ip/xuI/tdSVpKV3XWO/fvuJngopPaTxK47XFMnDan+wNVbZ1SvNCRERERETUEnV85yb3lS5znvzs b93dNjn9xPc+0z19KvhJZk+fqgu6LqZ4zpOE6Y7KtLeK9cBpf0Ll+84VV6VxedrOdZ23tILdTk7t /CnJTyD7hyvvntbbzoVrXm3rg81bON8/NbfzF4/SeAM9LhERERER0XUjKrjJWf3Vl07JGk9SU1MV pVlaWmrfN9j6WEDDdgBg7/vuv+oDwCBbxdplvevftu1c02kuwz5CzZ+v9c1l2I78PfB1TtTOW2MN 2wl1u1CH7bh+xve+/4zic05ERERERHRdiA5ut3DXl4JNX9GwncRHFgMATO/N97qN6b35SHxkMQZN /xNM7813+9tfOr6GVaiRVmPmz19+AolV7bwryavStJSuC/f7F+h2ocYTbL4CyQMREREREVGLFnTP E991po4dO+OH45Yn7dh6lCjVsWPn8A/bUfK663Z7/jEfgx9d7NSosOcf853SkW+z5x/zvR5PSVr+ 4myM/HlKS2kelewvXxdK3j3FbIvNV75s+3ratqnfv0C2CyWeQPM1+NHFPtMnIiIiIiK63pyceNRt XdeNsc7bjDvito2/OtPPOnayN54EqkPHTkHXyaTTp08LwNJiM/GBtOBSISKvfvHoywCAb/4xr4kj ISIiIiIiajrdPuvt9PeJu78LOI2fzp3F9i0b0RDgE3c0Wi3uumcc2rXvoHifdR+V2OdVCajnCREF Zsj/szSc7P77PF5fRERERER0Y3MZyhNMHaltuw7onzAY+/Z8HdB+/RMGo227DupMGMuZLInChNcW ERERERHd6KJd5kEJsp508y3xOPnDcZyoPa5o+24x3XHzLfEh1ctcnrbDGh6RWm799RIAwNf/O5fX FhERERERkWvPk2DrSRJw24iROHyoGgcqTWho8DyER6PRon9CIvrExQNSaG0eHLZDFCZfrZgLgNcV ERERERERABwfeMjp79DqShL6xPVDl5juOH7sCM6cPoWzp08BsEwM+7OOndC9ZyzateugwrEUPqqY iIiIiIiIiKi5adu2Pfr2S/D6ulrtHOx5QkRERERERETkg8ucJ0REREREREREJMdhO0RERERERERE PnDYDhERERERERGRD06NJ726tWuqOIiIiIiIiIiImiWnxpP1u75tqjiIiIiIiIiIiJolp8aTCcNv aao4iIiIiIiIiIiajaLKbfZ/a5owDiIiIiIiIiKiZo+NJ0REREREREREPrDxhIiIiIiIiIjIBzae EBERERERERH5wMYTIiIiIiIiIiIf2HhCREREREREROQDG0+IiIiIiIiIiHxQ3nhydBv0kxaix6SF mPN5kEf7fBV6TFoI/aqTQSbghRqxydNZti/0mNTOq9rpyc6ZfcnehkOBxKFqTPswR37urWk7llXY KI9bjffIE9U/oyfxZrY8H3/Bm0eDS2njMm/vk/djWPaxnjsiIiIiIiIKiuLGk0M7Tdht/fe+Iwor ltaKaEgNGgoEFRvQaPEFpbFiixuDHR8vRM2CRODQZowMV6OEH4dWbUExElE0Z6ClgSTPBNzzMGo+ Xoiajxei6J4mCUsdd9ny8TCmoRYv/ibwxoxDq/6C9C3AkPQs1BhGIU7hMcbNeRjTYEJ6E72vRERE RERE14MIZZudxCfba4G4REyDCcXbK3FoqocKnIuN5SbnFXdMRc3HU4MKVO3YPManphDz2jjnTqZn DIYA9kYoRVSLyfoe3nMPxsHRGDakdzf7FuPmhDHvcqqf567476ldrf/uhn5xgP/uPd4NjO3qYa2v YwyE/h6geMtebJwzEOOCPzQREREREdENS1njydFKrDkEDEkfjSzUorjIhE+OjsJ/97K9vg3632y2 V7yHpGdhznfLkb7F8ndx3kIU3/MwapL3okeeCUPSs2Cc2tXSuyLP0Ujgtj4uBkMO1VrSjRuDHZ5+ cfcVmzUdW7qHVv0FI4tqMW3BQujLF7rHl2ZN8/AW6CetdD+ut3hd8g8komgBkG499p9RgpFFtc5x x43BjlzgSfl+1mMdXOYhtnCcO7ljtc4NFt7Sl3M5v+6fg4cxeftKvHgoBn9447f47177MGfSShS7 xmN7D++yHDsuNgZALXYXLYceHo4LBPwebVy2EOlbbHGcxJvZy/HiIWDagoVYdocsrkdqMdKWp9it Ps+l7fMkZ0nPyzm25hP3DPLciOEldvlx7J+HOQMVH2NcciKwxQTj51MxzltsRERERERE5JWiYTuW ngAxmDyiq71iu2andXiMrcJsG/7x8UIYp3bFuDmOoRbTFix0r+zZKorWoRk70mOwu2i5yzCVRPzZ +hoObcZyD0NYfMbmg+/4PBxXUbwx+MMbC1Hz8VSnynHc1N/KhlRYt8sdhbheo2C0njPbsJknV51s tHNnOYGbMXLSQnt6Tg0wPtN34fFzMBDj75K9J0dPYB+AIXcleGzIsfequGOqJW4Au4uWe5mDJLD3 qG9veRzWBgZYh3n5icvbsUYW1VqG0fgbVmSbp+U3m7HbW8OHj9jjpv7Wfj48fh6UHoOIiIiIiIiC oqDxxDqkArV48TcL7b+M795eiUOQDbHwWvH0zDYsZVqypZIXNyIRQwAUl8vmZujTzSlN9/lMfMcW NOtxLY0xluMqijcuEeN7wauNy1aiGMCQ9DTnXjuTFjr1OPBHnXNni9nR2GGrcCtK34W3z4Ft393f nXBq6PLH1uDkaEQpcZ5oNcD3SB4HjtVid1wipsVZPyvHan3H5eFc2o5la/CxNM54YW8kexjTtqz0 OIFrMOdc8TGsQ7KIiIiIiIgoOP4bT2y/0tsr2Vn4QxyAQyZ8IqvMep6LIcwUxtYc2Cb8RNwY/Nk6 DGXjMktPAaRnWXqeXAfcPge9EjA5DsCWvVj+Xa3PBiZPDTyOXhe1qDoWQmC2OA6fwJvlJqDPIGTd FQMcqsXycpPfhi91DERWegwAE4xhmwjYwzGsQ7KIiIiIiIgoOH4bT9x7FHR1Goph/4X8PffH3Pr6 NX5csqWxwFZhth3H9su7Ev5is9n93QkAwMHvnOen8NlbQM14j27Dk0W1sA/XAQCcxMHDAKw9Hg4d UR6bGufOl2DS9/45sL0nJhRv8dJDydqwYXufDq1aJetlYutdFIN+PUOJ2xrHIRPWHLass/Ra8RGX D7b3x3IsW4ye7MOb9iFHtu0SoXeZeyS099T3MSy9WtyPSURERERERMr4nTDWVnGVD2mwT+hpfbKN 8Q1A/5vNGDlpMwDHRJdxU+/BtKKVsklPZQnfMRU1C4AeecvRowj2/ZbdAUDRr/In/cdmGI0/xJnw 4paV6LEFGBJnec2+rWt8aa7HUBivz14uJ/DmUtskqpbhRS8Clt4yjyTixTwTXvzNQqyJc24sCe+5 8yOY9Hv5+ByMSMSQos0+hsZYGjZeLLI8Eaav/DwBsMwl81vLUCdf59pX3IC9sWT3oUTMuQMABlme 0ITAe07FTf0tir5biPQiy7FcP1tyVUWOeCx5meo+Yayf2P3xfox9MG6B90lqiYiIiIiIyC/p9OnT AgBKS0uRnp7e1PHQdcn6dBv4euqP9Yk3LXSyU/mTnJQ2eDQGy1OGElH0sYcGGyIiIiIiIvKqqKgI qampAJQ+qpgoFPbHSfsaGjMQyz5eiGWNGJZ69mF5US0QNwZZzajhBLA8VapmTlNHQURERERE1LKx 8YTCytLzAZZH8E5tgkmFw8baU8b2Z5yvXjVERERERETUkrHxhMLq+u350JJ7yhAREREREVEg/D+q mIiIiIiIiIjoBsbGEyIiIiIiIiIiH9h4QkRERERERETkAxtPiIiIiIiIiIh8YOMJEREREREREZEP bDwhIiIiIiIiIvKBjSdERERERERERD6w8YSIiIiIiIiIyIeIpg6AiIiIiIiIiK5Py5cvx9GjR1Ff X99kMURHR6NXr17IysoKOo2gGk/+c/hrmA+ew+nTZ4I+MBERERERERG1XB07/gy6vu1xc59bPb6+ ZOlStIqOxuzZs9G1a9dGjs7h5MmTWLlyJZYsXYq5ublBpRFU44lW2xO/GBKFmC4/C+qgRERERERE RNSy1f54BmfPXfD6+skTJ5Cbm4uOHTviwgXv24Vb586dMX36dCxdujToNIIetmNpOPku6AMTERER ERERUcsV06W3z8aTK1euoHPnzk3acAIAly5dQufOnXHlypWg0+CcJ0REREREREQUFkIICCGaOoyQ Y2DjCRERERERERGFTXNoPAkVG0+IiIiIiIiIKGyuh8YTTehJmLB82lxMky3z1tQCNZsxb9prWFNj 28b2b5Xset9yvHmboV6yYYgzbMeS7e90rhs7DiIiIiIiIqJAfYs3xndCp07WZfwb+BYAsBGzO43H G982cXguVOp5chOmL5uNyT3k68bg5eIxHrY1Yfm0jYh12z4QJix/9SuMfGoJsoYHm4ZasTQDPbyd ayIiIiIiIqKmI4RAQ0OD88pv38SE259Dwsof8eNYx7o3P2nAf48VEABEQwNcdws1jlC04GE7NyG2 Z1PHQERERERERES+ODdcHMKbv3kOA4tP4tV7Bewv3ZyJzJstk8taGk9krzUDYWw88dSrw4Tl01Zg BwDMmYv3Rz6G4qxEy7CTOetxGAAwFE8VT8dw6/4YCezY0d26zj2NiulP4+XJMS5pQNYrRVk6llis Ox9zpNXHlj7gJU73PDuONRifO50DHz1d/KbtvE2f6RMQ6/Fc12LNvFfw/mH5ebC+/tQQVLzqIV8y u5bPxas7bCfxMRRnxWDNvFdwZKqsl8+u9zFt1c+x7OUxaMkddoiIiIiIiCj8nBpPDn2CNbsew1P3 +mkcEdbXDxUg5Y4F2AUAeAzFJ17FvQA2PdUN01ZYt32sGCdevRfAJjzV7VXgMWDFioH2bdWgUuPJ 93h/zly8b/3L+3CaRGQVPwa4NijM2Y2kZUvwcg8Au97HvDW1GD7Zku6R2KdRXByjII31iH1qCV4e Dmsjw2tYY39deTrA93h/1RAsK16CHrvex7RXN2HXZGtjjsc4XRsg5Mcy4XNF509J2s55rFnzGuYA mO6a1K5NeD/2MRS/nOgWlz1fNZsxb84/sGa4eyPO8Kwl1kYkS4PLmimzMXnqUEz73ISs4ZY0d33+ FUZOXcKGEyIiIiIiIvLp6tWrOHv2rGPF+XpcG9YHMWfP4qzHPc7jCq6h/vxZnD27FQvu+BATNh9E cR8AWxfgof/Zg+GP98HwFw7i4AsAsBUL+i7B/zw+HI/3OY8r2IUDfTbj4ME+gOwYbdu2DSkfYZzz RKGaWhzB99gha3zByMH2dJOGu/eO8JzGUEy1Ndj0GIOpI9fj82OApYavMB3rMadnW3tUDB+MkdiI mhoA8Bana7qBHEsev5+0a2pxpM8EZFvz2GPyOIx8f6N7Wj1/jj47VmBerGvPElm+3M6PzK73Me3V rxz7AJbz8Ooe7MpKxHCY8PmRCZiSBSIiIiIiIiK/nOY8aWiA+PIgDjU0yEZTyAkIWOZJafj2EPbj S7w/pi8W2V6edi8aGmKBz55H/Kxi68qheK6hAQ0NAgJDob871n2elRA1kzlPPA+BaX68DKdpTmlb J4+tWfMapk373ksvoFrUHAFwh8vqms2Y9yrwVPESDEct1sz7h/WFREyZvhGGNbXoiY04kvQoe50Q ERERERGRIk7DdnqPRsrQl7DxsxcxapSX7S07Wf6Ph/HXqkWQbyr+8y4eniXw16oqjMJhFD081z7M x76vyvOlqPCo4hD1iEEsvsKqNbUhp/H5LuvfNZuxasdQ3KFmK0dQccYgts/3OHLM+ueuPdjhaTMl afeIQezh9fjQmseaNRs9p2XbfPJsLJt+E47U2NL8HhW7rP+uMaHisIfzc+wHHO7zc/S0byNLb/gQ oGITPqxA4D1riIiIiIiI6IZke9qOY4nFr3/zMFbO6ofnt8rWf/su3rX+DVifthPbB/2wEn9+91vn NL4146uhfRHb0ICGb7eg7Cvb03lk+7osLfBpO4m4Y+QKvCqbMDZr2QTMm/MKptknTZFN3qowTUsa czENgG0Ykf+2E9dYlBzDNU7XuUXkYizzhbw619LQMXIoRgaddiKynnKk1Wf6BIzEbveknIbdDMVT xTEAagHchNgj/8C0ad9bkn9qifv5GX4vpq96BXOmrQf6DMXIPrLXeozB1Ni5eBWPoZjdToiIiIiI iEghtyE0I19A5fo4PDphAAbY1g19Buv/YRt6AwjRgIaGkXhh/TN4dMJ9GPBH63ZpBahc+ASeeWMC 7hvwR2BoGtKG2raX76tuHqTTp08LACgtLUV6erqinY4cPYHYXt0AfKduNBQmPp7yE4Bdy+fi8zu8 TQZMREREREREN5beMP/ne+huvsnjq7Nnz8ZLL72Ew4cPe3y9MfXp0wfPPfccXnvtNcX7FBUVITU1 FUCzmfOEmr2azVh1ZAKyOVEsERERERERKWQbttPUWuCwHWpZarFm3it4/7BlKBRH7BAREREREVEg mkPjSajYeHJDSERWsa+5WXyJweSXl2CyqvEQERERERHRjUAIEXKvD7XiCEXQjSe1P55BTJfeIR2c iIiIiIiIiFqm2h/P+Hw9MjISp06dQs+ePXHkyJFGispdbGwsTp06hcjIyKDTCKrxpHOnyzh1PhJH a08HfWAiIiIiIiIiatlu6uZ9SE63bt2wevVqPPTQQ9DpdI0YlbMzZ85g9erV6NatW9BpBNV40rZt T7RtG/QxiYiIiIiIiOi60NHrK7m5uXj55ZdhMBhw5cqVRozJWWRkJLp06YJ58+YFnQbnPCEiIiIi IiKisAilwaI50TR1AEREREREREREzRkbT4iIiIiIiIiIfGDjCRERERERERGRD2w8ISIiIiIiIiLy gY0nREREREREREQ+BPW0nUWLDWrHQUREREREREQUds/Pzw54n6AfVfz8/Gwp2H2JiIiIiIiIiBrb osUGEcx+HLZDRCE7d+5cU4dARM0EywMismmq8oDlEBHZnDt3TrUygY0nREREREREREQ+sPGEiIiI iIiIiMiHoOc8ISKyESKoYYNEdB1ieUBENk1VHrAcIiIbNcsD9jwhIiIiIiIiouuSWg0obDwhIiIi IiIiIvKBjSdEFDJ2jyUiG5YHRGQTUnlQmSEgrjb+cYnouiKEaDk9T4yZkpAyjSFEaxSZUrIwmBGe UtBsEMlqpa9mWjbGTCFJknXJFEaE6TwQhY2naziM17XZIJLt14wkpGSDMPO6IWoWjJmya1O2JBvM fq7RxrgXYLlB1Kwcewv4coLA1dMqJ2wUmZL3+onZkCykcJY3niIKpb4UjvoH0XXo2rWGkNMIb+OJ 2SDyTBnIMOVB+QUd5hsk1/R12VK5KJeydZCaNi0PzAaRnAKUWVvLRHUCqowejqs0PqIwaTa/8JgN Ijm+BGnVAkIISQghlSVWorqp4yK6gfgqD/QFlutSiDJkIAn51mu1PFunzvdmMFhuEIVNyPcHdZuA L+4UuHAwoIT8HzcJSR7rJ0axNKciwCBDFHB9Kcz1D6LrjJr1lJCetnP16jVc9dGCc3DNSjRMeRu/ x0zMWrMPmVk6JaniGgSuXL6CS/We/g6VmumpHZuLShMqRgxE7/oruAQAsb9FZuwVXKpXetwwx0cE IDJCi0v1V8TVq9ckz+WBp89hOD6bZrH81zkYuOYyMmOvSLZ07/mf5RJs1xARhZX/8sAm0DIgXN9n LDeIwsV/eSAQtfdBofnxn74TOr8f4vMRuDKoRDT8bKTfBgKl9yUDBwLFrvWTDR+icOYszHx7b6Pd PwdeX+L9PZFStvKgoeEa2rfvIF28dBmtW0UFnV4Ye56YhXEV8KBeh776qcAqIw7au8CuF1mt7hbL D7r+vV5ktbofb+NfyB0UhdZPrnc0E5lfxz2tokTrVlHinuWy7r0HXxe29a1b/VZsAIQ9veW/ta63 7eMpfddYzGL56Cj7flkbLOs3POlY59jPT1pOsTnS8h6fi/vux8ydT2HWcrNs5Xp4OkdBxef0t+d8 EykTysfFy2fPx7Wd9eTdsnVWB41YvXMWJt3n7Tge9vV3jXq8Vqz/3uDY1+P1S3TDCuFy8HpNyq0X WfbvOtd9/N0HuB6P5QZRePn4mDfUw2/DiZV09SSivpkA7Q//q/C68b/ZgDnPYNDTy+C4lzCL5X/a i6Vz7nfeMOAyxldZ4MpXfckak9M9UiPUP4iuO83kUcUCjglY3BZzGVbjQUyIExBxekzBBygzy16H y/YQEOI+vH5xDWZgBJaY6nFh+X3W1/6F3D8JvHWxHhdKZ2Hn08uwQQghhFE8OegDTDHV48LFelwo BRa/bnbss28SLlyslxz7eEvfFodZvD46AasfrLTsd7Feen28kIQQGL/c8veFi2sw4+0/4nWzv7SM 4slBTyGh1Bqb6RXsnTwKr5uF8B6f9TX7cp/0+sVKTFmVgNatovDkeo/nKMj4XN6H9cuQO2iNW765 cPG3AEBDQ4Pv8sD1cydf5/js4cLFerw+XsDftb13wNu4cPHP0njh/DnFiAHoa/23+fVR1puDUUJ+ 3Tn2NcL3NeojD/IyyfQK8PQMx35cuNzAi6LywLa4lQv+vjcFhDDj9dH3Q5TavtcCvQ+wpiWPmeUG Fy5hWZSUB4FVPC4j8sBMRBx6TgjRENJxhbXeMWnmX7F2vXWdvO7idD8fRBnjqyyQLz7rS071Eus9 UmPUP7hwuX4We3kgBCQVBraFrefJQeMq4MEU9AUA9IX+QWDua+uDTG0Elvz1d+gLSLhvEmbAhKqD AA5WoxI7MTcxGm1aR6NN6l+xc3+1Y5/ZEyz/lO/jM+gyfLhzFuZn9XV/bcOTok3raNGm9WT8TUnI B6tRiVm43/ZrVt/fYf7Mndhv70SiNL6+UtaWeumC6RVUpkYja4OX4wUanyvdAIx4ezLGLA9sTClR yByfPcc6P9f2FL2HaxQAdu6HLZW+WZ9ZGhOdNpDt6/ca9cVeJgW4HxF5peCa/HBWAj58sBLL75Pv E+J9AMsNohZEgojoCKg0vcf42a+gcvHrOAiIT157Ggnzrdeojdp1DRc+60u+6iVeE1Sr/kF0fZEk CUKFWm6YGk/Wi9dyd2JnboKloGkdjcG5O4G3P8Ynqs9ePwul1tbYCxfrcWH5BHWTB4CDr4sxqbAe pxJLRqh/CL/6/k56a+kI/O1jDw1QasTX93fYfLEeb2EG2rSO5rAdUkyS/E3EFI8Brp/Jg9WoRCL6 9QXQ93fS5ov1kvWzJ2sgDPDa7huPhCa5CTiIqr2NfUyi5sl/eRCKnQBGyCouNiHcB7DcIAob1csD TRtcTliJq7FP+2w5Cei4fVMwBatg3PA6Fu99BbM9DuELV12jMetLRDeBtOUKAAAgAElEQVQmW3nQ PHqeeOsis2Et/jbiFXxz4RLOX7gkWZa9WDLir1i7QUAIHQaM2In9Ztn29vRc0/bxd1w8EvBXR/c5 Jfv4TE+PKSM8pGfeh50jBiBOCAhzGT7cqSQtS2yW/AoI8+tY/PZMTBqvJI+28/K6WG7v0msWxtU7 MaK/zn17xfH5Ou+WJe7JrfhmyQhUVrmeUy5cvCyWj5D38kDESfEJOzF31uuwfJwFNix7GjtnTMI4 2bCbuCe3SvbPnuJrW77cJ+UsAeYm/lbWBdXHte/zGvVXRu3Eh2XW2Mxl+HCnbT8uXG7wxW95YFs8 XMt+vzdHYMpbW/GRmIwxtrIhqPsA+cJygwuXsC3+ygMpCtc66aGEiOqBS7/YhKud7/c/rNxvOSS/ ruOkJ+cPwtzUp4EpesQJIYmQ6xr+77ft633Vl7zVS8Jd/+DC5XparOWBEI4pR0IRlp4nn6x9GyOm 6C3DbOz6ShOmjMDf1m4A0Fd6cv5M/C21Fdq2aSXaroWsi+x90qQZOzF3cCu09TpGxbHt63teAeYO Qts2rSyLgn28p99XenLzGiRY0hNt27QSv/sEAuPnYAmexi/atELb/9qHhBFK0rLEVplqjWvwKkzZ 82eMD6Sf4fh47B9sPUdtBmFuwhpsyuoruRw3gPh8nPdPnrSfw1/MHYR5gXQRJPJj/PK9js9om1bi gcpX8I2t3/0nTwrb9eb47AVzbQN9s7ZK50uBB9rYrpvJqFzyNp7s6+m683WN+iqjAGAEEvbPtO73 NBJKA7y2icgDZd+b45fvxZQPB6HtmOU4iPsQTFkhx3KDqKlIqB/0kXRh5CWPi22rhnZDcWlIORra DQ3P9TJ+DpaMmOnl3jeY+xF/ZYGFovqSo16Ctm1a4XefWGIKa/2DiLySTp8+LQCgtLQU6enpinZa tNiA5+dnS5evXMWVK1fDGiARNW+toqNwrOZ70b37z6UbozzYIH7fdjH6f7PFS+WK6MZ145UHSrHc oBtPqOVB2/LW4lqXSbgU/24mtG0KG+u4RHT9sJUHANCzx03SpfrLaNumFRYtNojn52crSqOoqAip qakAgIhQgrF1hyGiG5u8e9yNQFj/e4NklyggN1p5oBTLDboRhVIeXLlpNupvXiRB0iDQC4flEBHZ yMuBUMuEkBpPiIiIiIiI1FZ/y0vspUVEzUpojScinLPqE1HLYP1l54YpD8ZJhnPjwF+QiTy50coD pVhu0I2oqcoDlkNEZCPvgRZ6b7TQhu2oEAARtWy2matZHhARywMismmq8oDlEBHZyJ+w02yftkNE REREREREdL0IqefJoYNmNucSEQCWB0TkwPKAiGyaqjxgOUREclUHDggASEhICHo+pZAaT/r168eJ nIgIQghIEosDImJ5QEQOTVUesBwiIhvbUB01yoSQGk8iIviwHiIC6urqMjp37lzY1HEQUdNjeUBE Nk1VHrAcIiIbNcsDtn4QkSqEENi6e5so/rQE+787oGifAb37Y9rYNIweMkriL0RERESkFiEEPt32 b/Hu+xthOnBY0T6J/fvg8enjMHbUbbwvISI3bDwhIlV89s0OkZmfFdA+35t+wBbTNhTO/osYPeQu 3qUQERGRKj7d8bWY/PgfA9qn+j+1+GjDLqxZ8bwYd9dQ3pcQkRM+bYeIVPHB9tXQRmndlt7dYxHX 8xaPr9mWD7avburwiYiIqClUZgiIq6on+27xFmi0UUEt7xZvUT0eImr52POEiFRRVWuGJkpr/7t9 q3Z4dnIuhvQeDACoOX0cC1e/hKN1xzzuS0RERDegY28BFw8JDFklIaKjasnuP/QDJG2U/e8eMR1R d+Y8LtVfUbQvEZEr9jwhIlVoI517k2SOnWlvOAGAHh27I3PsDM+9TyK1PlJ2YcwUkiTZl2SD+o8i NGZKTsdwOpbZIJKlZGEwIwyPQDSKTJdjZhrVPI4RmZbYXf5NRETUhOo2AV/cKXDhoGrfeZI2ApqI SPtyx7B4rHsnB78aO8xpvadF0ir5fdn9O1v5fYJRZHrdxttrYb9HkB3XV3xENy42nhCRKjRRGmij tfbl9luG2V8TEFix8z2cPF+Hvzz2Gh5JSkP79u3s22qiFBZFxkwhpZiQXy0ghJCEqB6dVhIPtRtQ 9AVCsqRfJmUgyX688mydBF22VC7KpWwdwjQWOkmWPyEV6MN1HCIiosYggK8nC2yUPC825/cDX4wA Tm1X5Ttdo4l0GoojaSLw864dsHjuA/j7spkYPOBm70N3NJEKj+L8nR3++4Tr8R6BDTXUcrDxhIhU oYmOgCbKsVy6Wm9/bU9NJYb2uRX3JdyL2E69MH34Q7h/6K8c20cr+YXHLAx5hcgoK4fjhkT3WXZR PpCzFEYgPTw5IyIioqA11AMn1irb9spJ4N9jgZqikCvSkjbKedE47jV+MaAn/v7qY3hx9iR07dLJ fVvZcB8iIhs2nhCRKrSRWkQLoOOZenQ8U4+NW4tx9uBB1NfVYfdxEwbflOC0fXLcCEdPFSXDdszr UFKRgVS9y3rdxNFpSSZUmVFkH4piyPQ8rMdsEMn27q6ZwohgfuXwMPTF6Eg30whhNiSrfHzrrzIe 82WJITMz2ZGm03EUduv1GJtr2mZhSA5Xd2EiIiIA4jKw93Gg+hkR1Ne0lVYb4dLzxPleQ5KA+8cM wto3ZmDGQ3eiVavW9m21iobteOPSk0LJd79sm2RDVXDH83yPIEK/R7CmH9K9jrcYjSJTSkEhKpAT L0HKNPK+gpo1Np4QkSpivjyMiS9XYLxhF8YbdkGb9QrK7r0XpbffjnYrt+Bg3bdO2399fA80UVrL EqmwKEpKQDww2v2FClRW4x3bv3MqUy1dWssyUGHplSIAY3pmfAnSLN1dIcqAPFUm/KhATh5QJARE WQYKUySko8j1+OnKj2+9gXDcdDjWu+cr3faaKaEIQhRIehgfz4zPQWKZtVtvdT5MKcnwM/baR2yy tI1LkZNYdp11FyYiouZHgmXy2BC+ZiSXniQa7w0ikibCeVtJac8T+Xe2p4YIo/D/3W8Usu9tFKEE hYqOJ2+I8XbvY3lNdo8A+bGU3SNY0/d/ryN859dTjHoUiDLYh0gX6HlfQc0aG0+ISBU9jJWIuNyA Dr16YfSSJZj03nu489lnEdW+PS6u2gDjvjKYTuzD5WtXsP3Iv/D1SZN9wljFjScVlagGtrq/kISE eDxh+3d+rrV7ij5VyoAJVWYA5qoik+OmA1JKISoqq1XojZKE/KJs6ADJcrwkpE3UuR6/yOvxPaVn H89cIOnl63OtNxXydK2vpU3UWV4zVxWZkIFUW8OGLltakFEBj4ey8RmbLD/xCUgqTFF9jhkiIiI7 TRtgyGrglnkhVaQ1EZHQaKMdi+TceCIE8M9tZjw45yOsWFuJqw0Rjm0jgpvzxO1HBXMV/H73m6tg SsqH7dZFl70AGf6PByEK4HKPYPmnPhX2ex/ra/bvcXMVrPcItoPB7z2CLX3HvQ5c7nUgu9fykV9f MRK1DGw8ISJVRJ2/jDbduiH9yy/RvlcvHNuxAzG33oroDh2guSYwq18aoiOisOHwJvTvosPzyU9j 1tBfIyo6yukRx17pJiItqRClRpf15nVbSyoS0U+nZM6TDJQJx02OKNBbJ3azTRBbIOlD+pkriOM3 Gwpis56rIqSDw3aIiEgRTTTQdaKybaN7AsO3AzEPhP79qImEpHUskA3b2WM+iRkvbMCiwi9Qd+6q 03aWbZU2nihh/361LAWu44+vNzdafulGwsYTIlJN/ylTcOHECXz8yCOo2bkT323ahA6xsfbX4zv1 xaS4CYhp0w0AMKb3KIyPu0fho4p1UvaCDBSmZMq6olq6uiI/F3rYemF4271feiIKVRqqE4TGOr71 OKVGx1jrvEIPc8WEEJsuu1yqzk+CiT8ZERGRXxIw9J8SxgnPi02HYcAvvwA6DFPlhwXJ5Wk7Gk0E ausu4oU3vkDGoq3Yf/ic16ftSGo1nuj6we/3q64fEitysNT645DZkOdj2I468dh/iDIb4PceIYj0 m+xeiyjM2HhCROqQgIjWrXH53DkAQMe+ffHL3FwMmDbN527Duw+DRlHjCQB9gSTKgBTJNt43BSgT KM/WKbjR0hcVVOcDOfH2scmNOzGZ0uM7j59ODvgGxHIcU4o1jfgSpFUXwHePGoWxGR0TvcXnJGJB ti7A2IiIiDyISQVu3y6hVQ/VemRqtM6NJ19VncL0Zzfj013HvT+i2L6o1fNEL8m+Xy1LpmsXWr1U YJ1HRJIkpCPNx7Ad2ZAYSUIQ9wiS7B4Byu4RAk/fd37d90nN4ISx1DJIp0+fFgBQWlqK9HRlT/pc tNiA5+dnN6Pu5kTUlOrq6jIKdb0LunTtgSe++QblL7yAI9u3I/mFF1BXVYVPf/97pO7ahVbdurnt KyCwoqYEf7hzLssUoutAXV1dRufOncP2wykRtRyKyoMDcwX6LZYgqfebbl1dXcb85f9XYNzxrf+N PdCPvAWFfxjP+xKi64CncmjRYoN4fn62ov2LioqQmpoKAAjlOVxERHadBw1E3Y7/wwcTJuDO555D 4hNP4OzhwzCvXQt0aocPftoEcVEDAQEJEjSSBhIknL36E6YM/FVTh09ERERNof+SsDRSPJoyCBt2 Hgt6XyIiV2w8ISJV3J//JtY9MxuHD+yFeUaaff3Vzm1R9/Td+AlHgWvO+9zcPhYP9r4ft3cbwl93 iIiISDWjbusprXjxPrHy04M4cPi0on369+mIh8f2xajb1Bs+RETXDzaeEJEqut92mzTzk21NHQYR ERERJAm4+/Ye0t2392jqUIjoOsEJY4mIiIiIiIiIfGDjCRERERERERGRD6oO2xFCYP3nG8XbH7+D PYdMivYZHJeImZOewIQ7xkmSxOGFRC2VEAJbd28TxZ+WYP93BxTtM6B3f0wbm4bRQ0bx+iciIiLV CCHw6bZ/i3ff3wjTgcOK9kns3wePTx+HsaNu430JEblRtfHkky82ipTc+wPap+poNVZv+wjrX1kr 7ruDjwQjaqk++2aHyMzPCmif700/YItpGwpn/0WMHnIXr38iIiJSxac7vhaTH/9jQPtU/6cWH23Y hTUrnhfj7hrK+xIicqLqsJ231r1jaY4JYnlr3TtqhkJEjeyD7auhjdK6Lb27xyKu5y0eX7MtH2xf 3dThExERUVOozBAQV1VP9t3iLdBoo4Ja3i3eono8RNTyqdrzZM+RSkCrrJE2a9Jv8MmXn6LqWLVj XyJqsapqzdBEae1/t2/VDs9OzsWQ3oMBADWnj2Ph6pdwtO6Yx32JiIjoBnTsLeDiIYEhqyREdFQt 2f2HfoCkjbL/3SOmI+rOnMel+iuK9iUicqXuhLFa+O9lEilh0WMv4OnUbPz9qb8htnusZb3Wc5LG TElImUYRfFBGkSklC4MZIaThg9kgksOZvkdhzhNRELSRzr1JMsfOtDecAECPjt2ROXaG594nkV4K gCZizJSEJLkvyQaz+tec2SCS5cdJNggzeG0TEdENpG4T8MWdAhcOqvb9J2kjoImItC93DIvHundy 8Kuxw5zWe1okbSC/L5uFIdnT97jsfj2s9QWjyHS6XwnlOI1dx7DG7qWuZzYkh5ifxib7LIT1fk7+ PrFe2JjUbTzx03CijdIif+YS/Pru6QCAqw1XoY3UOLZxZTaIPFMGMkx5UP6BCPcHyCV9XbZULsql bB2CGBfJDztdPzRRGmijtfbl9luG2V8TEFix8z2cPF+Hvzz2Gh5JSkP79u3s22qimteDv/QFQhJC SEKUSRlIQn61gBBCKs/WBXid+7nGzQaRHF+CNGv6QgipLLES1SrkgYiIqHkQwNeTBTZKnheb8/uB L0YAp7arcl+s0UQ6DcWRNBH4edcOWDz3Afx92UwMHnCz96E7mkhlBzEbRLIUj8oFAkJYlyJgndFl u5DqC4D/OoP9XgXV+UBOugEt54eYJCR5rOsZxdKciqYJKWg6Kbu8DBlIQn5RNnQI9P1m3bC5U7fG opEsw3a8LPlPLEXq8EkAgEO132LKa4/gP3XfWV7XuH+2zOtKgLRc5KYBJevYrZ+oOdNER0AT5Vgu Xa23v7anphJD+9yK+xLuRWynXpg+/CHcP/RXju2jVR1B2EKYhSE9B4ll5ZDfTOkLCiR9wF+2RERE zVRDPXBirbJtr5wE/j0WqCkKufIoaaOcF43jXuMXA3ri768+hhdnT0LXLp3ct5UN9/HO9j0uUKCX rdZlI1vvdaew02UvQEZFCVpS1Skx0UNdz1iKwowMZDRNSEQeha/nSaSE2J/H2v/+1S9TMGlYCgDA dLQSDy7/fzj+03HnfZyYxboSIG2iDrqJaUDJOlkLqmurnO1vo8iUUlCICuTES3DqAlZtQLKnrvdO XeYzhVHezc6Q6dJd31P6rrE4d93LNFrWOw0DsO/nIVaP8TivTzZUqfaWEalFG6lFtAA6nqlHxzP1 2Li1GGcPHkR9XR12Hzdh8E0JTtsnx41w9FRROmzH8/WKTClZGIyO1zKNEJaunv6uecc1GhD3OOB+ 7fsojwDAvA4lFRlI9XqDZclXZmay4xheY7eeA7Pzvpa/3c9PWIYfERERqUFcBvY+DlQ/I0LpPKHV Rrj0PHG+15Ak4P4xg7D2jRmY8dCdaNWqtX1brZJhO36/x+Vc6gsh1z+Uc6+D2DPgsc7iHLNjH6/p ONVRDAry6S4hdwESc5bC8bpZGPJMyM9NVZAXb+fNT/4DjttyHNl9mYL3wVdsyu4bvb9/1BRU7nmi sfcyeW7yPBif+hDJA5LQqUMXvPjAAgDAyZ9+xKNvzcSpi6ece6ZoXEIxr0MJ0jBRB0A3EWlQ0oKq R4GwdpWqFhD2ZuAK5OQBRUJAlGWgwn5xGkWmo8s8RBmQZ699VCCnMtXSld6+j7f07UELQ3I8StKq 7V3wC/SWX5BlwwCQUZgHg9lTWt7iMYrMeEvLthACRShBYdBvElF4xHx5GBNfrsB4wy6MN+yCNusV lN17L0pvvx3tVm7Bwbpvnbb/+vgeaKK0liVSSVHk53qVXeOFKRLSUeRy/SIdMKbLriVJVOfDlJIc wLBAr3EIGJdKOYllsmtfLxXIh/0U6N17kyQlIN76T0djj7wRpAKmhCIIUSDpYUTwsdvPz2hh6c8b YJ6JiIgakwTL5LEhdMSUXHqSaLw3iEiaCOdtJSU9T+D0Pa5cyPUPnyfFbMhDYZK1DgVPdRAIlzoL hHDpPQMzDMkpQJnjeJ7T8VVH8ZVPV3qkZhSi1DbcSV4PlG/lMQZv583ymrpxy+/LlH44vcRmXArr faP1/Ht+n73nmZpCWCaMTeg9ELPuegztWrVD0cwCrPivAnRu2wkA8PzaRThz+Yz7nCguPzxbhuxM hOWa0WFiGpCz1HUAoVKycWf6VGTAhCozAHMVTLbWPUmClFKIispqxz651lJEvo8v1hboBdk699eM thbHFO8NH97iMVfBlJQPWzi67AXswkbNTg9jJSIuN6BDr14YvWQJJr33Hu589llEtW+Pi6s2wLiv DKYT+3D52hVsP/IvfH3SZJ8wVlHjib/rtShbclzjSUibaJ2fRJ8qWa/fIpirikyQ/Uqky5YWZFSg MpBJRrzFEZ/wTlJhCgLq1VHhmN9El11u+WJ02kCWD3NVujV2KfDY7WXgZ0HlmYiIqLFo2gBDVgO3 zAtpCKsmIhIabbRjkZwbT4QA/rnNjAfnfIQVaytxtSHCsW2EwjlPKoKYp0zt+oclEHt68TmJKCuX zbfhqQ7iq84CoCTd0rBi+xHYezo+6ig+8+lOn5sPU55lrhbj0hwkLsiGW3Re61M+zpuqcSchzbVF xy8vscUnwHrf6Ht3JXVIajQqN55YepFU/rAfT5Y8hctXLyNCG4HBPQcBAD7ZtwnGyo3e50Wxs0wQ VJETb/nQShLicyqAwlIo6yIViAyU2SZ4Ep56k6jAbBCWxlsBIaqRn9TE8RCFQdT5y2jTrRvSv/wS 7Xv1wrEdOxBz662I7tABmmsCs/qlIToiChsOb0L/Ljo8n/w0Zg39NaKio5weceyb/fqwtML7+fUl fDzEoct+olwIqQjpUDQcSNcPiYpvitRkvrvK1NjHJCKiG5YmGug6Udm20T2B4duBmAdC/37XRELS OhbIhu3sMZ/EjBc2YFHhF6g7d9VpO8u2ChpPdBORliTrLREQte/3HZPbO/WKCKgOYlMBIMm5oSOo dICA7ttsIw2MBuSZHA0bIcUQetzhq4/pslEuBKz3jcj09DkKOn4Kl7A9qrhs3wY8umIWzlw6CwA4 V/8TFpTleX8aj7zuZCxFYVI+quUXm6hGvr2AikdCkuyXU2NpcC1xun5IRKGPLmSBpmcpRN3Sq65E ha1bn3kdSrxNHO0tHl0/JFbkwNbxxmzIY8sjNUv9p0zBhRMn8PEjj6Bm5058t2kTOsTG2l+P79QX k+ImIKZNNwDAmN6jMD7uHmVznqhxver6pSdC3i3UIPIKlY5XVhaHLrtcqs5Pgslvq4heys0HcuIz lTUK6/oVWWO3j8d1xB4/2VomvgMAMJYK5zKiwjERm3ndVuVjtImIiEIlAUP/KWGc8LzYdBgG/PIL oMMwVX4YkVyetqPRRKC27iJeeOMLZCzaiv2Hz3l92o6k6Gk7Oil7gWWosFPF12yAwVeDitr1D1+8 1UG81VkAAElIKypHGWS9ab2m46OOEnA+dVL2gkTkpOTYRh84fw6U1qcU5V/NuEOjyy6H1/vGYPJM YaX+hLFax7Lr2L8x5Z1HUXPme7z06VLUXqh1et1pkfWkM5YWIsntotFJE9OSUFhqhLywkiRJSKWQ dXXXS6kZ9ol2/ASslwqq8wFZDxcl+3hP3/J4qkRLeo7Jl/S5yEcO4iUJUnolEpO8peUtHr1UUGbP L9KRxmE71PxIQETr1rh87hwAoGPfvvhlbi4GTJvmc7fh3YdBo2jCWKfrI8iJs/RFBdX5MNnKjvgS pFUXILCn23iJw+iYDCw+J9HaFVYP2TXuFqsuu1wSZUCKZI1HSoEpvwiee9Hq4T123Rprmfi4e5kI AElIrEy37peDxLJA80xERBRGManA7dsltOqh2neTRuvcePJV1SlMf3YzPt113Psjiu2LwmE7+gLr HGSS4949HZjo8weKkOsfyu99vNZBnOosHns+6AuqkVYSDynZIMw+6jLe6yhB3Lfpc5Gf5GU4kdcY gsm/4ri9vz/GTCElG4TzI6HNwpBsnfTV8rho74yZshEW9vtG5/c5mDxTWEmnT58WAFBaWor09HRF Oy1abMDz87PdCrepBY+K1V+5P4qsU+tOOHXxNHz9uPrg0PuxKvMfvJknaoHq6uoyCnW9C7p07YEn vvkG5S+8gCPbtyP5hRdQV1WFT3//e6Tu2oVW3bq57SsgsKKmBH+4cy6v/7AwIlPKEwnV5ZKXoc1E qqqrq8vo3LkzO0gSkbLy4MBcgX6LJUjq/aZbV1eXMX/5/xUYd3zrf2MP9CNvQeEfxvO+JFBmg0iO r8QC0cJ+pAkibmOmJEpThfO8MNQseSqHFi02iOfnZyvav6ioCKmplic/KXgOl3L/ddcTWL3HvfHk 1JVTfo/0X3c9oWYoRNTIOg8aiLod/4cPJkzAnc89h8QnnsDZw4dhXrsW6NQOH/y0CeKiBgICEiRo JA0kSDh79SdMGfirpg6fiIiImkL/JWGpfD6aMggbdh4Lel8KnHFpDiqS8oN4AlHTCjxuoygtzEBq QRiDomZJ1caT8QPvlcp++6F4e+f/Ys/xSkX7DO6egJkjfo3xA+9lqx1RC3Z//ptY98xsHD6wF+YZ afb1Vzu3Rd3Td+MnHAWuOe9zc/tYPNj7ftzebQivfyIiIlLNqNt6SitevE+s/PQgDhw+rWif/n06 4uGxfTHqNvWGD13fLI88zrHPxZGBMpHtPl9JsxNq3HqpQHDyuBuRqo0nkiRBnzBO0ieMUzNZImoB ut92mzTzk21NHQa50aNANNVTiYiIiJqGJAF3395Duvv2Hk0dynVMJ2WXCygb/NCctNS4qampO2Es EREREREREdF1ho0nREREREREREQ+qDpsRwiB9Z9vFG9//A72HDIp2mdwXCJmTnoCE+4YJ0kSe5YT tVRCCGzdvU0Uf1qC/d8dULTPgN79MW1sGkYPGcXrn4iIiFQjhMCn2/4t3n1/I0wHDivaJ7F/Hzw+ fRzGjrqN9yVE5EbVxpNPvtgoUnLvD2ifqqPVWL3tI6x/Za247w4+Eoyopfrsmx0iMz8roH2+N/2A LaZtKJz9FzF6yF28/omIiEgVn+74Wkx+/I8B7VP9n1p8tGEX1qx4Xoy7ayjvS4jIiarDdt5a946l OSaI5a1176gZChE1sg+2r4Y2Suu29O4ei7iet3h8zbZ8sH11U4dPRERETaEyQ0BcVT3Zd4u3QKON Cmp5t3iL6vEQUcunas+TPUcqAa2yRtqsSb/BJ19+iqpj1Y59iajFqqo1QxOltf/dvlU7PDs5F0N6 DwYA1Jw+joWrX8LRumMe9yUiIqIb0LG3gIuHBIaskhDRUbVk9x/6AZI2yv53j5iOqDtzHpfqryja l4jIlboTxmrhv5dJpIRFj72Ap1Oz8fen/obY7rGW9VrPSRozJSFlGkXwQRlFppQsDGaEkIYPZoNI Dmf6HoU5T0RB0EY69ybJHDvT3nACAD06dkfm2Bmee59EeikAmogxUxKS5L4kG8zqX3Nmg0iWHyfZ IMzgtU1ERDeQuk3AF3cKXDio2vefpI2AJiLSvtwxLB7r3snBr8YOc1rvaZG0gfy+bBaGZE/f47L7 9bDWF4wi0+l+JZTjNHYdwxq7l7qe2ZAcYn4am+yzENb7Ofn7xHphY1K38cRPw4k2Sov8mUvw67un AwCuNlyFNlLj2MaV2SDyTBnIMOVB+Qci3B8gl/R12VK5KJeydfJxFbUAABPjSURBVAhiXCQ/7HT9 0ERpoI3W2pfbbxlmf01AYMXO93DyfB3+8threCQpDe3bt7Nvq4lqXg/+0hcISQghCVEmZSAJ+dUC QgipPFsX4HXu5xo3G0RyfAnSrOkLIaSyxEpUq5AHIiKi5kEAX08W2Ch5XmzO7we+GAGc2q7KfbFG E+k0FEfSRODnXTtg8dwH8PdlMzF4wM3eh+5oIpUdxGwQyVI8KhcICGFdioB1RpftQqovAP7rDPZ7 FVTnAznpBrScH2KSkOSxrmcUS3MqmiakoOmk7PIyZCAJ+UXZ0CHQ95t1w+ZO3RqLRrIM2/Gy5D+x FKnDJwEADtV+iymvPYL/1H1neV3j/tkyrysB0nKRmwaUrGO3fqLmTBMdAU2UY7l0td7+2p6aSgzt cyvuS7gXsZ16Yfrwh3D/0F85to9WdQRhC2EWhvQcJJaVQ34zpS8okPQBf9kSERE1Uw31wIm1yra9 chL491igpijkyqOkjXJeNI57jV8M6Im/v/oYXpw9CV27dHLfVjbcxzvb97hAgV62WpeNbL3XncJO l70AGRUlaElVp8RED3U9YykKMzKQ0TQhEXkUvp4nkRJifx5r//tXv0zBpGEpAADT0Uo8uPz/4fhP x533cWIW60qAtIk66CamASXrZC2orq1ytr+NIlNKQSEqkBMvwakLWLUByZ663jt1mc8URnk3O0Om S3d9T+m7xuLcdS/TaFnvNAzAvp+HWD3G47w+2VCl2ltGpBZtpBbRAuh4ph4dz9Rj49ZinD14EPV1 ddh93ITBNyU4bZ8cN8LRU0XpsB3P1ysypWRhMDpeyzRCWLp6+rvmHddoQDzG4Xrt+yiPAMC8DiUV GUj1eoNlKVsyM5Mdx/Aau1uZCFl3TrfzE5bhR0RERGoQl4G9jwPVz4hQOk9otREuPU+c7zUkCbh/ zCCsfWMGZjx0J1q1am3fVqtk2I7f73E5l+/pkOsfyrnXQewZ8FhncY7ZsY/XdJzqKAYF+XSXkLsA iTlL4XjdLAx5JuTnpirIi7fz5if/Acft4b7M/9n3EZuy+0bv7x81BZV7nmjsvUyemzwPxqc+RPKA JHTq0AUvPrAAAHDypx/x6FszceriKeeeKRqXUMzrUII0TNQB0E1EGpS0oOpRIKxdpaoFhL0ZuAI5 eUCREBBlGaiwX5xGkenoMg9RBuQZzI59KlMtXent+3hL3x60MCTHoySt2t4Fv0Bv+QVZNgwAGYV5 MJg9peUtHqPIjLe0bAshUIQSFAb9JhGFR8yXhzHx5QqMN+zCeMMuaLNeQdm996L09tvRbuUWHKz7 1mn7r4/vgSZKa1kilRRFfq5X2TVemCIhHUUu1y/SAWO67FqSRHU+TCnJAQwL9BGHcSlyEstk175e crnG3XuTJCUg3vpPR2OPvBGkAqaEIghRIOlhRPCx28/PaGHpzxtgnomIiBqTBMvksSF0xJRcepJo vDeISJoI520lJT1P4PQ9rlzI9Q+fJ8VsyENhkrUOBU91ENsPPvY6C4Rw6T0DMwzJKUCZ43ie0/FV R/GVT1d6pGYUotQ23EleD5Rv5TEGb+fN8pq6ccvvy5R+OL3E5rhvtJ5/z++z9zxTUwjLhLEJvQdi 1l2PoV2rdiiaWYAV/1WAzm07AQCeX7sIZy6fcZ8TxeWHZ8uQnYmwXDM6TEwDcpa6DiBUSjbuTJ+K DJhQZQZgroLJ1ronSZBSClFRWe3YJ9daisj38cXaAr0gW+f+mtHW4pjiveHDWzzmKpiS8mELR5e9 gF3YqNnpYaxExOUGdOjVC6OXLMGk997Dnc8+i6j27XFx1QYY95XBdGIfLl+7gu1H/oWvT5rsE8Yq ajzxd70WZUvWa1zKQBLSJlrnJ3Fcv0UwVxWZkIFUa6MmdNnSgowKVAYyyYi3OOITkFSYgoB6dVQ4 5jfRZZdbvhidNkhCmu3OwVyF4GO3l4GfBZVnIiKixqJpAwxZDdwyL6QhrJqISGi00Y5Fcm48EQL4 5zYzHpzzEVasrcTVhgjHthEK5zypCGKeMrXrH5ZA7OnF5ySirFw234anOoivOguAknRLw4rtR2Dv 6fioo/jMpzt9bj5MeZa5WoxLc5C4IBtu0XmtT/k4b6rGLbsvU8xLbI77Rt+7K6lDUqNRufHE0ouk 8of9eLLkKVy+ehkR2ggM7jkIAPDJvk0wVm70Pi+KnWWCoIqceMuHVpIQn1MBFJZCWRepQGSgzDbB k/DUm0QFZoOwNN4KCFGN/KQmjocoDKLOX0abbt2Q/uWXaN+rF47t2IGYW29FdIcO0FwTmNUvDdER UdhweBP6d9Hh+eSnMWvorxEVHeX0iGPf7NeHpRXez68v4eMhDl22VC6EVIR0KBoOpOuHRMU3RWoy 311lauxjEhHRDUsTDXSdqGzb6J7A8O1AzAOhf79rIiFpHQtkw3b2mE9ixgsbsKjwC9Sdu+q0nWVb BY0nuolIS5L1lgiI2vf7jsntnXpFBFQHsakAkOTc0BFUOkBA9222kQZGA/JMjoaNkGIIPe7w1cd0 2SgXAtb7RmR6+hwFHT+FS9geVVy2bwMeXTELZy6dBQCcq/8JC8ryvD+NR153MpaiMCkf1fKLTVQj 315AxSMhSfbLqbE0uJY4XT8kotBHF7JA07MUom7pVVeiwtatz7wOJd4mjvYWj64fEityYOt4Yzbk seWRmqX+U6bgwokT+PiRR1Czcye+27QJHWJj7a/Hd+qLSXETENOmGwBgTO9RGB93j7I5T9S4XnX9 0hNRiFKjY0xrXqHS8crK4tBll0vV+Ukw+W0V0Uu5+UBOfKayRmHrcT3H7lYmCucyosIxEZt53Vbl Y7SJiIhCJQFD/ylhnPC82HQYBvzyC6DDMFV+GJFcnraj0USgtu4iXnjjC2Qs2or9h895fdqOpOhp Ozope4FlqLBTxddsgMFXg4ra9Q9fvNVBvNVZAABJSCsqRxlkvWm9puOjjhJwPnVS9oJE5KTk2EYf OH8OlNanFOVfzbhDo8suh9f7xmDyTGGl/oSxWsey69i/MeWdR1Fz5nu89OlS1F6odXrdaZH1pDOW FiLJ7aLRSRPTklBYaoS8sJIkSUilkHV110upGfaJdvwErJcKqvMBWQ8XJft4T9/yeKpES3qOyZf0 uchHDuIlCVJ6JRKTvKXlLR69VFBmzy/SkcZhO9T8SEBE69a4fO4cAKBj3774ZW4uBkyb5nO34d2H QaNowlin6yPIibP0RQXV+TDZyo74EqRVFyCwp9t4icPomAwsPifR2hXW6Rp3i1WXXS6JMiBFssYj pcCUXwTPjzK0HNdz7L7KRABIQmJlunW/HCSWBZpnIiKiMIpJBW7fLqFVD9W+mzRa58aTr6pOYfqz m/HpruPeH1FsXxQO29EXWOcgkxz37unARJ8/UIRc/1B+7+O1DuJUZ/HY80FfUI20knhIyQZh9lGX 8V5HCeK+TZ+L/CQvw4m8xhBM/hXH7f39MWYKKdkgnB8JbRaG5P/f3v3HWl3XcRx/f11utWqTC1cJ DSxNB9YqYaKZujIJmjGWzbasMXLC1g/BVYzk1ya23eCPpB/KddXC1h9pNmYlQ+0flWbpaIPphtEa i5zrjwtzbv7ROZz+sAy68vJKF84X7uPx59393Pu+f3zPPed5zvfz+femr68eF31s25cdcYfFMZ43 Hs/fzAnVHDp0qFdVtW3btlq8ePGYFm0Y2lxrVy0f9eD22eGbeg/+afRRZJPeNqkOvnKo0purN3x4 Yf1y2c89mYdT0MjIyNJ7L5w+PHnKtFqye3ftXL++/vbEE3Xl+vU18vzz9ditt9aip5+utw4Ojlrb q17d98L9te6Kla7/E2J7LWvu7M36885jRBkYXyMjI0sHBgZ8QBIY2+PB3pW9umioqWb83tMdGRlZ uuoHzwxvf/Kvb/zNr2PBR99T966b53/mm7Vvc+/K9z1Xa3qn2Js0xzH39mVNb9ui3tH7wtBKr/c4 tGFoc2/tquVjWr9169ZatOjVk5/GcA7X2N1y1ZJ6cM/oeHLwnwff8DfdctWS8RwFOMkGLplZI08+ Uw/Mn19XrF5d71+ypF7av7/2PfRQ1aR31AMv/656r5xRvepVU02d0ZxRTTX1Uufl+szM6/s9PgDQ DxdvPCEvPm/61CW146m/H/da3rztm1bU7z9y13GcQNRfb37u7b1t9y6tRcMncChaaVzjybyZ1zYP f/lXvR8/9bPa8+JzY1rzgamz6ubLv1jzZl6r2sEpbOFdW+q337qt9u99tvZ96cbXvt4ZeHuNfOOa erkOVHWPXnP+O99dN0xfWHMGP+j6BwDGzdWzz23uu+OTvV889pfau//QmNZcPOOs+twnLqirZ4/f 7UOnt1ePPF7x2l4cS+vh3vLR+5W0zv8794JmuGfzuIloXONJ0zS1YNZ1zYJZ143njwVOAVNnz25u fuTxfo/BKAtquNevU4kAoD+apuqaOdOaa+ZM6/cop7ELm+U7ezW2mx/a5FSdm34b3w1jAQAAAE4z 4gkAAABAIJ4AAAAABOIJAAAAQCCeAAAAAATiCQAAAEAgngAAAAAE4gkAAABAIJ4AAAAABOIJAAAA QCCeAAAAAATiCQAAAEAgngAAAAAE4gkAAABAIJ4AAAAABOIJAAAAQCCeAAAAAATiCQAAAEAgngAA AAAE4gkAAABAIJ4AAAAABOIJAAAAQCCeAAAAAATiCQAAAEAgngAAAAAE4gkAAABAIJ4AAAAABOIJ AAAAQCCeAAAAAATiCQAAAEAgngAAAAAE4gkAAABAIJ4AAAAABOIJAAAAQCCeAAAAAATiCQAAAEAg ngAAAAAE4gkAAABAIJ4AAAAABOIJAAAAQCCeAAAAAATiCQAAAEAgngAAAAAE4gkAAABAIJ4AAAAA BOIJAAAAQCCeAAAAAATiCQAAAEAgngAAAAAE4gkAAABAIJ4AAAAABOIJAAAAQCCeAAAAAATiCQAA AEAgngAAAAAE4gkAAABAIJ4AAAAABOIJAAAAQCCeAAAAAATiCQAAAEAgngAAAAAE4gkAAABAIJ4A AAAABOIJAAAAQCCeAAAAAATiCQAAAEAgngAAAAAE4gkAAABAIJ4AAAAABOIJAAAAQCCeAAAAAATi CQAAAEAgngAAAAAE4gkAAABAIJ4AAAAABOIJAAAAQCCeAAAAAATiCQAAAEAgngAAAAAE4gkAAABA IJ4AAAAABOIJAAAAQCCeAAAAAATiCQAAAEAgngAAAAAE4gkAAABAIJ4AAAAABOIJAAAAQCCeAAAA AATiCQAAAEAgngAAAAAE4gkAAABAIJ4AAAAABOIJAAAAQCCeAAAAAATiCQAAAEAgngAAAAAE4gkA AABAIJ4AAAAABOIJAAAAQCCeAAAAAATiCQAAAEAgngAAAAAE4gkAAABAIJ4AAAAABOIJAAAAQCCe AAAAAATiCQAAAEAgngAAAAAE4gkAAABAIJ4AAAAABOIJAAAAQCCeAAAAAATiCQAAAEAgngAAAAAE 4gkAAABAIJ4AAAAABOIJAAAAQCCeAAAAAATiCQAAAEAgngAAAAAE4gkAAABAIJ4AAAAABOIJAAAA QCCeAAAAAATiCQAAAEAgngAAAAAE4gkAAABAIJ4AAAAABOIJAAAAQCCeAAAAAATiCQAAAEAgngAA AAAE4gkAAABAIJ4AAAAABOIJAAAAQCCeAAAAAATiCQAAAEAgngAAAAAE4gkAAABAIJ4AAAAABOIJ AAAAQCCeAAAAAATiCQAAAEAgngAAAAAE4gkAAABAIJ4AAAAABOIJAAAAQCCeAAAAAATiCQAAAEAg ngAAAAAE4gkAAABAIJ4AAAAABOIJAAAAQCCeAAAAAATiCQAAAEAgngAAAAAE4gkAAABAIJ4AAAAA BOIJAAAAQCCeAAAAAATiCQAAAEAgngAAAAAE4gkAAABAIJ4AAAAABOIJAAAAQCCeQEucO/1DvT/8 cVev33MAAABwNPEEWmTN2qESUAAAANpFPIEW2frT7wsoAAAALSOeQItMe9c5AgoAAEDLiCfQMgIK AABAu4gn0EICCgAAQHuIJ9BSAgoAAEA7iCfQYlPPGayf/Oi7AgoAAEAfiSfQUocPH67Dhw/X2WdP qS33bBRQAAAA+kQ8gRb6TzjpdrvV7XZrcMpAfe+uDQIKAABAH4gn0DL/G046nU51u92aMmWgNn1n jYACAABwkokn0CLHCiedTqc6nU5Nnjypvr1hZa1ZO9TvUQEAACaMt/R7AOC/jgwnBw68UIODk6vT 6dTnv/CVfo8GAAAwYYkn0CJHhpM5c+fXPT8cqo9/7Mpqmqa+9tWb69PXz2v6PSMAAMBE47YdaJEj w8mjO+6vjZvurk6nU3fe8U236gAAAPSJeAItcmQ4mXvZpc2MGefVrl17amDgrJox47z69W8esVEs AADASSaeQEvMmnnRUeGkqmr17Svq9rVD1e126+u33VLr1m/s95gAAAATjj1PoCUe3XH/qP1M5l52 aXPBe8/vvfjiP2ry5El15pkuWQAAgJPNKzFouS13b6zr5t9Yl8+dU8NbNvV7HAAAgAlHPIGWmzZt avPs7sf7PQYAAMCEZc8TAAAAgEA8AQAAAAjEEwAAAIBAPAEAAAAIxBMAAACAQDwBAAAACMQTAAAA gEA8AQAAAAjEEwAAAIBAPAEAAAAIxBMAAACAQDwBAAAACMQTAAAAgEA8AQAAAAjEEwAAAIBAPAEA AAAIxBMAAACAQDwBAAAACMQTAAAAgEA8AQAAAAjEEwAAAIBAPAEAAAAIxBMAAACAQDwBAAAACMQT AAAAgOBfVbIxch/EaiAAAAAASUVORK5CYII= "
         height="390"
         width="1103" />
    </g>
  </g>
</svg>
