<?xml version="1.0" encoding="UTF-8" standalone="no"?>
<!-- Created with Inkscape (http://www.inkscape.org/) -->

<svg
   xmlns:dc="http://purl.org/dc/elements/1.1/"
   xmlns:cc="http://creativecommons.org/ns#"
   xmlns:rdf="http://www.w3.org/1999/02/22-rdf-syntax-ns#"
   xmlns:svg="http://www.w3.org/2000/svg"
   xmlns="http://www.w3.org/2000/svg"
   xmlns:sodipodi="http://sodipodi.sourceforge.net/DTD/sodipodi-0.dtd"
   xmlns:inkscape="http://www.inkscape.org/namespaces/inkscape"
   width="16"
   height="16"
   id="svg5856"
   version="1.1"
   inkscape:version="0.48.0 r9654"
   sodipodi:docname="g_stop_state_man_icon_16x16.svg"
   inkscape:export-filename="C:\Users\emo.GIRITECH\Documents\Shared Graphics\Management\Icons\Version 5\Gateway servers\g_stop_state_man_icon_16x16.png"
   inkscape:export-xdpi="90"
   inkscape:export-ydpi="90">
  <defs
     id="defs5858" />
  <sodipodi:namedview
     id="base"
     pagecolor="#ffffff"
     bordercolor="#666666"
     borderopacity="1.0"
     inkscape:pageopacity="0.0"
     inkscape:pageshadow="2"
     inkscape:zoom="39.3125"
     inkscape:cx="8"
     inkscape:cy="8"
     inkscape:document-units="px"
     inkscape:current-layer="layer1"
     showgrid="false"
     inkscape:window-width="946"
     inkscape:window-height="848"
     inkscape:window-x="0"
     inkscape:window-y="0"
     inkscape:window-maximized="0" />
  <metadata
     id="metadata5861">
    <rdf:RDF>
      <cc:Work
         rdf:about="">
        <dc:format>image/svg+xml</dc:format>
        <dc:type
           rdf:resource="http://purl.org/dc/dcmitype/StillImage" />
        <dc:title></dc:title>
      </cc:Work>
    </rdf:RDF>
  </metadata>
  <g
     inkscape:label="Layer 1"
     inkscape:groupmode="layer"
     id="layer1"
     transform="translate(0,-1036.3622)">
    <g
       id="g2984"
       transform="matrix(0.87499999,0,0,0.87499999,1.0012866,130.54528)">
      <rect
         y="1041.5284"
         x="5.1648178"
         height="5.6674228"
         width="5.6674228"
         id="rect3060-9"
         style="fill:#660004;fill-opacity:1;stroke:none" />
      <path
         sodipodi:type="arc"
         style="fill:none;stroke:#660004;stroke-width:1.35923755;stroke-miterlimit:4;stroke-opacity:1;stroke-dasharray:none;display:inline"
         id="path4964-6"
         sodipodi:cx="128.96875"
         sodipodi:cy="94"
         sodipodi:rx="11.34375"
         sodipodi:ry="12.0625"
         d="m 140.3125,94 c 0,6.66193 -5.07877,12.0625 -11.34375,12.0625 -6.26498,0 -11.34375,-5.40057 -11.34375,-12.0625 0,-6.661935 5.07877,-12.0625 11.34375,-12.0625 6.26498,0 11.34375,5.400565 11.34375,12.0625 z"
         transform="matrix(0.66651059,0,0,0.62679622,-77.960508,985.44336)" />
    </g>
  </g>
</svg>
