<?xml version="1.0" encoding="UTF-8" standalone="no"?>
<!-- Created with Inkscape (http://www.inkscape.org/) -->

<svg
   xmlns:dc="http://purl.org/dc/elements/1.1/"
   xmlns:cc="http://creativecommons.org/ns#"
   xmlns:rdf="http://www.w3.org/1999/02/22-rdf-syntax-ns#"
   xmlns:svg="http://www.w3.org/2000/svg"
   xmlns="http://www.w3.org/2000/svg"
   xmlns:xlink="http://www.w3.org/1999/xlink"
   xmlns:sodipodi="http://sodipodi.sourceforge.net/DTD/sodipodi-0.dtd"
   xmlns:inkscape="http://www.inkscape.org/namespaces/inkscape"
   width="375"
   height="175"
   id="svg2"
   version="1.1"
   inkscape:version="0.48.2 r9819"
   sodipodi:docname="g_enduser_connecting_screen.svg"
   inkscape:export-filename="C:\Users\emo.HEADQUARTERS\Documents\Shared Graphics\Enduser Client\Connecting screen\Version 2\g_enduser_connecting_screen.png"
   inkscape:export-xdpi="90"
   inkscape:export-ydpi="90"
   style="display:inline">
  <defs
     id="defs4">
    <linearGradient
       id="linearGradient3757">
      <stop
         style="stop-color:#440008;stop-opacity:1;"
         offset="0"
         id="stop3759" />
      <stop
         style="stop-color:#880000;stop-opacity:1;"
         offset="1"
         id="stop3761" />
    </linearGradient>
    <linearGradient
       inkscape:collect="always"
       xlink:href="#linearGradient3757"
       id="linearGradient3763"
       x1="374"
       y1="402.36218"
       x2="374"
       y2="602.45215"
       gradientUnits="userSpaceOnUse"
       gradientTransform="matrix(0.9375,0,0,0.875,4.0625,42.295278)" />
    <linearGradient
       gradientUnits="userSpaceOnUse"
       y2="79.642326"
       x2="154.70297"
       y1="-0.22277227"
       x1="154.70297"
       id="linearGradient3791"
       xlink:href="#linearGradient3785"
       inkscape:collect="always" />
    <linearGradient
       id="linearGradient3785">
      <stop
         id="stop3787"
         offset="0"
         style="stop-color:#440008;stop-opacity:1;" />
      <stop
         id="stop3789"
         offset="1"
         style="stop-color:#880000;stop-opacity:1;" />
    </linearGradient>
  </defs>
  <sodipodi:namedview
     id="base"
     pagecolor="#ffffff"
     bordercolor="#666666"
     borderopacity="1.0"
     inkscape:pageopacity="0.0"
     inkscape:pageshadow="2"
     inkscape:zoom="1"
     inkscape:cx="174.5"
     inkscape:cy="87.5"
     inkscape:document-units="px"
     inkscape:current-layer="layer1"
     showgrid="false"
     inkscape:window-width="1680"
     inkscape:window-height="988"
     inkscape:window-x="1272"
     inkscape:window-y="-8"
     inkscape:window-maximized="1"
     showguides="true"
     inkscape:guide-bbox="true"
     fit-margin-top="0"
     fit-margin-left="0"
     fit-margin-right="0"
     fit-margin-bottom="0" />
  <metadata
     id="metadata7">
    <rdf:RDF>
      <cc:Work
         rdf:about="">
        <dc:format>image/svg+xml</dc:format>
        <dc:type
           rdf:resource="http://purl.org/dc/dcmitype/StillImage" />
        <dc:title></dc:title>
      </cc:Work>
    </rdf:RDF>
  </metadata>
  <g
     inkscape:label="Layer 1"
     inkscape:groupmode="layer"
     id="layer1"
     transform="translate(-170,-394.36218)">
    <rect
       y="394.36218"
       x="170"
       height="175"
       width="375"
       id="rect3755"
       style="fill:url(#linearGradient3763);fill-opacity:1;stroke:none" />
    <g
       id="g3030"
       transform="matrix(0.42639471,0,0,0.42639471,71.87143,229.13962)">
      <g
         id="g3943"
         transform="matrix(1.081527,0,0,1.081527,23.859749,96.4513)">
        <polygon
           style="fill:#ffffff"
           points="150.653,80.214 137.12,71.594 150.651,62.908 164.182,71.596 "
           id="polygon3945"
           transform="matrix(2.2838041,0,0,2.2838041,-36.27695,193.39935)" />
        <polygon
           style="fill:#ffffff"
           points="132.409,50.371 145.94,59.06 132.411,67.678 118.877,59.058 "
           id="polygon3947"
           transform="matrix(2.2838041,0,0,2.2838041,-32.624405,197.38053)" />
        <polygon
           style="fill:#ffffff"
           points="118.862,84.15 132.394,75.464 145.926,84.153 132.396,92.77 "
           id="polygon3949"
           transform="matrix(2.2838041,0,0,2.2838041,-32.59129,188.95478)" />
      </g>
      <text
         sodipodi:linespacing="125%"
         id="text3951"
         y="534.14429"
         x="355.59616"
         style="font-size:27.33690453px;font-style:normal;font-weight:normal;line-height:125%;letter-spacing:0px;word-spacing:0px;fill:#ff8c14;fill-opacity:1;stroke:none;font-family:Sans;-inkscape-font-specification:Sans"
         xml:space="preserve"><tspan
           style="font-style:normal;font-variant:normal;font-weight:bold;font-stretch:normal;fill:#ff8c14;font-family:Gill Sans MT;-inkscape-font-specification:Gill Sans MT"
           y="534.14429"
           x="355.59616"
           id="tspan3953"
           sodipodi:role="line">G/ON</tspan></text>
    </g>
  </g>
</svg>
