<?xml version="1.0" encoding="UTF-8" standalone="no"?>
<!-- Created with Inkscape (http://www.inkscape.org/) -->

<svg
   xmlns:dc="http://purl.org/dc/elements/1.1/"
   xmlns:cc="http://creativecommons.org/ns#"
   xmlns:rdf="http://www.w3.org/1999/02/22-rdf-syntax-ns#"
   xmlns:svg="http://www.w3.org/2000/svg"
   xmlns="http://www.w3.org/2000/svg"
   xmlns:xlink="http://www.w3.org/1999/xlink"
   xmlns:sodipodi="http://sodipodi.sourceforge.net/DTD/sodipodi-0.dtd"
   xmlns:inkscape="http://www.inkscape.org/namespaces/inkscape"
   width="16"
   height="16"
   id="svg2"
   version="1.1"
   inkscape:version="0.92.2 (5c3e80d, 2017-08-06)"
   sodipodi:docname="g_implies_arrow_16x16.svg"
   inkscape:export-filename="C:\GOn\graphics\GOn version 5.8\Management\Icons\General\g_implies_arrow_16x16.png"
   inkscape:export-xdpi="96"
   inkscape:export-ydpi="96">
  <defs
     id="defs4">
    <linearGradient
       id="linearGradient3773">
      <stop
         style="stop-color:#ffba01;stop-opacity:1;"
         offset="0"
         id="stop3775" />
      <stop
         style="stop-color:#ffd669;stop-opacity:1;"
         offset="1"
         id="stop3777" />
    </linearGradient>
  </defs>
  <sodipodi:namedview
     id="base"
     pagecolor="#ffffff"
     bordercolor="#666666"
     borderopacity="1.0"
     inkscape:pageopacity="0.0"
     inkscape:pageshadow="2"
     inkscape:zoom="16"
     inkscape:cx="8.6441828"
     inkscape:cy="3.4994994"
     inkscape:document-units="px"
     inkscape:current-layer="layer1"
     showgrid="false"
     inkscape:showpageshadow="false"
     showborder="false"
     inkscape:window-width="1680"
     inkscape:window-height="987"
     inkscape:window-x="1672"
     inkscape:window-y="23"
     inkscape:window-maximized="1" />
  <metadata
     id="metadata7">
    <rdf:RDF>
      <cc:Work
         rdf:about="">
        <dc:format>image/svg+xml</dc:format>
        <dc:type
           rdf:resource="http://purl.org/dc/dcmitype/StillImage" />
        <dc:title />
      </cc:Work>
    </rdf:RDF>
  </metadata>
  <g
     inkscape:groupmode="layer"
     id="layer2"
     inkscape:label="xx Temp"
     style="display:none"
     sodipodi:insensitive="true">
    <image
       transform="translate(0,-1036.3622)"
       y="1036.3622"
       x="0"
       id="image2993"
       xlink:href="data:image/png;base64,iVBORw0KGgoAAAANSUhEUgAAABAAAAAQCAYAAAAf8/9hAAAABHNCSVQICAgIfAhkiAAAAURJREFU OI2lk0tOAkEQhr9G3BjdeQGiGwwnUNwZH2dwrSvW6hEQuYBwDoMmRqIoeACCJmjYuMSEhVHIMP27 mAczimYSKqnM9HR9VX9V9xhJzGKpmegkCXqNsnqNckxmxRhVjFEyBYJMvkDvzksSgIkVBNGZzUIM PpQMQDr48Hp79vc0NaYytxQuA9jbk+jWS5LTD90677JOX/Kf5xC6dfrq3pQkCUleC7IgO/J9CHYI /nt1fjksdjB6AztiZWOfbt1TnAZwXYH79Ut5dWF1An++gDsM1+7Y6zjttYFXNQov5ibwRzu2//xw QXb7yACY4CZ2rk7DId7vnoTB+csi2fUtBBjBU+uatZ3j+BCjHh2YJNq1ouygKXfQVLtW1M/48BiB qecsgaxD57FFbi9S2bfUf7AnETqt6XBsBkGCGJzAzKy/8zfFH+KtexIhaAAAAABJRU5ErkJggg== "
       height="16"
       width="16" />
  </g>
  <g
     inkscape:label="Layer 1"
     inkscape:groupmode="layer"
     id="layer1"
     transform="translate(0,-1036.3622)"
     style="display:inline">
    <path
       style="fill:#ffba01;fill-opacity:1;stroke:none;stroke-opacity:1;stroke-width:1;stroke-miterlimit:4;stroke-dasharray:none"
       d="M 8,1.96875 8,5 1.78125,5 C 1.3327387,5 0.96875,5.3639887 0.96875,5.8125 l 0,4.40625 C 0.96875,10.667261 1.3327387,11 1.78125,11 L 8,11 l 0,2.96875 3.53125,-3 3.5625,-3 -3.5625,-3 -3.53125,-3 z"
       transform="translate(0,1036.3622)"
       id="path3766"
       inkscape:connector-curvature="0" />
  </g>
</svg>
