<?xml version="1.0" encoding="UTF-8" standalone="no"?>
<!-- Created with Inkscape (http://www.inkscape.org/) -->

<svg
   xmlns:dc="http://purl.org/dc/elements/1.1/"
   xmlns:cc="http://creativecommons.org/ns#"
   xmlns:rdf="http://www.w3.org/1999/02/22-rdf-syntax-ns#"
   xmlns:svg="http://www.w3.org/2000/svg"
   xmlns="http://www.w3.org/2000/svg"
   xmlns:xlink="http://www.w3.org/1999/xlink"
   xmlns:sodipodi="http://sodipodi.sourceforge.net/DTD/sodipodi-0.dtd"
   xmlns:inkscape="http://www.inkscape.org/namespaces/inkscape"
   width="16"
   height="16"
   id="svg2"
   version="1.1"
   inkscape:version="0.92.2 (5c3e80d, 2017-08-06)"
   sodipodi:docname="g_folder_man_icon_16x16.svg"
   inkscape:export-filename="C:\GOn\graphics\GOn version 5.8\Management\Icons\Perspectives and Elements\g_folder_man_icon_16x16.png"
   inkscape:export-xdpi="96"
   inkscape:export-ydpi="96">
  <defs
     id="defs4">
    <linearGradient
       id="linearGradient3802">
      <stop
         id="stop3804"
         offset="0"
         style="stop-color:#4e3000;stop-opacity:1;" />
      <stop
         id="stop3806"
         offset="1"
         style="stop-color:#8e5700;stop-opacity:1;" />
    </linearGradient>
    <linearGradient
       id="linearGradient3786">
      <stop
         style="stop-color:#8e5700;stop-opacity:1;"
         offset="0"
         id="stop3788" />
      <stop
         style="stop-color:#ff9900;stop-opacity:1;"
         offset="1"
         id="stop3790" />
    </linearGradient>
    <linearGradient
       inkscape:collect="always"
       xlink:href="#linearGradient3802"
       id="linearGradient3792"
       x1="3.9572692"
       y1="1038.0771"
       x2="3.9572692"
       y2="1050.6686"
       gradientUnits="userSpaceOnUse" />
  </defs>
  <sodipodi:namedview
     id="base"
     pagecolor="#ffffff"
     bordercolor="#666666"
     borderopacity="1.0"
     inkscape:pageopacity="0.0"
     inkscape:pageshadow="2"
     inkscape:zoom="46.9375"
     inkscape:cx="8.1704394"
     inkscape:cy="8"
     inkscape:document-units="px"
     inkscape:current-layer="layer1"
     showgrid="false"
     inkscape:showpageshadow="false"
     showborder="false"
     inkscape:window-width="1680"
     inkscape:window-height="987"
     inkscape:window-x="1672"
     inkscape:window-y="23"
     inkscape:window-maximized="1" />
  <metadata
     id="metadata7">
    <rdf:RDF>
      <cc:Work
         rdf:about="">
        <dc:format>image/svg+xml</dc:format>
        <dc:type
           rdf:resource="http://purl.org/dc/dcmitype/StillImage" />
        <dc:title />
      </cc:Work>
    </rdf:RDF>
  </metadata>
  <g
     inkscape:label="Layer 1"
     inkscape:groupmode="layer"
     id="layer1"
     transform="translate(0,-1036.3622)">
    <path
       id="rect3812"
       style="fill:#f39200;fill-opacity:1;stroke:none"
       d="m 0.43434945,1040.4072 11.63130155,0 c 0.240629,0 0.434349,0.1937 0.434349,0.4344 l 0,9.3813 c 0,0.2406 -0.19372,0.4343 -0.434349,0.4343 l -11.63130155,0 C 0.19371985,1050.6572 0,1050.4635 0,1050.2229 l 0,-9.3813 c 0,-0.2407 0.19371985,-0.4344 0.43434945,-0.4344 z m 1.15522105,-2.3407 4.2453839,0 c 0.8718369,0 1.5737127,0.7019 1.5737127,1.5737 l 0,0.9432 c 0,0.8718 -0.7018758,1.2541 -1.5737127,1.2541 l -4.2453839,0 c -0.87183688,0 -1.57371275,-0.1693 -1.57371275,-1.0411 l 0,-1.1562 c 0,-0.8718 0.70187587,-1.5737 1.57371275,-1.5737 z" />
    <rect
       style="fill:#f39200;fill-opacity:1;stroke:#fffff8;stroke-width:0.51830196;stroke-miterlimit:4;stroke-dasharray:none;stroke-opacity:1"
       id="rect3753-9"
       width="12.520427"
       height="9.477767"
       x="413.18076"
       y="1119.5042"
       ry="0.51683533"
       transform="matrix(1,0,-0.36597641,0.93062413,0,0)" />
  </g>
</svg>
