<?xml version="1.0" encoding="UTF-8" standalone="no"?>
<!-- Created with Inkscape (http://www.inkscape.org/) -->

<svg
   xmlns:dc="http://purl.org/dc/elements/1.1/"
   xmlns:cc="http://creativecommons.org/ns#"
   xmlns:rdf="http://www.w3.org/1999/02/22-rdf-syntax-ns#"
   xmlns:svg="http://www.w3.org/2000/svg"
   xmlns="http://www.w3.org/2000/svg"
   xmlns:sodipodi="http://sodipodi.sourceforge.net/DTD/sodipodi-0.dtd"
   xmlns:inkscape="http://www.inkscape.org/namespaces/inkscape"
   width="16"
   height="16"
   id="svg13367"
   version="1.1"
   inkscape:version="0.92.2 (5c3e80d, 2017-08-06)"
   sodipodi:docname="g_user_gon_man_icon_16x16.svg"
   inkscape:export-filename="C:\GOn\graphics\GOn version 5.8\Management\Icons\Perspectives and Elements\g_user_gon_man_icon_16x16.png"
   inkscape:export-xdpi="96"
   inkscape:export-ydpi="96">
  <defs
     id="defs13369">
    <linearGradient
       id="linearGradient12006">
      <stop
         style="stop-color:#233c55;stop-opacity:1;"
         offset="0"
         id="stop12008" />
      <stop
         style="stop-color:#6592bf;stop-opacity:1;"
         offset="1"
         id="stop12010" />
    </linearGradient>
  </defs>
  <sodipodi:namedview
     id="base"
     pagecolor="#ffffff"
     bordercolor="#666666"
     borderopacity="1.0"
     inkscape:pageopacity="0.0"
     inkscape:pageshadow="2"
     inkscape:zoom="22.627417"
     inkscape:cx="13.753418"
     inkscape:cy="9.1902485"
     inkscape:document-units="px"
     inkscape:current-layer="layer1"
     showgrid="false"
     inkscape:window-width="1680"
     inkscape:window-height="987"
     inkscape:window-x="1672"
     inkscape:window-y="23"
     inkscape:window-maximized="1" />
  <metadata
     id="metadata13372">
    <rdf:RDF>
      <cc:Work
         rdf:about="">
        <dc:format>image/svg+xml</dc:format>
        <dc:type
           rdf:resource="http://purl.org/dc/dcmitype/StillImage" />
        <dc:title />
      </cc:Work>
    </rdf:RDF>
  </metadata>
  <g
     inkscape:label="Layer 1"
     inkscape:groupmode="layer"
     id="layer1"
     transform="translate(0,-1036.3622)">
    <rect
       style="display:inline;fill:#6592bf;fill-opacity:1;stroke:none;stroke-width:0.21893989;stroke-miterlimit:4;stroke-dasharray:none;stroke-dashoffset:0;stroke-opacity:0.16470588"
       id="rect12294"
       width="15.756291"
       height="15.771058"
       x="0.1218565"
       y="1036.4767"
       ry="2.8270783" />
    <path
       inkscape:connector-curvature="0"
       style="fill:#ffffff;fill-opacity:1;stroke:none"
       d="m 5.3125,1045.2621 c -1.61804,0.7215 -2.94076,2.1941 -3.125,4.75 -0.0268,0.372 3.7e-4,1.1563 0.75,1.1563 3.5381,0 5.0625,-0.031 5.0625,-0.031 0,0 1.5244,0.031 5.0625,0.031 0.74963,0 0.77682,-0.7843 0.75,-1.1563 -0.18424,-2.5559 -1.50695,-4.0285 -3.125,-4.75 -0.68688,0.6956 -1.63274,1.1563 -2.6875,1.1563 -1.05476,0 -2.00061,-0.4607 -2.6875,-1.1563 z"
       id="path12298" />
    <circle
       r="3.1571558"
       cy="1042.623"
       cx="8.000001"
       style="fill:#ffffff;fill-opacity:1;stroke:none;stroke-width:0.93790501"
       id="path12300" />
    <g
       transform="matrix(2.1597301,0,0,2.1597301,-368.12305,703.95076)"
       id="layer1-9"
       inkscape:label="Layer 1">
      <g
         id="g1085"
         transform="matrix(0.26458333,0,0,0.26458333,145.10506,154.65417)"
         style="display:inline">
        <rect
           transform="rotate(90)"
           y="-109.594"
           x="11.406"
           height="13.188"
           width="13.188"
           id="rect2985-6"
           style="display:inline;fill:#ffffff;fill-opacity:1;stroke:#3a3a3a;stroke-width:0.81199998;stroke-miterlimit:4;stroke-dasharray:none;stroke-opacity:1"
           ry="2.297436"
           rx="2.297436" />
        <text
           id="text3763-5"
           y="22.646276"
           x="97.988373"
           style="font-style:normal;font-variant:normal;font-weight:900;font-stretch:normal;font-size:0.328125px;line-height:0%;font-family:Avenir;-inkscape-font-specification:'Avenir Heavy';letter-spacing:0px;word-spacing:0px;display:inline;fill:#b7193f;fill-opacity:1;stroke:none;stroke-width:0.02734375"
           xml:space="preserve"><tspan
             y="22.646276"
             x="97.988373"
             id="tspan3765-5"
             sodipodi:role="line"
             style="font-size:13.125px;line-height:1.25;fill:#b7193f;fill-opacity:1;stroke-width:0.02734375">G</tspan></text>
      </g>
    </g>
  </g>
</svg>
