<?xml version="1.0" encoding="UTF-8" standalone="no"?>
<!-- Created with Inkscape (http://www.inkscape.org/) -->

<svg
   xmlns:dc="http://purl.org/dc/elements/1.1/"
   xmlns:cc="http://creativecommons.org/ns#"
   xmlns:rdf="http://www.w3.org/1999/02/22-rdf-syntax-ns#"
   xmlns:svg="http://www.w3.org/2000/svg"
   xmlns="http://www.w3.org/2000/svg"
   xmlns:xlink="http://www.w3.org/1999/xlink"
   xmlns:sodipodi="http://sodipodi.sourceforge.net/DTD/sodipodi-0.dtd"
   xmlns:inkscape="http://www.inkscape.org/namespaces/inkscape"
   width="256"
   height="256"
   id="svg2"
   version="1.1"
   inkscape:version="0.48.0 r9654"
   inkscape:export-filename="C:\Users\emo.GIRITECH\Desktop\Hans-Peter\g_package_default_256x256.png"
   inkscape:export-xdpi="90"
   inkscape:export-ydpi="90"
   sodipodi:docname="g_package_default_256x256.svg"
   style="display:inline">
  <defs
     id="defs4">
    <linearGradient
       id="linearGradient3816">
      <stop
         style="stop-color:#ffffff;stop-opacity:0.25882354;"
         offset="0"
         id="stop3818" />
      <stop
         style="stop-color:#ffffff;stop-opacity:0;"
         offset="1"
         id="stop3820" />
    </linearGradient>
    <linearGradient
       id="linearGradient3797">
      <stop
         style="stop-color:#ffffff;stop-opacity:1;"
         offset="0"
         id="stop3799" />
      <stop
         style="stop-color:#ffffff;stop-opacity:0.16470589;"
         offset="1"
         id="stop3801" />
    </linearGradient>
    <linearGradient
       id="linearGradient3789">
      <stop
         style="stop-color:#640008;stop-opacity:1;"
         offset="0"
         id="stop3791" />
      <stop
         style="stop-color:#880000;stop-opacity:1;"
         offset="1"
         id="stop3793" />
    </linearGradient>
    <linearGradient
       id="linearGradient3781">
      <stop
         style="stop-color:#440008;stop-opacity:1;"
         offset="0"
         id="stop3783" />
      <stop
         style="stop-color:#232723;stop-opacity:0;"
         offset="1"
         id="stop3785" />
    </linearGradient>
    <linearGradient
       inkscape:collect="always"
       xlink:href="#linearGradient3789"
       id="linearGradient3795"
       x1="34.479824"
       y1="980.94946"
       x2="34.479824"
       y2="1052.0378"
       gradientUnits="userSpaceOnUse" />
    <linearGradient
       inkscape:collect="always"
       xlink:href="#linearGradient3797"
       id="linearGradient3803"
       x1="35.989838"
       y1="51.432434"
       x2="35.989838"
       y2="108.26157"
       gradientUnits="userSpaceOnUse" />
    <linearGradient
       inkscape:collect="always"
       xlink:href="#linearGradient3816"
       id="linearGradient3822"
       x1="34.371315"
       y1="1052.3622"
       x2="34.371315"
       y2="981.34082"
       gradientUnits="userSpaceOnUse"
       gradientTransform="matrix(1,0,0,0.63512546,0,-596.51749)" />
    <filter
       id="filter3033"
       inkscape:label="Drop shadow"
       width="1.5"
       height="1.5"
       x="-0.25"
       y="-0.25"
       color-interpolation-filters="sRGB">
      <feGaussianBlur
         id="feGaussianBlur3035"
         in="SourceAlpha"
         stdDeviation="2"
         result="blur" />
      <feColorMatrix
         id="feColorMatrix3037"
         result="bluralpha"
         type="matrix"
         values="1 0 0 0 0 0 1 0 0 0 0 0 1 0 0 0 0 0 0.5 0 " />
      <feOffset
         id="feOffset3039"
         in="bluralpha"
         dx="2"
         dy="2"
         result="offsetBlur" />
      <feMerge
         id="feMerge3041">
        <feMergeNode
           id="feMergeNode3043"
           in="offsetBlur" />
        <feMergeNode
           id="feMergeNode3045"
           in="SourceGraphic" />
      </feMerge>
    </filter>
    <linearGradient
       inkscape:collect="always"
       xlink:href="#linearGradient3797"
       id="linearGradient3790"
       gradientUnits="userSpaceOnUse"
       x1="35.989838"
       y1="51.432434"
       x2="35.989838"
       y2="108.26157"
       gradientTransform="matrix(1.2057712,0,0,1,-7.3425861,-72)" />
    <linearGradient
       inkscape:collect="always"
       xlink:href="#linearGradient3825"
       id="linearGradient3007"
       gradientUnits="userSpaceOnUse"
       gradientTransform="matrix(0.97363148,0,0,1.035386,-228.55154,-558.9601)"
       x1="139.31297"
       y1="505.0293"
       x2="139.31297"
       y2="627.19641" />
    <linearGradient
       id="linearGradient3825">
      <stop
         style="stop-color:#4e4e4e;stop-opacity:1;"
         offset="0"
         id="stop3827" />
      <stop
         style="stop-color:#e0e0e0;stop-opacity:1;"
         offset="1"
         id="stop3829" />
    </linearGradient>
    <linearGradient
       inkscape:collect="always"
       xlink:href="#linearGradient3825"
       id="linearGradient3256"
       gradientUnits="userSpaceOnUse"
       x1="139.31297"
       y1="505.0293"
       x2="139.31297"
       y2="627.19641"
       gradientTransform="matrix(0.97363148,0,0,1.035386,-57.748974,403.30318)" />
    <linearGradient
       gradientTransform="matrix(1.2057712,0,0,1,-7.3425861,-72)"
       y2="108.26157"
       x2="35.989838"
       y1="51.432434"
       x1="35.989838"
       gradientUnits="userSpaceOnUse"
       id="linearGradient3790-5"
       xlink:href="#linearGradient3797-5"
       inkscape:collect="always" />
    <filter
       color-interpolation-filters="sRGB"
       y="-0.25"
       x="-0.25"
       height="1.5"
       width="1.5"
       inkscape:label="Drop shadow"
       id="filter3033-9">
      <feGaussianBlur
         result="blur"
         stdDeviation="2"
         in="SourceAlpha"
         id="feGaussianBlur3035-3" />
      <feColorMatrix
         values="1 0 0 0 0 0 1 0 0 0 0 0 1 0 0 0 0 0 0.5 0 "
         type="matrix"
         result="bluralpha"
         id="feColorMatrix3037-1" />
      <feOffset
         result="offsetBlur"
         dy="2"
         dx="2"
         in="bluralpha"
         id="feOffset3039-1" />
      <feMerge
         id="feMerge3041-9">
        <feMergeNode
           in="offsetBlur"
           id="feMergeNode3043-9" />
        <feMergeNode
           in="SourceGraphic"
           id="feMergeNode3045-5" />
      </feMerge>
    </filter>
    <linearGradient
       gradientTransform="matrix(1,0,0,0.63512546,0,-596.51749)"
       gradientUnits="userSpaceOnUse"
       y2="981.34082"
       x2="34.371315"
       y1="1052.3622"
       x1="34.371315"
       id="linearGradient3822-4"
       xlink:href="#linearGradient3816-8"
       inkscape:collect="always" />
    <linearGradient
       gradientUnits="userSpaceOnUse"
       y2="108.26157"
       x2="35.989838"
       y1="51.432434"
       x1="35.989838"
       id="linearGradient3803-0"
       xlink:href="#linearGradient3797-5"
       inkscape:collect="always" />
    <linearGradient
       gradientUnits="userSpaceOnUse"
       y2="1052.0378"
       x2="34.479824"
       y1="980.94946"
       x1="34.479824"
       id="linearGradient3795-9"
       xlink:href="#linearGradient3789-2"
       inkscape:collect="always" />
    <linearGradient
       id="linearGradient3781-6">
      <stop
         id="stop3783-6"
         offset="0"
         style="stop-color:#440008;stop-opacity:1;" />
      <stop
         id="stop3785-2"
         offset="1"
         style="stop-color:#232723;stop-opacity:0;" />
    </linearGradient>
    <linearGradient
       id="linearGradient3789-2">
      <stop
         id="stop3791-4"
         offset="0"
         style="stop-color:#242424;stop-opacity:1;" />
      <stop
         id="stop3793-6"
         offset="1"
         style="stop-color:#b2b2b2;stop-opacity:1;" />
    </linearGradient>
    <linearGradient
       id="linearGradient3797-5">
      <stop
         id="stop3799-2"
         offset="0"
         style="stop-color:#ffffff;stop-opacity:1;" />
      <stop
         id="stop3801-3"
         offset="1"
         style="stop-color:#ffffff;stop-opacity:0.16470589;" />
    </linearGradient>
    <linearGradient
       id="linearGradient3816-8">
      <stop
         id="stop3818-8"
         offset="0"
         style="stop-color:#ffffff;stop-opacity:0.25882354;" />
      <stop
         id="stop3820-1"
         offset="1"
         style="stop-color:#ffffff;stop-opacity:0;" />
    </linearGradient>
    <linearGradient
       inkscape:collect="always"
       xlink:href="#linearGradient3789"
       id="linearGradient3950"
       gradientUnits="userSpaceOnUse"
       x1="34.479824"
       y1="980.94946"
       x2="34.479824"
       y2="1052.0378" />
    <linearGradient
       inkscape:collect="always"
       xlink:href="#linearGradient3816"
       id="linearGradient3952"
       gradientUnits="userSpaceOnUse"
       gradientTransform="matrix(1,0,0,0.63512546,0,-596.51749)"
       x1="34.371315"
       y1="1052.3622"
       x2="34.371315"
       y2="981.34082" />
    <linearGradient
       inkscape:collect="always"
       xlink:href="#linearGradient3797"
       id="linearGradient3954"
       gradientUnits="userSpaceOnUse"
       gradientTransform="matrix(1.2057712,0,0,1,-7.3425861,-72)"
       x1="35.989838"
       y1="51.432434"
       x2="35.989838"
       y2="108.26157" />
    <linearGradient
       inkscape:collect="always"
       xlink:href="#linearGradient3797"
       id="linearGradient3048"
       gradientUnits="userSpaceOnUse"
       gradientTransform="matrix(0.26753263,0,0,0.22208472,-1.6167136,40.021184)"
       x1="35.989838"
       y1="51.432434"
       x2="35.989838"
       y2="108.26157" />
    <linearGradient
       inkscape:collect="always"
       xlink:href="#linearGradient3816"
       id="linearGradient3051"
       gradientUnits="userSpaceOnUse"
       gradientTransform="matrix(0.22187678,0,0,0.14105166,0.01243575,-76.466136)"
       x1="34.371315"
       y1="1052.3622"
       x2="34.371315"
       y2="981.34082" />
    <linearGradient
       inkscape:collect="always"
       xlink:href="#linearGradient3789"
       id="linearGradient3857"
       x1="28.217026"
       y1="-5.4093566"
       x2="12.917633"
       y2="2.4308565"
       gradientUnits="userSpaceOnUse" />
    <linearGradient
       inkscape:collect="always"
       xlink:href="#linearGradient3789"
       id="linearGradient3865"
       x1="12.90383"
       y1="2.1818821"
       x2="1.791759"
       y2="-6.5105281"
       gradientUnits="userSpaceOnUse" />
    <linearGradient
       inkscape:collect="always"
       xlink:href="#linearGradient3789"
       id="linearGradient3873"
       x1="13.580607"
       y1="-14.20495"
       x2="13.580607"
       y2="-0.35634434"
       gradientUnits="userSpaceOnUse" />
    <linearGradient
       inkscape:collect="always"
       xlink:href="#linearGradient3789"
       id="linearGradient3054"
       gradientUnits="userSpaceOnUse"
       x1="13.580607"
       y1="-14.20495"
       x2="13.580607"
       y2="-0.35634434" />
    <linearGradient
       inkscape:collect="always"
       xlink:href="#linearGradient3789"
       id="linearGradient3056"
       gradientUnits="userSpaceOnUse"
       x1="28.217026"
       y1="-5.4093566"
       x2="12.917633"
       y2="2.4308565" />
    <linearGradient
       inkscape:collect="always"
       xlink:href="#linearGradient3789"
       id="linearGradient3058"
       gradientUnits="userSpaceOnUse"
       x1="12.90383"
       y1="2.1818821"
       x2="1.791759"
       y2="-6.5105281" />
    <linearGradient
       inkscape:collect="always"
       xlink:href="#linearGradient3789"
       id="linearGradient3061"
       gradientUnits="userSpaceOnUse"
       x1="12.90383"
       y1="2.1818821"
       x2="1.791759"
       y2="-6.5105281"
       gradientTransform="matrix(8,0,0,8,0,-112)" />
    <linearGradient
       inkscape:collect="always"
       xlink:href="#linearGradient3789"
       id="linearGradient3064"
       gradientUnits="userSpaceOnUse"
       x1="28.217026"
       y1="-5.4093566"
       x2="12.917633"
       y2="2.4308565"
       gradientTransform="matrix(8,0,0,8,0,-112)" />
    <linearGradient
       inkscape:collect="always"
       xlink:href="#linearGradient3789"
       id="linearGradient3067"
       gradientUnits="userSpaceOnUse"
       x1="13.580607"
       y1="-14.20495"
       x2="13.580607"
       y2="-0.35634434"
       gradientTransform="matrix(8,0,0,8,0,-112)" />
    <linearGradient
       inkscape:collect="always"
       xlink:href="#linearGradient3789"
       id="linearGradient3072"
       gradientUnits="userSpaceOnUse"
       gradientTransform="matrix(3.9995089,-8,8,0,-202.36519,70.42756)"
       x1="28.217026"
       y1="-5.4093566"
       x2="12.917633"
       y2="2.4308565" />
    <linearGradient
       inkscape:collect="always"
       xlink:href="#linearGradient3789"
       id="linearGradient3086"
       gradientUnits="userSpaceOnUse"
       gradientTransform="matrix(8,0,0,8,-257.75,-112)"
       x1="13.580607"
       y1="-14.20495"
       x2="13.580607"
       y2="-0.35634434" />
    <linearGradient
       inkscape:collect="always"
       xlink:href="#linearGradient3789"
       id="linearGradient3094"
       gradientUnits="userSpaceOnUse"
       gradientTransform="matrix(8,0,0,8,310,-112)"
       x1="13.580607"
       y1="-14.20495"
       x2="13.580607"
       y2="-0.35634434" />
  </defs>
  <sodipodi:namedview
     id="base"
     pagecolor="#ffffff"
     bordercolor="#666666"
     borderopacity="1.0"
     inkscape:pageopacity="0.0"
     inkscape:pageshadow="2"
     inkscape:zoom="0.5"
     inkscape:cx="-246.1145"
     inkscape:cy="26.017155"
     inkscape:document-units="px"
     inkscape:current-layer="layer2"
     showgrid="false"
     borderlayer="true"
     inkscape:showpageshadow="false"
     showborder="true"
     inkscape:window-width="1680"
     inkscape:window-height="970"
     inkscape:window-x="-8"
     inkscape:window-y="-8"
     inkscape:window-maximized="1"
     showguides="false"
     inkscape:guide-bbox="true"
     inkscape:snap-global="false">
    <sodipodi:guide
       orientation="1,0"
       position="7.9985018,14.002917"
       id="guide3837" />
  </sodipodi:namedview>
  <metadata
     id="metadata7">
    <rdf:RDF>
      <cc:Work
         rdf:about="">
        <dc:format>image/svg+xml</dc:format>
        <dc:type
           rdf:resource="http://purl.org/dc/dcmitype/StillImage" />
        <dc:title></dc:title>
      </cc:Work>
    </rdf:RDF>
  </metadata>
  <g
     inkscape:label="xx Work layer"
     inkscape:groupmode="layer"
     id="layer1"
     transform="translate(0,-796.3622)"
     style="display:none"
     sodipodi:insensitive="true">
    <image
       transform="translate(0,1036.3622)"
       style="display:inline"
       y="-17.385778"
       x="0.53353304"
       id="image3059"
       xlink:href="data:image/png;base64,iVBORw0KGgoAAAANSUhEUgAAACAAAAAgCAYAAABzenr0AAAABHNCSVQICAgIfAhkiAAAAddJREFU WIXtl79O21AUh79j7ChVBwNBgi2UFwDewA+AhB+hXbp0AWVkYYMxqOrSpewsQeIBeITwAhHZWgmp aRVFBXLuYUicWoCJjYiy+CcdWVfXPr/v+v7RuWJmzFPeXN0B/7UffpJKBETjZhu4/GF3vaJ5JM8U fJZgHdgaG0bAZsarV8BlEt/tfirQswBfJEjMkmd9KmUOoG/PAImZsSd+xP/RbQHhKw0LATVt2JMj ZOcOzgZ4A4XlGRlPZNBRCB18PLHhhR9g/QCq79GqAf8QbpGfCmtv6NsxCIdIzcGGAxz04dEuEKCC 4cOaAuP4xWhKqkUcBTpAqEhNYSNrqb+4DWUUq4oA4GE3PgSSsUYEOgKhQU3HI52m3OeAA+6RlQEg CBXs9zvcIIBbgdCbmAqaN2kRgLQU6CNLf1lYqheye6q5H8UlQAlQApQAJUAJ4AE9oDsH7x6A1zBr N8zWgW3gZMYwXWAf+PDVhm3IKMuPxYsVYgexjsoqHJMSjaTocEC6Hkj3Jf2K/FFoOWgem7Yfe029 mByKFyuSgskNcO6gdWju9KX8uW5GAAeysKgjiNghuxkAXYc0FVoH5q7z5M0NkFZD/MVkiupoBLSA ZsPsyS+eCcBb6gFlJsoHfxzcOAAAAABJRU5ErkJggg== "
       height="32"
       width="32" />
  </g>
  <g
     inkscape:groupmode="layer"
     id="layer2"
     inkscape:label="Box"
     style="display:inline"
     transform="translate(0,240)">
    <g
       id="g3825">
      <rect
         y="-240"
         x="0"
         height="256"
         width="256"
         id="rect3047"
         style="fill:none;fill-opacity:1;stroke:none" />
      <path
         sodipodi:nodetypes="ccccc"
         inkscape:connector-curvature="0"
         id="path3837"
         d="m 103.47385,15.938728 0.17048,-130.842868 -89.383069,-60.37647 0,122.211498 z"
         style="fill:url(#linearGradient3061);fill-opacity:1;stroke:none" />
      <path
         sodipodi:nodetypes="ccccc"
         inkscape:connector-curvature="0"
         id="path3835"
         d="m 103.3607,16 0,-131.0872 122.01498,-53.23156 0,121.123954 z"
         style="fill:url(#linearGradient3064);fill-opacity:1;stroke:none" />
      <path
         sodipodi:nodetypes="ccccc"
         inkscape:connector-curvature="0"
         id="path3839"
         d="m 103.36187,-115.07403 122.04035,-53.2328 -93.76112,-46.18797 -117.419676,39.20073 z"
         style="fill:url(#linearGradient3067);fill-opacity:1;stroke:none" />
    </g>
  </g>
</svg>
