<?xml version="1.0" encoding="UTF-8" standalone="no"?>
<!-- Created with Inkscape (http://www.inkscape.org/) -->

<svg
   xmlns:dc="http://purl.org/dc/elements/1.1/"
   xmlns:cc="http://creativecommons.org/ns#"
   xmlns:rdf="http://www.w3.org/1999/02/22-rdf-syntax-ns#"
   xmlns:svg="http://www.w3.org/2000/svg"
   xmlns="http://www.w3.org/2000/svg"
   xmlns:xlink="http://www.w3.org/1999/xlink"
   xmlns:sodipodi="http://sodipodi.sourceforge.net/DTD/sodipodi-0.dtd"
   xmlns:inkscape="http://www.inkscape.org/namespaces/inkscape"
   width="256"
   height="256"
   id="svg2"
   version="1.1"
   inkscape:version="0.48.0 r9654"
   sodipodi:docname="management_256x256.svg"
   inkscape:export-filename="C:\Users\emo.GIRITECH\Desktop\Hans-Peter\management_256x256.png"
   inkscape:export-xdpi="90"
   inkscape:export-ydpi="90">
  <defs
     id="defs4">
    <linearGradient
       id="linearGradient3755">
      <stop
         style="stop-color:#440008;stop-opacity:1;"
         offset="0"
         id="stop3757" />
      <stop
         style="stop-color:#880000;stop-opacity:1;"
         offset="1"
         id="stop3759" />
    </linearGradient>
    <linearGradient
       inkscape:collect="always"
       xlink:href="#linearGradient3755"
       id="linearGradient3761"
       x1="0"
       y1="796.36218"
       x2="512"
       y2="796.36218"
       gradientUnits="userSpaceOnUse"
       gradientTransform="translate(540.36218,-1052.3622)" />
    <linearGradient
       inkscape:collect="always"
       xlink:href="#linearGradient3755"
       id="linearGradient3772"
       gradientUnits="userSpaceOnUse"
       gradientTransform="translate(540.36218,-1052.3622)"
       x1="0"
       y1="796.36218"
       x2="512"
       y2="796.36218" />
    <linearGradient
       inkscape:collect="always"
       xlink:href="#linearGradient3789-0"
       id="linearGradient3015"
       gradientUnits="userSpaceOnUse"
       gradientTransform="matrix(0.44444158,0,0,0.44444727,9.8656591e-5,584.64268)"
       x1="34.479824"
       y1="980.94946"
       x2="34.479824"
       y2="1052.0378" />
    <linearGradient
       id="linearGradient3789-0">
      <stop
         id="stop3791-5"
         offset="0"
         style="stop-color:#440008;stop-opacity:1;" />
      <stop
         id="stop3793-5"
         offset="1"
         style="stop-color:#880000;stop-opacity:1;" />
    </linearGradient>
    <linearGradient
       inkscape:collect="always"
       xlink:href="#linearGradient3755"
       id="linearGradient3035"
       gradientUnits="userSpaceOnUse"
       gradientTransform="matrix(0.50000001,0,0,0.50000001,796.36215,-526.18111)"
       x1="0"
       y1="796.36218"
       x2="512"
       y2="796.36218" />
  </defs>
  <sodipodi:namedview
     id="base"
     pagecolor="#ffffff"
     bordercolor="#666666"
     borderopacity="1.0"
     inkscape:pageopacity="0.0"
     inkscape:pageshadow="2"
     inkscape:zoom="1"
     inkscape:cx="-59.217948"
     inkscape:cy="104.39318"
     inkscape:document-units="px"
     inkscape:current-layer="layer1"
     showgrid="false"
     inkscape:showpageshadow="false"
     inkscape:window-width="1680"
     inkscape:window-height="970"
     inkscape:window-x="-8"
     inkscape:window-y="-8"
     inkscape:window-maximized="1"
     showborder="true"
     units="mm" />
  <metadata
     id="metadata7">
    <rdf:RDF>
      <cc:Work
         rdf:about="">
        <dc:format>image/svg+xml</dc:format>
        <dc:type
           rdf:resource="http://purl.org/dc/dcmitype/StillImage" />
        <dc:title></dc:title>
      </cc:Work>
    </rdf:RDF>
  </metadata>
  <g
     inkscape:label="Layer 1"
     inkscape:groupmode="layer"
     id="layer1"
     transform="translate(0,-796.36218)">
    <rect
       ry="42.010258"
       style="fill:url(#linearGradient3035);fill-opacity:1;stroke:none"
       id="rect2985"
       width="256"
       height="256"
       x="796.36212"
       y="-256"
       transform="matrix(0,1,-1,0,0,0)" />
    <path
       sodipodi:nodetypes="ccc"
       inkscape:connector-curvature="0"
       id="path3066"
       d="m 54.30858,933.49327 c 15.45263,11.72173 32.912855,25.22669 51.46369,45.42057 25.66371,-44.66481 56.66403,-93.1023 96.94336,-116.81376"
       style="fill:none;stroke:#ffffff;stroke-width:40.04376984000000300;stroke-linecap:butt;stroke-linejoin:miter;stroke-miterlimit:4;stroke-opacity:1;stroke-dasharray:none" />
  </g>
</svg>
