<?xml version="1.0" encoding="UTF-8" standalone="no"?>
<!-- Created with Inkscape (http://www.inkscape.org/) -->

<svg
   xmlns:dc="http://purl.org/dc/elements/1.1/"
   xmlns:cc="http://creativecommons.org/ns#"
   xmlns:rdf="http://www.w3.org/1999/02/22-rdf-syntax-ns#"
   xmlns:svg="http://www.w3.org/2000/svg"
   xmlns="http://www.w3.org/2000/svg"
   xmlns:xlink="http://www.w3.org/1999/xlink"
   xmlns:sodipodi="http://sodipodi.sourceforge.net/DTD/sodipodi-0.dtd"
   xmlns:inkscape="http://www.inkscape.org/namespaces/inkscape"
   width="1024"
   height="706"
   id="svg3833"
   version="1.1"
   inkscape:version="0.48.0 r9654"
   sodipodi:docname="g_ipad_background.svg"
   inkscape:export-filename="C:\Users\emo.GIRITECH\Documents\Shared Graphics\iPad\Backgrounds and Banners\Version 3\g_ipad_background.png"
   inkscape:export-xdpi="90"
   inkscape:export-ydpi="90"
   style="display:inline">
  <defs
     id="defs3835">
    <linearGradient
       id="linearGradient8927">
      <stop
         id="stop8929"
         offset="0"
         style="stop-color:#880000;stop-opacity:1;" />
      <stop
         id="stop8931"
         offset="1"
         style="stop-color:#440000;stop-opacity:1;" />
    </linearGradient>
    <linearGradient
       id="linearGradient8566">
      <stop
         id="stop8568"
         offset="0"
         style="stop-color:#500009;stop-opacity:1;" />
      <stop
         id="stop8570"
         offset="1"
         style="stop-color:#880000;stop-opacity:1;" />
    </linearGradient>
    <linearGradient
       id="linearGradient5050">
      <stop
         style="stop-color:#440008;stop-opacity:0.78431374;"
         offset="0"
         id="stop5052" />
      <stop
         style="stop-color:#880000;stop-opacity:0.78431374;"
         offset="1"
         id="stop5054" />
    </linearGradient>
    <linearGradient
       id="linearGradient4964">
      <stop
         style="stop-color:#440008;stop-opacity:0.54464287;"
         offset="0"
         id="stop4966" />
      <stop
         style="stop-color:#440008;stop-opacity:0.3392857;"
         offset="1"
         id="stop4968" />
    </linearGradient>
    <linearGradient
       id="linearGradient4927">
      <stop
         style="stop-color:#ffffff;stop-opacity:0.15686275;"
         offset="0"
         id="stop4929" />
      <stop
         style="stop-color:#ffffff;stop-opacity:0.07843138;"
         offset="1"
         id="stop4931" />
    </linearGradient>
    <linearGradient
       id="linearGradient4254">
      <stop
         style="stop-color:#ffffff;stop-opacity:0.10714286;"
         offset="0"
         id="stop4256" />
      <stop
         style="stop-color:#ffffff;stop-opacity:0.33035713;"
         offset="1"
         id="stop4258" />
    </linearGradient>
    <linearGradient
       id="linearGradient4124">
      <stop
         style="stop-color:#ffffff;stop-opacity:0.4017857;"
         offset="0"
         id="stop4126" />
      <stop
         style="stop-color:#ffffff;stop-opacity:0.10714286;"
         offset="1"
         id="stop4128" />
    </linearGradient>
    <linearGradient
       id="linearGradient4088">
      <stop
         style="stop-color:#000000;stop-opacity:1;"
         offset="0"
         id="stop4090" />
      <stop
         style="stop-color:#c9c9c9;stop-opacity:1;"
         offset="1"
         id="stop4092" />
    </linearGradient>
    <linearGradient
       id="linearGradient4046">
      <stop
         style="stop-color:#5b5b5b;stop-opacity:1;"
         offset="0"
         id="stop4048" />
      <stop
         style="stop-color:#c9c9c9;stop-opacity:1;"
         offset="1"
         id="stop4050" />
    </linearGradient>
    <linearGradient
       id="linearGradient4003">
      <stop
         style="stop-color:#5b5b5b;stop-opacity:1;"
         offset="0"
         id="stop4005" />
      <stop
         style="stop-color:#c9c9c9;stop-opacity:1;"
         offset="1"
         id="stop4007" />
    </linearGradient>
    <linearGradient
       id="linearGradient4378">
      <stop
         style="stop-color:#440008;stop-opacity:1;"
         offset="0"
         id="stop4380" />
      <stop
         style="stop-color:#880000;stop-opacity:1;"
         offset="1"
         id="stop4382" />
    </linearGradient>
    <linearGradient
       id="linearGradient3862">
      <stop
         id="stop3864"
         offset="0"
         style="stop-color:#000000;stop-opacity:1;" />
      <stop
         style="stop-color:#440000;stop-opacity:1;"
         offset="0.4771255"
         id="stop3866" />
      <stop
         id="stop3868"
         offset="1"
         style="stop-color:#880000;stop-opacity:1;" />
    </linearGradient>
    <linearGradient
       inkscape:collect="always"
       xlink:href="#linearGradient3827"
       id="linearGradient3833"
       x1="348.71906"
       y1="16.362198"
       x2="348.71906"
       y2="662.40698"
       gradientUnits="userSpaceOnUse"
       gradientTransform="matrix(0.99933466,0,0,1.0923614,1.0219363,43.009512)" />
    <linearGradient
       id="linearGradient3827">
      <stop
         style="stop-color:#120002;stop-opacity:1;"
         offset="0"
         id="stop3829" />
      <stop
         style="stop-color:#500009;stop-opacity:1;"
         offset="1"
         id="stop3831" />
    </linearGradient>
    <linearGradient
       y2="662.40698"
       x2="348.71906"
       y1="16.362198"
       x1="348.71906"
       gradientTransform="matrix(0.99933466,0,0,1.0923614,171.87908,-139.62831)"
       gradientUnits="userSpaceOnUse"
       id="linearGradient3831"
       xlink:href="#linearGradient3862"
       inkscape:collect="always" />
    <linearGradient
       inkscape:collect="always"
       xlink:href="#linearGradient4378"
       id="linearGradient4384"
       x1="439.42859"
       y1="-119.06639"
       x2="439.42859"
       y2="586.6488"
       gradientUnits="userSpaceOnUse" />
    <linearGradient
       inkscape:collect="always"
       xlink:href="#linearGradient4023"
       id="linearGradient4029"
       x1="390.37421"
       y1="559.52441"
       x2="390.37421"
       y2="616.85144"
       gradientUnits="userSpaceOnUse" />
    <linearGradient
       id="linearGradient4023">
      <stop
         style="stop-color:#5b5b5b;stop-opacity:1;"
         offset="0"
         id="stop4025" />
      <stop
         style="stop-color:#c9c9c9;stop-opacity:1;"
         offset="1"
         id="stop4027" />
    </linearGradient>
    <linearGradient
       inkscape:collect="always"
       xlink:href="#linearGradient4023"
       id="linearGradient4031"
       gradientUnits="userSpaceOnUse"
       x1="390.37421"
       y1="559.52441"
       x2="390.37421"
       y2="616.85144" />
    <linearGradient
       id="linearGradient4050">
      <stop
         style="stop-color:#5b5b5b;stop-opacity:1;"
         offset="0"
         id="stop4052" />
      <stop
         style="stop-color:#c9c9c9;stop-opacity:1;"
         offset="1"
         id="stop4054" />
    </linearGradient>
    <linearGradient
       inkscape:collect="always"
       xlink:href="#linearGradient4023"
       id="linearGradient4056"
       gradientUnits="userSpaceOnUse"
       x1="390.37421"
       y1="559.52441"
       x2="390.37421"
       y2="616.85144" />
    <linearGradient
       id="linearGradient4058">
      <stop
         style="stop-color:#5b5b5b;stop-opacity:1;"
         offset="0"
         id="stop4060" />
      <stop
         style="stop-color:#c9c9c9;stop-opacity:1;"
         offset="1"
         id="stop4062" />
    </linearGradient>
    <linearGradient
       inkscape:collect="always"
       xlink:href="#linearGradient4023"
       id="linearGradient4033"
       gradientUnits="userSpaceOnUse"
       x1="390.37421"
       y1="559.52441"
       x2="390.37421"
       y2="616.85144" />
    <linearGradient
       id="linearGradient4065">
      <stop
         style="stop-color:#5b5b5b;stop-opacity:1;"
         offset="0"
         id="stop4067" />
      <stop
         style="stop-color:#c9c9c9;stop-opacity:1;"
         offset="1"
         id="stop4069" />
    </linearGradient>
    <linearGradient
       inkscape:collect="always"
       xlink:href="#linearGradient4023-4"
       id="linearGradient4029-0"
       x1="390.37421"
       y1="559.52441"
       x2="390.37421"
       y2="616.85144"
       gradientUnits="userSpaceOnUse" />
    <linearGradient
       id="linearGradient4023-4">
      <stop
         style="stop-color:#5b5b5b;stop-opacity:1;"
         offset="0"
         id="stop4025-0" />
      <stop
         style="stop-color:#c9c9c9;stop-opacity:1;"
         offset="1"
         id="stop4027-0" />
    </linearGradient>
    <linearGradient
       inkscape:collect="always"
       xlink:href="#linearGradient4023-4"
       id="linearGradient4031-4"
       gradientUnits="userSpaceOnUse"
       x1="390.37421"
       y1="559.52441"
       x2="390.37421"
       y2="616.85144" />
    <linearGradient
       id="linearGradient3107">
      <stop
         style="stop-color:#5b5b5b;stop-opacity:1;"
         offset="0"
         id="stop3109" />
      <stop
         style="stop-color:#c9c9c9;stop-opacity:1;"
         offset="1"
         id="stop3111" />
    </linearGradient>
    <linearGradient
       inkscape:collect="always"
       xlink:href="#linearGradient4023-4"
       id="linearGradient3113"
       gradientUnits="userSpaceOnUse"
       x1="390.37421"
       y1="559.52441"
       x2="390.37421"
       y2="616.85144" />
    <linearGradient
       id="linearGradient3115">
      <stop
         style="stop-color:#5b5b5b;stop-opacity:1;"
         offset="0"
         id="stop3117" />
      <stop
         style="stop-color:#c9c9c9;stop-opacity:1;"
         offset="1"
         id="stop3119" />
    </linearGradient>
    <linearGradient
       y2="616.85144"
       x2="390.37421"
       y1="559.52441"
       x1="390.37421"
       gradientUnits="userSpaceOnUse"
       id="linearGradient4075-0"
       xlink:href="#linearGradient4023-4"
       inkscape:collect="always" />
    <linearGradient
       id="linearGradient3122">
      <stop
         style="stop-color:#5b5b5b;stop-opacity:1;"
         offset="0"
         id="stop3124" />
      <stop
         style="stop-color:#c9c9c9;stop-opacity:1;"
         offset="1"
         id="stop3126" />
    </linearGradient>
    <linearGradient
       inkscape:collect="always"
       xlink:href="#linearGradient4023-4"
       id="linearGradient3186"
       gradientUnits="userSpaceOnUse"
       x1="390.37421"
       y1="559.52441"
       x2="390.37421"
       y2="616.85144"
       gradientTransform="matrix(1.3329682,0,0,1.3329682,5.124825,-409.67305)" />
    <linearGradient
       inkscape:collect="always"
       xlink:href="#linearGradient4023-4-0"
       id="linearGradient3182-5"
       gradientUnits="userSpaceOnUse"
       x1="390.37421"
       y1="559.52441"
       x2="390.37421"
       y2="616.85144"
       gradientTransform="matrix(1.3329682,0,0,1.3329682,-223.64791,-281.76396)" />
    <linearGradient
       id="linearGradient4023-4-0">
      <stop
         style="stop-color:#5b5b5b;stop-opacity:1;"
         offset="0"
         id="stop4025-0-2" />
      <stop
         style="stop-color:#c9c9c9;stop-opacity:1;"
         offset="1"
         id="stop4027-0-3" />
    </linearGradient>
    <linearGradient
       inkscape:collect="always"
       xlink:href="#linearGradient4003"
       id="linearGradient4009"
       x1="241.87505"
       y1="354.13489"
       x2="349.77744"
       y2="354.13489"
       gradientUnits="userSpaceOnUse" />
    <linearGradient
       inkscape:collect="always"
       xlink:href="#linearGradient4003"
       id="linearGradient4013"
       gradientUnits="userSpaceOnUse"
       x1="241.87505"
       y1="354.13489"
       x2="349.77744"
       y2="354.13489" />
    <linearGradient
       inkscape:collect="always"
       xlink:href="#linearGradient4003"
       id="linearGradient4017"
       gradientUnits="userSpaceOnUse"
       x1="241.87505"
       y1="354.13489"
       x2="349.77744"
       y2="354.13489" />
    <linearGradient
       inkscape:collect="always"
       xlink:href="#linearGradient4003"
       id="linearGradient4026"
       gradientUnits="userSpaceOnUse"
       x1="241.87505"
       y1="354.13489"
       x2="349.77744"
       y2="354.13489" />
    <linearGradient
       inkscape:collect="always"
       xlink:href="#linearGradient4003"
       id="linearGradient4030"
       gradientUnits="userSpaceOnUse"
       x1="241.87505"
       y1="354.13489"
       x2="349.77744"
       y2="354.13489" />
    <linearGradient
       inkscape:collect="always"
       xlink:href="#linearGradient4003"
       id="linearGradient4038"
       gradientUnits="userSpaceOnUse"
       x1="241.87505"
       y1="354.13489"
       x2="349.77744"
       y2="354.13489"
       gradientTransform="matrix(1.3329682,0,0,1.3329682,-43.557,-275.90034)" />
    <linearGradient
       inkscape:collect="always"
       xlink:href="#linearGradient4124"
       id="linearGradient4130"
       x1="491.47214"
       y1="426.39737"
       x2="488.12451"
       y2="521.39734"
       gradientUnits="userSpaceOnUse" />
    <linearGradient
       inkscape:collect="always"
       xlink:href="#linearGradient4124-4"
       id="linearGradient4130-2"
       x1="491.47214"
       y1="426.39737"
       x2="488.12451"
       y2="521.39734"
       gradientUnits="userSpaceOnUse" />
    <linearGradient
       id="linearGradient4124-4">
      <stop
         style="stop-color:#ffffff;stop-opacity:0.26785713;"
         offset="0"
         id="stop4126-7" />
      <stop
         style="stop-color:#ffffff;stop-opacity:0.04464286;"
         offset="1"
         id="stop4128-3" />
    </linearGradient>
    <linearGradient
       inkscape:collect="always"
       xlink:href="#linearGradient4124-4"
       id="linearGradient4146"
       x1="491.47214"
       y1="426.39737"
       x2="488.12451"
       y2="521.39734"
       gradientUnits="userSpaceOnUse" />
    <linearGradient
       id="linearGradient4148">
      <stop
         style="stop-color:#ffffff;stop-opacity:0.4017857;"
         offset="0"
         id="stop4150" />
      <stop
         style="stop-color:#ffffff;stop-opacity:0.10714286;"
         offset="1"
         id="stop4152" />
    </linearGradient>
    <linearGradient
       inkscape:collect="always"
       xlink:href="#linearGradient4124-4"
       id="linearGradient4154"
       x1="491.47214"
       y1="426.39737"
       x2="488.12451"
       y2="521.39734"
       gradientUnits="userSpaceOnUse" />
    <linearGradient
       id="linearGradient4156">
      <stop
         style="stop-color:#ffffff;stop-opacity:0.4017857;"
         offset="0"
         id="stop4158" />
      <stop
         style="stop-color:#ffffff;stop-opacity:0.10714286;"
         offset="1"
         id="stop4160" />
    </linearGradient>
    <linearGradient
       y2="521.39734"
       x2="488.12451"
       y1="426.39737"
       x1="491.47214"
       gradientUnits="userSpaceOnUse"
       id="linearGradient4169"
       xlink:href="#linearGradient4124-4"
       inkscape:collect="always" />
    <linearGradient
       inkscape:collect="always"
       xlink:href="#linearGradient4124-4"
       id="linearGradient4213"
       gradientUnits="userSpaceOnUse"
       x1="491.47214"
       y1="426.39737"
       x2="488.12451"
       y2="521.39734"
       gradientTransform="translate(-370.8162,-223.53519)" />
    <linearGradient
       inkscape:collect="always"
       xlink:href="#linearGradient4254"
       id="linearGradient4260"
       x1="660.99829"
       y1="256.58136"
       x2="660.99829"
       y2="285.3334"
       gradientUnits="userSpaceOnUse" />
    <linearGradient
       id="linearGradient4403">
      <stop
         style="stop-color:#ffffff;stop-opacity:0.51785713;"
         offset="0"
         id="stop4405" />
      <stop
         style="stop-color:#ffffff;stop-opacity:0.02678571;"
         offset="1"
         id="stop4407" />
    </linearGradient>
    <linearGradient
       inkscape:collect="always"
       xlink:href="#linearGradient4403-8"
       id="linearGradient4290-1"
       gradientUnits="userSpaceOnUse"
       gradientTransform="translate(629.06064,542.29888)"
       x1="12.767467"
       y1="-0.067989945"
       x2="12.767467"
       y2="15.01789" />
    <linearGradient
       id="linearGradient4403-8">
      <stop
         style="stop-color:#ffffff;stop-opacity:0.51785713;"
         offset="0"
         id="stop4405-4" />
      <stop
         style="stop-color:#ffffff;stop-opacity:0.02678571;"
         offset="1"
         id="stop4407-1" />
    </linearGradient>
    <linearGradient
       inkscape:collect="always"
       xlink:href="#linearGradient4403-82"
       id="linearGradient4290-9"
       gradientUnits="userSpaceOnUse"
       gradientTransform="translate(629.06064,542.29888)"
       x1="12.767467"
       y1="-0.067989945"
       x2="12.767467"
       y2="15.01789" />
    <linearGradient
       id="linearGradient4403-82">
      <stop
         style="stop-color:#ffffff;stop-opacity:0.51785713;"
         offset="0"
         id="stop4405-8" />
      <stop
         style="stop-color:#ffffff;stop-opacity:0.02678571;"
         offset="1"
         id="stop4407-0" />
    </linearGradient>
    <linearGradient
       inkscape:collect="always"
       xlink:href="#linearGradient4403-80"
       id="linearGradient4290-4"
       gradientUnits="userSpaceOnUse"
       gradientTransform="translate(629.06064,542.29888)"
       x1="12.767467"
       y1="-0.067989945"
       x2="12.767467"
       y2="15.01789" />
    <linearGradient
       id="linearGradient4403-80">
      <stop
         style="stop-color:#ffffff;stop-opacity:0.51785713;"
         offset="0"
         id="stop4405-1" />
      <stop
         style="stop-color:#ffffff;stop-opacity:0.02678571;"
         offset="1"
         id="stop4407-9" />
    </linearGradient>
    <linearGradient
       inkscape:collect="always"
       xlink:href="#linearGradient4403-6"
       id="linearGradient4290-5"
       gradientUnits="userSpaceOnUse"
       gradientTransform="translate(629.06064,542.29888)"
       x1="12.767467"
       y1="-0.067989945"
       x2="12.767467"
       y2="15.01789" />
    <linearGradient
       id="linearGradient4403-6">
      <stop
         style="stop-color:#ffffff;stop-opacity:0.51785713;"
         offset="0"
         id="stop4405-6" />
      <stop
         style="stop-color:#ffffff;stop-opacity:0.02678571;"
         offset="1"
         id="stop4407-00" />
    </linearGradient>
    <linearGradient
       inkscape:collect="always"
       xlink:href="#linearGradient4403-5"
       id="linearGradient4290-8"
       gradientUnits="userSpaceOnUse"
       gradientTransform="translate(629.06064,542.29888)"
       x1="12.767467"
       y1="-0.067989945"
       x2="12.767467"
       y2="15.01789" />
    <linearGradient
       id="linearGradient4403-5">
      <stop
         style="stop-color:#ffffff;stop-opacity:0.51785713;"
         offset="0"
         id="stop4405-5" />
      <stop
         style="stop-color:#ffffff;stop-opacity:0.02678571;"
         offset="1"
         id="stop4407-3" />
    </linearGradient>
    <linearGradient
       inkscape:collect="always"
       xlink:href="#linearGradient4403-4"
       id="linearGradient4290-3"
       gradientUnits="userSpaceOnUse"
       gradientTransform="translate(629.06064,542.29888)"
       x1="12.767467"
       y1="-0.067989945"
       x2="12.767467"
       y2="15.01789" />
    <linearGradient
       id="linearGradient4403-4">
      <stop
         style="stop-color:#ffffff;stop-opacity:0.51785713;"
         offset="0"
         id="stop4405-46" />
      <stop
         style="stop-color:#ffffff;stop-opacity:0.02678571;"
         offset="1"
         id="stop4407-4" />
    </linearGradient>
    <linearGradient
       inkscape:collect="always"
       xlink:href="#linearGradient4403-84"
       id="linearGradient4290-19"
       gradientUnits="userSpaceOnUse"
       gradientTransform="translate(629.06064,542.29888)"
       x1="12.767467"
       y1="-0.067989945"
       x2="12.767467"
       y2="15.01789" />
    <linearGradient
       id="linearGradient4403-84">
      <stop
         style="stop-color:#ffffff;stop-opacity:0.51785713;"
         offset="0"
         id="stop4405-3" />
      <stop
         style="stop-color:#ffffff;stop-opacity:0.02678571;"
         offset="1"
         id="stop4407-8" />
    </linearGradient>
    <linearGradient
       inkscape:collect="always"
       xlink:href="#linearGradient4403-54"
       id="linearGradient4290-37"
       gradientUnits="userSpaceOnUse"
       gradientTransform="translate(629.06064,542.29888)"
       x1="12.767467"
       y1="-0.067989945"
       x2="12.767467"
       y2="15.01789" />
    <linearGradient
       id="linearGradient4403-54">
      <stop
         style="stop-color:#ffffff;stop-opacity:0.51785713;"
         offset="0"
         id="stop4405-7" />
      <stop
         style="stop-color:#ffffff;stop-opacity:0.02678571;"
         offset="1"
         id="stop4407-14" />
    </linearGradient>
    <linearGradient
       inkscape:collect="always"
       xlink:href="#linearGradient4403-547"
       id="linearGradient3773"
       x1="13.904762"
       y1="-0.11904761"
       x2="13.904762"
       y2="14.901423"
       gradientUnits="userSpaceOnUse" />
    <linearGradient
       id="linearGradient4403-547">
      <stop
         style="stop-color:#ffffff;stop-opacity:0.51785713;"
         offset="0"
         id="stop4405-0" />
      <stop
         style="stop-color:#ffffff;stop-opacity:0.02678571;"
         offset="1"
         id="stop4407-31" />
    </linearGradient>
    <clipPath
       clipPathUnits="userSpaceOnUse"
       id="clipPath3777">
      <rect
         ry="4.6541929"
         y="0"
         x="0"
         height="30"
         width="32"
         id="rect3779"
         style="fill:none;stroke:#000000;stroke-width:0.2;stroke-miterlimit:4;stroke-opacity:1;stroke-dasharray:none" />
    </clipPath>
    <linearGradient
       inkscape:collect="always"
       xlink:href="#linearGradient4403-547"
       id="linearGradient4551"
       gradientUnits="userSpaceOnUse"
       x1="13.904762"
       y1="-0.11904761"
       x2="13.904762"
       y2="14.901423" />
    <linearGradient
       inkscape:collect="always"
       xlink:href="#linearGradient4403-547-7"
       id="linearGradient4551-2"
       gradientUnits="userSpaceOnUse"
       x1="13.904762"
       y1="-0.11904761"
       x2="13.904762"
       y2="14.901423" />
    <linearGradient
       id="linearGradient4403-547-7">
      <stop
         style="stop-color:#ffffff;stop-opacity:0.51785713;"
         offset="0"
         id="stop4405-0-4" />
      <stop
         style="stop-color:#ffffff;stop-opacity:0.02678571;"
         offset="1"
         id="stop4407-31-1" />
    </linearGradient>
    <clipPath
       clipPathUnits="userSpaceOnUse"
       id="clipPath3777-6">
      <rect
         ry="4.6541929"
         y="0"
         x="0"
         height="30"
         width="32"
         id="rect3779-6"
         style="fill:none;stroke:#000000;stroke-width:0.2;stroke-miterlimit:4;stroke-opacity:1;stroke-dasharray:none" />
    </clipPath>
    <linearGradient
       y2="14.901423"
       x2="13.904762"
       y1="-0.11904761"
       x1="13.904762"
       gradientUnits="userSpaceOnUse"
       id="linearGradient4572"
       xlink:href="#linearGradient4403-547-7"
       inkscape:collect="always" />
    <linearGradient
       inkscape:collect="always"
       xlink:href="#linearGradient4403-547-8"
       id="linearGradient4551-0"
       gradientUnits="userSpaceOnUse"
       x1="13.904762"
       y1="-0.11904761"
       x2="13.904762"
       y2="14.901423" />
    <linearGradient
       id="linearGradient4403-547-8">
      <stop
         style="stop-color:#ffffff;stop-opacity:0.51785713;"
         offset="0"
         id="stop4405-0-6" />
      <stop
         style="stop-color:#ffffff;stop-opacity:0.02678571;"
         offset="1"
         id="stop4407-31-3" />
    </linearGradient>
    <clipPath
       clipPathUnits="userSpaceOnUse"
       id="clipPath3777-2">
      <rect
         ry="4.6541929"
         y="0"
         x="0"
         height="30"
         width="32"
         id="rect3779-3"
         style="fill:none;stroke:#000000;stroke-width:0.2;stroke-miterlimit:4;stroke-opacity:1;stroke-dasharray:none" />
    </clipPath>
    <linearGradient
       y2="14.901423"
       x2="13.904762"
       y1="-0.11904761"
       x1="13.904762"
       gradientUnits="userSpaceOnUse"
       id="linearGradient4572-3"
       xlink:href="#linearGradient4403-547-8"
       inkscape:collect="always" />
    <linearGradient
       inkscape:collect="always"
       xlink:href="#linearGradient4403-547-78"
       id="linearGradient4551-06"
       gradientUnits="userSpaceOnUse"
       x1="13.904762"
       y1="-0.11904761"
       x2="13.904762"
       y2="14.901423" />
    <linearGradient
       id="linearGradient4403-547-78">
      <stop
         style="stop-color:#ffffff;stop-opacity:0.51785713;"
         offset="0"
         id="stop4405-0-7" />
      <stop
         style="stop-color:#ffffff;stop-opacity:0.02678571;"
         offset="1"
         id="stop4407-31-14" />
    </linearGradient>
    <clipPath
       clipPathUnits="userSpaceOnUse"
       id="clipPath3777-7">
      <rect
         ry="4.6541929"
         y="0"
         x="0"
         height="30"
         width="32"
         id="rect3779-7"
         style="fill:none;stroke:#000000;stroke-width:0.2;stroke-miterlimit:4;stroke-opacity:1;stroke-dasharray:none" />
    </clipPath>
    <linearGradient
       y2="14.901423"
       x2="13.904762"
       y1="-0.11904761"
       x1="13.904762"
       gradientUnits="userSpaceOnUse"
       id="linearGradient4572-2"
       xlink:href="#linearGradient4403-547-78"
       inkscape:collect="always" />
    <linearGradient
       inkscape:collect="always"
       xlink:href="#linearGradient4403-547-9"
       id="linearGradient4551-9"
       gradientUnits="userSpaceOnUse"
       x1="13.904762"
       y1="-0.11904761"
       x2="13.904762"
       y2="14.901423" />
    <linearGradient
       id="linearGradient4403-547-9">
      <stop
         style="stop-color:#ffffff;stop-opacity:0.51785713;"
         offset="0"
         id="stop4405-0-3" />
      <stop
         style="stop-color:#ffffff;stop-opacity:0.02678571;"
         offset="1"
         id="stop4407-31-30" />
    </linearGradient>
    <clipPath
       clipPathUnits="userSpaceOnUse"
       id="clipPath3777-1">
      <rect
         ry="4.6541929"
         y="0"
         x="0"
         height="30"
         width="32"
         id="rect3779-62"
         style="fill:none;stroke:#000000;stroke-width:0.2;stroke-miterlimit:4;stroke-opacity:1;stroke-dasharray:none" />
    </clipPath>
    <linearGradient
       y2="14.901423"
       x2="13.904762"
       y1="-0.11904761"
       x1="13.904762"
       gradientUnits="userSpaceOnUse"
       id="linearGradient4572-1"
       xlink:href="#linearGradient4403-547-9"
       inkscape:collect="always" />
    <linearGradient
       inkscape:collect="always"
       xlink:href="#linearGradient4403-547-6"
       id="linearGradient4551-08"
       gradientUnits="userSpaceOnUse"
       x1="13.904762"
       y1="-0.11904761"
       x2="13.904762"
       y2="14.901423" />
    <linearGradient
       id="linearGradient4403-547-6">
      <stop
         style="stop-color:#ffffff;stop-opacity:0.51785713;"
         offset="0"
         id="stop4405-0-47" />
      <stop
         style="stop-color:#ffffff;stop-opacity:0.02678571;"
         offset="1"
         id="stop4407-31-7" />
    </linearGradient>
    <clipPath
       clipPathUnits="userSpaceOnUse"
       id="clipPath3777-3">
      <rect
         ry="4.6541929"
         y="0"
         x="0"
         height="30"
         width="32"
         id="rect3779-4"
         style="fill:none;stroke:#000000;stroke-width:0.2;stroke-miterlimit:4;stroke-opacity:1;stroke-dasharray:none" />
    </clipPath>
    <linearGradient
       y2="14.901423"
       x2="13.904762"
       y1="-0.11904761"
       x1="13.904762"
       gradientUnits="userSpaceOnUse"
       id="linearGradient4572-0"
       xlink:href="#linearGradient4403-547-6"
       inkscape:collect="always" />
    <linearGradient
       inkscape:collect="always"
       xlink:href="#linearGradient4403-547-81"
       id="linearGradient4551-23"
       gradientUnits="userSpaceOnUse"
       x1="13.904762"
       y1="-0.11904761"
       x2="13.904762"
       y2="14.901423" />
    <linearGradient
       id="linearGradient4403-547-81">
      <stop
         style="stop-color:#ffffff;stop-opacity:0.51785713;"
         offset="0"
         id="stop4405-0-9" />
      <stop
         style="stop-color:#ffffff;stop-opacity:0.02678571;"
         offset="1"
         id="stop4407-31-6" />
    </linearGradient>
    <clipPath
       clipPathUnits="userSpaceOnUse"
       id="clipPath3777-65">
      <rect
         ry="4.6541929"
         y="0"
         x="0"
         height="30"
         width="32"
         id="rect3779-42"
         style="fill:none;stroke:#000000;stroke-width:0.2;stroke-miterlimit:4;stroke-opacity:1;stroke-dasharray:none" />
    </clipPath>
    <linearGradient
       y2="14.901423"
       x2="13.904762"
       y1="-0.11904761"
       x1="13.904762"
       gradientUnits="userSpaceOnUse"
       id="linearGradient4572-00"
       xlink:href="#linearGradient4403-547-81"
       inkscape:collect="always" />
    <linearGradient
       inkscape:collect="always"
       xlink:href="#linearGradient4403-547-2"
       id="linearGradient4551-8"
       gradientUnits="userSpaceOnUse"
       x1="13.904762"
       y1="-0.11904761"
       x2="13.904762"
       y2="14.901423" />
    <linearGradient
       id="linearGradient4403-547-2">
      <stop
         style="stop-color:#ffffff;stop-opacity:0.51785713;"
         offset="0"
         id="stop4405-0-1" />
      <stop
         style="stop-color:#ffffff;stop-opacity:0.02678571;"
         offset="1"
         id="stop4407-31-5" />
    </linearGradient>
    <clipPath
       clipPathUnits="userSpaceOnUse"
       id="clipPath3777-11">
      <rect
         ry="4.6541929"
         y="0"
         x="0"
         height="30"
         width="32"
         id="rect3779-0"
         style="fill:none;stroke:#000000;stroke-width:0.2;stroke-miterlimit:4;stroke-opacity:1;stroke-dasharray:none" />
    </clipPath>
    <linearGradient
       y2="14.901423"
       x2="13.904762"
       y1="-0.11904761"
       x1="13.904762"
       gradientUnits="userSpaceOnUse"
       id="linearGradient4572-6"
       xlink:href="#linearGradient4403-547-2"
       inkscape:collect="always" />
    <linearGradient
       inkscape:collect="always"
       xlink:href="#linearGradient4403-547"
       id="linearGradient4775"
       gradientUnits="userSpaceOnUse"
       x1="13.904762"
       y1="-0.11904761"
       x2="13.904762"
       y2="14.901423" />
    <linearGradient
       inkscape:collect="always"
       xlink:href="#linearGradient4403-547-7"
       id="linearGradient4777"
       gradientUnits="userSpaceOnUse"
       x1="13.904762"
       y1="-0.11904761"
       x2="13.904762"
       y2="14.901423" />
    <linearGradient
       inkscape:collect="always"
       xlink:href="#linearGradient4403-547-8"
       id="linearGradient4779"
       gradientUnits="userSpaceOnUse"
       x1="13.904762"
       y1="-0.11904761"
       x2="13.904762"
       y2="14.901423" />
    <linearGradient
       inkscape:collect="always"
       xlink:href="#linearGradient4403-547-78"
       id="linearGradient4781"
       gradientUnits="userSpaceOnUse"
       x1="13.904762"
       y1="-0.11904761"
       x2="13.904762"
       y2="14.901423" />
    <linearGradient
       inkscape:collect="always"
       xlink:href="#linearGradient4403-547-9"
       id="linearGradient4783"
       gradientUnits="userSpaceOnUse"
       x1="13.904762"
       y1="-0.11904761"
       x2="13.904762"
       y2="14.901423" />
    <linearGradient
       inkscape:collect="always"
       xlink:href="#linearGradient4403-547-6"
       id="linearGradient4785"
       gradientUnits="userSpaceOnUse"
       x1="13.904762"
       y1="-0.11904761"
       x2="13.904762"
       y2="14.901423" />
    <linearGradient
       inkscape:collect="always"
       xlink:href="#linearGradient4403-547-81"
       id="linearGradient4787"
       gradientUnits="userSpaceOnUse"
       x1="13.904762"
       y1="-0.11904761"
       x2="13.904762"
       y2="14.901423" />
    <linearGradient
       inkscape:collect="always"
       xlink:href="#linearGradient4403-547-2"
       id="linearGradient4789"
       gradientUnits="userSpaceOnUse"
       x1="13.904762"
       y1="-0.11904761"
       x2="13.904762"
       y2="14.901423" />
    <linearGradient
       inkscape:collect="always"
       xlink:href="#linearGradient4124"
       id="linearGradient4919"
       gradientUnits="userSpaceOnUse"
       x1="491.47214"
       y1="426.39737"
       x2="488.12451"
       y2="521.39734" />
    <linearGradient
       inkscape:collect="always"
       xlink:href="#linearGradient4927"
       id="linearGradient4933"
       x1="664.99829"
       y1="257.33136"
       x2="664.99829"
       y2="285.10287"
       gradientUnits="userSpaceOnUse" />
    <linearGradient
       inkscape:collect="always"
       xlink:href="#linearGradient4927"
       id="linearGradient4935"
       x1="698.58771"
       y1="306.50989"
       x2="698.58771"
       y2="369.51138"
       gradientUnits="userSpaceOnUse" />
    <linearGradient
       inkscape:collect="always"
       xlink:href="#linearGradient4927"
       id="linearGradient4937"
       x1="495.0488"
       y1="353.83063"
       x2="495.0488"
       y2="430.08301"
       gradientUnits="userSpaceOnUse" />
    <linearGradient
       inkscape:collect="always"
       xlink:href="#linearGradient4927"
       id="linearGradient4939"
       x1="545.23059"
       y1="336.55789"
       x2="545.23059"
       y2="376.56439"
       gradientUnits="userSpaceOnUse" />
    <linearGradient
       inkscape:collect="always"
       xlink:href="#linearGradient4964"
       id="linearGradient4970"
       x1="650.99829"
       y1="271.58136"
       x2="676.34131"
       y2="271.58136"
       gradientUnits="userSpaceOnUse" />
    <linearGradient
       inkscape:collect="always"
       xlink:href="#linearGradient4403-547"
       id="linearGradient5034"
       gradientUnits="userSpaceOnUse"
       x1="13.904762"
       y1="-0.11904761"
       x2="13.904762"
       y2="14.901423" />
    <linearGradient
       inkscape:collect="always"
       xlink:href="#linearGradient4403-547-7"
       id="linearGradient5036"
       gradientUnits="userSpaceOnUse"
       x1="13.904762"
       y1="-0.11904761"
       x2="13.904762"
       y2="14.901423" />
    <linearGradient
       inkscape:collect="always"
       xlink:href="#linearGradient4403-547-8"
       id="linearGradient5038"
       gradientUnits="userSpaceOnUse"
       x1="13.904762"
       y1="-0.11904761"
       x2="13.904762"
       y2="14.901423" />
    <linearGradient
       inkscape:collect="always"
       xlink:href="#linearGradient4403-547-78"
       id="linearGradient5040"
       gradientUnits="userSpaceOnUse"
       x1="13.904762"
       y1="-0.11904761"
       x2="13.904762"
       y2="14.901423" />
    <linearGradient
       inkscape:collect="always"
       xlink:href="#linearGradient4403-547-9"
       id="linearGradient5042"
       gradientUnits="userSpaceOnUse"
       x1="13.904762"
       y1="-0.11904761"
       x2="13.904762"
       y2="14.901423" />
    <linearGradient
       inkscape:collect="always"
       xlink:href="#linearGradient4403-547-6"
       id="linearGradient5044"
       gradientUnits="userSpaceOnUse"
       x1="13.904762"
       y1="-0.11904761"
       x2="13.904762"
       y2="14.901423" />
    <linearGradient
       inkscape:collect="always"
       xlink:href="#linearGradient4403-547-81"
       id="linearGradient5046"
       gradientUnits="userSpaceOnUse"
       x1="13.904762"
       y1="-0.11904761"
       x2="13.904762"
       y2="14.901423" />
    <linearGradient
       inkscape:collect="always"
       xlink:href="#linearGradient4403-547-2"
       id="linearGradient5048"
       gradientUnits="userSpaceOnUse"
       x1="13.904762"
       y1="-0.11904761"
       x2="13.904762"
       y2="14.901423" />
    <linearGradient
       inkscape:collect="always"
       xlink:href="#linearGradient4403-547"
       id="linearGradient5114"
       gradientUnits="userSpaceOnUse"
       x1="13.904762"
       y1="-0.11904761"
       x2="13.904762"
       y2="14.901423" />
    <linearGradient
       inkscape:collect="always"
       xlink:href="#linearGradient4403-547-7"
       id="linearGradient5116"
       gradientUnits="userSpaceOnUse"
       x1="13.904762"
       y1="-0.11904761"
       x2="13.904762"
       y2="14.901423" />
    <linearGradient
       inkscape:collect="always"
       xlink:href="#linearGradient4403-547-8"
       id="linearGradient5118"
       gradientUnits="userSpaceOnUse"
       x1="13.904762"
       y1="-0.11904761"
       x2="13.904762"
       y2="14.901423" />
    <linearGradient
       inkscape:collect="always"
       xlink:href="#linearGradient4403-547-78"
       id="linearGradient5120"
       gradientUnits="userSpaceOnUse"
       x1="13.904762"
       y1="-0.11904761"
       x2="13.904762"
       y2="14.901423" />
    <linearGradient
       inkscape:collect="always"
       xlink:href="#linearGradient4403-547-9"
       id="linearGradient5122"
       gradientUnits="userSpaceOnUse"
       x1="13.904762"
       y1="-0.11904761"
       x2="13.904762"
       y2="14.901423" />
    <linearGradient
       inkscape:collect="always"
       xlink:href="#linearGradient4403-547-6"
       id="linearGradient5124"
       gradientUnits="userSpaceOnUse"
       x1="13.904762"
       y1="-0.11904761"
       x2="13.904762"
       y2="14.901423" />
    <linearGradient
       inkscape:collect="always"
       xlink:href="#linearGradient4403-547-81"
       id="linearGradient5126"
       gradientUnits="userSpaceOnUse"
       x1="13.904762"
       y1="-0.11904761"
       x2="13.904762"
       y2="14.901423" />
    <linearGradient
       inkscape:collect="always"
       xlink:href="#linearGradient4403-547-2"
       id="linearGradient5128"
       gradientUnits="userSpaceOnUse"
       x1="13.904762"
       y1="-0.11904761"
       x2="13.904762"
       y2="14.901423" />
    <linearGradient
       inkscape:collect="always"
       xlink:href="#linearGradient4927"
       id="linearGradient3340"
       gradientUnits="userSpaceOnUse"
       x1="664.99829"
       y1="257.33136"
       x2="664.99829"
       y2="285.10287" />
    <clipPath
       clipPathUnits="userSpaceOnUse"
       id="clipPath4220">
      <rect
         style="fill:#360006;fill-opacity:0.59788358;fill-rule:evenodd;stroke:none"
         id="rect4222"
         width="275.61356"
         height="55.684658"
         x="201.96738"
         y="444.37048"
         ry="0"
         rx="0" />
    </clipPath>
    <linearGradient
       inkscape:collect="always"
       xlink:href="#linearGradient4378"
       id="linearGradient7937"
       x1="3747.4846"
       y1="1101.5055"
       x2="3825.9167"
       y2="952.64551"
       gradientUnits="userSpaceOnUse"
       gradientTransform="matrix(7.5730881,1.4063433,-7.4962169,6.4421818,-17738.225,-11043.799)" />
    <clipPath
       clipPathUnits="userSpaceOnUse"
       id="clipPath8325">
      <rect
         style="fill:url(#linearGradient8329);fill-opacity:1;stroke:none;display:inline"
         id="rect8327"
         width="1024"
         height="706"
         x="2369.8572"
         y="621.36218"
         ry="0" />
    </clipPath>
    <linearGradient
       inkscape:collect="always"
       xlink:href="#linearGradient3827"
       id="linearGradient8329"
       gradientUnits="userSpaceOnUse"
       x1="2764.8572"
       y1="620.36218"
       x2="2764.8572"
       y2="1326.3799" />
    <linearGradient
       inkscape:collect="always"
       xlink:href="#linearGradient4403-547"
       id="linearGradient8709"
       gradientUnits="userSpaceOnUse"
       x1="13.904762"
       y1="-0.11904761"
       x2="13.904762"
       y2="14.901423" />
    <linearGradient
       inkscape:collect="always"
       xlink:href="#linearGradient4403-547-7"
       id="linearGradient8711"
       gradientUnits="userSpaceOnUse"
       x1="13.904762"
       y1="-0.11904761"
       x2="13.904762"
       y2="14.901423" />
    <linearGradient
       inkscape:collect="always"
       xlink:href="#linearGradient4403-547-8"
       id="linearGradient8713"
       gradientUnits="userSpaceOnUse"
       x1="13.904762"
       y1="-0.11904761"
       x2="13.904762"
       y2="14.901423" />
    <linearGradient
       inkscape:collect="always"
       xlink:href="#linearGradient4403-547-78"
       id="linearGradient8715"
       gradientUnits="userSpaceOnUse"
       x1="13.904762"
       y1="-0.11904761"
       x2="13.904762"
       y2="14.901423" />
    <linearGradient
       inkscape:collect="always"
       xlink:href="#linearGradient4403-547-9"
       id="linearGradient8717"
       gradientUnits="userSpaceOnUse"
       x1="13.904762"
       y1="-0.11904761"
       x2="13.904762"
       y2="14.901423" />
    <linearGradient
       inkscape:collect="always"
       xlink:href="#linearGradient4403-547-6"
       id="linearGradient8719"
       gradientUnits="userSpaceOnUse"
       x1="13.904762"
       y1="-0.11904761"
       x2="13.904762"
       y2="14.901423" />
    <linearGradient
       inkscape:collect="always"
       xlink:href="#linearGradient4403-547-81"
       id="linearGradient8721"
       gradientUnits="userSpaceOnUse"
       x1="13.904762"
       y1="-0.11904761"
       x2="13.904762"
       y2="14.901423" />
    <linearGradient
       inkscape:collect="always"
       xlink:href="#linearGradient4403-547-2"
       id="linearGradient8723"
       gradientUnits="userSpaceOnUse"
       x1="13.904762"
       y1="-0.11904761"
       x2="13.904762"
       y2="14.901423" />
    <linearGradient
       inkscape:collect="always"
       xlink:href="#linearGradient4378"
       id="linearGradient8725"
       gradientUnits="userSpaceOnUse"
       x1="439.42859"
       y1="-119.06639"
       x2="439.42859"
       y2="586.6488"
       gradientTransform="translate(1104,0)" />
    <linearGradient
       inkscape:collect="always"
       xlink:href="#linearGradient8566"
       id="linearGradient8727"
       gradientUnits="userSpaceOnUse"
       x1="437.77457"
       y1="475.44754"
       x2="437.77457"
       y2="413.44717" />
    <linearGradient
       inkscape:collect="always"
       xlink:href="#linearGradient8566"
       id="linearGradient8729"
       gradientUnits="userSpaceOnUse"
       x1="437.77457"
       y1="475.44754"
       x2="437.77457"
       y2="413.44717" />
    <linearGradient
       inkscape:collect="always"
       xlink:href="#linearGradient8566"
       id="linearGradient8765"
       gradientUnits="userSpaceOnUse"
       gradientTransform="matrix(0.6733549,0,0,1.0055471,-71.859785,91.53458)"
       x1="437.77457"
       y1="475.44754"
       x2="437.77457"
       y2="413.44717" />
    <linearGradient
       inkscape:collect="always"
       xlink:href="#linearGradient8566"
       id="linearGradient8767"
       gradientUnits="userSpaceOnUse"
       gradientTransform="matrix(0.6733549,0,0,1.0055471,-71.859785,91.53458)"
       x1="437.77457"
       y1="475.44754"
       x2="437.77457"
       y2="413.44717" />
    <linearGradient
       inkscape:collect="always"
       xlink:href="#linearGradient4403-547"
       id="linearGradient8769"
       gradientUnits="userSpaceOnUse"
       x1="13.904762"
       y1="-0.11904761"
       x2="13.904762"
       y2="14.901423" />
    <linearGradient
       inkscape:collect="always"
       xlink:href="#linearGradient4403-547-7"
       id="linearGradient8771"
       gradientUnits="userSpaceOnUse"
       x1="13.904762"
       y1="-0.11904761"
       x2="13.904762"
       y2="14.901423" />
    <linearGradient
       inkscape:collect="always"
       xlink:href="#linearGradient4403-547-8"
       id="linearGradient8773"
       gradientUnits="userSpaceOnUse"
       x1="13.904762"
       y1="-0.11904761"
       x2="13.904762"
       y2="14.901423" />
    <linearGradient
       inkscape:collect="always"
       xlink:href="#linearGradient4403-547-78"
       id="linearGradient8775"
       gradientUnits="userSpaceOnUse"
       x1="13.904762"
       y1="-0.11904761"
       x2="13.904762"
       y2="14.901423" />
    <linearGradient
       inkscape:collect="always"
       xlink:href="#linearGradient4403-547-9"
       id="linearGradient8777"
       gradientUnits="userSpaceOnUse"
       x1="13.904762"
       y1="-0.11904761"
       x2="13.904762"
       y2="14.901423" />
    <linearGradient
       inkscape:collect="always"
       xlink:href="#linearGradient4403-547-6"
       id="linearGradient8779"
       gradientUnits="userSpaceOnUse"
       x1="13.904762"
       y1="-0.11904761"
       x2="13.904762"
       y2="14.901423" />
    <linearGradient
       inkscape:collect="always"
       xlink:href="#linearGradient4403-547-81"
       id="linearGradient8781"
       gradientUnits="userSpaceOnUse"
       x1="13.904762"
       y1="-0.11904761"
       x2="13.904762"
       y2="14.901423" />
    <linearGradient
       inkscape:collect="always"
       xlink:href="#linearGradient4403-547-2"
       id="linearGradient8783"
       gradientUnits="userSpaceOnUse"
       x1="13.904762"
       y1="-0.11904761"
       x2="13.904762"
       y2="14.901423" />
    <linearGradient
       inkscape:collect="always"
       xlink:href="#linearGradient4378"
       id="linearGradient8811"
       gradientUnits="userSpaceOnUse"
       x1="439.42859"
       y1="-119.06639"
       x2="439.42859"
       y2="586.6488"
       gradientTransform="translate(0,748)" />
    <linearGradient
       inkscape:collect="always"
       xlink:href="#linearGradient8566"
       id="linearGradient8813"
       gradientUnits="userSpaceOnUse"
       gradientTransform="matrix(0.6733549,0,0,1.0055471,-71.859785,91.53458)"
       x1="437.77457"
       y1="475.44754"
       x2="437.77457"
       y2="413.44717" />
    <linearGradient
       inkscape:collect="always"
       xlink:href="#linearGradient8566"
       id="linearGradient8815"
       gradientUnits="userSpaceOnUse"
       gradientTransform="matrix(0.6733549,0,0,1.0055471,-71.859785,91.53458)"
       x1="437.77457"
       y1="475.44754"
       x2="437.77457"
       y2="413.44717" />
    <clipPath
       clipPathUnits="userSpaceOnUse"
       id="clipPath8837">
      <rect
         style="fill:url(#linearGradient8841);fill-opacity:1;stroke:none;display:inline"
         id="rect8839"
         width="742.29694"
         height="511.77893"
         x="78.301323"
         y="481.5791"
         ry="0" />
    </clipPath>
    <linearGradient
       inkscape:collect="always"
       xlink:href="#linearGradient4378"
       id="linearGradient8841"
       gradientUnits="userSpaceOnUse"
       gradientTransform="matrix(0.72489933,0,0,0.72489933,-45.552906,569.02937)"
       x1="439.42859"
       y1="-119.06639"
       x2="439.42859"
       y2="586.6488" />
    <radialGradient
       inkscape:collect="always"
       xlink:href="#linearGradient8566"
       id="radialGradient8851"
       cx="451.85931"
       cy="1485.7285"
       fx="451.85931"
       fy="1485.7285"
       r="371.14847"
       gradientTransform="matrix(1,0,0,2.7011831,-0.95970968,-2530.4938)"
       gradientUnits="userSpaceOnUse" />
    <filter
       id="filter8889"
       inkscape:label="filter1">
      <feGaussianBlur
         stdDeviation="5"
         id="feGaussianBlur8891" />
    </filter>
    <linearGradient
       inkscape:collect="always"
       xlink:href="#linearGradient8566"
       id="linearGradient8921"
       gradientUnits="userSpaceOnUse"
       gradientTransform="matrix(0.6733549,0,0,1.0055471,-71.859785,91.53458)"
       x1="437.77457"
       y1="475.44754"
       x2="437.77457"
       y2="413.44717" />
    <linearGradient
       inkscape:collect="always"
       xlink:href="#linearGradient8566"
       id="linearGradient8923"
       gradientUnits="userSpaceOnUse"
       gradientTransform="matrix(0.6733549,0,0,1.0055471,-71.859785,91.53458)"
       x1="437.77457"
       y1="475.44754"
       x2="437.77457"
       y2="413.44717" />
    <radialGradient
       inkscape:collect="always"
       xlink:href="#linearGradient8927"
       id="radialGradient8925"
       cx="1786.8572"
       cy="775.52716"
       fx="1786.8572"
       fy="775.52716"
       r="512"
       gradientTransform="matrix(-0.99998381,0.00568984,-0.0078125,-1.3730398,3579.7442,1709.0249)"
       gradientUnits="userSpaceOnUse" />
    <linearGradient
       inkscape:collect="always"
       xlink:href="#linearGradient8566"
       id="linearGradient8941"
       gradientUnits="userSpaceOnUse"
       gradientTransform="matrix(0.6733549,0,0,1.0055471,-71.859785,91.53458)"
       x1="437.77457"
       y1="475.44754"
       x2="437.77457"
       y2="413.44717" />
    <linearGradient
       inkscape:collect="always"
       xlink:href="#linearGradient8566"
       id="linearGradient8946"
       gradientUnits="userSpaceOnUse"
       gradientTransform="matrix(0.6733549,0,0,1.0055471,1476.7598,871.53458)"
       x1="437.77457"
       y1="475.44754"
       x2="437.77457"
       y2="413.44717" />
    <linearGradient
       inkscape:collect="always"
       xlink:href="#linearGradient8566"
       id="linearGradient8948"
       gradientUnits="userSpaceOnUse"
       gradientTransform="matrix(0.6733549,0,0,1.0055471,-71.859785,91.53458)"
       x1="437.77457"
       y1="475.44754"
       x2="437.77457"
       y2="413.44717" />
    <linearGradient
       inkscape:collect="always"
       xlink:href="#linearGradient8566"
       id="linearGradient8953"
       gradientUnits="userSpaceOnUse"
       gradientTransform="matrix(0.6733549,0,0,1.0055471,1094.7598,871.53458)"
       x1="437.77457"
       y1="475.44754"
       x2="437.77457"
       y2="413.44717" />
    <radialGradient
       inkscape:collect="always"
       xlink:href="#linearGradient8927"
       id="radialGradient8968"
       gradientUnits="userSpaceOnUse"
       gradientTransform="matrix(-0.99998381,0.00568984,-0.0078125,-1.3730398,3579.7442,1709.0249)"
       cx="1786.8572"
       cy="775.52716"
       fx="1786.8572"
       fy="775.52716"
       r="512" />
    <linearGradient
       inkscape:collect="always"
       xlink:href="#linearGradient8566"
       id="linearGradient8970"
       gradientUnits="userSpaceOnUse"
       gradientTransform="matrix(0.6733549,0,0,1.0055471,1094.7598,871.53458)"
       x1="437.77457"
       y1="475.44754"
       x2="437.77457"
       y2="413.44717" />
    <linearGradient
       inkscape:collect="always"
       xlink:href="#linearGradient8566"
       id="linearGradient8972"
       gradientUnits="userSpaceOnUse"
       gradientTransform="matrix(0.6733549,0,0,1.0055471,1476.7598,871.53458)"
       x1="437.77457"
       y1="475.44754"
       x2="437.77457"
       y2="413.44717" />
    <linearGradient
       inkscape:collect="always"
       xlink:href="#linearGradient8566"
       id="linearGradient8984"
       gradientUnits="userSpaceOnUse"
       gradientTransform="matrix(0.6733549,0,0,1.0055471,1476.7598,771.53458)"
       x1="437.77457"
       y1="475.44754"
       x2="437.77457"
       y2="413.44717" />
    <linearGradient
       inkscape:collect="always"
       xlink:href="#linearGradient8566"
       id="linearGradient8992"
       gradientUnits="userSpaceOnUse"
       gradientTransform="matrix(0.6733549,0,0,1.0055471,1094.7598,771.53458)"
       x1="437.77457"
       y1="475.44754"
       x2="437.77457"
       y2="413.44717" />
  </defs>
  <sodipodi:namedview
     id="base"
     pagecolor="#ffffff"
     bordercolor="#666666"
     borderopacity="1.0"
     inkscape:pageopacity="0.0"
     inkscape:pageshadow="2"
     inkscape:zoom="0.5"
     inkscape:cx="210.61118"
     inkscape:cy="142.14031"
     inkscape:document-units="px"
     inkscape:current-layer="g8956"
     showgrid="false"
     fit-margin-top="0"
     fit-margin-left="0"
     fit-margin-right="0"
     fit-margin-bottom="0"
     showborder="true"
     inkscape:showpageshadow="false"
     inkscape:window-width="1680"
     inkscape:window-height="970"
     inkscape:window-x="-8"
     inkscape:window-y="-8"
     inkscape:window-maximized="1"
     showguides="false"
     inkscape:guide-bbox="true">
    <sodipodi:guide
       orientation="0,1"
       position="430.55658,580.02928"
       id="guide3009" />
    <sodipodi:guide
       orientation="0,1"
       position="411.75498,509.52329"
       id="guide3011" />
  </sodipodi:namedview>
  <metadata
     id="metadata3838">
    <rdf:RDF>
      <cc:Work
         rdf:about="">
        <dc:format>image/svg+xml</dc:format>
        <dc:type
           rdf:resource="http://purl.org/dc/dcmitype/StillImage" />
        <dc:title />
      </cc:Work>
    </rdf:RDF>
  </metadata>
  <g
     inkscape:groupmode="layer"
     id="layer3"
     inkscape:label="Layer3"
     style="display:inline" />
  <g
     inkscape:groupmode="layer"
     id="layer2"
     inkscape:label="Layer"
     style="display:inline" />
  <g
     inkscape:label="Layer 1"
     inkscape:groupmode="layer"
     id="layer1"
     transform="translate(-170.85715,120.63782)"
     style="display:inline" />
  <g
     inkscape:groupmode="layer"
     id="layer5"
     inkscape:label="Tandhjul"
     style="display:inline" />
  <g
     inkscape:groupmode="layer"
     id="layer4"
     inkscape:label="Knap"
     style="display:inline">
    <g
       id="g8956"
       transform="translate(-1108,-772)">
      <rect
         style="fill:url(#radialGradient8968);fill-opacity:1;stroke:none;display:inline"
         id="rect8893"
         width="1024"
         height="706"
         x="1278.8572"
         y="651.36218"
         ry="0"
         transform="translate(-170.85715,120.63782)" />
      <image
         style="display:inline"
         y="1417.9707"
         x="2003.5914"
         id="image8895"
         xlink:href="data:image/png;base64,iVBORw0KGgoAAAANSUhEUgAAAc4AAACPCAYAAABzlTvNAAAABHNCSVQICAgIfAhkiAAAGo9JREFU eJztndFx3LjShc+69t3zR7DcCFZbhXfTEXgcgeEIVo7A4wisG4G5Eew4gqXfUbXjCC43g3EE939A U6KomdEQbBAgeb6qKUuy0IRGEA660Wj8BEJmhnPuFwBFQNODMeaHcneS4YCr3wcDfIvbG0LWw8+p O5AK59xLADedL5UDTdSdjxc1Ic+APR7/7q7hiDCxTYoDXsH3u4AfoxsM/9nhHj5seq8awMEAHL+E XMlPqTsQE/FMbuRV9F4xOAI4dP5tADTGGK72lZDfaRPQtDLGvFfujioOeAkvjiX8mC0nfHwDP2Zr AHsD/DvhswmZFYsRTvEgSzxMOGXC7pyiwcPEdKCYhuGc+wzgNqBpmeN7LuHWLfx43abtzSMaeM++ MsD3xH0hC2XEtssT2r9v59xv8JGZLo0xZtBi0Dn36twzZh2qdc69weMVes4U8toCgHMO8CJaA9gb Yzg5XYcNaJOd1++Ad/BjISex7FLAL1Bu3YOI3tETJcpYADslW60jeIenjlMF4OqIk2jL/twzZiec zrl3eFid91cVc6OU1845d4T/Re2NMV9TdipXZDCH/M7vtPsSgniXt/CTxZzGboEHEa3hBZRjlMyJ rXPudkAuysUF7SyEU1xmi2WI5Tk28D+jFRGtANwNDS8sHBvY7tTKcTJEMHcI739OlABK8UJ3Bvgz bXcIuYoNvH48O15l289e+p5s9zg7nb/FDLMhFamNMa9TdyI1I5KC9saYt8rduYqFCeY5GgC39ECJ NuIw1Z0v7Ywxn65o97/Op0c8OFtXzQUS1axOtAckV+LFc0amxjn3iySANPAhtiJph9JzTN2BTAjd C6w0O3ENDnjpgI/wY9hO/fyJKQDsHfC3A35L3RlCetSdj7fikD2HPdP+nmyEUwTzC2QFi+WGZIeS NMyYESGZtM3U+8UOeAOfPb2b8rkZUAI4OOCjHKshJAfq3uf20jdLZKvsfOnk/JtcOJ1zL51za1md h1Cn7kBqJGRTBDSdbNEhXuZf8sxiqudmyA5eQOl9ksmRoyhd2nP1LfYZE93IVoOn20M3QGLhdM79 AUkySNmPjDkwOQhA+IJqkmxaqe5zQL5HS6amgHifqTtCVsepSGV3AX0jXuU5upGtUwvvDZBIOJ1z vznn/oGf2BiSPU+VugOpkT2JEEGqp1h0iDjUWLeXeY6dA/5i6JYkpu59fnLbR7zVovOl6pzByYVT wrIH5F+wIAe4vxl+BKlS7scjOqHZXcznLIAtgJqhWzIRxYmv9efRcwtx2/m4OVOUpgAmPMcpal6B gnktg0tELZSQpKC2mEQUxIOqkc9Yrk98LagYfCRu4MWzZPk+Epmi+0mnDN8eD4JZOOdenagmZjsf t/PH4ZT9SYRTzsUwLDuM1XubnSL9Q9nHuq1GPKca04/lQ+/VXFv+Tvpc4KGO8w2m7/8GXjwtz3yS BHSFE/AieS+cJ6qSVQBgjPkh5VEfEV045YiJjf2cAdR4eosJMOBqsF5h4nZl3/93LJWCjbkT4m0C kZKCEojmXl71mBqx4uV9hxesT8D9z2LhJ5NibEevZAN/5tOy4hCJxLm/zVPh2ve9z1vOhWnv7UcT TknqqJE2XHR/Gwm8MKqEiSSE2p3InqygJTR9g8er/Gs5sug7gLCkoEuDPpgJRbOB3zfdx7wjU8T0 A4AP8rO1NXSnoHK+DxRPos3JeVY8x67XuXHOvemc8+7ONZcW3jdAJOEU0Uhxnu0IuW0EEcN11yCT 93fI5NC59mwr/xYXmjNM60MnRUBTdW9zItGs4Wu/Tn6Li4joeyeF3DFNAZI75y/Q5gKRxKLufd4P 15YAvp4I0/bn3xq921bUhVNEs8a0eyh7+IuKs907ERH/Kq/2fbI4fVPG6oUT4d5PpdiHKUSzgQ9d Jr/2TDzcT84vPu4Q1wNt9zyZMESmYo/HtWe38FGXsvM9Vx1jUz2OMrFoHuFDWoUx5m3OonkKY8x3 Y8wHY8z/wU9Qdef/ZvWzaDPi7KZqlEGyZyvEG887A/yag2h2McAP4/d/SjzNKtSk3fPkOU+iRXnu P2Ru6DolxYkSe9VzD3DO/abmcU4omg18lfzF7I/Iz/LniV/iWrGB7SrFPgD+jyzGHv0B3svM2tMS Qf/dAZ8Rnqj1HAX8+7z6G4DIJOzxeH6xePw3firad+x9vlHxOCcSzSMAa4z5dUmi2cUY8+9Sf7aB hEzSqgXdRSxKLXsdKgP8nrtodjE+nLVFvJt6SpbnIxGo+1+QOaI7jrtzTXUmYvUk6jJaOCcSzTv4 kCxFZeGcKHt1LZVaH/wNJzE8LGsep8DPBjl7WSJe6HYnNX8JCUIug7iGrld5KSnoHMUo4ZS9qArx RPMA4Eb2ApNlyJJJCRWsSuPhcvm0iq0OPloy8+MX4iWXiCee3O8kU3AyHDsgYjVOOBH3nObOGPM7 zzOuh0wKulfQXQge4TNHZy2aLZJ5WyKOeG7Awh8kMifCtcDlcdf0vxAsnM65z4gjmn6iMeZTBNsk b7ZIWNDdAX9Af19zO6f9zGuILJ5bCZUTMpS+HtUXvrfvdVYXvrfpfb4JyqqVA6Mx9oAOALYsbr5a bECbo8bet4Rod2Pt9MjifGYMDPDDPYhnoWz+zvkyg9yeIUMYsujeoSOIAyObNz8N+GYA93VaD9Df 16zhRZN/LCtExlUT0LQyxoxOuHHA39D1NndG6sIumYgFIlbx/pF5EhKqraD/R1IZY15TNFdNsoLu Ehosx9rpsF/LpC9haBvB9K1EAQjJjkHC6ZyLsQek4jGQ2ROSFKRVuF+zvm2DvG4Dio4cVdGuEbwB LwknmXK1cEoobaf8/JqiSUYUdK9GP9sfvA959jm2a9ybkyIJ2slCll4nyZEhHmcF3RDtAWFeBlke NrBdNeahcmZQM8ltt7QM2oHYCDZ3EWwSMoqrhFM8glLxue2Rk9WtzMljRpzdPFceawia12c1iHSB 9lyQRcNO2Sy9TpId13qc2hMCRZO02MB21ZiHRvA27RpDtCe4Q1h29CViFZgnJIhnhVMSggrFZ+5Y DYh0sAFtGmPM2PORocUWTlEv9bzmUGTxsFM2a1mKj+TEReGUMNpO8Xk1KwKRFinoHlJ9qlJ4/E7B RotVtDV7pLxgrWhyA+ZDkIx4rnKQ5h7QEZxgyGOSFHSXc5vFGBsdKgOw0tVTdtAVz1sspN6vJuKJ n1t8HleerBaN54TTKj7rjqX0SI8QL2KvMI7syPZddoq2FoMBvjkvnKWSyRsH/LZWIRCBLOFFsoRf +BVXtAO803KA/30cwHKGozkrnM65d9BblTcM0ZIuMr5CohnX3pl3+rk+Q1Mr7Lent3mRO+hm41v4 86LRkPFRhLbX3OvujFWLcRdqbOB/D2XH9gE+csMxHMAlj3On+BxmxZE+NqCNRkF3zb2yVR8/eQ4D fHU+w7ZQMrlFZOGEH5e7Ee0H1//u44B30o9yrK0L3MCP3zvnF6N3THC7npPJQXKTdqH0jHrABaFk BUgVqjKgaaXweKtgAwAaTjRXobm4KKSo/OJwwEsHfHTAf+HHeTnh47cAagf87YBXEz53tpzLqrWK z9gp2iLLwAa2q8Y8VCZdrTtk6W1eR6Vszyrb69NEtv8E8TAP8HNlMfXzO5TwAvoXi05c5olwyhEU q2T/oHDejiwPG9BGo6B7ObJ9l0rR1mKRJJRK0WTsYynNmMZDPGIH/CLX2VVIK5h9tgAOIujkBKc8 Tu4BkWiMKOiuMZasgg3AJ1QwK/F6RiV09Sgy94auSnhzwB/wXmYZtTfhbABUDviSuiM5ElM4NRI5 yPIIGV9H6GTTaoVpNYVg8ci1Y0dFk6WirUmRvcwv8AtB7XuNY2Ad8A8rNz3mkXCOKLh9ikrJDlkI I7YB9gq1jcuR7btQOIej+Z6VirYmQ8SnxvwKwdzA731SPIW+x6kZpq0UbZFlYAPbVQrPLhVsAAzT hjIL4VTIlD4Z1ZC9z/rc/88AimeHvnCWSnYbFnInJ7ABbTQKugN6Y7tWsrMqJFyrRc77nE/Crx1P c66i2ULxFGJ5nAxlkUeMKOg+OilobDWYHrWSnTVSK9qahQh1RHMO+5nX0BZOWDX3wikTm9Yvt1Ky Q5aDDWynsQgrFWwAvugBIynh1Iq2ZiGc8ON3Ln29Frv2oypdj7NUsnlkmJacwAa00SjoDuhNXAcl O2ulVrRVKtrSpGw/cMBn5NvPsdxlHC6PTrdWrdbkUivZIQthREH3SqkLHNsZIDemaFHomdJHStdp 1Ohuj2Id5NX0i7J3yuSVeLg9JXZoeAP/9/k68nOypCucpZLNWskOWQ5BZzcVaxyXSnbocY7nAJ2F TKFgIwqyr1mNMNGK5d01WwOdTOD7JDq5c7a9WSUWpQPeKCd+zYIXwP35ukLJJicXco8UdA8Rzkrl +YrhJBZ1V0FtfohY8L0Z2f4WYfPpEVKv1gDvx+ynG+CrAd5LP6pQO1ewykShdo9TbfOatWlJDxvY TusPslCywwWhDprvY6xwZDOibYmwiy328IL5SfOcsAH+FQEtEaeAfbHGRCFt4eTkQvrYgDYHpaQg QG9sN0p21o7mHFEq2krFEcDWAG9jFtaQaMkN4szRuwg2s6YVzkLJHoWT3DPiXlfN8I+WV8KxrUOT ugMZcQBwM9UeoQhzCf2xXKztHk9tj7NRskOWgQ1oM7qge49SyU6jZGfV9DNCRzLn85EHAKXy+/Es EcXTKtvLmlY4uSonqiQu6B6DJnUHFoTWPDHXajytaCYZ5/LcLXRvrLFrKsWn7XFq/iLIvAkt36id pcexnR9rfi+TimaLeLpW2WzsS8az4dR9nGOgx0laQg5/x7gcQMUrYak9VbSEs1CyMxVHADa1aLbI 3mqtaHI9wik1alXINMRGJiZlQXcyC7QW2IWSnam4zXABZhVtlYq2suYF5rtPQPLFBrarFPugeUC+ UbJD1sveAH+m7kQfCdlWSuY2EYtSZIVmqLZRtEXmjQ1oEyMpSGtR2CjZIevkCJ26tbGoFG2Viray 5efnv+VqGkVbk+Kc+4z5pLYfjDEfUnfiHBkUdCckN+6mPnYyBCm+30An9F0C+I+Cnaz5GStZITxD e6MAGU9IgkCjWNCd5M+akgiPmMfe/R46XvFcHJBRaGfVkhUzoqC7ZsEDkj9rOo6yzyWL9hkqJTuF kp2soXASTXI5u0lILsxibEu2r8qCZg3l9yicRJOQUE+tWNCdkJxoMjx+cok6dQfmAoWTqDCioHul 2xMyA8rUHZiIuW1BaO09l0p2soXCSbSwAW2OxpjszrYRosTchLNO3YG58ALr2qgnEZCC7kwKIuQx c8sebpTsFEp2suUF6J6T8WwRdnZzFokTJFtyFqbjTLJp71E8a1oo2ckWhmqJBiFJQYcIBd3JPNCq 6JRztCxnUb9Ek7oDc4DCSUYhZzdDDj1Xyl2JSZm6AwtjFYfkZ0qTugNzQFU4NW9aIbMhtNpIpdmJ M8x11U+uI2ePkyyYF8aYb4r2eNPK+rABbaoprqDT3GNa0+32E1Ao2eHCiCRBO1RbKNsjGeOce4Ow xdIcs2kZXtSjSN0BcpY6dQfmQHs7SgOdwaxhY3KMMa+neI4UCaineNZE2IA2Uxd0P0BH9AoAmtGZ VaJ8XyM9TpKE1uNslOxxVb4SRhR0r5S78hxa+2CFkp21o7mdwz1OkgQKJwkltKB7pdmJK2iU7HBs 61BqGTKMAJBEaAtnoWSH5E9INu0+QUH3RslOoWRn7RRKduhtkmS0wllrGZR9PLJg5NhREdA0RVKQ 1j4YPU4dtN5H7m+SZGh7nAAPi6+BEG8zVUH3RsvQGu4ZnAAKJ5k9LwBAwmdaoQ+uzBfMiILulXJX rkL5PkSO7REoLzwaRVuEDKJ7jpPF3sk1hBZ0r5T7MQSO7TwoFW3R4yTJ6ApnrWRzw33ORWMD2qQu 6E7hzINSyxAzaklKYnicQPhRBZIxcnazDGia+vowrbG9UT7AvzZKJTu1kh1CgojhcQIUzqUSWtA9 dYm9WtEWx3YADnijaI5hWpKUe+GUottaA7LgTSmLJCgpaIqC7peQBCGt5DcKZxiloq1a0RYhg+kX ea8VbVtFWyQxUtC9CGha6fYkmFrJzo0DflGytSbUFhwGmLLWMSFP6AunZkjNKtoi6bEBbRrla+vG UCvaotc5ANkXLpTM1Up2CAnmkXDKJKcV0to4594p2SIJmdvZzTPUirZC93rXilW0lXq/nJCT93Fq DkxOMMvABrarFPswCtnnbJTMFcyuHYRVtEXhJMmJLZw3PNO5COZS0P05uCicGAe8g95VYgcD5Dam yAp5IpxyybDmzQM7RVtkYkYUdK90e6JCpWjLOuClor2lYhVtVYq2CAnmlMcJ6A7Qkl7nrAkt6J5d 5qNyuBag13kRCWeXiiYZpiVZcE44tSu9pK4cQ8KZe1JQH9VwLb3Oi2guLGqGaUkunBRO2ZuqFZ9z wwzb+SG/s5D9qZwXSpp924Be50nkrKtVNFkp2iJkFOc8TkB/oN7JsQYyH2xAm0OGSUH3iNdSK5qk 13manaKtowFS3OVKyEnOCqdcOtwoPmsDrhpnw4wLul9DpWiLXmcP2du0iibnMKbIirjkcQL6GbFb Kd1G8scGtDliBgkc4r00iiZ3LMP3CG2hq5TtETKKi8IpXqfm0RQAqMSbIXljA9rsUxd0H0CVub1Z Iuc2S0WTFZOCSG4853EC+l7nBsCe+535soCC7tdwB91FYal8ddbskL1ebW9zp2yPkNE8K5zGmP9A N6wFADfgvkXOhBxByamg+7MY4AcihBRXnihUQa9KEEBvk2TKNR4nECf5wTrnvkSwS0YgkQAb0HSO CyFtr3ODGezxxkBCtNq3xuyU7RGiwlXCKVVg6gjPt865PyLYJeHYwHaVYh8mQbzOnbLZ0gEflW1m jWTRqodo6W2SXLnW4wTipdzfUTyzwga0mVNS0CMMEGMrYreW/U4JTVfQDdE2mGcEg6yEq4XTGPMd 8UIndwzbpkcKut8ENK2UuzI1NoLNaiVXj+0RNmYucSvRAEKyZIjHCWPMJwCHSH2xzrkvzLZNSkhU ocmxoPsQDPAN+nuTGwD1ksXTAV+ge/QE8DVpZz2eyPIZJJyChf7Zzq7tmuc8kxGS3LGUZBgL/XHd iufixrOIplU2e4xgkxB1BgunhGxjlhi7AXBghaFpWWhB96uR0KCNYHoD4LAkzzOSaAI+RMuEIJI9 IR5nW1Go0u3KI9oiCX8xdDsZNqBNnXNB96FIiDCGB72IsK0DXkYUzYqF3MlcCBJO4Rbx9jtbtgAa Zt3GZURB90q3J1lgoZ9lCzyI5yyv15Nwc404onkAC+WTGREsnHL8oEScSabLBj7r9h/n3KvIz1or NqDNLAq6D0VCtlvE2cffwGfbfplThSE5WnOAfvYsIPuazKIlc2KMx9mKZ6xJps8NfOLQ39z/VMcG tJnt2c3nMEDsfXwLv++Z9UJQQrOf4RdImuc0u1h5vwmZDaOEE7hPFioxjXhCnrV3zv3XOfcH90DH IV58EdB0EUlB55D9tl3ERxTwodssvU8JKTeIvIDg0RMyR0YLJ5BEPAE/8dwBOMr5z6y9UMla3aXu xwlsQJuD/M4XjQE+If4+rgXQOOBjDgLqgFcO+Bv61YD63DEZiMyVn7UMGWO+O+dK+ASCmH9wp7Dw BRQAH1aq4TM+k03unYSbEj6cPfV78iwjCrpXuj3JFwO8d/5DG/ExG/hF1a3zi8HJbwURD/MWcfYx +1QG+DDBcwiJgppwAvfiWcAL1xR/gKfYygvOuSN8UkMt/zYxxFTCnRv4n7l9FdrPiUDobRaVZidy ZyLxBB4EdOf8AnAPYB8rcUaSftq/l6kWdpUB3k/0LEKioCqcgE8YEs+zgv41Q0PZ4MHrAwCIV9rg IRv4gOtDzK04tpRnvm8uhOxfVUtNCrrEhOLZ8rAAlAiKvA6hQirJSDd4+JuYOgpyR0+TLAF14QTu s23fOuc+Is99vQIPHmGZrBcJGVHQfXFHUK4lgXi2lOgu/vxCr13wXTpLXfReKbHc0yRLIYpwthhj PjnnasRNZydh2IA2sy/oPhYRzwZpF4RtJAVIH9V5jvac5qrHDVkWKlm1lzDGfINf7a7WU8kUG9Cm Uu7DLJFsW4tps8jnyAFASdEkSyO6cAI+dGuMeYvpiiWQC4wo6F4pd2W2SNixRPyyk3OlghfNxR9b IutjEuFskTBfgYUfnp8BIeG9RRV010BEoQTHc5cjgK0B3rOMHlkqkwoncO99foCU0Jv6+WtHzpeG CGel3JVFYIAfkilaIn7d5tzZAygYmiVLZ3LhbDHGfDfGvIafcOpU/Zghzcj2NqDNUa6SI2cwwDf4 xeAavc8GPiz7ll4mWQPJhLPFGPOtI6BMIDpNAz8hF8aYsYfHbUAb/l6uoON9FljHYvAIf/n0r7Jw IGQVRD2OMgTJvv0mocRb+Al+zUdYDmgrxyhVO2JB92mQcnmvpeDADss7K3yEHxN39DDJGslGOFsk AeUDgA9SuN0i/7NqGhzhvZQ94iXi2IA2qyjoHgPxwloBvcX8x3EDvxCIVgaQkDmQnXB2kSzcr1KM fIuMC6YH0OChjm70gvSd93Ao9DZHIgL6zQFtNGWL9JV8hlDB15hlOJYQZC6cLVLC7095vZdycSXS 1dwcSr/Y/CHB0Y7QBQf3N5WQEK6PpqQpsD6E6EXmCZkrP6XugAayL9q/mSTF7Szd+qENHkQy+cTj nPsHw9+TSiEZiTyDhHLbiEqqW4Xuox8A6jWLpVyxVow008yxNq+MxXKkmVn+7ENYhHCeQwS1wONb Tfo3nAyhW1S7+3EW4ngOeR+agKalJG2RiZDLrNsbTGItArsLuxojblwhZI0sWjiJxzn3GcOvEGuM Mb/G6A8ZjuyPFji98Ct7n9e9z9tISDP1BdmELJFZ7HGS0diANpVyH8gIRPBa0etX5vk0cXcIWTXJ CyCQuMiRHhZ0J4QQJSicy8cGtNmzoDshhJyGwrlgRhR05xEUQgg5A4Vz2YSIJgu6E0LIBZgctGxq DD+TxYvGCSHkAv8Pw6vIPBTO7fIAAAAASUVORK5CYII= "
         height="32.443359"
         width="104.81699" />
    </g>
  </g>
</svg>
