<?xml version="1.0" encoding="UTF-8" standalone="no"?>
<!-- Created with Inkscape (http://www.inkscape.org/) -->

<svg
   xmlns:dc="http://purl.org/dc/elements/1.1/"
   xmlns:cc="http://creativecommons.org/ns#"
   xmlns:rdf="http://www.w3.org/1999/02/22-rdf-syntax-ns#"
   xmlns:svg="http://www.w3.org/2000/svg"
   xmlns="http://www.w3.org/2000/svg"
   xmlns:xlink="http://www.w3.org/1999/xlink"
   xmlns:sodipodi="http://sodipodi.sourceforge.net/DTD/sodipodi-0.dtd"
   xmlns:inkscape="http://www.inkscape.org/namespaces/inkscape"
   width="1024"
   height="90"
   id="svg4326"
   version="1.1"
   inkscape:version="0.48.0 r9654"
   sodipodi:docname="g_ipad_banner_landscape.svg"
   inkscape:export-filename="C:\Users\emo.GIRITECH\Desktop\Current Projects\Banners\Banners mobile devices 5.5\g_ipad_banner_landscape.png"
   inkscape:export-xdpi="90"
   inkscape:export-ydpi="90">
  <defs
     id="defs4328">
    <linearGradient
       inkscape:collect="always"
       xlink:href="#linearGradient4287"
       id="linearGradient4293"
       x1="0.54944831"
       y1="550.36218"
       x2="767.45056"
       y2="550.36218"
       gradientUnits="userSpaceOnUse"
       gradientTransform="matrix(1.3091649,0,0,0.76577838,47.642874,-805.45547)" />
    <linearGradient
       id="linearGradient4287">
      <stop
         style="stop-color:#440008;stop-opacity:1;"
         offset="0"
         id="stop4289" />
      <stop
         style="stop-color:#880000;stop-opacity:1;"
         offset="1"
         id="stop4291" />
    </linearGradient>
    <linearGradient
       y2="550.36218"
       x2="767.45056"
       y1="550.36218"
       x1="0.54944831"
       gradientTransform="matrix(0.11735542,0,0,1.0210378,962.29772,-1073.9407)"
       gradientUnits="userSpaceOnUse"
       id="linearGradient4352"
       xlink:href="#linearGradient4287"
       inkscape:collect="always" />
  </defs>
  <sodipodi:namedview
     id="base"
     pagecolor="#ffffff"
     bordercolor="#666666"
     borderopacity="1.0"
     inkscape:pageopacity="0.0"
     inkscape:pageshadow="2"
     inkscape:zoom="0.98994949"
     inkscape:cx="273.90424"
     inkscape:cy="-29.860029"
     inkscape:document-units="px"
     inkscape:current-layer="layer1"
     showgrid="false"
     inkscape:window-width="1680"
     inkscape:window-height="970"
     inkscape:window-x="-8"
     inkscape:window-y="-8"
     inkscape:window-maximized="1" />
  <metadata
     id="metadata4331">
    <rdf:RDF>
      <cc:Work
         rdf:about="">
        <dc:format>image/svg+xml</dc:format>
        <dc:type
           rdf:resource="http://purl.org/dc/dcmitype/StillImage" />
        <dc:title></dc:title>
      </cc:Work>
    </rdf:RDF>
  </metadata>
  <g
     inkscape:label="Layer 1"
     inkscape:groupmode="layer"
     id="layer1"
     transform="translate(0,-962.36218)">
    <rect
       style="fill:url(#linearGradient4352);fill-opacity:1;stroke:none"
       id="rect3777"
       width="90"
       height="1024"
       x="962.36218"
       y="-1024"
       transform="matrix(0,1,-1,0,0,0)" />
    <g
       id="g4377"
       transform="translate(249.99999,-1.0655844)">
      <text
         sodipodi:linespacing="125%"
         id="text4297"
         y="1030.3975"
         x="660.21448"
         style="font-size:10.66929436px;font-style:oblique;font-variant:normal;font-weight:normal;font-stretch:normal;text-align:start;line-height:125%;letter-spacing:0px;word-spacing:0px;writing-mode:lr-tb;text-anchor:start;fill:#cccccc;fill-opacity:1;stroke:none;font-family:Verdana;-inkscape-font-specification:Verdana Oblique"
         xml:space="preserve"><tspan
           y="1030.3975"
           x="660.21448"
           id="tspan4299"
           sodipodi:role="line">Virtual access</tspan></text>
      <image
         width="120.69599"
         height="47.834457"
         xlink:href="data:image/png;base64,iVBORw0KGgoAAAANSUhEUgAACH8AAANeCAYAAACBZjBYAAAABHNCSVQICAgIfAhkiAAAIABJREFU eJzs3e1121b2PuyN35rv1lOBORVYWacAMxVYU4GZCqypwEoF0VRgqoLIFQxVwFkjVTBSBX+rAjwf AI1pxy8ERfLgENe1lpYdB6LuOHohgRt7N23bBgAAAAAAAAAAdfq/0gEAAAAAAAAAANie8gcAAAAA AAAAQMWUPwAAAAAAAAAAKqb8AQAAAAAAAABQMeUPAAAAAAAAAICKKX8AAAAAAAAAAFRM+QMAAAAA AAAAoGLKHwAAAAAAAAAAFVP+AAAAAAAAAAComPIHAAAAAAAAAEDFlD8AAAAAAAAAACqm/AEAAAAA AAAAUDHlDwAAAAAAAACAiil/AAAAAAAAAABUTPkDAAAAAAAAAKBiyh8AAAAAAAAAABVT/gAAAAAA AAAAqJjyBwAAAAAAAABAxZQ/AAAAAAAAAAAqpvwBAAAAAAAAAFAx5Q8AAAAAAAAAgIopfwAAAAAA AAAAVEz5AwAAAAAAAACgYsofAAAAAAAAAAAVU/4AAAAAAAAAAKiY8gcAAAAAAAAAQMWUPwAAAAAA AAAAKqb8AQAAAAAAAABQMeUPAAAAAAAAAICKKX8AAAAAAAAAAFRM+QMAAAAAAAAAoGLKHwAAAAAA AAAAFVP+AAAAAAAAAAComPIHAAAAAAAAAEDFlD8AAAAAAAAAACqm/AEAAAAAAAAAUDHlDwAAAAAA AACAiil/AAAAAAAAAABUTPkDAAAAAAAAAKBiyh8AAAAAAAAAABVT/gAAAAAAAAAAqJjyBwAAAAAA AABAxZQ/AAAAAAAAAAAqpvwBAAAAAAAAAFAx5Q8AAAAAAAAAgIopfwAAAAAAAAAAVEz5AwAAAAAA AACgYsofAAAAAAAAAAAVU/4AAAAAAAAAAKiY8gcAAAAAAAAAQMWUPwAAAAAAAAAAKqb8AQAAAAAA AABQMeUPAAAAAAAAAICKKX8AAAAAAAAAAFRM+QMAAAAAAAAAoGLKHwAAAAAAAAAAFVP+AAAAAAAA AAComPIHAAAAAAAAAEDFlD8AAAAAAAAAACqm/AEAAAAAAAAAUDHlDwAAAAAAAACAiil/AAAAAAAA AABUTPkDAAAAAAAAAKBiyh8AAAAAAAAAABVT/gAAAAAAAAAAqJjyBwAAAAAAAABAxZQ/AAAAAAAA AAAqpvwBAAAAAAAAAFAx5Q8AAAAAAAAAgIopfwAAAAAAAAAAVEz5AwAAAAAAAACgYsofAAAAAAAA AAAVU/4AAAAAAAAAAKiY8gcAAAAAAAAAQMWUPwAAAAAAAAAAKqb8AQAAAAAAAABQMeUPAAAAAAAA AICKKX8AAAAAAAAAAFRM+QMAAAAAAAAAoGLKHwAAAAAAAAAAFVP+AAAAAAAAAAComPIHAAAAAAAA AEDFlD8AAAAAAAAAACqm/AEAAAAAAAAAUDHlDwAAAAAAAACAiil/AAAAAAAAAABUTPkDAAAAAAAA AKBiyh8AAAAAAAAAABVT/gAAAAAAAAAAqJjyBwAAAAAAAABAxZQ/AAAAAAAAAAAqpvwBAAAAAAAA AFAx5Q8AAAAAAAAAgIopfwAAAAAAAAAAVEz5AwAAAAAAAACgYsofAAAAAAAAAAAVU/4AAAAAAAAA AKiY8gcAAAAAAAAAQMWUPwAAAAAAAAAAKqb8AQAAAAAAAABQMeUPAAAAAAAAAICKKX8AAAAAAAAA AFRM+QMAAAAAAAAAoGLKHwAAAAAAAAAAFVP+AAAAAAAAAAComPIHAAAAAAAAAEDFlD8AAAAAAAAA ACqm/AEAAAAAAAAAUDHlDwAAAAAAAACAiil/AAAAAAAAAABUTPkDAAAAAAAAAKBiyh8AAAAAAAAA ABVT/gAAAAAAAAAAqJjyBwAAAAAAAABAxZQ/AAAAAAAAAAAqpvwBAAAAAAAAAFAx5Q8AAAAAAAAA gIopfwAAAAAAAAAAVEz5AwAAAAAAAACgYsofAAAAAAAAAAAVU/4AAAAAAAAAAKiY8gcAAAAAAAAA QMWUPwAAAAAAAAAAKqb8AQAAAAAAAABQMeUPAAAAAAAAAICKKX8AAAAAAAAAAFRM+QMAAAAAAAAA oGLKHwAAAAAAAAAAFVP+AAAAAAAAAAComPIHAAAAAAAAAEDFlD8AAAAAAAAAACqm/AEAAAAAAAAA UDHlDwAAAAAAAACAiil/AAAAAAAAAABUTPkDAAAAAAAAAKBiyh8AAAAAAAAAABVT/gAAAAAAAAAA qJjyBwAAAAAAAABAxZQ/AAAAAAAAAAAqpvwBAAAAAAAAAFAx5Q8AAAAAAAAAgIopfwAAAAAAAAAA VEz5AwAAAAAAAACgYsofAAAAAAAAAAAVU/4AAAAAAAAAAKiY8gcAAAAAAAAAQMWUPwAAAAAAAAAA Kqb8AQAAAAAAAABQMeUPAAAAAAAAAICKKX8AAAAAAAAAAFRM+QMAAAAAAAAAoGLKHwAAAAAAAAAA FVP+AAAAAAAAAAComPIHAAAAAAAAAEDFlD8AAAAAAAAAACqm/AEAAAAAAAAAUDHlDwAAAAAAAACA iil/AAAAAAAAAABUTPkDAAAAAAAAAKBiyh8AAAAAAAAAABVT/gAAAAAAAAAAqJjyBwAAAAAAAABA xZQ/AAAAAAAAAAAqpvwBAAAAAAAAAFAx5Q8AAAAAAAAAgIopfwAAAAAAAAAAVEz5AwAAAAAAAACg YsofAAAAAAAAAAAVU/4AAAAAAAAAAKiY8gcAAAAAAAAAQMWUPwAAAAAAAAAAKqb8AQAAAAAAAABQ MeUPAAAAAAAAAICKKX8AAAAAAAAAAFRM+QMAAAAAAAAAoGLKHwAAAAAAAAAAFVP+AAAAAAAAAACo mPIHAAAAAAAAAEDFlD8AAAAAAAAAACqm/AEAAAAAAAAAUDHlDwAAAAAAAACAiil/AAAAAAAAAABU TPkDAAAAAAAAAKBiyh8AAAAAAAAAABVT/gAAAAAAAAAAqJjyBwAAAAAAAABAxZQ/AAAAAAAAAAAq pvwBAAAAAAAAAFAx5Q8AAAAAAAAAgIopfwAAAAAAAAAAVEz5AwAAAAAAAACgYsofAAAAAAAAAAAV U/4AAAAAAAAAAKiY8gcAAAAAAAAAQMX+VjoAAAAwHTnnk4j4f6VzbOEfKaXr0iHgZ3LTzCJi1v/j +u9PIuL0q8Nf7yHCQ0Tcr/3zp4i4Xfvn2/7PIiJuU9t+CgAAAACeTfkDAAA4pLPSAbbwoPjBWOSm mfe//frX04h4ceA43/Kyf1v35nsH56aJ+FwYWS+KrCLiU2rb22++IwAAAABfUP4AYDJyzvPv/Ktv 3Qn7HKtv/WFK6Zt/DjAx56UDbEHxg4Nam94xj8/TO8ZS7tiH9cLIU1HkfcRfyiG3a7+aGgIAAACw pmnbtnQGABhkrcQxi8+jzCM+3/kaUc8Fkpu1339vLPqnlJK7XoHq5ZxPI+I/pXNs4e8ppfvSIThO uWlOo3ve8vS2j1Usx+ox+iJIfC6EeM4EAAAATJLyBwCjkXN+msCxPolj3v9aS5lj357ufI34XA55 +vXexUlgzHLOlxHxrnSOgW5SSvPSITgO/USPeXTPa+YR8apcmqN2F90kttuIWKW2vS+aBgAAAOAA lD8AOKic8yw+jy4/ie7Cx0m4+LFLTwWRp2LIff92m1IyHh0oJuf8Keor8v2WUlqWDkGd+qke87W3 2j7/j8VjdGWQVXRlENNBAAAAgKOj/AHAXvSj/WfxeYT5LBQ8xuImPhdDbqObGOIiCLBXOedFRHwo nWOgx4iYKc6xqbWyx1mYWjZ2NxFxHcogAAAAwJFQ/gDgWdZWtayXPOyqr9Nd9BNCnt6skQF2Jed8 HRFvSucY6CqltCgdgvHKTXMSXdFj3v+q7FGnx+iLIGFNDAAAAFAp5Q8ABsk5z+Nz0WMeES9L5mHv HqMrgqzi8+oYd8cCg/Qrv/5bOscWfvE9j6+tTfdYhKlmx+ouIpZhKggAAABQEeUPAL6rv1g3j89F Dxc4eHITXSHkNiJWViIAP5JzvoiI96VzDHSXUjotHYJx6Asfi+imeyi+TstDdFNBloogAAAAwJgp fwDwPznnp5LHPLrCh4sbbOohPk8IWblTHliXc76P+n6m/DOldFk6BOUofPANiiAAMAE550V0zwOn 5DaldP6jA3bw97JKKV084/0Ppl9bevKMh1hYpQxACX8rHQCActYmezztqrennm297N/eRETknB+j L4KEMghMWr8urMYL58vSATi83DSziDgPhQ++7WVEvIuId7lpnoogl6lt74umAgB2bRYRr0uHGKFF PO/v5TQiLnaSZI/617Bvnvkws+jWJwPAQSl/AExIzvkkvix7uKjBvryI7oWyMgiwKB1gC1fWWU1H bpqT6D5PF2HFHZtbL4LcRVcYW6a29b0DAODbXuScFymlZekgP7EoHQAAtqX8AXDk1la5nIW7Fijn 6zLIQ3RFkOvoyiAulMAR6kuHZ6VzbOG6dAD2LzfNPLoTu2/LJuEIvIqIPyLij9w0V9GVQFZlIwEA jNJZjH/K4i5ewz5nZQwAbE35A+AI5ZyfJnsYWc5YvYzuYtvbiIic8010F1uv7USFo3IW9a0Ue0gp KX8cqX7Kx3l0pQ/PkdiHtxHxtl8Ls4xuLYySKwBwDE538Bhvcs4nY70JqD+nuovXsKfhpgIAClD+ ADgS/YuTp7faLrTB6/7tj34qyHVELK2Hgeqdlw6whWXpAOxebprT6D4fTfngUF5GxPuIeN9PA7lM bet5DQBQs12db1xExOWOHmvXFqUDAMBzKH8AVEzhgyP1MiLeRcQ7RRCoV855Ft0qhNosSwdgd3LT LKI7gWv1HSU9TQO5iW4lzLJwHgCAkhYxwvJHv7b0TekcAPAcyh8AlVH4YGK+VQS5tBoGqlDj1I8b 31/q1692WUT3OWi1C2PyOiJe56a5iIgLJRAAoBY5512sfHnyKuc8G+Frr7MdPtYu/74AYGPKHwAV 6F9gLfo3hQ+mar0Ichfd3fnLse6JBaocl7ssHYDt9aWP8/7N8yXG7GVEfMhNcxndXa+XqW09nwEA xuxkx4+3iIiLHT/mc+3yBoZd/30BwEaUPwBGqh+XfxbuWoVveRURf0TEHznnq+hKIKuykYAn/ZSq 2i6+P6aUlqVDMJzSBxV7ERHvI+L8qQiiBAIATMQiRlT+qHhtKQB8QfkDYGT6C2aLsGMSNvU2It72 a2EuwzQQGINF6QBbuC4dgGFy08yiO2H8tmgQeD4lEAAYl/uIuNnzx3g98Pi7iNjn84Pbn/z72YaP cxOb/be9zDmfppR+9nEPZbHBMQ/9r5vcpDfbOgkAPEPTtm3pDACT17fLF/2bKR/wPI/RXcS9GOH+ WDh6/c+0/5bOsYVfRnTikR8w6YMJeAzrYADgqOWch16Y+bXkxNOc80V0ZdWf+T02P795lVJabJ9q d3LO9/HzzFfRlTo2Ku6klJrnpQKA4f6vdACAKcs5z3PO19FdJHsfih+wCy+iuwv8vznnZc7ZnlU4 rLPSAbZwp/gxfrlpTnLTXER3J+b7UPzgeD1NArnPTbMonAUAYKjVhseN4rVjzvk0Njsna1okAKOn /AFwYDnnk5zzom+U/zusd4F9ehsRyh9wWOelA2zhsnQAfiw3zXkofTA9LyLiQ26a+9w0o7g4AgBM 1pBzK6sNj3vRr78ubdPXsKshD+pmJABKUP4AOJCc8yznfBndhYsPYcoHHMKd1S9wODnnedT5880d XCOVm+YsN819RPwRSh9M18uI+DM3zSo3zbx0GABgkk4HHLsacOwYyh+bZLhJKQ1dxzfk7wwAdkL5 A2DPcs6nOedldKtd3oULF3BIq9IBYGIWpQNs4WqLk3jsWW6a09w0q4j4M+osFME+vI6If+emWeam cScpADBK/U04Dxse/rbkhIx+8sgm52pXe44CADuh/AGwJznnec55FRH/iW71BHB4y9IBYCr6E3Zj uGtrqGXpAHyWm+YkN81ldM+fXpfOAyP1NiLu+3VIAABjtBpwbMnXkYsNjzMtEoAqKH8A7Nha6ePf 4aIFlPSQUrotHQImZNM7psbkIaW0Kh2CTn8h+z66SWnAj72IiD9y09xaBQMAHMDQc5yrAccuBj72 TvQ3MLzZ4NDHLc8vzbd4HwB4FuUPgB3JOS9yzveh9AFj4a4MOKxF6QBbWJYOwP9WvNxGxB9RX4EI SnsV3SqYS6tgAIARWQ049nXOebanHD+y6cQR55cAqIbyB8Az5ZzP+tLHh7CTHsZkVToATEV/oq7G 4uOydIAp+2rFy6vSeaBy76JbBVPj+i0A4MiklO4j4mHAu5R4DrPpCr3VPkMAwC4pfwBsaW29y5+h 9AFj85hScmcGHM6mJ83G5GN/QpIC+jUVt2HFC+zSi4j4MzfNtSkgAMCu5JxPt3zX1YBjD/qasr+B YdMC+rbnl2Zbvh8AbE35A2CgtdKH9S4wXoofcFg13mnu+0QBa9M+/h3Ks7Avb8IUEABgd4aUSj+t /X414P1ePqNkso3FhsfdpZQ+/fywb5pt+X4AsDXlD4AN5ZxnOefrUPqAGqxKB4CpyDmfRX0X8R9T SsvSIabGtA84KFNAAIASbtd+vxr4vovdxdjZx3LTAABVUf4A+Imc80nOeRkR/43uLjpg/Lw4h8NZ lA6whWXpAFNi2gcUZQoIAPBcs23eqV+zeTfgXQ7yfKWfMLLp65LnnF9SwAXg4JQ/AH4g53wREfcR 8bZsEmCAj88YyQkMkHM+iTqLkcvSAaYiN81pmPYBpT1NAbksHQQAqNLsGe+7GnDsy36y5L6db3jc Q0rp9ueHfderZ7wvAGxF+QPgG3LOZznn+4h4H93JUqAeq9IBYEIWpQNs4e6ZJ/DYUG6ai4j4T5j2 AWPxLjfNbV/KAgA4hNXA4w9R/tj0Y6z2GQIA9kH5A2BNznmWc15FxJ/hQgXUysoXOJxN75gaE3e+ 71lumllumtvoSrTAuLyKiFVumkXpIABANbZeX5JSGnqO5qyfMLkX/WSRTW/0c34JgOoofwBEN7a+ X/Hy34h4XTgOsL27fqcssGcD9ySPxWM4gbdXuWnOolvzYsQxjNeLiPiQm2aZm8YuegDgZ547Nezj gGNfxH6nf2z62I9bFFf+Iuc8f+5jAMAQyh/A5PWNb3enwnFYlg4AE1Lj1I/rlNKn0iGOVW6ay+im p1mZB3V4G90UEGtgAIB9Wg08fi/lj36iyNsND1/tIwMA7JvyBzBZ/YqX67DiBY7JqnQAmJBD7GLe tWXpAMcoN81Jv+blXekswGBPa2Bq/J4OABzGcyeFDZ2g8SbnPHvmx/yWIc93TIwEoErKH8Ak5ZzP o5v28aZ0FmBnHlJKt6VDwBTknBdR33SHh5TSqnSIY5ObZh4R92HNC9TsRUT8mZvmonQQAGCUnvVc v1/Pezfw3fZRTF0MOPZ75Y+hkyRNWAPgoJQ/gEnpp32sIuKPqO+iFfBj7sqAw1mUDrCFy9IBjk1u mvOI+Hd4TgXH4n1umuvcNM+9uxcAmK7vlSNWAx9n8bwYX+onibze8PCPP1gXOvSmI8+rADgo5Q9g MtamfWz6RB+oi/IHHMDAk2Zj4nvEjvRrXpbRlWmB4/ImujUws8I5AIAK/WAi63LgQ73a8eoXK18A mATlD+DomfYBk/BonQMczKJ0gC187EcN80z9RIBVRLwtHAXYn1cRcZubxphyAJi4nPN8F4/Tl0Ie Br7b+S4+9haPtcvyh8kfAByU8gdw1Ez7gMlwVwYczqJ0gC0sSwc4Bv2F4Pt45s5voAovopsAsigd BAA4GkPP3QyZ1vFdOefTiHi54eFXP1j5sg1lWgAOSvkDOEo555Oc83WY9gFTofwBB5BzPovNT5qN xWNKyfeIZ+ovAK/C8yqYkhcR8SE3zS7vugUAjtfjT/79cuDjvdzR5JHFgGN/9trxe2ttAGAU/lY6 AMCu9S8KrsPFCZgMF3bhYHZy59WBLUsHqF1f/PhQOgc7c/PVP99GxNC7G0/iy7sYT8JEmGP2R26a 09S2i9JBAICDGzK54ofFiJTSbc75IYbdULCIroT+HIsNj9vkxoFdTgUBgJ1T/gCOSs75MiLelc4B HNTH0gFgCnLOJxHxtnSOLVyWDlCz3DTLqPP/+1TdRHdC+nbt14iI29S2BzlRnZtmvRgyX/tVQaRu b3PThAIIAEzOyY4f7zqGnbt91g0I/fTKTW8Q3MeNRVaRA3BQyh/AUcg5z6J7gu6EMkyPqR9wGIvS AbZwl1K6Lx2iVoofo3YTXbHjvv/1YOWOn+lzrPp/XH3973PTzCJiFl0h5LT/vefwdXibm+Y0IuZj +XwDAKoz9Ma9Fznns2dMfB1SHnHjAADVU/4Aqtc3uJdhzQtMlfIHHMaidIAtOHm3hX5ywypckB+L u+j+fzyVPKreM57a9j660spq/c9z08zjcyFkHp7bj9WriFjlplEAAYBpmA049qfPDVJK9znnuxj2 WmMRW5z7GTi98iGl9NPn2SmlVc55aBQAOBjlD6Bq1rwwwNf77e/7t595Ou7r3fY/873jT8PFjF26 Sym58AB7lnM+jfqKAI+hHDaY4scoPJU9VhGxmsoF9tS2q1grhPQTJp6KIEPGdbN/CiAAMB2zAcdu WlJeRsQfAx73Tc75ZIvzP0OmfiwHPvbGcs6nmxRLAGAXlD+AKvXN7VW4MDFlj/H5ReWq//U+Phc6 bvdQCtj5RcR+ZdGs/8fv/V5h5PuWpQPARJyXDrCFa+WwYRQ/inkqKl3HhMoeP9NPOLmN/md9XwY5 6998jpanAAIAbOs6hpU/IrrngMuB77MYcOzQxx7iZI+PDQBfUP4AqtPffbwKF8On4Ca6kZG3a7/e p5TuS4bapf6/5X6TY9eKIk9TRZ5+nUXEyz3Eq4G7+uEwhtwxNRZWvgzQX1hfhedXh/IQ3c+wZe1r XA5lrQxykZtmFp8ngrwpl2ryFEAA4PjtvLiw5eqX8xhQ0OjPob3e8PC7gecaH8PrJgBGSvkDqErO eRERH0rnYOdu4vPUjlUcWcFjV74qivyl9LBWDjld+/WYp4Y8+DyB/et/9tb2fWSjfc10FD8ORuFj R1Lb3kd38n/ZT6w5i+6CgIkgh6cAAgDHbV/Pr5YxbPrHq5zzbMB5oCE3MAy9ceA2Ni+WRJj8AcAB KX8A1cg5LyPibekcPNtNdBeYnqZ4uPixI2vlkNX6n/drkp6KILP+1yEvUsfK1A84DFM/jpjix0Fc RcR1als/t/agLxwsoyuCzKIb772I6U5FK0EBBACI+Op81E9su/pl09d6i4FZ9un0AB8DACJC+QOo QH/hehXu5KvRXXQlj1VE3Cp6lJFS+hTd/4PV+p/3K5TW32orhCxLB4Bj108UqnGlwrJ0gBoofuzV Q0RcRFf6cDH8QPqJIBfRrYY5i+4CgfL4YSiAAAAb61e/3MSwc1GL2KD80b+O3fQ88sf+vBkAHAXl D2DU+ovT1+HOvVrcxeeSwcqLp3HryzhfFHJyzvOImEdXBpnHeC8IWukAh7EoHWALTt5tQPFjb66i W+uyKh1k6vpJK9e5aS6i+152Hj7f900BBACOSH+OaJ+WMaz88SrnfLLB670h0yuXA459ch/13UAF wEQofwCj1b/AuA4nacfsaXf9KpQ9jkJKaRVrE0L6AtZ87W0sX4+r0gFgIhalA2xhWTrA2Cl+7Nxj dJ93l/3kCUbkq2kgi/73iuX7owACAGzqOiI+DHyfs/j5a75Nyx+PKaVt1rHcDzx+vsXHAICtKH8A o5RzXsTwJ/8cxsfoLhhdp5Tuy0Zh39amg1xGfFEGOYuydznYlQp71pcwa7tA+rDlybvJyE0zC8WP XXmM7ufjpYvcdUhtu4yIpRLI3imAAMAE9TcUDTn+U875YwxbNfrD8ke/PnzT81VeOwJwdJQ/gNHJ OV9GxLvSOfifx+heDF2H6R6Tt14G6V9Qz6N74X0Wh7uQuO2dGcAwi9IBtuB7ww/kpjkJU9V24SE+ T/rwvKhCSiAH8Sq6ctSicA4AYHvzA3yM6xhW/pg/89+vuxxwLABUQfkDGJWc8zIi3pbOwefCh4vs fE9fBHoqBj1NBVlEVwTZ50WU1R4fG4j/3S1V489jJ+++oy9+rKK7IMt2TPo4Mkoge/c2N02ktl2U DgIAjNbQ1S8vcs7zH0wZ2XTly0N/g9M2hr7f6ZYfBwAGU/4ARqG/yHQZdV5oOhYKHzxL/6L5PCLO 91wE8fkJ+7fpCbMxubGO7NsUP55N6ePIrZVAzqMrgZiOsztvc9Pcp7a9KB0EABifZ6x+WX3n3803 fIzlgI/3taGvCTy3BOBglD+A4vrixypckCjlY3SFj2XpIByPbxRBzmN3q2GUP2D/zksH2MKydIAR W4bnWdu6ioiL1Lb3pYOwf6ltL3PTLKP7Hvi+cJxj8r4vgCxLBwEABhkyseLmGR9nJ6tf+vNPm96A tBzw8QCgGv9XOgAwbYofxTxExD8j4u8ppTPFD/YppXSbUlqklE4i4h/RFY62ddOvmwH2pD9hVtvP 5afpVXylv5A95EQqnbuI+DW17ULxY1pS237qp1T8PZ53EYMvfchNMy8dAgAY5ORAH+c6utd0m3rV n1P+2nzD97879NTInPPskB8PgOlS/gCKUfwo4ioifk0pzVJKl8bjc2gppeuU0llE/H/RFZAeBj6E i7uwf4vSAbZwrRj2V7lpLsJKvaEeI+KfqW1PU9uuSoehnNS296lt59EVV4dcjOD7rnPT2HkPAHyh fy039HzPt1aVbrq+dDnwY30hpbTa4t1mz/mYALAp5Q+giP6u4lUofhzCQ0T8Ht2Uj8WWL1Bgp1JK n/oC0iwifo2umLQJ5Q/Yv0XpAFu4LB1gbHLTLMLaiqE+RsQsta3PJ/4nte11dCfr/1U4yjF4EV0B 5FB3EQMAzzM74Mcaer5n/o0/e73h+y4HfiwAqMbfSgcApmet+PGicJShZj/1AAAgAElEQVRjdxcR l1a6MHZ9IWmVc76I7qLzeXz7+8PBx3LC1OScz6K+n893KaXb0iHGpF+t8KF0joo8RsSiv8gPf5Ha 9lNEnOemuY7uYsGmu+T5q5fRvRY0AQQAxm/Ic57Vcz5QSuk65/wYm78ena//Q855/u3D/uKjqZEA HDOTP4CDUvw4iJvoVrucKn5Qk5TSfUrpIqV0EhG/RVdgWueiHOzfonSALSxLBxiTfqWC75ebe5r2 4e+Mn+pXAZ2GKSDP9So3zbJ0CABgdIY8J3+Zc56t/fN8Dx/jR4auBZzv6OMCwA8pfwAHo/ixd1cR 8UtKaW61C7VLKS1TSqfRrYS56f/YhTnYo/7E2ZvSObawLB1gLPpVCsvwXGsTjxHxj9S2Z/1UB9hI attPqW3Po3uOMvSkP5+97ddTAQAjlHMusaZt6Hmfs7Xfzzc4/nGHN8qZPgnAKCl/AAeh+LFXVxHx 95TSwth7jk1KaZVSmkdXbPL5Dft19vNDRufKyN4vXEfEq9IhKnATEaemffAc/RSQWXTTY9jOh35a EQAwPgf/GZ1Suo5h5dr52u9fb3C85/8AHD3lD2DvFD/2Zr30cV86DOyT4gccxHnpAFtw8q7Xr1DY 5ITn1P2e2nae2va+dBDq108BOYuIf5bOUrFVP7UIAKjbakePM+Q13jwiIuc83/D45cAsu6TwCsBB KH8Ae9WPCFyG4scu3YTSBwA71J8se1k6x0AP/Z1hk9evTnhbOsfIPUbEr6ltL0oH4fiktr2MiF8i 4qF0lgq9CEU+AOCzywHHvuhvOpxvcOzDjtdk3w88XtkVgINQ/gD2pi9+rML48V25iYhfU0pzpQ8A dmxROsAWlqUDjEG/MuFD6RwjdxcRs35NB+xFatvb6O7ovCmdpUKvc9NclA4BAHxhXuKD9pNfhxRq z2KzrLsum97v+PEAYCeUP4C9UPzYqYeI+Edf+liVDgPAcel/Zp+VzrGFZekApfWrEtwx/2NXqW1P U9t+Kh2E49evgZlHxL9KZ6nQ+9w0Nf4sAgB2b8hrnLPYbP3lkIki+zAr/PEBmAjlD2DnFD925jEi fk8pzYy1B2CPzqK+9Ww3pmBFRHdStLZ1PYf0W2rbRekQTE9q2/OI+K10jgot+1IbAFCZHd+wthxw 7Cbnn+9G8PrR6zYADkL5A9iHy1D8eK6PETFLKV2UDgLA0TsvHWALy9IBSutXJGxyh9sUPUbEr6lt l6WDMF39598v0X0+spkXYZoRAIzFaakPvMXql59Z7vCxntzu4TEB4NmUP4CdyjkvI+Jt6RwVe4iI X1NKZykl48kB2Kuc8yzqK2w+ppSWpUOUlJtmHhHvS+cYqYeImKe2XZUOAqltb6PbQX9XOEpNXvfl NgCgrNLTuHZZCF3u8LGeOG8LwCgpfwA7k3M+D8WP53ha8bIqHQSAyahx6sek7wrvVyJM+u/gB+4i 4rS/4A6joACylfe5aYrdbQwAjMJyR4/zcSw32OWc56UzAHD8lD+Ancg5LyLij9I5KnUTEb9Y8QJA AYvSAbZwWTpAYdfRrUbgSzfRTfwYxYldWNd/Xs6j+zxlM9d92Q0AKGM24NidP8fpV7/sojyrOA8M 0jRNNE1TOsbo+HupQ9M0yh/A8+WcTyPiQ+kcFXqMiH+mlOb9CxoAOJic81nUVyK4m/LPzH4VwuvS OUboKrWt4gejltr2U2rbeURclc5SiZcRcVE6BABM2MvSAeL50z/2tjLU5GYAxkr5A3iWnPMsIlaF Y9SoG0ue0tTvXgagnEXpAFuY7M/NfgXC+9I5Rugqte2idAjYVP/5qgCymXe5aealQwAAxTx3asfY pn5YawfA3il/AFvLOT/tnK/truHSfk8pnaaU7ksHAWCa+p/hb0rn2MLYTt4dRL/6YJL/7T+h+EGV FEAGsf4FAA6sv9mvuP7c6XNWv4ztNZTnNADsnfIH8BzXEfGqdIiKPETELymli9JBAJi8RekAW7hK KU11rcdFjGPs8pgoflA1BZCNvYjnj3wHAIaZDTx+tYcMT5Zbvt9DSmnf5Y/HPT8+AAym/AFsJed8 GXbOD3EV3ZqX29JBACAizksH2MKydIASctOcRcS70jlGRvGDo6AAsrE31r8AwGRtW+A4xNSPoed5 Z/sIAQDrlD+AwXLOi3ARYlOPEfFbSmkx4buVARiRnPNp1DdF4iGltCod4tD6VQfL0jlGRvGDo6IA srGl9S8AcDCj+Zn7jNUvy90m2YlZ6QAAHD/lD2CQ/oLRZekclXiIiHlKaVk6CACsMfWjHsvoVh7Q UfzgKCmAbORldCuwAID9Oy0d4CtDz0Xfmb4MwFQpfwAbyzmfRDcyz0WIn/sY1rwAMDL9z/Kz0jm2 sCwd4ND6dS9vSucYEcUPjlr/+f2xdI6Re2f9CwCM0mrPjz90hctyHyG+4X7g8aOZqALA8VL+AIZY Rn1j4kv4PaV0Zs0LACN0FvWVOD/2o34nw7qXv7iLOifWwFCL2G6s+ZSYQgkAE9OfYx1Skh1aFtnW /cDjX+0jBACsU/4ANpJzvgh3n/7MY0T8I6V0UToIAHzHonSALRzqxN2YXEZ9JZ19uYuIeWpbpVqO Xv95Pg8FkB95lZvmonQIADhy89IBvmHT14WTu3kAANb9rXQAYPxyzvOIeF86x8g9RMSZNS8AjFXO eRYRr0vnGOgxpbQsHeKQ+pUGb0vnGInHiDhT/GBKUtt+6tc+3YYS2Pec56ZZpra9Lx0EADiY64iY bXDcar8xAGDclD+AH8o5n8Q077gdorsj1ZoXAMatxrUZy9IBCliWDjASj9FN/LgvHQQOLbXtfV8E W4UCyLe8iG5C0lnpIADwDL8PPP5+HyG+YxkDShQppY2P3VZ/3vVi3x9nIOfMARidpm3b0hmAEcs5 r6K+u4QP6SoizhU/ABi7nPN9RLwsnWOgX6Y0VatfZWDaWue31LbL0iGgpNw0i4j4UDrHiP2a2nZV OgQAAHA8mqaJiAjXz7/k76UOTdMofwDfl3M+j4g/SucYsauU0qJ0CAD4mZzzWUT8WTrHQHcppdPS IQ4lN80sIv5bOMZY/DO17WXpEDAGSmE/9JDadlY6BAAAcDyUHL7N30sdmqaJ/ysdAhinnPNpKH78 yO+KHwBUZFE6wBamdvF/WTrASFwpfsBnqW0vops2yF+9zE1T40ozAAAA2AvlD+Avcs4n4QLEj/yW UrooHQIANtH/XH9TOsdAjzGh/cm5ac7Cmr2IiLuIcCEX/uo8uq8P/uoiN81J6RAAAAAwBsofwLdc RMSr0iFG6reU0rJ0CAAYYFE6wBauU0qfSoc4hP6ipUkXXeHnLLXtJP6/wxD918Uiuq8TvvQiutev AAAAMHnKH8AXcs7ziHhXOsdIKX4AUKNF6QBbWJYOcEDnEfGydIgRWKS2vS8dAsYqte1t1Pn9/BDe 5aaZlQ4BAAAApSl/AP9j3csPKX4AUJ2c82nUN83rIaW0Kh3iEPqLle8LxxiDf6W2ncyaH9hW/3Xy r9I5RsoEJQAAACZP+QNYdxnuPP0WxQ8AanVeOsAWpnQBb0r/rd9zk9q2xs9TKKL/erkrnWOE3uSm mZcOAQAAACUpfwAREZFzPouIt6VzjJDiBwA1OysdYAuTmADRX6R8UzpHYY9hjQVs4yy6rx++dFE6 AAAAAJSk/AFY9/J9ih8AVCvnvIiIF6VzDPQxpXRfOsSBXJQOMAKL1Lb3pUNAbfqvm0XhGGP02vQP AAAApkz5A4joLj7UdnFo3xQ/AKjdonSALSxLBziE3DSLiHhdOkdhV6ltJzHlBfah//q5Kp1jhC5K BwAAAIBSmrZtS2cACso5zyPi36VzjIziBwBVyznPIuK/pXMM9JhSOikd4hBy09xHxMvSOQp6iIjT 1LafSgeBmuWmOYmI25j295Nv+YdyGQAAsI2maSIiwvXzL/l7qUPTNCZ/ANO4w3aAK8UPAI7AonSA LSxLBziE3DTn4ULtQvEDnq//OlqUzjFCl6UDAAAAQAnKHzBhOeeLcPFh3VVKaVE6BADswKJ0gC0c /cW6/i79i9I5CvtXattV6RBwLPqvp3+VzjEyL/v1WgAAADApyh8wUf04+Pelc4zIneIHAMcg53wW 9ZU771JK96VDHMB5RLwoHaKgh1B+gX24iO7ri88uSgcAAACAQ1P+gOlalg4wIncRMS8dAgB25Kx0 gC1MZerHeekchVn3Antg/cs3vcxNMy8dAgAAAA5J+QMmqL8j+HXpHCPxGBGLlJILEQBUL+d8EhFv S+cY6DEirkuHOICpT/2w7gX2yPqXb7ooHQAAAAAOSfkDJqa/KHT0d9cOcJZSui0dAgB2pMapH9fH XsI09cO6FziQi7D+Zd1r0z8AAACYEuUPmJ7ziHhZOsRI/JZSWpUOAQA7VGPBYAql1KlP/Ti37gX2 r/86q/HnwD5dlA4AAAAAh9K0bVs6A3AgOedZRNzGtC8+PLlKKS1KhwCAXck5n0bEf0rnGOghpTQr HWKf+qkf9zHd5183qW3npUPAlOSmWYU1n+t+SW1r2iMAAPBTTdNERITr51/y91KHpmlM/oCJuYjp XnhYdxfuiAPg+CxKB9iCqR/Hb1E6AEzQonSAkfHaDwAAgElQ/oCJyDnPI+Jt6Rwj8BgRZyklo8cB ODaL0gG2sCwdYJ/6qR9Tvuj4e2rb+9IhYGr6r7vfS+cYkbe5aWalQwAAAMC+KX/AdFyUDjASi5TS fekQALBLOedF1Ddd4uMEyphTnvrxENOY7AJjdRnd1yGdKRfxAAAAmAjlD5iA/oKQnc8R/0opXZcO AQB7cFY6wBaWpQMcwKJ0gIIuUtsee7kHRqv/+rsonWNEFv00JgAAADhayh8wDRelA4zAXUrJ3V4A HJ2c8ywi3pTOMdDDsRcyc9MsIuJl6RyF3KS2XZYOAVPXfx3elM4xEi+izqIkAAAAbEz5A45cP/Vj qhcenjyGE30AHK9F6QBbOOriR++idICCLkoHAP7nonSAEbkoHQAAAAD2SfkDjljO+SSc4IqIOE8p 3ZcOAQB7sigdYAuXpQPsU26aeUy3fPsxte2qdAig0389XpXOMRIvc9O4KQAAAICjpfwBx+08pnvh 4cnHlNKydAgA2Iec8zzq+1l/M4FS5kXpAAVZswfjc1E6wIgsSgcAAACAfVH+gCPVT/2Y+sn3x3By D4DjtigdYAvL0gH2KTfNaUS8Lp2jkKvUtvelQwBf6r8uTf/ovMlNMysdAgAAAPZB+QOO13lEvCgd orBFSulT6RAAsA990fNt6RwDPUbEdekQezbl8u1F6QDAd51H9z2YOouTAAAA8FPKH3CETP2IiG7d y7FfXAJg2s5KB9jC9TEXM3PT1FjI2RVTP2DEUtt+iojL0jlGYlE6AAAAAOyD8gccp6lP/bDuBYAp qLHoeewXHhelAxTyGHV+PsLUXIbpHxERL3PT1FigBAAAgB/6W+kAwG6Z+hEREefHfFcxAOScZxHx qnSOge5SSrelQ+zZVJ+DLfupAsCIpbb9lJvmMiLel84yAos4/jVkMAm5aU4j4mT9z1LbrsqkAQCA spQ/4PhMferHTUppWToEAOxZjSWDZekA+9TfRf6ydI5Cjn2iCxyTy/CaMSLiTW6aE8U1GI/cNPP+ t0+/nkTE6dohrwc81rf++DEinorI9/1bRMQqQmEEAIDjoPwBx2dROkBhi9IBAOAAFqUDbGFZOsCe LUoHKOQqte196RDAZkz/+MIilNfgoPopHbPoSh2z/m3jUsczvVj7WOsf832fLeJzQeQ2unLIbUTc KooBAFCLpm3b0hmAHck5LyLiQ+kcBf2eUrooHQIA9innfBYRf5bOMdBVSmlROsS+5KaZRcR/C8co 5f9n736v28iuRG/vmuXv5BsBMRFQ7zoBCDcC8UYgOILmRNB0BE1H0FAEpiIwFMBZJiMwGMGIEdT9 gJJbrVZLAglgV9V5nrV6jZfv3PHP+gMUq3bt89+GP2BaatedR8T/ZneMwGPp+0V2BMzVMOjx+T+n GvI4hsfYDYJsYjcMskmtAQCOphs2iHl+/nt+Xaah6zqbP2BmbrIDEj2Gt7YAaMMqO+AZ7rIDjmyV HZDE1g+YoGH7x7uIeJvdkuyidt2r0vf33/9fBb5nGPZYfvbPnI6Xuhj+eRPxny0hH2I3DLIxDAIA wFjY/AEzYetH/N9SytwfLAHQuFrrIqa3YeKxlLLIjjim2nXb2D0QaI2tHzBRjW8s+tzfS99fZ0fA FA2fI8uIuIr5DXvs6yl2gyB3EXHnmBgAmC4bLr7Or8s0dF0X/5UdARzMKjsg0QeDHwA04io74BnW 2QHHVLvuKtoc/Phg8AOma/j7+y67YwSm+L0KaWrXvapdd1O77j52A2S/xm4bRsuDHxG7//5vYvfr 8b+16+5r110PAzIAAHAyhj9gBmqtUz879aW8qQVAK6b4nbfODjiyVh8c3mQHAC/m2Mzd0S+tfo7D DxkGPm6HTWf/ioifI+Iyt2r0LiPil4j4d+26Te26Ve268+woAADmz7EvMAO11nW0e17zu1LKKjsC AI6t1rqMiH9md+zpQyllmR1xLMNN/P/N7kjwWPp+kR0BvFztuk20/SJBRMS70ver7Ig5mNtxQqXv u+yGLMPv5VXsBo9b3HB2LO8iYl36fpMdAgB8neNNvs6vyzQ49gVmoNa6iHYHP57CW6cAtGOVHfAM 6+yAI2v1bfGb7ADgYNbZASPQ6mf5wTkObPpq113VrruL3RDPL2Hw49DeRsQ/a9dth2NhbAMBAOCg DH/A9K2yAxLdllK22REAcGy11vOY3sOpp1LKOjviyKZ4DM9LPZW+X2dHAIcx/H1+zO5IduboF76m lQfztevOa9fdDMe6/CMi3iQnteAidsM1/1u7bj1sWgEAgBcz/AHT1+JDh4jd1g9nVAPQiquIOMuO 2NNddsAxDTfpWzzvfp0dABycn6umN2DJabzKDjim2nWvatetY3eE3c9hy0eWtxHx72EIZNZ/5gAA OD7DHzBhtdZVTO9B0KHcllI+ZkcAwImssgOeYe4PE1fZAUnm/vsKLVpnB4yA4Y/DecgO4Ntq1y1r 120i4l/R7jHCY/Q2Iv5Vu25Tu26ZHQMAwDQZ/oBpW2UHJLH1A4Bm1FoXEfE6u2NPD6WU++yII1tl ByR4X/p+mx0BHFbp+48R8S67I5mjXw7HSxoj9dnQxz9jeteWLXkdEf+sXXfnOBgAAPZl+AMmaqIP gg7F1g8AWjLFI95mPaQ5rORucTX6OjsAOJp1dsAIGP7gS4vsgEMw9DFZb+K342AWyS0AAEyE4Q+Y rik+CDoEWz8AaM0UH0bdZQcc2So7IMFj6fu5/75Cs0rfbyLiMbsj2TI7gNFZZAe8RO26V4Y+ZuFt RNzXrrvJDgEAYPwMf8B0rbIDktj6AUAzaq1XMb0NE+8a+K6e4kDOSxn8gPlrfcj+YtjsxMtssgNa V7tuUbtuHRH/CkMfc3EWET/XrtvWrltmxwAAMF6GP2CCaq2r2P3g1xpbPwBozSo74BnW2QHH1PCR L67BYP7W2QEjsMoOgJcYtkPcx25bBPNzERH/rF135ygYAAC+xvAHTFOLb5tG2PoBQENqreexO+t7 Sh5LKZvsiCNbZQck+FD6fpsdARxX6fuPEfEuuyPZMjuAUVlkB/yo2nXL2nXbiPg52nxZqDVvYncU TKtHQgMA8CcMf8DE1FoXMb0HQYeyzg4AgBNaZQc8wzo74ASW2QEJ1tkBwMm0fsTTpbfpX2xOL2ws sgO+p3bdee26u4j4Z7S5maxlZxHxS+26Te268+wYAADGwfAHTE+rWz/elVK22REAcEJTfJNvnR1w TMMDwcvkjAytPwyGZpS+v4vdcZstW2YHTNx9dkAratddRcQ22n1BiJ3XEbEd/jwAANA4wx8wPVN8 EHQIN9kBAHAqtdZXMb23N983MKjZ4k31d8NREEA71tkByVr8rGdChm0fm4j4RzjihZ2ziPhH7bq1 LSAAAG0z/AETMtEHQYfwoYGHSQDwuSkOe7awHWKVHZCghd9X4PfW2QHJltkBjMYiO+BLn237eJ2c wji9jYhN7bpX2SEAAOQw/AHTssoOSHKbHQAAp1JrPY/pvXX8VEpZZ0ccU6NHvjwNR0AADSl9fx8R j9kdic5q1y2zIxiF0bx8M2z7WIdtH3zfZewGQKb28wQAAAdg+AOmpcUf3B5LKR46ANCSq5jeTf11 dsAJLLMDErgGg3a1/ve/xZ+9D+U+O2Buhi0Om9htdYAf8ekYmJvsEAAATsvwB0xEw0e+rLMDAODE VtkBz7DODjiBFh8Etv7wF1q2zg5ItswOmKrS9x+zG+akdt0qdoMfrW0f4zB+rl23rl13nh0CAMBp GP6A6VhlByRx5AsAzai1LmJ6Z7g/lFJaeMt3mR1wYo58gYY5+iUuPSwl4j/HvmX9Z68j4teY3kY4 xuVt7I6B8ZkGANAAwx8wHS2+bfqulOKtIQBassoOeIbZD2rWrltGew9eDH4ArX8OLLMDGIXFqf8D a9ed1667D8e8cDiXEXE/HCEEAMCMGf6ACWj4yJfWbzYC0J5VdsCenqKN7+sWh3Bb+H0Fvm2dHZBs mR0wYU/ZAVM1PJzfhmNeOLyL2G0AMQACADBjhj9gGlbZAQkeSykeOgDQjFrrVUxv2POukS1dy+yA E3PkC+Dol/Y++w+phePgDq523VVEbKK9bWOczlkYAAEAmDXDHzANLb5tus4OAIATm+L3/To74NiG 89Fbe/vW4AfwScufB5fDdwBtW5ziP6R23Soi/hEGPzi+TwMgy+wQAAAOz/AHjFzDR76sswMA4FRq recxvXPdH0spm+yIE5jiUM5LbbIDgNFoefgjwvYPTjD8UbtuHRG/Hvs/Bz5zFhH/HLbNAAAwI4Y/ YPxa/EHsoZSyzY4AgBNaZQc8w212wIksswMStP6wFxiUvt9ExFN2RyJHI3BUw+DH1AaAmY+1I2AA AObF8AeMX4vDH608TAKAT1bZAc/QyoDAMjvgxD6Uvv+YHQGMSiuf91+zzA5gvgx+MAKfjoAxAAIA MBOGP2DEhhXwrZ0xH9H2zUUAGjMc8Ta17/v3LWzpql23iPaO33MdBnxpkx2Q6HV2wERtswMOaHGM /6MGPxgRAyAAADNi+APGrcWtH+9LKd42BaAl19kBz7DODjiRZXZAgk12ADA6TQ+F1a5bZjdM0DY7 4IAWh/4/WLvuLgx+MC6fBkAWyR0AALyQ4Q8YtxaHP5q+sQhAk6b2ff9USmnl+3qZHXBij6Xv77Mj gHEZjoJ6yO5I5G14DmbY+PEmuwO+4iwi7mrXnWeHAADwfIY/YNyW2QEJWnmYBABRa13F7kbrlKyz A05omR1wYpvsAGC0Wv45bZkdwDw46oUJuIy2P+8BACbP8AeMVK11GdN7GPRSjnwBoDVT2/oREXGb HXAKw9rri+SMU9tkBwCj1fLDQJs/2naQ33+DH0zI69p1TVzvAwDMkeEPGK9ldkCCTXYAAJxKrXUR 01v7/VBK2WZHnMgyOyDBJjsAGKfhSKin7I4kF45BaNqLX8oZHqQb/GBKfqpdt8qOAABgf4Y/YLyW 2QEJWn6bDID2rLIDnqGltwBbe9P7sfT9NjsCGLVNdkCi1r4TXmqbHTAWwwP0n7I74Bl+rV3nsw8A YGIMf8AI1VrPI+J1dseJtfQmMQBETG/44ynaGtRcZgec2CY7ABi9TXZAomV2wMRsswPGoHbdVUT8 mt0BL3Bn8xEAwLQY/oBxWmYHJGjpYRIAjau1LiPiIrtjT3ellI/ZESd0mR1wYpvsAGD0NtkBibz9 3rDnbD8Y/v+sD18DJ3UR/hwDAEyK4Q8Yp2V2QALDHwC0ZJUd8AzNHPlSu26Z3ZBgkx0AjFvp+/vY bYFqkeGPtu21+WDYlHAXEWfHyYGTelO77jo7AgCAH2P4A8ZpmR1wYk+llPvsCAA4heF4t7fZHXt6 bOy7epkdcGKPpe+32RHAJGyyA5JcOPqAPdzF9Da8wbfcPGcDDgAAp2f4A0ZmeCDU2ppxWz8AaMlV dsAzNLP1Y9DazW3XYsCP2mQHJGrtu4FnqF13GxGvszvgwM7C8S8AAJNg+APGp8UbSpvsAAA4oSmu TV5nB5xYa9djLW11AV6m5c+L1r4b+M0P/d7XrruKiJ+O3AJZLmvX3WRHAADwbYY/YHyW2QEJNtkB AHAKtdZXMb0NX+9LKR+zI05lWOvf2qr2TXYAMA2l7zfZDYkMf7Tru0f+1K5bRHvDsrTnZ8e/AACM 21+yA4A/WGYHnNhjKWWbHQEAJ7LKDniGdXbAibV2Q/up9P02OwKYlA/R5rEWi+yAqSh9v6ldl51x anexOxqDiKfYbQn6GL9tC9p8/r/wtUGyYYBm8cW//Sp+G75ZDv96aoPUc7OO9q6XAQAmw/AHjE9r N9GcMQ9AS1bZAXt6LKW09l29zA44sZaPcACe5z7a+7k1os3/zvyA4SiMVgcSHmP3mbAZ/ud96ftn bYwbhlG3X/zbm6/97w6b2l7F7rptMfzrVn8PTu2ydt1N6fub7BAAAP7I8AeMyLAKvjWb7AAAOIVa 6yqm90Zoa4MfEe29ybjJDgAmZxMRP2VHZKhdt7AtqUl/em0wHIHx8wlbsj3G7vpwExGb5w56vNTw n7uJz65jhoGQ5Wf/GAY5nuvadWufhwAA42P4A8ZlmR2QYJMdAAAncpUd8Ay32QEJDH8AfFvLG4MW 8cfNBMzf+df+zWHYoIVB2YfYHfVxN+aH/cNAyN3wz6ffn6vhnzeJaXN0FrufE6b48w0AwKz9V3YA 8DutPWx4LKWkvCUCAKdUa13E9G46fyilbLMjElxkB5xYyw9xgWcYHv4+ZnckWWYHMCo3Md/rhoeI +J+I+O/S969K39+OefDja0rffyx9vy59fxUR/19E/DUiPiRnzecgSo8AACAASURBVMmb2nXL7AgA AH7P5g8Yl9aGPzbZAQBwIlN8K26dHXBqDd7Afsxa1w5M3n3M96H3t3x1AwTtGY57mdvxR0+x25px W/p+VsOhw/XOOiLWtesWEXEdEauY3pGMY7OO3UYkAABGwuYPGJfWziPdZAcAwIlcZwfs6dPN/9Ys sgNObJMdAEzWrB4M76G1FzbY+drv+/rUEUf0GLstH4vS96u5DX58qfT9tvT9deyu+/4a7W4yOoSL 2nWr7AgAAH5j+ANGota6zG5IMOsbCgAQ8Z/v+Km9HX3X6NFsrT3U22YHAJPV6s9yi+wAUvxuO0Tt uuuYx8s7jxHx19L3i+FYl6au/T47FmYRhkBe4rZ2na1IAAAjYfgDxqO1hw1PpZRWbxgC0JZVdsAz 3GYHJGntemyTHQBMVqs/y01tmJMDGx5y32R3vNDnQx/r7Jgx+GwI5G+x24DHjzuL6W05BACYLcMf MB6tPWxo9WYhAA2ptZ5HxFV2x54eGh7QdD0G8ANK32+zG7LUrltmN5DqNr7YBDIhhj6+o/T9Tew2 /Pw9t2Ryrm3/AAAYB8MfMB6tPWzYZAcAwAlcxfQeEKyzAzIMN6yn9nv1Ek+trXcHDu5DdgCjNqs/ H7XrlrXrFhHxNjnluf4WEa8MfXzfcBzMdUT8n3AUzI+y/QMAYCQMf8B4zOG82H140xSAFkzxJug6 OyBJa4O4rsWAl2r1c2SZHUCKVUTcZUc8w4eI+O/S9zeGPvdT+n4Tu+vDvyWnTIXtHwAAI2D4A0ag 1traw4aIdm8UAtCIWusipjfc+a6U0uqDgUV2wIm5FgNeapsdACf0NqZ1XfcUEf+39P2y5WOaXmrY AnITuy0gT8k5Y2f7BwDACBj+gHFYZAec2FMpZZsdAQBHNsWbn1N8o/VQFtkBJ2b4A3ipVj9HltkB 8B3vI2JR+r7l67qDGraALGJmxxkdge0fAADJDH/AOLS2+aPVm4QAtGWVHbCnx1JKyw8JltkBJ7bN DgAmz891MC5PEfHX0vdXjng5vGELyDIi3mW3jJjtHwAAyQx/wDgY/gCAGam1XsXu5ueUrLMDkjX1 luLwBivAsw0Pl1s8BuF1dgB8xUNEvCp9v84OmbvS96uI+J/sjhFbZQcAALTM8AeMg+EPAJiXVXbA M6yzA5JdZgecUIsPa4Hj8LMd5HsXEcvS99vskFaUvr+NiL9md4zURe26VXYEAECrDH/AOFxkB5zY NjsAAI6l1rqIiDfZHXv6UErZZkdkafBscg9rgUPZZgdkqF3X2gscjNdfS9+vHPNyesOWlb+Godqv cfQLAEASwx+QrNba3E2jUsomuwEAjugqO+AZ1tkByVq7HttmBwCzsc0OSNLa0CDj8xQR/79jXnIN v/7LMADypUtDcgAAOQx/QL7Wbhr5gRiAuZvam25PpZR1dkSyRXbAiW2zA4DZaHWT0CI7gKY9RMSr 0vet/v0bleH3YYrD38c2tZ+JAABmwfAH5FtmB5yYmxMAzNaw0Wtqx7ndZQeMwCI74MRcjwGHss0O SLLIDqBZDxGxLH2/zQ7hN6XvN7E7AobfvG3waEUAgHSGPyBfaz8IedgAwJxN8Q232+yAEVhkB5zY x+wAYB5sHoCTeh+7wQ/f4yM0HAFjAOT3VtkBAACtMfwB+Vo7A9NNCgBmqdZ6HtNb+fxQSvHgrrHh j+HtVIBDafFoz2V2AM15V/r+yuDHuA0DIO+yO0ZklR0AANAawx+Qb5EdcGKb7AAAOJKriDjLjtiT rR87LW1ia/EhLXBchgjhuN6Vvl9lR/Bjht+rh+yOkbisXdfaS28AAKkMf0C+i+yAE/OWCgBztcoO eIa77ICRuMwOOCEPaQFerqWhQXIZ/JimZRi4/WSVHQAA0BLDH5Co1rrIbjg1q+UBmKPhO/11dsee 3pVSDGUC8FKb7IAELQ0NkueDwY9pGo7nmdpxkMfi1wEA4IQMf0CuRXbAiXnrAYC5us4OeIZ1dsAY 1K5bZjec2CY7AAD4rofw0HzSSt9vIuLv2R0jcFG7zp9lAIATMfwBuRbZASdm6wcAczW1G5qPpZRN dgQAs9Dkz3m16xz98m3b7IAJe4iI5bA9ggkrfX8du9/P1k3tZyUAgMky/AG5FtkBAMDL1FqvIuIi u2NP6+yAEXmVHXBiTT6kBY6q1QfUrX1/7GubHTBRTxFxZfBjVlbZASNg+AMA4EQMfwCntMkOAIAj WGUHPMM6O2BEWntz28Mk4NC22QEwI8vS99vsCA6n9P19RPwtuyPZWYNHLQIApDD8AbmW2QEAwPPV Ws8j4k12x57el1K22RGk2WYHAPPiQTUczF+HQQHm5zYiHrMjktn+AQBwAoY/gFPaZAcAwIGtsgOe 4S47YGSW2QGn5CEtwMG0tjmK43pX+n6dHcFxDMf4rLI7khn+AAA4AcMfkGuRHQAAvMgqO2BPT6WU dXYEaZ6yA4DZesgOSPAqO4DZeCh9v8qO4LhK328i4kN2R6KL2nU+NwEAjszwB+S6yA44MWfMAzAb tdZXEXGZ3bGndXYAqaySB47Fz3rwPE9hI0JLVtkByZbZAQAAc2f4AziZUooHDgDMyXV2wDOsswNG 6HV2AADQrJUj2dox/F6/y+5IZNAJAODIDH9AklrrMrsBAHiRqd28fDCICcCRbLMDYILelb6/y47g 5G6yAxK9rl13nh0BADBnhj+AU3HGPACzUWtdRcRZdseebrMDSLfJDgBma5sdkOBVdgCT9hjT3CLH C9n+4egXAIBjMvwBnIo3jQGYk1V2wJ6eIsKbpV+oXbfIbgBgsry9zkusSt9/zI4gzU12QKJldgAA wJwZ/oA83hICgAmqtS4i4nV2x57uSikeMPzRIjsAAGjOu9L3m+wI8jS+/WOZHQAAMGeGPyCPt4QA YJpW2QHPsM4OYBRsYgOOZZMdABPxFI57YafVIxkva9e5JwoAcCSGP4BT8bABgLlYZQfs6bGUssmO YBRsfwGAXNeOeyEiovT9fUR8yO5IsswOAACYK8MfwKm4uQHA5NVaryLiIrtjT62+VfgjHMMHAJzK h9L36+wIRqXV6/RldgAAwFwZ/oA8y+wAAGBvV9kBz3CXHTBiVk4DAKdykx3AuJS+v4uIx+yOBAaw AQCOxPAHAAD8gFrreUS8ze7Y0/tSyjY7gtHYZgcAzIiHl+zjXen7TXYEo7TODkjwOjsAAGCu/pId ADTDsS+cTK31VXibm5e5L6X43OJLq+yAZ1hnBzAepe+32Q3APJW+39Suy844tbPsACblJjuA0VpH xM/ZEadWu+5V6fv77A4AgLkx/AGcih/oOKXb8CYJL/N/ImKTHcHorLID9vRUSnHkCwBArncGMPkz pe+3tes+RHv3MJbhXiEAwME59gXy2EoAABMxbBS6zO7Y0zo7YAIW2QEAwOzdZAcweuvsgASOzgIA OALDH5Bnag+QAKBlq+yAZ7jNDpiARXYAADBrtn7wI1rc1rfIDgAAmCPDHwAA8H2r7IA9PZRSttkR jMpTdgAANOgmO4DxK33/MSLeZ3ecWGvH3AAAnIThDwAA+IZa6yoizrI79mTrB19ypjoAnJatH+yj ue0ftesc/QIAcGCGPwAA4NuusgP29BQN3jwGABgZw7jso8Xrd8MfAAAHZvgDAAD+RK11ERFvsjv2 dFdK+ZgdAQDQsA+l723d4ocNR788ZHec2CI7AABgbgx/AADAn1tlBzyDt0wBAHKtswOYpNa2fyyz AwAA5sbwBwAA/LlVdsCeHksp3jIFAMjzWPp+nR3BJLU2/HGeHQAAMDeGP4BT2WYHAMA+aq3LiLjI 7tiTrR8AALlae4DPgQxHBT1ld5zQZXYAAMDcGP4ATqKUss1uAIA9rbIDnmGdHQAA0DjDuLzEJjvg lGrXvcpuAACYE8MfAADwhVrreUS8ze7Y0/tSysfsCACAhj2Uvt9mRzBpm+yAE3P0CwDAARn+AE6i 1rrIbgCAPVxlBzzDOjtgghbZAQDArKyzA5i8TXbAiS2zAwAA5sTwB3Aqi+wAANjDdXbAnh5LKc6X 399FdgAAMCuux3iR0vf3EfGU3QEAwDQZ/gAAgM8M26ouszv25EEDAEAuR75wKPfZASe0zA4AAJgT wx8AAPB7U9v6ERFxmx0AAI15yA5gdNbZAczGJjsAAIBpMvwBAAC/t8oO2NOHUso2OwIAGvMxO4DR sYmNQ2lp88fr7AAAgDkx/AEAAINa61VEnGV37GmdHTBhj9kBAMAsPDryhQNqafgDAIADMvwBAAC/ WWUH7OkpvGX6EtvsAABgFjbZAczHMEj0lN1xKrXrXmU3AADMxV+yAwAAYAxqrYuIeJPdsae7Uoq1 8wAAuQzjcmj30c6RKOfZAfA1w2bQ6+wOSHJfSvHnHybI8AcAAOxcZQc8w212AAB4axsc08HBGf6A fK+inb+H8KXXtdaPpZSb7BBgP459AQCAnam90fBQSvGgAYAx8OCOlj0Nx3TAIbV0nW+AkLHyZ5PW /ZwdAOzP8AdwKm4GAjBatdZlRFxkd+xpnR0AAA3bZgcwGi09pOd0ttkBQCyyAyDZY3YAsD/DH8Cp mJQGYMxW2QHPsM4OYFJciwEc1jY7gNHYZAcwSy0NFXlhjLG6zA6AZNvsAGB/hj8AAGharfU8Iq6y O/b0rpTyMTuCSTnLDgCAmdpmBzA/pe9butY3pMzo1Fr9uYS2BhFhNgx/QJ6n7AAAICJ2gx9TezB+ lx0AAJ9ZZAdAom12ALP1ITsAGrbIDoARaGkQEWbD8AfkMTUJAONwnR2wp8dSiuEPAMZkkR0AWUrf b7IbmC0P3SCPzR/gGRZMkuEP4FQW2QEA8KVa6yKmd47vOjsAALDtATi6Vh66ecjOGPlzCYYQYZIM fwCnssgOAICvmNrWjwjDH4fUyg31iIioXecGJsDhbLMDGAXHcsDLTe0ITtqwyA6AbKWUTXYDsD/D HwAAtOwqO2BPH0op2+yIGWntLZbz7ABgtgyXARzeJjsAGja1DaFwaE/ZAcDzGP6APK09bACAUam1 XkXERXbHntbZAQDwFYbLaNUmOwCAwxqOh4XWNbUpFebE8Afkae3L05tgAIzNKjtgT0+llHV2BAAQ Ee39TA+cns8ZyLHIDoAR2GYHAM9j+AM4Fed3AjAatdbziHiT3bGnu+wAJm+ZHQDM1iI74NRK39vm CRxVS58zteuW2Q3wmWV2AIzANjsAeB7DHwAAtGiVHfAMt9kBM7TNDgCYiakdowaHsskOAODgFtkB MAK2T8FEGf6APNvsgFOrtS6zGwBgcJ0dsKeHUoofvA9vmx0AwCQ9ZQcAzfiQHQANWmQHwAg0s30K 5sbwB+TZZgcAQItqra9iem8o2/rBIbzKDgDmp3bdIrshgYFMAJiv19kBkK2UssluAJ7H8AdwSufZ AQAQ09v6ERFxlx3ALLgWA45hkR0AAHAItdZFdgOMgC13MGGGP4BT8rYpAKlqrecRcZXdsad3pRTr No+g9P0mu+HEDH8AHMY2OwBohp8D4LQW2QEwArbcwYQZ/oAk1mYBQIqriDjLjtjTOjuA2bjMDgBm aZkdkGCbHcBoeDjCsfkzBqe1zA6AEdhmBwDPZ/gDOKVldgAAzVtlB+zp0cAoAMA4lb63lQFgXmxL BMMfMGmGPyCXs9MA4ESGs3tfZ3fsaZ0d0IDH7IBTql3nGD7g0Fr8XPEmPgDMU4vXNfAl17owYYY/ IFdrX6IungHIdJ0d8Azr7IAGbLMDTsybbMChtfi5YtsDAMyT+9fgWhcmzfAHcEpn2QEANO0qO2BP 70sp2+wIZmeRHQDMziI7IME2OwAAOKxa63m4fw0R7b20DLNi+ANyNfclWms1PQ3AydVaryLiIrtj T3fZAY1o7XpskR0AzM7Uvl9frPT9NrsBaMY2OwAa4r41REQpxeYPmDDDH5CrxS/RFlcCA5Bvals/ nkop6+yIRrR2PbbIDgDmo3bdIrsBYOa22QHQEMMfEPEhOwB4mb9kB0DjWnvYELG7iN5kRzB7rb3F neF1dgD8qGF169vsjj2tswOYrUV2ADAri+yABG6IA8A8LbIDYARafGYFs2L4A3K1+IDa5g+OrpRy nd0wd7XWPrsB9rDKDniGdXZAQzYR8XN2xAktsgOAWfGGLAAwF65roM1nVjArjn2BXC1OUS6zAwBo zio7YE8PpRQ/bHMsF9kBwKy0ONzvOxoA5snwBzhuDCbP8AckavTBTos3BwFIUmt9FRGX2R17us0O aExz12O169zUBA5lmR2QoMWXOACgBWfZATAC2+wA4GUMf0C+p+yAE5vaAzgApm1qx0A9RcRddkRL St+3+BDPMC5wKC1+nmyyAwCAw6q1LrMbYCSae0EG5sbwB+Rr7st0eAsbAE7hKjtgT3ellBaHEbK1 Noy7zA4AZsNwPwAwB4vsABgD96Rg+gx/QL4Wv0wX2QEAzF+tdRXTW9u6zg5oVGvDuC2+qQ8cWO26 RXZDhtL3m+wGAODgFtkBMAIfsgOAlzP8Aflae9gQEWHzBwCnsMoO2NNjKWWTHdGo1oZxXYsBh7DI DkjQ2qYoAGjFMjsARqC1eyMwS4Y/IN82OyCBBw4AHFWtdRERr7M79nSbHdCw1oZxXYsBh7DMDkjQ 2vcFALRikR0AI+BaF2bA8Afk22YHJFhkBwAwe6vsgGe4yw5oWGtvt5zVrnP0C/BSi+yABNvsAADg KC6yA2AEttkBwMsZ/oB8LU5TXmYHADB7q+yAPb0vpWyzIxrW4vWY7R/ASy2yAxJsswMAgMOqtS6z G2AkttkBwMsZ/oBkpZTW3jSNCBfVABzP8B0ztbd21tkBjdtmByQw/AG81NSOVzuEFocFAWDubEWE nW12APByhj9gHD5kByTwwAGAY1llB+zpqZTiyJdEpe+32Q0JXIsBz1a7rtXPkG12AABwcK1e18Dv 2EgL82D4A8Zhmx2QwEU1AAdXaz2PiLfZHXtaZwcQEREP2QEntsgOACZtkR2QofS9zR8AMD/uU0N7 90Rgtgx/wDhsswMSuKgG4BiusgOe4TY7gIiIaO0ovhaPawAOp8Wf5x6zAwCAo1hkB8AItHZPBGbL 8AeMwyY7IMFldgAAs3SdHbCnB2s1R2OTHXBqDR/bALzcMjsgwTY7AAA4CvepocF7IjBXhj9gHLbZ ARlqrcvsBgDmo9b6KqZ308bWj/Fo8S0Xwx/Ac7X4+bHJDgAADmu4jwC0eU8EZsnwB4xAw2/8LrMD AJiVVXbAnp4i4i47gv+4zw5I4EYnsLfadYuIOEvOyLDNDgAADm6RHQAj0eI9EZglwx8wHh+yAxJ4 4ADAIa2yA/Z0V0rxZsV4tHijw7UY8Bytfna0+D0BAHPX6nUNfGmbHQAchuEPGI9tdkACF9cAHESt dRXTewvZkS8jUvr+Y+y2sbTkdXYAMElN/hxX+t7wBwDMT5PXNfClhrfTw+wY/oDxaPFG0kWtdZEd AcAsXGUH7OmxlNLid//YNfd7Urtumd0ATM4yOyDBQ3YAAHAU59kBMAKudWFGDH/AeDT3sGGwzA4A YNqGQcI32R17svVjnFq8HvOmG7CvFrcGtfj9AAAtaPG6Br7kSGKYkb9kBwA7pZRNrTU7I8MyItbJ DQBM2yo74BnW2QF81TY7IMEyDCMBP6h2XasDY4Y/AGBmZriR+kN2AJO1zg4ADsfwB4zLQ0RcZkec 2DI7AIDJW2UH7Ol9KcVbFePU4sO9Vh/kAs+zzA5I0uL3AwDM3SI74IAeSynL7AgA8jn2BcalxRtK FzOcsgbgRGqty4i4yO7Y0zo7gK8rfb/JbkhwUbtukR0BTEaTA2ONfj8AwNwtswMOaJsdAMA4GP6A cWlx+CNiXhfaAJzWKjtgT4+llLvsCL7pITsgwTI7AJiMZXZAgha/FwCgBYvsgANq9bkCAF8w/AHj 0upF2lV2AADTU2s9j+l9hxj8GL9tdkCCZXYAMH7DlqCpbds6hG12AABwFIvsgAPaZgcAMA6GP2BE Simb7IYky+wAACbpKiLOsiP2dJsdwHe1OIy7zA4AJmGZHZBkkx0AABzF6+yAA2rx51gAvsLwB4zP h+yABGe11ibPjgbgRa6zA/b0oZSyzY7guzbZAQkuhjf6Ab5lmR2QxMMUAJiZWusiu+HAXK8AEBGG P2CMWr1Qm9rafgASDTdqLrM79rTODuCHtHottswOAEZvmR2QofT9JrsBADi4RXbAIZVSPmY3ADAO hj9gfFp94GD4A4B9TG3rx1NE3GVH8H2l7z9GxGN2R4JldgAwXsN2oIvkjAwtbuYEgBbMaQu16xUA /sPwB4zPJjsgyeUM1+0BcDyr7IA93XkTZ1I22QEJDOIC37LMDkjS6ssZADB3i+yAA9pmBwAwHoY/ YGRKKdto823TiHZvKAKwh1rrVUScZXfs6TY7gL20+LDvrHbdnN5+Aw6r1QGxTXYAAHAUc/rZZ5sd AMB4GP6AcdpkByRp9YYiAPtZZQfs6aGU0uIwwZS1+vu1zA4ARmuZHZCk1e8DAJi7OQ1/bLIDABgP wx8wTpvsgCRvaq3n2REAjNdwRNib7I49rbMD2E/p+012QxKDuMAfDFuBprZx6xAeS99vsyMAgMMa 7j/P6drGEbMA/IfhDxinlt8u8tABgG+Z4vfEOjuAZ/mQHZDgde06g7jAl6b43XsIm+wAAOAo5rT1 I2waBeBzhj9ghIYLtsfsjiTL7AAARu06O2BP70op3sKZpk12QJJWH/ICf67Vz4VNdgAAcBRzGv54 yA4AYFwMf8B4bbIDklw5+gWAr6m1voqIi+yOPd1lB/Bsm+yAJMvsAGA8atctIuIyOSPLJjsAADiK RXbAAW2zAwAYF8MfMF6b7IAkZ9Hum2UAfNvUtn48llIMf0xXq6tzXYcBn1tmByR5LH2/zY4AAI5i Tps/Wv25FYA/YfgDxmuTHZDIQwcAfmfYCjW174d1dgDPV/r+Y7S5Qvesdt3U/q4Bx9Pq58EmOwAA OJpFdsABbbMDABgXwx8wUqWUbUQ8ZnckeePoFwC+cBW77VBTss4O4MU22QFJWn3YC3ymdt15RLzJ 7kiyyQ4AAI5masfJfss2OwCAcTH8AePW8qp4Dx0A+NwqO2BPH4ZBTqZtkx2QZJkdAIzCMjsgUcs/ iwPAbNVal9kNh1RK2WQ3ADAuhj9g3DbZAYmuswMAGIda6yIiXmd37GmdHcBBbLIDklzUrpvTOdjA 87Q6kP8wHP0FAMzPIjvggFrdGg7ANxj+gBErpbT8ttHl8LAPAKY2EPhUSllnR/Byw8O/h+yOJKvs ACBdq8Mfm+wAAOBoFtkBB7TNDgBgfAx/wPi9zw5INLWHfQAcx9QePrU8vDlHrf5+Tu3vHXBAteuu IuIsuyNJq5/7ANCCZXbAAd1nBwAwPoY/YPw22QGJPHQAaFyt9SoiLrI79nSbHcBBbbIDklwMD3+B NrX69/+p9P0mOwIAOJpFdsABbbMDABgfwx8wfi2/dXQxPPQDoF2r7IA9PZRSvH0zI8NDwKfsjiSu w6Bdrf7932QHAABHNbWXS77FvQcA/sDwB4xcKWUb7Z41HzG9h34AHEit9Twi3mR37MnWj3naZAck afXhLzStdt0qHPkCAMxMrfVVdsOBbbMDABgfwx8wDZvsgERvaq2L7AgAUqyyA57BQ6N5avX39czR L9Cklv/eb7IDAICjWWQHHNLw0igA/I7hD5iGdXZAsuvsAABSTO3z/10p5WN2BEexyQ5ItMoOAE6n dt0Ut24dykPp+212BABwNHPa/PEhOwCAcTL8ARNQSrmPiMfsjkSrYfU/AI0Y1rFO7SzedXYAxzE8 DGz1GL43w8NgoA0tb/1odcsTALRiTsMf2+wAAMbJ8AdMR8s3os6i7ZuQAC2a2taPx1LKJjuCo9pk ByRaZQcAJzO1799DavlnbgBowSI74IC22QEAjJPhD5iO1m9E3WQHAHBSUxv6W2cHcHTr7IBELT8M hmbUrnsVEZfZHUkeS9/fZ0cAAEc1p+sc1y0AfJXhD5iI4W3ilo9+uai1LrMjADi+WusqdlufpmSd HcBxDQ8FW70Wu6hdt8yOAI5ulR2QqPWXLQBg1oajZedkmx0AwDgZ/oBpaf2G1E12AAAnscoO2NP7 Uso2O4KT2GQHJFplBwBHt8oOSLTODgAAjmqRHXBIpRSbPwD4KsMfMC3r7IBkr23/AJi3WusiIl5n d+yp9eHMlrT8e/22dt15dgRwHLXrVjG9rVuH4sgXAJi/OW3+eMgOAGC8DH/AhAwTva2uG/9klR0A wFGtsgP29FRKWWdHcBql7+8i4im7I9EqOwA4mlV2QKKWB/sAoBWL7IAD+pgdAMB4Gf6A6Wn9xtTb 4a1wAOZplR2wp3V2ACfX8rXYdXYAcHi16xYxva1bh7TODgAAjm6RHXBAm+wAAMbL8AdMzzo7YARu sgMAOLxa61VEXGR37GmdHcDJtTz8cVG7bpkdARzcTXZAIke+AEAb5jTous0OAGC8DH/AxAxHv7R+ rp/tHwDzdJUdsKeH4XuZhjj6pemHxDA7tevOY3rfv4fU8kAfADRhhveRt9kBAIyX4Q+YpnV2wAjc ZAcAcDi11vOIeJvdsafb7ADStPyw8PVwRAQwD6uIOMuOSLTODgAAjm6RHXBIpZRNdgMA42X4A6ap 5QcOn9j+ATAvq+yAPT2F7+OWtf57f5MdABzMdXZAIke+AEAbltkBB9TyFkoAfoDhD5igUso2It5n d4zAOjsAgINZZQfs6a6U8jE7ghyOfom3w1ERwITVrruKiIvsjkQ2eAFAGxbZAQdkcBWAbzL8AdO1 zg4Ygde11mV2BAAvU2t9FRGX2R17WmcHkG6dHZCs5W0BMBet/z1ufYsTALRikR1wQIY/APgmwx8w UaWU1t84/eQmOwCAF5vaw6dHZ+wShj+ubf+A6apdt4yISB3IHgAAIABJREFU19kdid6Xvt9mRwAA JzGna55tdgAA42b4A6ZtnR0wAq9rrVfZEQC8yNQ+x62JJ0rf30fEY3ZHorOY3uAW8JtVdkAyWz8A oAG11rkNrNv8AcA3Gf6AafPwacevA8BE1VpXsXuIPCUeGPHJOjsg2So7ANhf7bpFRLxNzsj0VPp+ nR0BAJzEq+yAA9tmBwAwboY/YMJKKduI+JDdMQIXtdab7AgAnmVqWz/eD9+/EGH446J23So7Atjb TXZAsnV2AABwMrMa/nA/AoDvMfwB07fODhiJ6xmu8QOYtVrrIiLeZHfsaZ0dwHiUvt9GxPvsjmQ3 2QHAj7P1IyJsjgSAliyyAw7IS6AAfJfhD5i4Uso62j5v/pOzcBMPYGpW2QF7eiqlOPKFL7X+Z8L2 D5iWm+yAZB+GwT0AoA1z2vyxzQ4AYPwMf8A8rLMDRuJtrXWZHQHAD1tlB+xpnR3A+JS+X0fEU3ZH spvadTawwcjZ+hERvssBoDWGPwBoiuEPmAcbL37j1wJgAoZhvYvsjj35juHPrLMDkl1ExHV2BPBd N9kByZ6GgT0AoAHDEeFn2R0HdJ8dAMD4Gf6AGSilfIyId9kdI3FZa73JjgDgu1bZAXt6KKVssyMY LYNBEde2f8B42foREQb1AKA1c9r6EWHzBwA/wPAHzIeHDr+5rrUusiMA+Lrh7ZupPYDyPcufKn2/ jYgP2R3JzsL2Dxizm+yAEfBdDgBtmdXwRynF5g8AvsvwB8zEcPHX+kOHT87CW10AY3aVHbCnp4i4 y45g9DxUtP0DRql23TKmN3R5aO+HQT0AoB1z+tnkITsAgGkw/AHzcpMdMCKva63ePgUYp6l9Pt8N R6zBnyp9fxcRj9kdyc7CEAyM0U12wAj4bAKA9iyzAw7IPQkAfojhD5iRUsomPHT43I3jXwDGpdb6 KiIuszv25IERP2qdHTACb2vXLbIjgJ1h68fr7I5kj6XvN9kRAMDJLbIDDmiTHQDANBj+gPm5yQ4Y Ece/AIzPKjtgT4/O1WUPt7E7Jqh16+wA4D/W2QEjcJMdAACkuMgOOKBtdgAA02D4A2amlLIO2z8+ 5/gXgHFZZQfsydYPfljp+48RcZfdMQKva9ddZUdA62rXXce8Hno8x2Pp+3V2BABwWrXWZXbDgW2z AwCYBsMfME832QEj88twzAAAiWqtV7HbyjQl6+wAJucmO2AkDE5Botp15+HzKML3OAC0apEdcGA2 kgLwQwx/wAzZ/vFV61rreXYEQONW2QF7el9K+ZgdwbSUvt9GxIfsjhG4qF13kx0BDbuJ6Q1cHtpT GEQDgFYtsgMO6Mm9CQB+lOEPmC83uX7vMrz5BpCm1rqIiDfZHXtaZwcwWTfZASNxXbtukR0Brald 9yoifsruGIHb4TguAKA9y+yAA7L1A4AfZvgD5msduzed+M1Pw5EDAJze1D5/H0spd9kRTFPp+03Y /hGx2zqwzo6ABnkRYGedHQAApFlkBxyQ4Q8AfpjhD5ipYRWcm35/tB7ePgfgtK6zA/Zk8IOXWmcH jMTr2nVTG/6Cyapddx0Rr7M7RuDdcAwXANCmi+yAA7LJDIAfZvgDZqyUchMRj9kdI3MWEXe11vPs EIBW1FqXMb0bLwYoeZHS9+twHfbJunaday84suHv2U12x0jcZAcAADlqra+yGw5skx0AwHQY/oD5 u8kOGKHL8FAP4JRW2QF7+lBK2WZHMAs32QEjcRZ+LeAU1rH7+9Y6Wz8AoG2L7IAD22YHADAdhj9g 5kop6/DW6de8rbVO7QgCgMkZNi1N7ciHdXYA82D7x+/8VLtumR0BczUcr/Qmu2MkbrIDAIBUs9r8 4eUUAPZh+APacJMdMFK/DEcRAHA8VzGtt5CfIuIuO4JZuckOGBHHv8ARDH+v1tkdI2HrBwAwp+GP D9kBAEyL4Q9owLD94yG7Y6TuZngOJMCYTG3L0l0p5WN2BPNh+8fvXIRhGDiGdUxr0PKYbrIDAIB0 i+yAA3J/AoC9GP6Adkzt4dupnEXEejiWAIADqrUuIuIyu2NPt9kBzNJNdsCI/DQcTwEcgONefudv tn4AADG9+xDfcp8dAMC0GP6ARpRSNmFN3J+5DCv+AY5haoOHD6UUN1Y4ONs//sDxL3AAjnv5nacw wAkAzZvhhmf3KADYi+EPaMvUHsKd0uta6zo7AmBmVtkBe1pnBzBrN9kBI3IW/r7BIazDcS+f3Ja+ txYdAJjbkPk2OwCAaTH8AQ0Z3mZ+l90xYm8NgAAcRq31Kqb3QGqdHcB82f7xB29q1xlMhmca/v44 7mXH1g8A4JNldsAh2U4KwL4Mf0B7rmN3c4yve1trXWVHAMzAKjtgT+9KKd4Y5thW2QEj80vturmt ZYajG/7e3GR3jMi1rR8AwGCRHXBAXh4AYG+GP6Axw4Otm+yOkfvVAAjA89Vaz2N6byPfZQcwf6Xv NxHxIbtjZNa16+a2mhmOZvj7so7pbdc6lsdhsxIAQMS8hj+22QEATI/hD2hQKeU2TA5/jwEQgOdb ZQfs6bGUYviDU7nJDhiZy3BcA+zjNnZ/b9hZZQcAAKPyOjvggDbZAQBMj+EPaNcqO2ACDIAAPM91 dsCe1tkBtGPY/vEuu2Nk3taum9rnBpxc7bpVRLzN7hiRD8NnKgBA1FoX2Q0Hts0OAGB6DH9Ao0op m4h4n90xAQZAAPZQa30VERfZHXtaZwfQnJvsgBH6pXbdq+wIGKvh78ev2R0js8oOAABGZZEdcGDb 7AAApsfwB7RtFRFP2RETYAAE4MdN7e39D6WUbXYEbSl9v42Iv2V3jNCmdt15dgSMzfD3wvFkv/f3 4bMUAOCTZXbAgd1nBwAwPYY/oGGllI/hzdMfZQAE4DtqrecRcZXdsad1dgDNug1DuF86CwMg8DV3 Mb2tWsf0FH6OBQD+aJEdcEBPw717ANjLX7IDgFyllNta61VEvM5umYBfa61RSllnhwCM1FXsHt5O xZPPdLKUvv9Yu+46HOPwpcvYDcaskjtgFGrXrcPPal+6Ln3vYQgA8KVFdsABpW/9GI71/TSYv4jf //p+/v/2ozaf/euP8dt/x62NrACHY/gDiNit6P9XdsREGAAB+HOr7IA9WaFPqtL369p1q/Bg90tv a9dtS9/fZIdApuHz4W12x8h8KH2/zo4AAEbpVXbAAR11+KPWuhz+5achjk//8zx2A/nH8Kc/99Za I3bb3e7jt8GQbewGQzZH6gGYJcMfQJRS7mutf4uIn7NbJuLXWut5KeU2OwRgLGqti5jeA2yf44yB Idyv+3kYAFlnh0CG2nVXYTPQ11xnBwAA4zMcQzulTaTf8+ItZ8OAx6fBjsXwz6sY76/TWfx2X+nN p39zGAx5jN1AyH3sNojcOxYH4OsMfwAREVFKuRmOfznWZO/c/FJrfVVKWWWHAIzE1B7GPJRS0teo Qun7+9p1f4+In7JbRujX2nX3pe/9XaUpteteRcQ6u2OE/ubzAAD4E3Pa+hHx+yNSvmk4nmURu1+D 5fCvL47QlOli+OdNDC+w1lofYvfrtImIjWEQgB3DH8DnVuHN0328HY6AWWWHAIzAVXbAnmz9YExu YncdNtY3sDJtatctPfClFbXrFrG7ge3z4Pcew3c3APDn5jb8sf3avzlsXf005PEqpreB9ZAuh39+ ivjdMMido2KAlhn+AP7D8S/P8naYrl6aLgZaNWyOmtpbJXfZAfBJ6fuPtetWEfGP7JYROovdAMir 0vfb7Bg4ptp157H7fjL48Uer0vd+3gIA/swiO+CQSinbiP8Meyw/+2dq915O6T/DILXWp9hdV9+V Utz/AZryX9kBwLiUUm4i4iG7Y2IuI+J+GAIBaNHUtn68M7DH2JS+v4uID9kdI3UWEXfDg3GYpeHP 9yYcw/k1fy99v8mOAABGbU73ZR9qrbe11vuI+HdE/BoRb8Pgxz7OYvdr9o9a68da67rWukxuAjgJ wx/A11xFxFN2xMRcRMRmePsdoBm11vPY/UA9JevsAPgTq3AN9mcuY7cBxAAIs2Pw45ueYnc0FgDA t8xp+OPTUSauDQ/j0yDIP2ut21rrzbBRBWCWDH8AfzCslbtJzpiis9hNE99khwCc0Co7YE+Pzn5l rIZjTW6SM8bMAAhztQ439/+M414AgG8aXkpxbB4/4iJ2R97/2zYQYK4MfwBfVUq5jYj32R0T9XOt 9W74wQNg7lbZAXtaZwfAt5S+vw3Hv3yLARBmpXbdOiLeZHeM1PvhSCwAgG+Z09YPTufTNpD7Wusq OwbgUAx/AN+yiojH7IiJehMR97VWP3wAszV8xk3tTeV1dgD8gFU4/uVbDIAwC8Pgx9SOTjuVx5je gCkAkGORHcCkXUbEr8ORMKvsGICXMvwB/KlSyseIuMrumLCLiNi4aARm7Do7YE/vh6PNYNQc//JD DIAwaQY/vstxLwDAj1pkBzALF2EIBJgBwx/AN5VS7iPif7I7JuwsdheNjoEB5mhqA4JWxzMZjn/5 IQZAmJzadee16zZh8ONb/l76fpMdAQBMxjI7gFn5NARyX2tdZscA7MvwB/BdpRQPH17u0zEwy+wQ gEMY3oI4y+7Yw1MpZZ0dAXtaheNfvscACJMx/DndRMTr5JQxeyh9P7XNYgBArkV2ALN0GRH/rLVu aq2L7BiAH2X4A/hRV7E7d5nnu4jdBeNNdgjAAayyA/a0zg6AfQ3Hv3gI+n2XEbGtXfcqOwT+zGeD H5fJKWP2FNO7vgAA8l1kBzBrryPi3+7pA1Nh+AP4IaWUj7EbAPH26cv9PKyN84ACmKThjYepvbW8 zg6A5yh9v46I99kdE3AWuw0grq8YneHP5X0Y/Pie69L399kRAMB02LLMCf1ca936MweMneEP4IeV Uu7D26eHchkR/zIxDEzUKjtgTw/DdxhM1SpsYPsRnwZAVtkh8Mkw+LEJb6R+z/th2A0AYB+L7ACa 8mmz922t1dGjwCgZ/gD2UkpZR8TfsztmxMQwMEWr7IA93WYHwEuUvv+0gY3vO4uIX2vXGVgm3TCI 9K/Y/bnkzz3G9K4tAIBxWGQH0KSfImJjszcwRoY/gL2VUq4j4kN2x4yYGAYmo9Z6FdN6e/kpIu6y I+ClhqMQ/pbdMSG/1K5bZ0fQrtp1txHxa3bHRFwNQ24AAPtaZgfQrE+bvb14AIyK4Q/gua4i4iE7 YmZ+iohtrXWVHQLwDVPbPnBXSvFAiVkofX8TBnD38bZ23X3tOsO1nEztuvPadXexu7bn+/46DLcB ADyHa32y/VJrvfNSJzAWhj+AZxkepK1i90Y1h7NbVV7rxlEwwNgMP8i+ze7Y0zo7AA7sKlx/7eMy Ira165bZIcxf7bpXEbGJiDfJKVPxrvT9OjsCAJi0y+wAiN31v2NggFEw/AE8WynlPqb3BvhUvI7d UTDrWusiOwZgMLXP/MdSyiY7Ag5pOBphmd0xMWcR8c/addbxcjS161axG/zwAOLHPJS+X2VHAADT 5UE7I3MZuwGQqd07A2bG8AfwIsNDtb9md8zY24i4r7XeWB0HjMDUHpzeZgfAMQxHJPxPdscE/VK7 7s4xMBzScMzLbUT8GrtBI77vKaY3UAoAjM8iOwC+cBYR/3CsO5DJ8AfwYqWUdXgAcUxnEfFzRGxr rTfJLUCjhjdqpvY28112ABxL6fvbiHiX3TFBbyLi3jEwHMJnx7z8lJwyNcvS99vsCABg8mz+YKx+ rbV6IQlIYfgDOIhSigcQx3cWET/XWremh4EEq+yAPb0vpWyzI+DIriPiITtigi5idwzMTXYI0zUc I7SJ6Q1GZvvrsL0IAOClDH8wZj/VWtfZEUB7DH8AB1NKWYUBkFO4iN30sCEQ4JRW2QF7WmcHwLGV vv8YEcvYHaHA/n6uXXc/bG+AH1K7blG7bhMRv4RjXvb1rvT9OjsCAJiNRXYAfMdbAyDAqRn+AA5q GAB5n93RiM+HQK5rrc6vB45iGDSb0gOup1KKI19owmcDIDzPZURsbAHhRwzbPu4j4nV2ywR9KP+v vTs8jts61wD8InP/i6lAmwrEzClAdAXmrUDrCkxXYKaC0BVkVUGoCrIq4EyoCkJWcMkKcH8AtCiF krXULs8C+zwzO5Rlh34D0hQWePF9fb9sHQIAmBUT2JgCBRDgWSl/ALuwjBHkz+llhicPr2ut50og wA6ctg6woVXrAPCcxhUKP7XOMWHDaj1TQPgC0z6+24dM71wCANhjtdZF6wywAQUQ4NkofwBbV0q5 fwJVAeR5vUjya5L/q7Wuaq1uXgDfbbyg8mPrHBu6aB0Antu4SuG31jkm7lWSf9euO69dp0xLkmSc CmPax9PdJTkZpxQBAGzLonUA2JACCPAslD+AnVAAae5Nkn/XWtfjugaAp1q2DrChD6WU69YhoIXS 92dJ3rbOMQO/JrmqXWdSwQGrXXdSu+46w/eDaR9Po/gBAOzKSesA8ARvaq3nrUMA86b8AeyMAshe eJ3kH7XW21rrhZGIwBMsWwfYkKkfHLTS98s499qGl0n+WbtubRXMYRlXvFwm+VeG7wOe7mRcSwUA sG2L1gHgiX71sCawS8ofwE4pgOyNF0l+TvKf+2kgtVbjzHkSJaLDUWs9ybRufN0luWwdAvbASZx7 bcvrDKtgVlbBzFvtuqPadRdJ/pPprTvbRz8pfgAAO7RoHQC+wz/Ga24AW6f8AeycAsjeeZ3kH0mu a62rWquR5nyTWuvxuJvyP62z8GyWrQNs6HL8MwcO2rhi4TRDIYrteJPkunbduRLIvIylj/Mk1xnK 0ny/n0rfr1qHAABm7XXrAPCdLmutpkwCW6f8ATwLBZC99CLDjYx/PlgL44STT9Raj8ZJMVdJ/p3h e4YDME4HmtrX28oXGJW+v85w7qUAsj0vkvwaJZBZ+Kz08WuGry/f7xfFDwBgl0ykZSZeJFmZzg1s m/IH8GxKKbellOMkb1tn4b/cr4X5d63VRBBSaz0dp3xcZ5gU86ppIFqY2s+Am1KK8fLwwLhy4SQK INumBDJhSh879bb0vSImALBri9YBYEtexYNMwJb9T+sAwOEppSxrrcn0nig/FC8zfG3e1Frvklwm Wcc6hdkbCz+nGW4Uvmybhj1w1jrAhrxZhkeUvr+qXbdM8s/WWWbovgRyVrtuleRinLjCHqpdt8iw zuwsCh+78Lb0/bJ1CADgIJy0DgBb9KbWelVKcV0L2ArlD6AJBZDJuF8N8ybJP2qtHzKWQUop65bB +H7jmMyTfCx8uBFCkt+/N6Y27WXVOgDsq9L3l7XrfsowyYntu5+g9nPturcZSiAmEe2J2nUnGUof 3nfsjuIHAPCcTN5jbs5rrWsTbYFtUP4AmhkLIOu4ETElr8bXr2N5532GMsiVMsj+e1D2OM5Q+DDd gy+Z2tSPdyYTwdeVvl/Vrkucd+3aMD2t6z5kmEh0Wfrez6dnNq7iOc3w59nUyoxTo/gBADy349YB YMteZHioyfc28N2UP4CmSimrsURwEVMHpuj1+MqDMsg6yVWG6SBudjRUaz3J8Kbh/qOyB99q2TrA hlatA8AUKIA8q1cZjvNF7brLmAbyLB5M+TiN9xbPQfEDAGjBDXLm6FWt9byUct46CDBtXd/3rTMA pNZ6nKE04CLtvNxkKIJcZSyFKIRsX631KB9LHovx155y/T4/HOo0m1rraZJ/ts6xgZtSyqJ1CJiS 2nXLKIC0cJOP00CuG2eZjdp1iwyFj2UUXZ+T4gdfVbvuPMmvrXPsWun7rnUG5m0sNv6rdY5n8EPp +3XrEOy/8RrY/7XOATv0V+tf2uqGh2bi/vmnHJdp6LrO5A9gP5RSrsYpBau4aT0nL8fXjxkv/NVa 7/KxDHI7/lop5BuM/43cFz0W4+t1u0TM1LJ1gA1dtg4AU2MCSDMvk/w9yd/HtTCrKII8Se264wx/ Xp3Ee4cWFD8AgFZM/WDuVvF9DnwH5Q9gbzwogFzGDe05e5EH62LuPSiF3BdCru9fpZTrZ03YQK11 kaHMkQw3MpLhRP++7GEqDjs3fh/+2DrHhi5aB4ApUgBp7lU+LYKsk6yshvmy2nWnGc6RTmPCR0u/ lL73Zy8A0Iqb4syd9S/Ad1H+APbKOP3hpNa6SvKmcRye130pJPns5nOtNUnuyyHJx5JIMtwsubcX RZHPihzJxykd904e/FrRiX1y2jrAht7vw3/zMFUKIHvj1fj6uXbdXYZzm8sk60OeCjJO97gvfDhf 2g8/lb5ftQ4BABy0ResA8AzOaq0r17yAp1D+APZSKWVZa13HzQg+elgOeXgD4JM90mNR5KH3O8z0 eRaYurPWATa0ah0Apm4sgFxnKBuYMtXeiwwl2B+T5EEZZJ3kqvT9ulWwXapddz/p7CTKHvtK8QMA 2Acmf3AIXiQ5z/RWMwN7QPkD2FullFWt9SrDxW43I3gqNw/gG4xrt6Y0Rv8uw81q4DuVvl/XrjuJ c6599HkZJEk+ZJiC9vur9P3tlz7BvhkneiwyXLi/f03pz59Dc5dkWfren7kAwD5Q/uBQvBmnf6xb BwGmRfkD2GullKtxhcZl3MQH2KVl6wAbuhxXhQFbUPr+SgFkMu7XxPy+InGcEHKV5Pqz123p+6vP P8EuPZjikXxcdXeS5ChDbqbjLsnJc38PAQB8hfcqX/YhH9dkf865+DSd59P14QB/SPkD2Hvjzb2T WutFkp9b5wGYm1rrUZLT1jk2dNE6AMzNWAA5zlC6dWFwWu7X4/1XWXqcFpJ8ejH4enx9yf3N/q89 WXn02d8/jovxc/IhyWnp++vWQQAAkt8nlh6a+3XW6/HjVcZz+u+dCDFeC7o/n3+swO38vr3XtdbT UoopfMA3U/4AJqOUclZrXSdZxYknwDadZlo/Vz+UUjyFDDtQ+v76wQQQBZB5efj1NFGPr3mfofhh whYAsE8WrQPsyIcMxeyHk/yudj3tdPz86we/9WjBYCzdLMbXSZRCnttFrD0GNqD8AUxKKeWy1uqJ VIDtWrYOsKFV6wAwZ6Xvb8cCyEUerBYBDsLb0vfL1iEAAB6xaB3gO92vavz9NYUHWx6bMDKuaT/O xzKIcvnuvKy1Lkspq9ZBgGlQ/gAmp5RyneTYGhiA7ze+YZ/am/RV6wAwd+MT/8vadbdxvgWH4qfS 96vWIQAAvuCkdYANvc9Q8lhnKHpcN02zReP/l+s8mEhRaz3N8DU6iYc2t+08roUB30j5A5iscQ3M ZYaTTKPmAJ7mrHWADb3d9ehT4KPS92e1666S/KN1FmBn7jKseVm3DgIA8BWL1gG+4i5DyWOdoeix bhmmhVLK/XX6+weNTjNMmlUE+X4va60nh/h9BWxO+QOYtFLKejyZXCX5sW0agEk6bR1gQ/acwjMr fb8aCyDrKNzC3HzIUPy4bh0EAOAPvGwd4IH7ssdlJrK+5TmNk0Euklw8KIKcZb++hlNznulNvwEa UP4AJm98Avy01rrMcFLppgTANxhHck7pjffN+CQJ8MxK31/VrltkuMDpyS2Yh7dJzsY1TwAAe6vW etI6Q5J3Gad7KHt8u8+KIMcZSiBvmoaapte11mPfe8AfUf4AZqOUsqq1rjNMAXndNg3AJCxbB9jQ qnUAOGTjDeLj2nWruFgHU/dL6fuL1iEAAL7RosG/8ybDZI+1B1G2YywuLGutZxlKIGfxIOcmzjK9 a3nAM/tT6wAA21RKuS6lnCT5JcP4PQAeUWs9yvTWZa1aBwCS0vfLJD+1zgE8yU2Svyp+AAATs3im f8/7DNeV/1JKWZRSzhQ/tq+UcltKOS+lHGV4b3nTOtNEvBmv5wF8kfIHMEullIskxxlO2AH4b8vW ATb0fhwVCuyB0verJH+Ni3QwJe+SHJe+NyoaAJia4x1+7ncZCgh/LqWclFIuXH94PqWUVSllkeRv 8TDnt1i2DgDsN+UPYLYeTAH5KU4cAT531jrAhlatAwCfGm8gH2e4WArst19K35+O65sAAKZmseXP 97DwcToWEJwnNVRKOc/wdf6tbZK9N7XrecAzU/4AZq+Usspw4vi2bRKA/VBrPU7ysnWODdyNP8uB PVP6/rb0/WmG0cjA/vkQa14AgOl7tYXP8T4KH3ttXAdzlmHKpInej3s5XtcDeJTyB3AQxhPHZZIf Yjw5wNSeErBfF/bceGP5rxluNAP74bfS99a8AACT9p03um8yFNX/Mq50UfiYgFLK1TjR+5eY6P2Y qV3XA56R8gdwUEopazsEgUNWaz1Kcto6x4Y8rQwTMN5gPokxvdDaTZIfSt+7KAwAzMFiw3/+LsME 6L+WUhallItSyvXWU7FzpZSLDO8xPWTwqald1wOekfIHcJAe7BC0CgY4NKdJXrQOsYEPpRRPLMNE jGtgzjJMW1O0hef3W5Lj0vfr1kEAALbkWyd/fMiw1mVRSlm6ljAP4xSQ43jI4KEXtVYFEOBRyh/A wfpsFYwdgsChWLYOsCFTP2CCxhvPiyTv2iaBg/H7tI/S90aZAwBz8kflj7dJfiilHFvrMl+llLMM 5R4PGQyUP4BHKX8AB29cBXOS5H8zXDQFmKVa6yLJ69Y5NnTZOgDwNOMUkNMM51gu0MHumPYBAMzZ +pHfu8uw1vvP45SPx/4ZZqaUssqwBsb7S+UP4AuUPwBGpZTLUsoiyS9xAgnM07J1gA299cQOTF/p +8tYtwe78CGmfQAAM1dKucjHQvlNkp9KKUellHPXDA7PuM7nJMO58CF7UWv91pVIwAFR/gD4zPiG YpGhPa4EAszJsnWADa1aBwC2Y5wCssywbs+kNfg+d0n+VvretA8A4CCUUi6THJdSFuP0Bw6YAsjv lq0DAPtH+QPgEaWU21LKeZRAgJmotZ4medk6xwZujG2F+Sl9vy59v8hwfgVs7l2GFS/nrYMAADyn Usp16wzsj3Hqy0kOuwBy0joAsH+UPwC+QgkEDtJAlucOAAAd+klEQVSHJNetQ+zA1HaBrloHAHZn vHH9lyTvG0eBqbhf8XJa+v66dRgAAGjtQQHkUKdLvqq1HrUOAewX5Q+Ab6AEArN3k+S3JH8ppRzP 7WmS8Y3gm9Y5NrRqHQDYrdL316XvT2IVDHzNXZJfrHgBAID/NhZATnO41+tPWgcA9ovyB8AGlEBg Vu6SvE3yw7gz9mxupY8Hlq0DbOjdjL8WwGc+WwXj3Ao++luSRen7i9ZBAABgX5VSrnK4JYiT1gGA /aL8AfAE9yWQUspRkp/iaVWYkrdJ/reUclRKWZZS1q0DPYNl6wAbumwdAHh+4yqYRYaf03DI3ib5 S+n789L3t63DAADAvhsLID+1ztHASesAwH5R/gD4TqWUVSllkeR/Y2897Kt3Gd4A/nksfBxMuaDW epzkVescG7grpaxahwDaKH1/W/p+meQvcV7F4Xmf5K+l75el769bhwEAgCkZrycd2sMEr8Z1zwBJ kv9pHQBgLsabyZfjjdazDLsGX7RNBQfrLsP0iMsk63H/56E6ax1gQ6vWAYD2xhvfJ7XrTpKcJ3nd Mg/s2Psk56Xv162DAADAxJ1lmIbxsnGO53ScZN06BLAflD8AtmwcMbccG7fLDCech3SyCa38Xvg4 pMke3+C0dYANrVoHAPbHeDNcCYS5UvoAAIAtKqXc1lpPk/y7dZZndBLlD2Ck/AGwI+OkgYskF7XW kwxFkDctM8EMfcjw5mY1Fq94oNa6zLQmEH3wdQQeowTCzCh9AADAjpRSrmqtvyX5uXWWZ3LcOgCw P5Q/AJ5BKWWdZF1rvV8Hc5bkVdNQMF3vMhQ+Lksp122j7L2pTf24aB0A2G9KIEzc2yQXpe8VHQEA YLfOM1wXO4SJ3MofwO+6vu9bZwA4SLXW4wzTQA7lJBSe6ibDOpe1dS7frta6SPKf1jk2cJdkMU5N AvgmYwlkGdPV2F/3a+nOS99fN84Cz6Z23XmSX1vn2LXS913rDMzbeK7zr9Y5nsEPJmIB2zauf/ln 6xzP5M+uqW1H1w2nd+6ff8pxmYau60z+AGhlXG1wluRsPBG9f01pRQPswl2GyR7rmO7xPZatA2zo 0ptUYFPjTYL1eJPxPM6l2B83SVYZJn348w0AAJ5ZKeWy1vo+hzEx8jjDtVTgwCl/AOyBcZrBZfJ7 I1kRhENzv8plPRaj+H7L1gE2tGodAJiucaLCsnbdUYaff2cxWY023mcofJhWBgAA7Z3nMCYoKX8A SZQ/APaOIggH4n0+lj3WbaPMT631JNO66Xnj+wDYhnHCwkWSi9p1pxlKIIfwlBdt3eXjlI/rtlEA AIB7pZT1gUz/OGodANgPyh8Ae+yzIshxhidZT5K8apcKNvZwjYvJHs9j2TrAhi5aBwDmZ5y8cFm7 bpGhBHKaaRXj2H/vk6xK369aBwEAAL7oPPOf/nHSOgCwH5Q/ACZivGF+liS11kWGGxgn48tUEPbJ hyRX40vZ45nVWo+SvGmdY0NG4wM7M05iOEtyNk4DWSb5sWUmJu0mw5SPlSkfAACw/w5k+ofJH0AS 5Q+ASSqlXGccaZ78vuLhJEMhxFQQntNdxpLH+Loqpdy2DEROWwfY0LvxZxrAzj2YBnKUoQSyjHMn /thdhqLiRel7pVYAAJieVeZd/vC+FkiSdH3ft84AwBaNT/2fPHg58WNbHhY9rjIUPa5bBuK/1Vqv Mq3/7v93XHEF0MS4FmY5vqyF4d594eNyLA0BG6hdd57k19Y5dq30fdc6A/NWu+4k819VkCQ/lL5f tw4BzFut9TbznqD9Zw/lfb+uG07v3D//lOMyDV3XmfwBMDfjCd7l+LovgxznYxnkOPM+yWU7FD0m qNZ6nGkVP+4UP4DWxtUd50nOxyLI/WqYKf08ZTtuMpz7KHwAAMD8rJL83DrEDh1neD8DHDDlD4CZ G8sg6zw48RtvED98zXnkHX/sfYaCx3U+Fj20xKdp2TrAhlatAwA8NBZBLpJcPCiCnMa50px9yHCe vLLSBQAAZm2VeZc/AJQ/AA5RKeUqw03+3z1SCDEhZF7uJ3lcj691kmvTPGZn2TrAhi5aBwD4ks+K IEcZSiAn48t6mOm6X+eyTrIev84AAMDMlVKuaq03me/7OZM/gHR28wDwJbXWRZJFhpsc97/25Ot+ e5/kNuMEjyS3pZR100Q8i1rrMsk/WufYwIdSynHrEABPUbvu4Uq9H5uG4Vu8y8eyh+keAABwoGqt F5nv9I+/lVLOW4eYuq7rkiTun3/KcZmGrutM/gDgy8apENf5rDFcaz3Kx+kgRxlufCSKIc/h/fhx /fCjggcZnkifElM/gMkaCwRXGX+W1a47yXBedDK+TE9r5y7D+dFVhrLHumkaAABgn6wy3/IHgMkf AGzXg2JI8rEUcv9xkfmO1fteNxmKNsnHYsf1/e8pd/A145Se/7TOsYG7JItSym3rIAC7ME4GuS+D HCd51TTQvL3Px4ln1rgAAABfVWu9zTwL++9KKVN7OGzvmHDxOMdlGkz+AGDrxpu56/Ev11/652qt J+MvH5ZFko9FkWS6ZZG7DDcg7l1lWMWSfFzJkkSpg62Z2hu7S8UPYM4eTAZZ3f/eg+kg9y+FkM3c n1/9/rLCBQAAeIJ15rm+86h1AKA95Q8Amvis9HD5Lf+bz6aKPLQYX7t2nY/TOR66ciObxs5aB9iQ lS/AwRnXj6wf/t44IWSRj4WQRZRCHpY87kvF1yZ6AAAAW7LOPMsfAMofAEzHZ1NFgPw+RWdKE3Ju Sime1AbIJxNCPinC1q67L7wuHnlN6Wf+l7wfPz4seNwXZAAAAHZp3ToAwK4ofwAATNuydYANmfoB 8AdK33+18PqgHJJ8ukJvkU+noR1l95NEbvLpZLSHK+4e/tr0DgAAoLlSylWttXUMgJ1Q/gAAmKhx FdJp6xwbWrUOADB1j5RDvmmF3r3PyiPfSnkDAACYi/dJXrcOsWVz+/8DPIHyBwDAdJ0medE6xAbe jeubAGjojyaLAAAAzNx1lCWAGfpT6wAAADzZWesAG1q1DgAAAADAwbtuHQBgF5Q/AAAmqNa6SPKq dY4N3JRSNlpLAAAAAAA7sG4dAGAXlD8AAKZpalM/FD8AAAAA2AfWEgOzpPwBADBNy9YBNnTROgAA AAAAlFKuWmcA2AXlDwCAiam1niZ50TrHBt6XUq5bhwAAAAAAgLlS/gAAmJ5l6wAbWrUOAAAAAAAP vG8dAGDblD8AACak1rpI8mPrHBu4S3LZOgQAAAAAAMyZ8gcAwLSctg6woctSym3rEAAAAAAwYzet AwDtKX8AAEzLWesAG7poHQAAAAAAPjO3h5WuWwcA2lP+AACYiFrrcZKXrXNs4EMp5ap1CAAAAAD4 jGtWwOwofwAATMfUpn6sWgcAAAAAAIBDoPwBADABtdajJKetc2xo1ToAAAAAAAAcAuUPAIBpOE3y onWIDbwtpcxtdyoAAAAA7KPr1gGA9pQ/AACmYdk6wIYuWwcAAAAAgANx3ToA0J7yBwDAnqu1LpK8 bp1jAzelFOUPAAAAAAB4JsofAAD776x1gA2tWgcAAAAAgANi/TKg/AEAMAGnrQNsaNU6AAAAAAB8 xXHrAFt21ToA0N7/tA4AAMDXlVIWrTMAAAAAwIwctQ4AsG0mfwAAAAAAAABM13XrAEB7yh8AAAAA AAAAE1VKuW6dAWhP+QMAAAAAAAA4JMetA2zRXesAwH5Q/gAAAAAAAAAOyYvWAbboqnUAYD8ofwAA AAAAAAAHodZ61DrDlt22DgDsB+UPAAAAAAAA4FDMaeVLYvIHMFL+AAAAAAAAAA7F3CZ/XLcOAOwH 5Q8AAAAAAADgUMxt8sd16wDAflD+AAAAAAAAAA7F3CZ/WPsCJFH+AAAAAAAAAA7HnCZ/3JVSbluH APaD8gcAAAAAAABwKOZU/jD1A/id8gcAAAAAAAAwe7XWoyQvWufYIuUP4HfKHwAAAAAAAMAhmNPU j0T5A3hA+QMAAAAAAAA4BCetA2zZdesAwP5Q/gAAAAAAAAAOwawmf5RS1q0zAPtD+QMAAAAAAAA4 BHMqf3xoHQDYL8ofAAAAAAAAwKzVWhdJXrbOsUXr1gGA/aL8AQAAAAAAAMzdnKZ+JMlV6wDAflH+ AAAAAAAAAObupHWALVu3DgDsF+UPAAAAAAAAYO5OWwfYoptSynXrEMB+Uf4AAAAAAAAAZqvWukjy snWOLVq3DgDsH+UPAAAAAAAAYM5OWgfYsnXrAMD+Uf4AAAAAAAAA5mxOK18S5Q/gEV3f960zAAAA AAAAAGxdrfUoyf+1zrFFN6WUResQc9R1XZLE/fNPOS7T0HWdyR8AAAAAAADAbM1t6sdl6wDAflL+ AAAAAAAAAOZqbuWPdesAwH6y9gUAAAAAAACYnRmufEkppWudYa6sN3mc4zIN1r4AAAAAAAAAczW3 qR/vWgcA9pfyBwAAAAAAADBHZ60DbNll6wDA/lL+AAAAAAAAAGal1rpI8qp1ji1T/gC+SPkDAAAA AAAAmJvz1gG27F0p5bZ1CGB/KX8AAAAAAAAAs1FrPUpy2jrHlpn6AXyV8gcAAAAAAAAwJ8skL1qH 2DLlD+Cr/qd1AAAAAAAAAPgetdZFhkkPJ0kuSinrlnlo7qx1gC2z8gX4Q8ofAAAAAAAATM6Dwscy yasHf+vHWuvbUsqyQSwaq7Uuk7xsnWPLTP0A/lDX933rDAAAAAAAAPCHaq3HGaZ7LPNp4eMxfzYt 4fDUWq8zr/LHXSnlqHWIQ9B1XZLE/fNPOS7T0HWdyR8AAAAAAADsr7Hwscww5WOTm/onMTHhoMx0 6seqdQBgGpQ/AAAAAAAA2CvfUfh46CTKH4fmvHWAHVi1DgBMg/IHAAAAAAAAzW2p8PHQaZKzLXwe JmCmUz8+lFKuWocApkH5AwAAAAAAgCZqracZShqnSV5s+dO/rLUeu3k+f7XWo8xz6sdF6wDAdCh/ AAAAAAAA8Gx2XPj43EkS5Y/5O8v8pn7clVJWrUMA06H8AQAAAAAAwE49c+HjoWVMT5i1Wusiya+t c+yA71tgI8ofAAAAAAAAbNW4huO+7HGS5y18PPSq1roopVw3+veze6vWAXZk1ToAMC3KHwAAAAAA AHy3zwofPzaO89AyyXnjDOzAOFHmdescO/BWYQnYlPIHAAAAAAAAT7LHhY+HllH+mJ3xe2/VOseO nLcOAEyP8gcAAAAAAADfrNa6yMfCxxSmLrystZ6UUtatg7BVq7RbJ7RL70z9AJ5C+QMAAAAAAICv elD4WCZ51TTM0yyTrBtnYEvGdS/7Omnme120DgBMU9f3fesMAAAAAAAA7JkZFD4+9+dSym3rEHyf 8fvyKvOc+vG+lHLSOsSh6rouSeL++accl2nous7kDwAAAAAAAAa11uN8XOkyh8LHQ2dJzluH4Ltd Zp7Fj8T3J/AdlD8AAAAAAAAO2Fj4WGYofLxsm2anlD8mrtZ6kfmVku69L6WsW4cAputPrQMAAAAA AADQRq11neTfSX7OvIsfSfKi1rpsHYKnGb92P7fOsUNnrQMA06b8AQAAAAAAcLhuWwd4ZuetA7C5 cTrNP1rn2KG3pZSr1iGAaVP+AAAAAAAAOFyHdsP5pekf01JrXSRZN46xa+etAwDTp/wBAAAAAABw uNatAzRwUWs9ah2CPzZ+nS6TvGidZYf+Vkq5bh0CmD7lDwAAAAAAgANVSlm3ztDAiyRnrUPwdWPx Y53kVeMou3SX5KJ1CGAelD8AAAAAAAAO2/vWARo4G9eJsL8uM+/iR5KclVJuW4cA5kH5AwAAAAAA 4LCtWwdo4EWSVesQPK7WukryunWOHXtfSlm1DgHMh/IHAAAAAADAYbtsHaCR17XW09Yh+NRY/HjT OsczsHoI2Kqu7/vWGQAAAAAAAGio1nqbYRrGoblLclxKuW4d5NDVWo8yTKGZ+6qXJPmtlKL8sWe6 rkuSuH/+KcdlGrquM/kDAAAAAACAg53+Yf3LHjiw4sdNkvPWIYD5Uf4AAAAAAADgUMsfybD+5bx1 iENVaz3O4RQ/kuSslHLbOgQwP8ofAAAAAAAArFsHaOzXWuuydYhDU2s9yWEVP96VUg65aAXskPIH AAAAAADAgRsnEbxrnaOxi3EKBc9gLNv8K8PqnUNwl2TZOgQwX8ofAAAAAAAAJIe9+iUZSghrBZDd qrUe1VpXSf7ROsszW1r3AuyS8gcAAAAAAADJUP64ax2iMQWQHRqP6zrJm8ZRnttv1r0Au6b8AQAA AAAAwP3qFzeoFUB2otZ6luTfSV61zvLMbpKctw4BzJ/yBwAAAAAAAPdWrQPsCQWQLam1Lmqt6yR/ b52lkVPrXoDnoPwBAAAAAABAkqSUss4wqYCPBZDT1kGmqtZ6nuQqyevGUVr5pZRy1ToEcBiUPwAA AAAAAHjoonWAPfIiyT/HEgPfqNZ6Umu9SvJrhmN4iN6VUvy3BDybru/71hkAAAAAAADYE7XWoyTX Odyb9l/yPsmylHLdOsi+qrUuMpSHfmwcpbWbJMfWvUxL13VJEvfPP+W4TEPXdSZ/AAAAAAAA8NF4 w/qydY499DrJVa31rHWQfVNrXdRaV0n+E8WPuySnih/AczP5AwAAAAAAgE+MExz+0zrHHnuf5KyU ctU6SEvj98l5ktOYFHPvp1LKqnUINmfCxeMcl2nouk75AwAAAAAAgP9Wa72MKQ5/5G2S80NbBfOg 9PGmbZK981spxWSYiVJyeJzjMg3KHwAAAAAAADyq1nqS5F+tc0zEQZRAaq3LJMsMK3D41LtSymnr EDydksPjHJdpUP4AAAAAAADgi2qt67jRv4l3SVallMvWQbal1nqcofCxjNUuX/IhyUkp5bZ1EJ5O yeFxjss0KH8AAAAAAADwRaZ/PNlNkssMRZCr1mE29aDwcZrkZds0e+8uyULxY/qUHB7nuEyD8gcA AAAAAABfZfrHd7svgqyTrPexJFBrPcpQ9DgZXwof3+Yuw8SPyRV8+G9KDo9zXKZB+QMAAAAAAICv qrUukvyndY4Z+ZChCHKV5KpFcWCc6LLIUPQ4TvLquTPMxF8VP+ZDyeFxjss0KH8AAAAAAADwh2qt qyRvWueYsQ9JrjMUQm7Hj0lyXUq5fsonHAseyVDuOBo/LqLosS0/lVJWrUOwPUoOj3NcpkH5AwAA AAAAgD80rgW5TvKicZRDd5Ph6/CY4/j6PBfFjxlScnic4zINyh8AAAAAAAB8k1rrWZK/t84BjSl+ zJSSw+Mcl2lQ/gAAAAAAAOCb1VqvYm0Ih0vxY8aUHB7nuExD13X5U+sQAAAAAAAATMaydQBoRPED 2GvKHwAAAAAAAHyTUspVkr+1zgHPTPED2HvWvgAAAAAAALAR6184IIofB8J6k8c5LtNg7QsAAAAA AABPsWwdAJ6B4gcwGcofAAAAAAAAbMT6Fw6A4gcwKda+AAAAAAAA8CS11nWS161zwBbdJTkZC04c EOtNHue4TIO1LwAAAAAAAHyP0ww3y2EOFD+AyVL+AAAAAAAA4ElKKbdJTlrngC34kGSh+AFMlfIH AAAAAAAATzbeLP+pdQ74Du8yTPy4bR0E4Kk6u3kAAAAAAAD4XrXWVZI3rXPAhn4rpZy1DkF7Xdcl Sdw//5TjMg1d15n8AQAAAAAAwPcrpSwzTFCAKbhL8pPiBzAXyh8AAAAAAABsyzLJh9Yh4A/cZFjz smodBGBblD8AAAAAAADYilLKbZKTKICwv94lOS6lXLUOArBNnd08AAAAAAAAbFOt9SjJOsmrxlHg oV9KKRetQ7Cfuq5Lkrh//inHZRq6rlP+AAAAAAAAYPtqrccZCiAvGkeBmySnpn3wNUoOj3NcpqHr OmtfAAAAAAAA2L7xRvtJhhvv0MrbWPMCHACTPwAAAAAAANgZK2Bo5C7JspRy2ToI02DCxeMcl2kw +QMAAAAAAICdKqXcZpgA8qFxFA7HuyQLxQ/gkJj8AQAAAAAAwM6NE0Auk7xunYXZMu2DJzPh4nGO yzR0Xaf8AQAAAAAAwPOpta6SvGmdg9l5l6H4cds6CNOk5PA4x2UalD8AAAAAAAB4drXWsyR/b52D WbjJUPpYtw7CtCk5PM5xmYau6/Kn1iEAAAAAAAA4LKWUiyQ/ZFjTAU/1tyTHih8AMfkDAAAAAACA NmqtiySXSV41jsK0vEtyVkq5bh2E+TDh4nGOyzRY+wIAAAAAAEBztdaLJD+3zsHe+5Ch9LFuHYT5 UXJ4nOMyDcofAAAAAAAA7IVa60mGKSAvGkdh/9wkOS+lrFoHYb6UHB7nuExD13X5U+sQAAAAAAAA ME5zWGRY6QFJcpfkb0mOFT8Avs7kDwAAAAAAAPZKrfU0ySqmgByquyQXSS5KKbetw3AYTLh4nOMy Dda+AAAAAAAAsJdqrUdJzpP83DgKz0fpg2aUHB7nuEyD8gcAAAAAAAB7rdZ6nKEQ8Lp1FnbmJsOk F6UPmlFyeJzjMg3KHwAAAAAAAExCrXWZYRLIy7ZJ2KKbJOellFXrIKDk8DjHZRqUPwAAAAAAAJiU Wut5krMkLxpH4eneZZjysW4dBO4pOTzOcZkG5Q8AAAAAAAAmp9Z6lKEAogQyHXf5uNrlum0U+G9K Do9zXKZB+QMAAAAAAIDJelACWcY6mH31Lsml1S7sOyWHxzku06D8AQAAAAAAwCzUWpcZiiCvGkch uUlykaH0cd04C3wTJYfHOS7ToPwBAAAAAADArNRaTzJMAnnTNsnBuUlymWRVSrlqHQY2peTwOMdl GpQ/AAAAAAAAmKVxJcxyfJkGshsKH8yGksPjHJdpUP4AAAAAAABg9mqtxxlKIKdJXrZNM3nvMxQ+ 1gofzImSw+Mcl2lQ/gAAAAAAAOCgKIJs7CbJOh8LH7dt48BuKDk8znGZBuUPAAAAAAAADlatdZGh BHIyvl40jLMvPiS5ylD4WJdSrpumgWei5PA4x2UalD8AAAAAAABgVGs9yVACOc5hlEHu8qDokeTK ZA8OlZLD4xyXaVD+AAAAAAAAgC8YV8R8/ppqIeR9kuvxtU5ybaoHfKTk8DjHZRqUPwAAAAAAAGAD tdajfCyCHGWYEHKU5FXDWMnHKR63n31U8oBvoOTwOMdlGpQ/AAAAAAAAYIvG1THJUAg5fvC3FuPr Kdaf/fV9uSOxqgW2QsnhcY7LNCh/AAAAAAAAAHDwlBwe57hMQ9d1+VPrEAAAAAAAAAAAPJ3yBwAA AAAAAADAhCl/AAAAAAAAAABMmPIHAAAAAAAAAMCEKX8AAAAAAAAAAEyY8gcAAAAAAAAAwIQpfwAA AAAAAAAATJjyBwAAAAAAAADAhCl/AAAAAAAAAABMmPIHAAAAAAAAAMCEKX8AAAAAAAAAAEyY8gcA AAAAAAAAwIQpfwAAAAAAAAAATJjyBwAAAAAAAADAhCl/AAAAAAAAAABMmPIHAAAAAAAAAMCEKX8A AAAAAAAAAEyY8gcAAAAAAAAAwIQpfwAAAAAAAAAATJjyBwAAAAAAAADAhCl/AAAAAAAAAABMmPIH AAAAAAAAAMCEKX8AAAAAAAAAAEyY8gcAAAAAAAAAwIQpfwAAAAAAAAAATJjyBwAAAAAAAADAhCl/ AAAAAAAAAABMmPIHAAAAAAAAAMCEKX8AAAAAAAAAAEyY8gcAAAAAAAAAwIQpfwAAAAAAAAAATJjy BwAAAAAAAADAhCl/AAAAAAAAAABMmPIHAAAAAAAAAMCEKX8AAAAAAAAAAEyY8gcAAAAAAAAAwIQp fwAAAAAAAAAATJjyBwAAAAAAAADAhCl/AAAAAAAAAABMmPIHAAAAAAAAAMCEKX8AAAAAAAAAAEyY 8gcAAAAAAAAAwIQpfwAAAAAAAAAATJjyBwAAAAAAAADAhCl/AAAAAAAAAABMmPIHAAAAAAAAAMCE KX8AAAAAAAAAAEyY8gcAAAAAAAAAwIQpfwAAAAAAAAAATJjyBwAAAAAAAADAhCl/AAAAAAAAAABM mPIHAAAAAAAAAMCEKX8AAAAAAAAAAEyY8gcAAAAAAAAAwIQpfwAAAAAAAAAATJjyBwAAAAAAAADA hCl/AAAAAAAAAABMmPIHAAAAAAAAAMCEKX8AAAAAAAAAAEyY8gcAAAAAAAAAwIQpfwAAAAAAAAAA TJjyBwAAAAAAAADAhCl/AAAAAAAAAABMmPIHAAAAAAAAAMCEKX8AAAAAAAAAAEyY8gcAAAAAAAAA wIQpfwAAAAAAAAAATNj/A81bKZk59hBVAAAAAElFTkSuQmCC "
         id="image4313"
         x="646.08057"
         y="982.29657" />
    </g>
  </g>
</svg>
