%!PS-Adobe-3.0 EPSF-3.0
%%Creator: cairo 1.10.2 (http://cairographics.org)
%%CreationDate: Mon May 21 10:36:20 2012
%%Pages: 1
%%BoundingBox: 0 -1 298 91
%%DocumentData: Clean7Bit
%%LanguageLevel: 2
%%EndComments
%%BeginProlog
/cairo_eps_state save def
/dict_count countdictstack def
/op_count count 1 sub def
userdict begin
/q { gsave } bind def
/Q { grestore } bind def
/cm { 6 array astore concat } bind def
/w { setlinewidth } bind def
/J { setlinecap } bind def
/j { setlinejoin } bind def
/M { setmiterlimit } bind def
/d { setdash } bind def
/m { moveto } bind def
/l { lineto } bind def
/c { curveto } bind def
/h { closepath } bind def
/re { exch dup neg 3 1 roll 5 3 roll moveto 0 rlineto
      0 exch rlineto 0 rlineto closepath } bind def
/S { stroke } bind def
/f { fill } bind def
/f* { eofill } bind def
/n { newpath } bind def
/W { clip } bind def
/W* { eoclip } bind def
/BT { } bind def
/ET { } bind def
/pdfmark where { pop globaldict /?pdfmark /exec load put }
    { globaldict begin /?pdfmark /pop load def /pdfmark
    /cleartomark load def end } ifelse
/BDC { mark 3 1 roll /BDC pdfmark } bind def
/EMC { mark /EMC pdfmark } bind def
/cairo_store_point { /cairo_point_y exch def /cairo_point_x exch def } def
/Tj { show currentpoint cairo_store_point } bind def
/TJ {
  {
    dup
    type /stringtype eq
    { show } { -0.001 mul 0 cairo_font_matrix dtransform rmoveto } ifelse
  } forall
  currentpoint cairo_store_point
} bind def
/cairo_selectfont { cairo_font_matrix aload pop pop pop 0 0 6 array astore
    cairo_font exch selectfont cairo_point_x cairo_point_y moveto } bind def
/Tf { pop /cairo_font exch def /cairo_font_matrix where
      { pop cairo_selectfont } if } bind def
/Td { matrix translate cairo_font_matrix matrix concatmatrix dup
      /cairo_font_matrix exch def dup 4 get exch 5 get cairo_store_point
      /cairo_font where { pop cairo_selectfont } if } bind def
/Tm { 2 copy 8 2 roll 6 array astore /cairo_font_matrix exch def
      cairo_store_point /cairo_font where { pop cairo_selectfont } if } bind def
/g { setgray } bind def
/rg { setrgbcolor } bind def
/d1 { setcachedevice } bind def
%%EndProlog
%%Page: 1 1
%%BeginPageSetup
%%PageBoundingBox: 0 -1 298 91
%%EndPageSetup
q 0 -1 298 92 rectclip q
0 90.815 298 -91 re W n
0.8 g
69.766 8.768 m 64.855 6.886 55.031 4.136 43.57 4.136 c 30.727 4.136 
20.152 7.389 11.84 15.28 c 4.531 22.296 0 33.569 0 46.721 c 0 71.905 
17.504 90.311 45.969 90.311 c 55.785 90.311 63.594 88.182 67.246 86.432 
c 64.48 77.538 l 59.949 79.663 54.273 81.167 45.711 81.167 c 25.063 
81.167 11.59 68.393 11.59 47.225 c 11.59 25.807 24.434 13.151 44.328 
13.151 c 51.504 13.151 56.414 14.151 58.934 15.409 c 58.934 40.585 l 
41.809 40.585 l 41.809 49.35 l 69.766 49.35 l h
69.766 8.768 m f*
111.703 90.815 m 120.395 90.815 l 85.129 -0.001 l 76.695 -0.001 l h
111.703 90.815 m f*
0.811765 0.121569 0.282353 rg
156.906 12.526 m 174.289 12.526 184.117 28.432 184.117 47.6 c 184.117 
64.382 175.297 81.921 157.035 81.921 c 138.773 81.921 129.707 65.007 
129.707 46.718 c 129.707 28.936 139.531 12.526 156.785 12.526 c h
156.406 3.632 m 133.867 3.632 118.246 20.921 118.246 46.471 c 118.246 
73.28 134.871 90.815 157.543 90.815 c 180.84 90.815 195.824 73.151 
195.824 48.104 c 195.824 19.167 178.063 3.632 156.535 3.632 c h
156.406 3.632 m f*
209.676 49.229 m 209.676 55.616 209.547 60.624 209.168 65.639 c 218.996 
65.639 l 219.621 55.745 l 219.879 55.745 l 222.898 61.374 229.949 
67.014 240.023 67.014 c 248.465 67.014 261.559 62.007 261.559 41.206 c 
261.559 5.007 l 250.477 5.007 l 250.477 39.96 l 250.477 49.725 246.824 
57.999 236.371 57.999 c 229.191 57.999 223.523 52.862 221.512 46.718 c 
221.008 45.343 220.758 43.343 220.758 41.581 c 220.758 5.007 l 209.676 
5.007 l h
209.676 49.229 m f*
0.8 g
295.273 73.479 m 294.652 82.737 l 294.578 83.928 294.652 85.389 294.609 
86.893 c 294.5 86.893 l 294.113 85.471 293.645 83.846 293.176 82.503 c 
289.969 73.671 l 288.18 73.671 l 285.043 82.737 l 284.656 83.968 284.27 
85.471 283.922 86.893 c 283.805 86.893 l 283.762 85.432 283.805 84.12 
283.723 82.737 c 283.141 73.479 l 280.898 73.479 l 282.098 88.823 l 
285.164 88.823 l 288.18 80.495 l 288.566 79.343 288.883 78.073 289.266 
76.639 c 289.348 76.639 l 289.695 78.073 290.039 79.417 290.434 80.534 
c 293.453 88.823 l 296.48 88.823 l 297.637 73.479 l h
280.359 88.823 m 280.359 86.854 l 275.629 86.854 l 275.629 73.479 l 
273.301 73.479 l 273.301 86.854 l 268.617 86.854 l 268.617 88.823 l h
280.359 88.823 m f*
Q Q
showpage
%%Trailer
count op_count sub {pop} repeat
countdictstack dict_count sub {end} repeat
cairo_eps_state restore
%%EOF
