<?xml version="1.0" encoding="UTF-8" standalone="no"?>
<!-- Created with Inkscape (http://www.inkscape.org/) -->

<svg
   xmlns:dc="http://purl.org/dc/elements/1.1/"
   xmlns:cc="http://creativecommons.org/ns#"
   xmlns:rdf="http://www.w3.org/1999/02/22-rdf-syntax-ns#"
   xmlns:svg="http://www.w3.org/2000/svg"
   xmlns="http://www.w3.org/2000/svg"
   xmlns:xlink="http://www.w3.org/1999/xlink"
   xmlns:sodipodi="http://sodipodi.sourceforge.net/DTD/sodipodi-0.dtd"
   xmlns:inkscape="http://www.inkscape.org/namespaces/inkscape"
   width="80"
   height="80"
   id="svg2"
   version="1.1"
   inkscape:version="0.48.0 r9654"
   sodipodi:docname="dicon_browser_80x80.svg"
   inkscape:export-filename="C:\Users\emo.GIRITECH\Documents\Shared Graphics\Secure Browser\Launch icon\Version 1\dicon_browser_80x80.png"
   inkscape:export-xdpi="90"
   inkscape:export-ydpi="90">
  <defs
     id="defs4">
    <linearGradient
       id="linearGradient5200">
      <stop
         style="stop-color:#ffffff;stop-opacity:1;"
         offset="0"
         id="stop5202" />
      <stop
         id="stop5210"
         offset="0.34465671"
         style="stop-color:#eaece0;stop-opacity:1;" />
      <stop
         id="stop5208"
         offset="0.5"
         style="stop-color:#d5d9c1;stop-opacity:1;" />
      <stop
         style="stop-color:#c0c6a2;stop-opacity:1;"
         offset="0.68728393"
         id="stop5214" />
      <stop
         style="stop-color:#abb484;stop-opacity:1;"
         offset="1"
         id="stop5204" />
    </linearGradient>
    <filter
       color-interpolation-filters="sRGB"
       height="2"
       inkscape:label="icon_launch shadow"
       id="filter3126-1">
      <feGaussianBlur
         in="SourceAlpha"
         id="feGaussianBlur3136-2"
         stdDeviation="1 1.3999999999999999" />
      <feColorMatrix
         values="1 0 0 0 0 0 1 0 0 0 0 0 1 0 0 0 0 0 0.75 0 "
         id="feColorMatrix3138-7" />
      <feOffset
         result="result3"
         id="feOffset3140-7"
         dy="1.1000000000000001"
         dx="0" />
      <feMerge
         result="result4"
         id="feMerge3142-9">
        <feMergeNode
           in="result3"
           id="feMergeNode3144-3"
           inkscape:collect="always" />
        <feMergeNode
           in="SourceGraphic"
           id="feMergeNode3260"
           inkscape:collect="always" />
      </feMerge>
    </filter>
    <linearGradient
       id="linearGradient4018">
      <stop
         id="stop4020"
         offset="0"
         style="stop-color:#7dc6de;stop-opacity:1;" />
      <stop
         id="stop4022"
         offset="1"
         style="stop-color:#42859b;stop-opacity:1;" />
    </linearGradient>
    <linearGradient
       inkscape:collect="always"
       xlink:href="#linearGradient4018"
       id="linearGradient5347"
       x1="30.393064"
       y1="4.3183584"
       x2="44.791115"
       y2="76.089699"
       gradientUnits="userSpaceOnUse" />
    <linearGradient
       inkscape:collect="always"
       xlink:href="#linearGradient4018"
       id="linearGradient5367"
       x1="30.001776"
       y1="4.4744511"
       x2="44.616291"
       y2="75.892235"
       gradientUnits="userSpaceOnUse" />
    <linearGradient
       inkscape:collect="always"
       xlink:href="#linearGradient4018"
       id="linearGradient5403"
       gradientUnits="userSpaceOnUse"
       x1="30.001776"
       y1="4.4744511"
       x2="44.616291"
       y2="75.892235" />
    <linearGradient
       inkscape:collect="always"
       xlink:href="#linearGradient4018"
       id="linearGradient5413"
       gradientUnits="userSpaceOnUse"
       x1="30.393064"
       y1="4.3183584"
       x2="44.791115"
       y2="76.089699" />
    <linearGradient
       inkscape:collect="always"
       xlink:href="#linearGradient4018"
       id="linearGradient5439"
       gradientUnits="userSpaceOnUse"
       x1="30.001776"
       y1="4.4744511"
       x2="44.616291"
       y2="75.892235" />
    <linearGradient
       inkscape:collect="always"
       xlink:href="#linearGradient4018"
       id="linearGradient5449"
       gradientUnits="userSpaceOnUse"
       x1="30.393064"
       y1="4.3183584"
       x2="44.791115"
       y2="76.089699" />
    <linearGradient
       inkscape:collect="always"
       xlink:href="#linearGradient5200"
       id="linearGradient5465"
       gradientUnits="userSpaceOnUse"
       x1="39.476425"
       y1="32.997852"
       x2="44.064308"
       y2="56.500008" />
    <linearGradient
       inkscape:collect="always"
       xlink:href="#linearGradient4018"
       id="linearGradient5467"
       gradientUnits="userSpaceOnUse"
       x1="30.001776"
       y1="4.4744511"
       x2="44.616291"
       y2="75.892235" />
    <linearGradient
       inkscape:collect="always"
       xlink:href="#linearGradient4018"
       id="linearGradient5469"
       gradientUnits="userSpaceOnUse"
       x1="30.001776"
       y1="4.4744511"
       x2="44.616291"
       y2="75.892235" />
    <linearGradient
       inkscape:collect="always"
       xlink:href="#linearGradient4018"
       id="linearGradient5471"
       gradientUnits="userSpaceOnUse"
       x1="30.001776"
       y1="4.4744511"
       x2="44.616291"
       y2="75.892235" />
    <linearGradient
       inkscape:collect="always"
       xlink:href="#linearGradient4018"
       id="linearGradient5473"
       gradientUnits="userSpaceOnUse"
       x1="30.001776"
       y1="4.4744511"
       x2="44.616291"
       y2="75.892235" />
    <linearGradient
       inkscape:collect="always"
       xlink:href="#linearGradient4018"
       id="linearGradient5475"
       gradientUnits="userSpaceOnUse"
       x1="30.001776"
       y1="4.4744511"
       x2="44.616291"
       y2="75.892235" />
    <linearGradient
       inkscape:collect="always"
       xlink:href="#linearGradient4018"
       id="linearGradient5477"
       gradientUnits="userSpaceOnUse"
       x1="30.393064"
       y1="4.3183584"
       x2="44.791115"
       y2="76.089699" />
    <linearGradient
       inkscape:collect="always"
       xlink:href="#linearGradient4018"
       id="linearGradient5479"
       gradientUnits="userSpaceOnUse"
       x1="30.393064"
       y1="4.3183584"
       x2="44.791115"
       y2="76.089699" />
    <linearGradient
       inkscape:collect="always"
       xlink:href="#linearGradient4018"
       id="linearGradient5481"
       gradientUnits="userSpaceOnUse"
       x1="30.393064"
       y1="4.3183584"
       x2="44.791115"
       y2="76.089699" />
    <linearGradient
       inkscape:collect="always"
       xlink:href="#linearGradient4018"
       id="linearGradient5483"
       gradientUnits="userSpaceOnUse"
       x1="30.393064"
       y1="4.3183584"
       x2="44.791115"
       y2="76.089699" />
    <linearGradient
       inkscape:collect="always"
       xlink:href="#linearGradient4018"
       id="linearGradient5485"
       gradientUnits="userSpaceOnUse"
       x1="30.393064"
       y1="4.3183584"
       x2="44.791115"
       y2="76.089699" />
    <linearGradient
       inkscape:collect="always"
       xlink:href="#linearGradient4018"
       id="linearGradient5523"
       gradientUnits="userSpaceOnUse"
       x1="30.001776"
       y1="4.4744511"
       x2="44.616291"
       y2="75.892235" />
    <linearGradient
       inkscape:collect="always"
       xlink:href="#linearGradient4018"
       id="linearGradient5533"
       gradientUnits="userSpaceOnUse"
       x1="30.393064"
       y1="4.3183584"
       x2="44.791115"
       y2="76.089699" />
    <linearGradient
       inkscape:collect="always"
       xlink:href="#linearGradient4018"
       id="linearGradient5651"
       gradientUnits="userSpaceOnUse"
       x1="30.001776"
       y1="4.4744511"
       x2="44.616291"
       y2="75.892235" />
    <linearGradient
       inkscape:collect="always"
       xlink:href="#linearGradient4018"
       id="linearGradient5661"
       gradientUnits="userSpaceOnUse"
       x1="30.393064"
       y1="4.3183584"
       x2="44.791115"
       y2="76.089699" />
    <linearGradient
       inkscape:collect="always"
       xlink:href="#linearGradient5200"
       id="linearGradient5691"
       gradientUnits="userSpaceOnUse"
       gradientTransform="matrix(0.87512491,0,0,0.87512491,-555.83761,356.08193)"
       x1="39.476425"
       y1="32.997852"
       x2="44.064308"
       y2="56.500008" />
    <linearGradient
       inkscape:collect="always"
       xlink:href="#linearGradient5200"
       id="linearGradient5715"
       gradientUnits="userSpaceOnUse"
       gradientTransform="matrix(0.87512491,0,0,0.87512491,-555.83761,356.08193)"
       x1="39.476425"
       y1="32.997852"
       x2="44.064308"
       y2="56.500008" />
    <linearGradient
       inkscape:collect="always"
       xlink:href="#linearGradient5200"
       id="linearGradient3083"
       gradientUnits="userSpaceOnUse"
       gradientTransform="matrix(0.875316,0,0,0.875316,-767.90102,247.58609)"
       x1="39.476425"
       y1="32.997852"
       x2="44.064308"
       y2="56.500008" />
    <linearGradient
       inkscape:collect="always"
       xlink:href="#linearGradient5200"
       id="linearGradient3867"
       gradientUnits="userSpaceOnUse"
       gradientTransform="matrix(0.875316,0,0,0.875316,-767.90102,247.58609)"
       x1="39.476425"
       y1="32.997852"
       x2="44.064308"
       y2="56.500008" />
    <linearGradient
       inkscape:collect="always"
       xlink:href="#linearGradient5200"
       id="linearGradient3943"
       gradientUnits="userSpaceOnUse"
       gradientTransform="matrix(0.87512491,0,0,0.87512491,-555.83761,356.08193)"
       x1="39.476425"
       y1="32.997852"
       x2="44.064308"
       y2="56.500008" />
  </defs>
  <sodipodi:namedview
     id="base"
     pagecolor="#ffffff"
     bordercolor="#666666"
     borderopacity="1.0"
     inkscape:pageopacity="0.0"
     inkscape:pageshadow="2"
     inkscape:zoom="2.8284271"
     inkscape:cx="97.34813"
     inkscape:cy="35.177644"
     inkscape:document-units="px"
     inkscape:current-layer="layer2"
     showgrid="false"
     borderlayer="true"
     inkscape:showpageshadow="false"
     inkscape:window-width="1680"
     inkscape:window-height="970"
     inkscape:window-x="-8"
     inkscape:window-y="-8"
     inkscape:window-maximized="1"
     fit-margin-top="0"
     fit-margin-left="0"
     fit-margin-right="0"
     fit-margin-bottom="0"
     showborder="true" />
  <metadata
     id="metadata7">
    <rdf:RDF>
      <cc:Work
         rdf:about="">
        <dc:format>image/svg+xml</dc:format>
        <dc:type
           rdf:resource="http://purl.org/dc/dcmitype/StillImage" />
        <dc:title></dc:title>
      </cc:Work>
    </rdf:RDF>
  </metadata>
  <g
     inkscape:groupmode="layer"
     id="layer2"
     inkscape:label="Mockup"
     transform="translate(1345.3334,-768.33332)"
     style="display:inline">
    <g
       id="layer5"
       inkscape:label="xx FilterLayer DO NOT DELETE"
       style="display:none"
       transform="translate(-769,167.75488)">
      <g
         id="layer4"
         inkscape:label="xx FilterLayer DO NOT DELETE"
         style="display:inline">
        <rect
           style="fill:#ffffff;fill-opacity:1;fill-rule:evenodd;stroke:none;display:inline"
           id="rect3167"
           width="144"
           height="144"
           x="-36"
           y="-60"
           rx="12.62647"
           ry="13.109171" />
      </g>
    </g>
    <g
       id="layer7"
       inkscape:label="xx ldpi: Guide Rectangles (page 36x36)"
       style="display:none"
       transform="translate(-769,167.75488)">
      <rect
         style="opacity:0.77999998;fill:none;stroke:#0000ff;stroke-width:0.1;stroke-linecap:butt;stroke-linejoin:miter;stroke-miterlimit:4;stroke-opacity:1;stroke-dasharray:none;stroke-dashoffset:0;display:inline"
         id="rect2994"
         width="29.875006"
         height="29.875006"
         x="3.0624971"
         y="15.062497"
         rx="0"
         ry="0" />
      <rect
         style="opacity:0.77999998;fill:none;stroke:#ff7100;stroke-width:0.10000001;stroke-linecap:butt;stroke-linejoin:miter;stroke-miterlimit:4;stroke-opacity:1;stroke-dasharray:none;stroke-dashoffset:0;display:inline"
         id="rect3764"
         width="27.875006"
         height="27.875006"
         x="4.0624971"
         y="16.062496" />
    </g>
    <g
       id="layer2-2"
       inkscape:label="xx mpdi: Guide Rectangles (page 48x48)"
       style="display:none"
       transform="translate(-769,167.75488)">
      <rect
         ry="0"
         rx="0"
         y="4.0625"
         x="4.0625"
         height="39.875"
         width="39.875"
         id="rect3034"
         style="opacity:0.77999998;fill:none;stroke:#0000ff;stroke-width:0.1;stroke-linecap:butt;stroke-linejoin:miter;stroke-miterlimit:4;stroke-opacity:1;stroke-dasharray:none;stroke-dashoffset:0;display:inline" />
      <rect
         y="5.0625"
         x="5.0625"
         height="37.875"
         width="37.875"
         id="rect3036"
         style="opacity:0.77999998;fill:none;stroke:#ff7100;stroke-width:0.10000001;stroke-linecap:butt;stroke-linejoin:miter;stroke-miterlimit:4;stroke-opacity:1;stroke-dasharray:none;stroke-dashoffset:0;display:inline" />
    </g>
    <g
       id="layer6"
       inkscape:label="xx hdpi: Guide Rectangles (page 72x72)"
       style="display:none"
       transform="translate(-769,167.75488)">
      <rect
         ry="0"
         rx="0"
         y="-17.931234"
         x="6.0687656"
         height="59.862469"
         width="59.862469"
         id="rect3028"
         style="opacity:0.77999998;fill:none;stroke:#0000ff;stroke-width:0.1;stroke-linecap:butt;stroke-linejoin:miter;stroke-miterlimit:4;stroke-opacity:1;stroke-dasharray:none;stroke-dashoffset:0;display:inline" />
      <rect
         y="-15.937498"
         x="8.0625019"
         height="55.874996"
         width="55.874996"
         id="rect3030"
         style="opacity:0.77999998;fill:none;stroke:#ff7100;stroke-width:0.10000002;stroke-linecap:butt;stroke-linejoin:miter;stroke-miterlimit:4;stroke-opacity:1;stroke-dasharray:none;stroke-dashoffset:0;display:inline" />
    </g>
    <g
       id="layer3"
       inkscape:label="xx AndroidMarket: Guide Rectangles (page 512x512)"
       style="display:none"
       transform="translate(-769,167.75488)">
      <rect
         style="opacity:0.77999998;fill:none;stroke:#0000ff;stroke-width:0.10000004;stroke-linecap:butt;stroke-linejoin:miter;stroke-miterlimit:4;stroke-opacity:1;stroke-dasharray:none;stroke-dashoffset:0;display:inline"
         id="rect3101"
         width="425.875"
         height="425.875"
         x="43.0625"
         y="-420.9375"
         rx="0"
         ry="0" />
      <rect
         style="opacity:0.77999998;fill:none;stroke:#ff7100;stroke-width:0.10000004;stroke-linecap:butt;stroke-linejoin:miter;stroke-miterlimit:4;stroke-opacity:1;stroke-dasharray:none;stroke-dashoffset:0;display:inline"
         id="rect3103"
         width="397.87497"
         height="397.87497"
         x="57.062515"
         y="-406.9375" />
    </g>
    <g
       id="g3853"
       transform="matrix(1.1100763,0,0,1.1100763,-492.33189,493.86037)"
       style="filter:url(#filter3126-1)">
      <path
         inkscape:connector-curvature="0"
         id="path5489"
         d="m -701.04879,282.59874 c 0,17.58457 -14.25507,31.83958 -31.83959,31.83958 -17.58452,0 -31.83959,-14.25501 -31.83959,-31.83958 0,-17.58456 14.25507,-31.83957 31.83959,-31.83957 17.58452,0 31.83959,14.25501 31.83959,31.83957 z"
         style="fill:url(#linearGradient3867);fill-opacity:1;stroke:none" />
      <g
         style="stroke:#393939;stroke-width:1.02915847;stroke-opacity:1"
         id="g5491"
         transform="matrix(0.875316,0,0,0.875316,-767.90102,247.58609)">
        <path
           sodipodi:nodetypes="csc"
           inkscape:connector-curvature="0"
           id="path5493"
           d="m 8.8196239,21.390676 c 4.0500771,-1.142182 8.3227871,-1.753111 12.7381991,-1.753111 24.596384,0 44.764533,18.959481 46.687201,43.061362"
           style="fill:none;stroke:#393939;stroke-width:1.54373777;stroke-linecap:butt;stroke-linejoin:miter;stroke-miterlimit:4;stroke-opacity:1;stroke-dasharray:none;stroke-dashoffset:0" />
        <path
           sodipodi:nodetypes="csc"
           style="fill:none;stroke:#393939;stroke-width:1.54373777;stroke-linecap:butt;stroke-linejoin:miter;stroke-miterlimit:4;stroke-opacity:1;stroke-dasharray:none;stroke-dashoffset:0"
           d="M 56.347944,72.411992 C 39.567756,65.288217 27.798978,48.658536 27.798978,29.279782 c 0,-9.43398 2.789104,-18.216331 7.587702,-25.5677243"
           id="path5495"
           inkscape:connector-curvature="0" />
        <path
           sodipodi:nodetypes="csc"
           inkscape:connector-curvature="0"
           id="path5497"
           d="m 75.33254,31.417281 c -8.452132,12.219662 -22.565008,20.225054 -38.547637,20.225054 -13.003992,0 -24.770211,-5.299602 -33.2567386,-13.856703"
           style="fill:none;stroke:#393939;stroke-width:1.54373777;stroke-linecap:butt;stroke-linejoin:miter;stroke-miterlimit:4;stroke-opacity:1;stroke-dasharray:none;stroke-dashoffset:0" />
        <path
           sodipodi:nodetypes="csc"
           inkscape:connector-curvature="0"
           id="path5499"
           d="M 7.9160808,57.564925 C 8.8940849,32.56097 29.473326,12.590667 54.716905,12.590667 c 3.531837,0 6.97237,0.390848 10.280693,1.131845"
           style="fill:none;stroke:#393939;stroke-width:1.54373777;stroke-linecap:butt;stroke-linejoin:miter;stroke-miterlimit:4;stroke-opacity:1;stroke-dasharray:none;stroke-dashoffset:0" />
      </g>
      <g
         style="fill:#393939;fill-opacity:1"
         id="g5501"
         transform="matrix(0.875316,0,0,0.875316,-767.90102,247.58609)">
        <path
           style="fill:#393939;fill-opacity:1;stroke:none;display:inline"
           d="m 66.600881,42.762433 c 0.496783,2.224713 -0.727598,4.391499 -2.734689,4.839629 -2.007095,0.448129 -4.036849,-0.991872 -4.533629,-3.2168 -0.496735,-2.224498 0.727594,-4.391499 2.734689,-4.839629 2.007091,-0.448129 4.036897,0.992088 4.533629,3.2168 z"
           id="path5503"
           inkscape:connector-curvature="0" />
        <path
           inkscape:connector-curvature="0"
           id="path5505"
           d="m 32.118039,17.743835 c 0.964172,1.732007 0.131187,4.03489 -1.860488,5.143693 -1.991687,1.108588 -4.387867,0.603607 -5.35204,-1.1284 -0.964068,-1.731791 -0.131208,-4.034889 1.860488,-5.143693 1.991683,-1.108587 4.387971,-0.603392 5.35204,1.1284 z"
           style="fill:#393939;fill-opacity:1;stroke:none;display:inline" />
        <path
           style="fill:#393939;fill-opacity:1;stroke:none;display:inline"
           d="m 36.811477,51.245457 c 0,1.982236 -1.60688,3.589129 -3.589065,3.589129 -1.982186,0 -3.589064,-1.606893 -3.589064,-3.589129 0,-1.982236 1.606878,-3.589129 3.589064,-3.589129 1.982185,0 3.589065,1.606893 3.589065,3.589129 z"
           id="path5507"
           inkscape:connector-curvature="0" />
        <path
           inkscape:connector-curvature="0"
           id="path5509"
           d="M 13.492248,44.035974 C 13.191932,45.9956 11.598453,47.376812 9.9330409,47.12163 8.2676265,46.866233 7.1609356,45.071346 7.4612531,43.111721 c 0.3002852,-1.95941 1.8937935,-3.340838 3.5592079,-3.085656 1.665414,0.255397 2.772072,2.0505 2.471787,4.009909 z"
           style="fill:#393939;fill-opacity:1;stroke:none;display:inline" />
      </g>
      <path
         style="fill:none;stroke:#1f1f1f;stroke-width:0.90083885;stroke-linecap:round;stroke-linejoin:miter;stroke-miterlimit:4;stroke-opacity:1;stroke-dasharray:none;stroke-dashoffset:0"
         d="m -701.04879,282.59874 c 0,17.58457 -14.25507,31.83958 -31.83959,31.83958 -17.58452,0 -31.83959,-14.25501 -31.83959,-31.83958 0,-17.58456 14.25507,-31.83957 31.83959,-31.83957 17.58452,0 31.83959,14.25501 31.83959,31.83957 z"
         id="path5511"
         inkscape:connector-curvature="0" />
    </g>
  </g>
</svg>
