<?xml version="1.0" encoding="UTF-8" standalone="no"?>
<!-- Created with Inkscape (http://www.inkscape.org/) -->

<svg
   xmlns:dc="http://purl.org/dc/elements/1.1/"
   xmlns:cc="http://creativecommons.org/ns#"
   xmlns:rdf="http://www.w3.org/1999/02/22-rdf-syntax-ns#"
   xmlns:svg="http://www.w3.org/2000/svg"
   xmlns="http://www.w3.org/2000/svg"
   xmlns:xlink="http://www.w3.org/1999/xlink"
   xmlns:sodipodi="http://sodipodi.sourceforge.net/DTD/sodipodi-0.dtd"
   xmlns:inkscape="http://www.inkscape.org/namespaces/inkscape"
   width="16.15625"
   height="16.156235"
   id="svg2"
   version="1.0"
   inkscape:version="0.48.4 r9939"
   inkscape:export-filename="C:\Users\emo.HEADQUARTERS\Source\GOn\Graphics\Tokens\Version 4\g_usb_micro_smart_gd_16x16.png"
   inkscape:export-xdpi="90"
   inkscape:export-ydpi="90"
   sodipodi:docname="g_usb_micro_smart_gd_16x16.svg"
   style="display:inline"
   sodipodi:version="0.32"
   inkscape:output_extension="org.inkscape.output.svg.inkscape">
  <defs
     id="defs4">
    <inkscape:perspective
       sodipodi:type="inkscape:persp3d"
       inkscape:vp_x="0 : 8 : 1"
       inkscape:vp_y="0 : 1000 : 0"
       inkscape:vp_z="16 : 8 : 1"
       inkscape:persp3d-origin="8 : 5.3333333 : 1"
       id="perspective91" />
    <linearGradient
       id="linearGradient3927">
      <stop
         style="stop-color:#646464;stop-opacity:1"
         offset="0"
         id="stop3929" />
      <stop
         style="stop-color:#dcdcdc;stop-opacity:1"
         offset="1"
         id="stop3931" />
    </linearGradient>
    <linearGradient
       id="linearGradient3816">
      <stop
         style="stop-color:#ffffff;stop-opacity:0.25882354;"
         offset="0"
         id="stop3818" />
      <stop
         style="stop-color:#ffffff;stop-opacity:0;"
         offset="1"
         id="stop3820" />
    </linearGradient>
    <linearGradient
       id="linearGradient3797">
      <stop
         style="stop-color:#ffffff;stop-opacity:1;"
         offset="0"
         id="stop3799" />
      <stop
         style="stop-color:#ffffff;stop-opacity:0.16470589;"
         offset="1"
         id="stop3801" />
    </linearGradient>
    <linearGradient
       id="linearGradient3789">
      <stop
         style="stop-color:#440008;stop-opacity:1;"
         offset="0"
         id="stop3791" />
      <stop
         style="stop-color:#880000;stop-opacity:1;"
         offset="1"
         id="stop3793" />
    </linearGradient>
    <linearGradient
       id="linearGradient3781">
      <stop
         style="stop-color:#440008;stop-opacity:1;"
         offset="0"
         id="stop3783" />
      <stop
         style="stop-color:#232723;stop-opacity:0;"
         offset="1"
         id="stop3785" />
    </linearGradient>
    <linearGradient
       inkscape:collect="always"
       xlink:href="#linearGradient3789"
       id="linearGradient3795"
       x1="34.479824"
       y1="980.94946"
       x2="34.479824"
       y2="1052.0378"
       gradientUnits="userSpaceOnUse" />
    <linearGradient
       inkscape:collect="always"
       xlink:href="#linearGradient3797"
       id="linearGradient3803"
       x1="35.989838"
       y1="51.432434"
       x2="35.989838"
       y2="108.26157"
       gradientUnits="userSpaceOnUse" />
    <linearGradient
       inkscape:collect="always"
       xlink:href="#linearGradient3816"
       id="linearGradient3822"
       x1="34.371315"
       y1="1052.3622"
       x2="34.371315"
       y2="981.34082"
       gradientUnits="userSpaceOnUse"
       gradientTransform="matrix(1,0,0,0.6351255,0,-596.51749)" />
    <filter
       id="filter3033"
       inkscape:label="Drop shadow"
       width="1.5"
       height="1.5"
       x="-0.25"
       y="-0.25"
       color-interpolation-filters="sRGB">
      <feGaussianBlur
         id="feGaussianBlur3035"
         in="SourceAlpha"
         stdDeviation="2"
         result="blur" />
      <feColorMatrix
         id="feColorMatrix3037"
         result="bluralpha"
         type="matrix"
         values="1 0 0 0 0 0 1 0 0 0 0 0 1 0 0 0 0 0 0.5 0 " />
      <feOffset
         id="feOffset3039"
         in="bluralpha"
         dx="2"
         dy="2"
         result="offsetBlur" />
      <feMerge
         id="feMerge3041">
        <feMergeNode
           id="feMergeNode3043"
           in="offsetBlur" />
        <feMergeNode
           id="feMergeNode3045"
           in="SourceGraphic" />
      </feMerge>
    </filter>
    <linearGradient
       inkscape:collect="always"
       xlink:href="#linearGradient3797"
       id="linearGradient3790"
       gradientUnits="userSpaceOnUse"
       x1="35.989838"
       y1="51.432434"
       x2="35.989838"
       y2="108.26157"
       gradientTransform="matrix(1.2057712,0,0,1,-7.3425861,-72)" />
    <linearGradient
       inkscape:collect="always"
       xlink:href="#linearGradient3825"
       id="linearGradient3007"
       gradientUnits="userSpaceOnUse"
       gradientTransform="matrix(0.9736315,0,0,1.035386,-228.55154,-558.9601)"
       x1="139.31297"
       y1="505.0293"
       x2="139.31297"
       y2="627.19641" />
    <linearGradient
       id="linearGradient3825">
      <stop
         style="stop-color:#4e4e4e;stop-opacity:1;"
         offset="0"
         id="stop3827" />
      <stop
         style="stop-color:#e0e0e0;stop-opacity:1;"
         offset="1"
         id="stop3829" />
    </linearGradient>
    <linearGradient
       inkscape:collect="always"
       xlink:href="#linearGradient3825"
       id="linearGradient3256"
       gradientUnits="userSpaceOnUse"
       x1="139.31297"
       y1="505.0293"
       x2="139.31297"
       y2="627.19641"
       gradientTransform="matrix(0.9736315,0,0,1.035386,-57.748974,403.30318)" />
    <linearGradient
       gradientTransform="matrix(1.2057712,0,0,1,-7.3425861,-72)"
       y2="108.26157"
       x2="35.989838"
       y1="51.432434"
       x1="35.989838"
       gradientUnits="userSpaceOnUse"
       id="linearGradient3790-5"
       xlink:href="#linearGradient3797-5"
       inkscape:collect="always" />
    <filter
       color-interpolation-filters="sRGB"
       y="-0.25"
       x="-0.25"
       height="1.5"
       width="1.5"
       inkscape:label="Drop shadow"
       id="filter3033-9">
      <feGaussianBlur
         result="blur"
         stdDeviation="2"
         in="SourceAlpha"
         id="feGaussianBlur3035-3" />
      <feColorMatrix
         values="1 0 0 0 0 0 1 0 0 0 0 0 1 0 0 0 0 0 0.5 0 "
         type="matrix"
         result="bluralpha"
         id="feColorMatrix3037-1" />
      <feOffset
         result="offsetBlur"
         dy="2"
         dx="2"
         in="bluralpha"
         id="feOffset3039-1" />
      <feMerge
         id="feMerge3041-9">
        <feMergeNode
           in="offsetBlur"
           id="feMergeNode3043-9" />
        <feMergeNode
           in="SourceGraphic"
           id="feMergeNode3045-5" />
      </feMerge>
    </filter>
    <linearGradient
       gradientTransform="matrix(1,0,0,0.6351255,0,-596.51749)"
       gradientUnits="userSpaceOnUse"
       y2="981.34082"
       x2="34.371315"
       y1="1052.3622"
       x1="34.371315"
       id="linearGradient3822-4"
       xlink:href="#linearGradient3816-8"
       inkscape:collect="always" />
    <linearGradient
       gradientUnits="userSpaceOnUse"
       y2="108.26157"
       x2="35.989838"
       y1="51.432434"
       x1="35.989838"
       id="linearGradient3803-0"
       xlink:href="#linearGradient3797-5"
       inkscape:collect="always" />
    <linearGradient
       gradientUnits="userSpaceOnUse"
       y2="1052.0378"
       x2="34.479824"
       y1="980.94946"
       x1="34.479824"
       id="linearGradient3795-9"
       xlink:href="#linearGradient3789-2"
       inkscape:collect="always" />
    <linearGradient
       id="linearGradient3781-6">
      <stop
         id="stop3783-6"
         offset="0"
         style="stop-color:#440008;stop-opacity:1;" />
      <stop
         id="stop3785-2"
         offset="1"
         style="stop-color:#232723;stop-opacity:0;" />
    </linearGradient>
    <linearGradient
       id="linearGradient3789-2">
      <stop
         id="stop3791-4"
         offset="0"
         style="stop-color:#242424;stop-opacity:1;" />
      <stop
         id="stop3793-6"
         offset="1"
         style="stop-color:#b2b2b2;stop-opacity:1;" />
    </linearGradient>
    <linearGradient
       id="linearGradient3797-5">
      <stop
         id="stop3799-2"
         offset="0"
         style="stop-color:#ffffff;stop-opacity:1;" />
      <stop
         id="stop3801-3"
         offset="1"
         style="stop-color:#ffffff;stop-opacity:0.16470589;" />
    </linearGradient>
    <linearGradient
       id="linearGradient3816-8">
      <stop
         id="stop3818-8"
         offset="0"
         style="stop-color:#ffffff;stop-opacity:0.25882354;" />
      <stop
         id="stop3820-1"
         offset="1"
         style="stop-color:#ffffff;stop-opacity:0;" />
    </linearGradient>
    <linearGradient
       inkscape:collect="always"
       xlink:href="#linearGradient3789"
       id="linearGradient3950"
       gradientUnits="userSpaceOnUse"
       x1="34.479824"
       y1="980.94946"
       x2="34.479824"
       y2="1052.0378" />
    <linearGradient
       inkscape:collect="always"
       xlink:href="#linearGradient3816"
       id="linearGradient3952"
       gradientUnits="userSpaceOnUse"
       gradientTransform="matrix(1,0,0,0.6351255,0,-596.51749)"
       x1="34.371315"
       y1="1052.3622"
       x2="34.371315"
       y2="981.34082" />
    <linearGradient
       inkscape:collect="always"
       xlink:href="#linearGradient3797"
       id="linearGradient3954"
       gradientUnits="userSpaceOnUse"
       gradientTransform="matrix(1.2057712,0,0,1,-7.3425861,-72)"
       x1="35.989838"
       y1="51.432434"
       x2="35.989838"
       y2="108.26157" />
    <linearGradient
       inkscape:collect="always"
       xlink:href="#linearGradient3797"
       id="linearGradient3048"
       gradientUnits="userSpaceOnUse"
       gradientTransform="matrix(0.2675326,0,0,0.2220847,-1.6167136,40.021184)"
       x1="35.989838"
       y1="51.432434"
       x2="35.989838"
       y2="108.26157" />
    <linearGradient
       inkscape:collect="always"
       xlink:href="#linearGradient3816"
       id="linearGradient3051"
       gradientUnits="userSpaceOnUse"
       gradientTransform="matrix(0.2218768,0,0,0.1410517,0.01243575,-76.466136)"
       x1="34.371315"
       y1="1052.3622"
       x2="34.371315"
       y2="981.34082" />
    <linearGradient
       inkscape:collect="always"
       xlink:href="#linearGradient3927"
       id="linearGradient3977"
       gradientUnits="userSpaceOnUse"
       x1="30.261311"
       y1="2.3636146"
       x2="30.261311"
       y2="13.018085"
       gradientTransform="matrix(0.7071068,-0.7071068,0.7071068,0.7071068,23.425684,41.67551)" />
    <linearGradient
       inkscape:collect="always"
       xlink:href="#linearGradient3927"
       id="linearGradient3984"
       gradientUnits="userSpaceOnUse"
       gradientTransform="matrix(0.7071068,-0.7071068,0.7071068,0.7071068,23.425684,41.67551)"
       x1="30.261311"
       y1="2.3636146"
       x2="30.261311"
       y2="13.018085" />
    <linearGradient
       inkscape:collect="always"
       xlink:href="#linearGradient3927"
       id="linearGradient2473"
       gradientUnits="userSpaceOnUse"
       gradientTransform="matrix(1.4285419,-1.4292232,1.4285419,1.4292232,17.935743,10.638838)"
       x1="30.261311"
       y1="2.3636146"
       x2="30.261311"
       y2="13.018085" />
    <inkscape:perspective
       id="perspective2540"
       inkscape:persp3d-origin="372.04724 : 350.78739 : 1"
       inkscape:vp_z="744.09448 : 526.18109 : 1"
       inkscape:vp_y="0 : 1000 : 0"
       inkscape:vp_x="0 : 526.18109 : 1"
       sodipodi:type="inkscape:persp3d" />
    <linearGradient
       y2="796.36218"
       x2="512"
       y1="796.36218"
       x1="0"
       gradientTransform="translate(540.36218,-1052.3622)"
       gradientUnits="userSpaceOnUse"
       id="linearGradient2999"
       xlink:href="#linearGradient3755"
       inkscape:collect="always" />
    <linearGradient
       y2="796.36218"
       x2="512"
       y1="796.36218"
       x1="0"
       gradientTransform="translate(540.36218,-1052.3622)"
       gradientUnits="userSpaceOnUse"
       id="linearGradient3772"
       xlink:href="#linearGradient3755"
       inkscape:collect="always" />
    <linearGradient
       gradientTransform="translate(540.36218,-1052.3622)"
       gradientUnits="userSpaceOnUse"
       y2="796.36218"
       x2="512"
       y1="796.36218"
       x1="0"
       id="linearGradient3761"
       xlink:href="#linearGradient3755"
       inkscape:collect="always" />
    <linearGradient
       id="linearGradient3755">
      <stop
         id="stop3757"
         offset="0"
         style="stop-color:#440008;stop-opacity:1;" />
      <stop
         id="stop3759"
         offset="1"
         style="stop-color:#880000;stop-opacity:1;" />
    </linearGradient>
    <marker
       inkscape:stockid="Arrow1LstartL"
       orient="auto"
       refY="0"
       refX="0"
       id="Arrow1LstartL"
       style="overflow:visible">
      <path
         id="path4567"
         d="M 0,0 5,-5 -12.5,0 5,5 0,0 z"
         style="fill:#254614;fill-rule:evenodd;stroke:#254614;stroke-width:1pt;marker-start:none"
         transform="matrix(0.8,0,0,0.8,10,0)"
         inkscape:connector-curvature="0" />
    </marker>
    <marker
       inkscape:stockid="Arrow1LendM"
       orient="auto"
       refY="0"
       refX="0"
       id="Arrow1LendM"
       style="overflow:visible">
      <path
         id="path4570"
         d="M 0,0 5,-5 -12.5,0 5,5 0,0 z"
         style="fill:#254614;fill-rule:evenodd;stroke:#254614;stroke-width:1pt;marker-start:none"
         transform="matrix(-0.8,0,0,-0.8,-10,0)"
         inkscape:connector-curvature="0" />
    </marker>
    <linearGradient
       y2="320.55148"
       x2="703.47791"
       y1="265.93427"
       x1="703.47791"
       gradientTransform="matrix(1.388109,0,0,1.388109,-591.00234,-511.41199)"
       gradientUnits="userSpaceOnUse"
       id="linearGradient5121"
       xlink:href="#linearGradient3788"
       inkscape:collect="always" />
    <linearGradient
       id="linearGradient3788">
      <stop
         style="stop-color:#6e6e6e;stop-opacity:0.42857143;"
         offset="0"
         id="stop3790" />
      <stop
         style="stop-color:#6e6e6e;stop-opacity:0;"
         offset="1"
         id="stop3792" />
    </linearGradient>
    <linearGradient
       y2="327.34497"
       x2="719.75006"
       y1="379.53748"
       x1="719.75006"
       gradientTransform="matrix(1.388109,0,0,1.388109,-591.00234,-511.41201)"
       gradientUnits="userSpaceOnUse"
       id="linearGradient5124"
       xlink:href="#linearGradient3796"
       inkscape:collect="always" />
    <linearGradient
       id="linearGradient3796">
      <stop
         style="stop-color:#ffffff;stop-opacity:0.49107143;"
         offset="0"
         id="stop3798" />
      <stop
         style="stop-color:#ffffff;stop-opacity:0;"
         offset="1"
         id="stop3800" />
    </linearGradient>
    <linearGradient
       inkscape:collect="always"
       xlink:href="#linearGradient3927"
       id="linearGradient7418"
       gradientUnits="userSpaceOnUse"
       gradientTransform="matrix(1.4285419,-1.4292232,1.4285419,1.4292232,23.659971,45.994177)"
       x1="30.261311"
       y1="2.3636146"
       x2="30.261311"
       y2="13.018085" />
    <linearGradient
       inkscape:collect="always"
       xlink:href="#linearGradient3755"
       id="linearGradient7420"
       gradientUnits="userSpaceOnUse"
       gradientTransform="translate(540.36218,-1052.3622)"
       x1="0"
       y1="796.36218"
       x2="512"
       y2="796.36218" />
    <linearGradient
       inkscape:collect="always"
       xlink:href="#linearGradient3788"
       id="linearGradient8205"
       gradientUnits="userSpaceOnUse"
       gradientTransform="matrix(0.03600591,-0.03600591,0.03600591,0.03600591,-12.924248,21.710336)"
       x1="703.47791"
       y1="265.93427"
       x2="703.47791"
       y2="320.55148" />
    <linearGradient
       inkscape:collect="always"
       xlink:href="#linearGradient3796"
       id="linearGradient8208"
       gradientUnits="userSpaceOnUse"
       gradientTransform="matrix(0.03600591,-0.03600591,0.03600591,0.03600591,-12.924248,21.710335)"
       x1="719.75006"
       y1="379.53748"
       x2="719.75006"
       y2="327.34497" />
    <clipPath
       clipPathUnits="userSpaceOnUse"
       id="clipPath8257">
      <path
         inkscape:connector-curvature="0"
         id="path8259"
         d="m 133.25455,-16.278691 c -1e-5,0.152417 0.1227,0.275121 0.27512,0.275121 l 0.0366,0 c 0.004,0 0.008,0 0.0134,-7.07e-4 l -10e-6,5.72e-4 8.44855,0 1e-5,-5.72e-4 c 0.004,0 0.009,7.07e-4 0.0134,7.07e-4 l 0.0366,0 c 0.15241,0 0.27512,-0.122704 0.27512,-0.275121 l 0,-1.39911 c 0,-0.152424 -0.1227,-0.275128 -0.27512,-0.275128 l -0.0366,0 c -0.004,0 -0.009,7.07e-4 -0.0134,7.07e-4 l 1e-5,-5.73e-4 -1e-5,-2.600477 c 0.004,0 0.009,7.07e-4 0.0134,7.07e-4 l 0.0366,0 c 0.15242,0 0.27512,-0.122704 0.27512,-0.275128 l 0,-1.39911 c 0,-0.152417 -0.12271,-0.275121 -0.27512,-0.275121 l -0.0366,0 c -0.004,0 -0.009,7.07e-4 -0.0134,7.07e-4 l -1e-5,-5.73e-4 -8.44855,0 10e-6,5.73e-4 c -0.004,0 -0.009,-7.07e-4 -0.0134,-7.07e-4 l -0.0366,0 c -0.15242,0 -0.27513,0.122704 -0.27512,0.275121 l 0,1.39911 c -1e-5,0.152417 0.1227,0.275121 0.27512,0.275121 l 0.0366,0 c 0.004,0 0.008,0 0.0134,-7.07e-4 l 0,2.600484 0,5.66e-4 c -0.004,0 -0.009,-7.07e-4 -0.0134,-7.07e-4 l -0.0366,0 c -0.15241,7e-6 -0.27512,0.122711 -0.27513,0.275128 l 0,1.39911 z"
         style="fill:none;stroke:#646464;stroke-width:0.81249946;stroke-miterlimit:4;stroke-opacity:1;stroke-dasharray:none;display:inline" />
    </clipPath>
    <clipPath
       clipPathUnits="userSpaceOnUse"
       id="clipPath8298">
      <path
         inkscape:connector-curvature="0"
         id="path8300"
         d="m 149.5236,144.52099 c -0.10778,0.10778 -0.10778,0.28131 0,0.38909 l 0.0259,0.0259 c 0.003,0.003 0.007,0.006 0.01,0.009 l -4.1e-4,4e-4 5.97403,5.97403 4.1e-4,-4e-4 c 0.003,0.003 0.006,0.007 0.009,0.01 l 0.0259,0.0259 c 0.10777,0.10777 0.2813,0.10777 0.38908,0 l 0.98932,-0.98932 c 0.10778,-0.10778 0.10778,-0.28131 0,-0.38909 l -0.0259,-0.0259 c -0.003,-0.003 -0.006,-0.006 -0.01,-0.009 l 4.1e-4,-4e-4 1.83881,-1.83882 c 0.003,0.003 0.006,0.007 0.009,0.01 l 0.0259,0.0259 c 0.10778,0.10778 0.28131,0.10778 0.38909,0 l 0.98932,-0.98932 c 0.10777,-0.10778 0.10777,-0.28131 0,-0.38908 l -0.0259,-0.0259 c -0.003,-0.003 -0.006,-0.006 -0.01,-0.009 l 4e-4,-4.1e-4 -5.97403,-5.97403 -4e-4,4.1e-4 c -0.003,-0.003 -0.006,-0.007 -0.009,-0.01 l -0.0259,-0.0259 c -0.10778,-0.10778 -0.28131,-0.10778 -0.38908,0 l -0.98932,0.98932 c -0.10778,0.10777 -0.10778,0.2813 0,0.38908 l 0.0259,0.0259 c 0.003,0.003 0.006,0.006 0.01,0.009 l -1.83882,1.83882 -4e-4,4e-4 c -0.003,-0.003 -0.006,-0.007 -0.009,-0.01 l -0.0259,-0.0259 c -0.10778,-0.10777 -0.28131,-0.10777 -0.38909,0 l -0.98932,0.98932 z"
         style="fill:none;stroke:#646464;stroke-width:0.81249946;stroke-miterlimit:4;stroke-opacity:1;stroke-dasharray:none;display:inline" />
    </clipPath>
    <clipPath
       clipPathUnits="userSpaceOnUse"
       id="clipPath8454">
      <rect
         style="fill:#abcde3;fill-opacity:1;stroke:none"
         id="rect8456"
         width="16"
         height="16"
         x="86.379715"
         y="-68.467285" />
    </clipPath>
  </defs>
  <sodipodi:namedview
     id="base"
     pagecolor="#ffffff"
     bordercolor="#666666"
     borderopacity="1.0"
     inkscape:pageopacity="0.0"
     inkscape:pageshadow="2"
     inkscape:zoom="22.627417"
     inkscape:cx="4.1807155"
     inkscape:cy="11.502522"
     inkscape:document-units="px"
     inkscape:current-layer="layer2"
     showgrid="false"
     borderlayer="true"
     inkscape:showpageshadow="false"
     showborder="false"
     inkscape:window-width="1680"
     inkscape:window-height="987"
     inkscape:window-x="1592"
     inkscape:window-y="-8"
     inkscape:window-maximized="1"
     showguides="false"
     inkscape:guide-bbox="true"
     inkscape:snap-global="false"
     fit-margin-top="0"
     fit-margin-left="0"
     fit-margin-right="0"
     fit-margin-bottom="0">
    <sodipodi:guide
       orientation="1,0"
       position="4.9985017,11.002908"
       id="guide3837" />
  </sodipodi:namedview>
  <metadata
     id="metadata7">
    <rdf:RDF>
      <cc:Work
         rdf:about="">
        <dc:format>image/svg+xml</dc:format>
        <dc:type
           rdf:resource="http://purl.org/dc/dcmitype/StillImage" />
        <dc:title />
      </cc:Work>
    </rdf:RDF>
  </metadata>
  <g
     inkscape:groupmode="layer"
     id="layer3"
     inkscape:label="xx Work Layer"
     style="display:none"
     transform="translate(-3.0000001,-68.843756)"
     sodipodi:insensitive="true">
    <image
       sodipodi:absref="C:\Users\emo.HEADQUARTERS\Source\GOn\Graphics\Tokens\Version 4\GD token.tiff"
       xlink:href="GD token.tiff"
       transform="matrix(0.7071068,0.7071068,-0.7071068,0.7071068,0,56)"
       width="14.207962"
       height="35.354698"
       id="image2542"
       x="15.63295"
       y="-16.40724"
       style="display:inline" />
  </g>
  <g
     inkscape:groupmode="layer"
     id="layer2"
     inkscape:label="User"
     style="display:inline"
     transform="translate(-3.0000001,-12.843756)">
    <rect
       transform="matrix(0.70710678,-0.70710678,0.70710678,0.70710678,0,0)"
       style="fill:#c8c8c8;fill-opacity:1;stroke:#646464;stroke-width:0.81249946;stroke-linecap:square;stroke-linejoin:miter;stroke-miterlimit:4;stroke-opacity:1;stroke-dasharray:none;stroke-dashoffset:0;display:inline"
       id="rect8223"
       width="7.7620668"
       height="7.7620668"
       x="-13.725919"
       y="18.746378" />
    <rect
       style="fill:#646464;fill-opacity:1;fill-rule:evenodd;stroke:none;display:inline"
       id="rect3013"
       width="1.1746953"
       height="1.527104"
       x="-10.715075"
       y="24.035624"
       transform="matrix(0.70710678,-0.70710678,0.70710678,0.70710678,0,0)" />
    <rect
       y="-21.2192"
       x="-10.715075"
       height="1.527104"
       width="1.1746953"
       id="rect3017"
       style="fill:#646464;fill-opacity:1;fill-rule:evenodd;stroke:none;display:inline"
       transform="matrix(0.70710678,-0.70710678,-0.70710678,-0.70710678,0,0)" />
    <path
       inkscape:connector-curvature="0"
       id="path8221-1"
       d="m 8.029386,17.536972 c -0.107775,0.107776 -0.107775,0.281307 0,0.389083 2.014712,2.014703 6.044531,6.04451 6.044531,6.04451 0.107776,0.107776 0.281306,0.107776 0.389082,0 l 0.989323,-0.989322 c 0.107776,-0.107776 0.107776,-0.281306 0,-0.389082 -0.01109,-0.01203 -0.03564,-0.03484 -0.03564,-0.03484 l 4.04e-4,-4.06e-4 1.838818,-1.838817 0.03484,0.03564 c 0.107776,0.107776 0.281306,0.107776 0.389082,0 l 0.989323,-0.989322 c 0.107775,-0.107776 0.107775,-0.281306 0,-0.389082 l -6.044511,-6.04451 c -0.107776,-0.107776 -0.281306,-0.107776 -0.389082,0 l -0.989317,0.98932 c -0.107776,0.107776 -0.107776,0.281307 0,0.389082 l 0.03564,0.03484 -1.838818,1.838818 -4.05e-4,4.05e-4 -0.03485,-0.03564 c -0.107776,-0.107776 -0.281306,-0.107776 -0.389082,0 l -0.989323,0.989322 z"
       style="fill:#ffffff;stroke:#646464;stroke-width:0.81249946;stroke-miterlimit:4;stroke-opacity:1;stroke-dasharray:none;display:inline"
       sodipodi:nodetypes="cccsscccccssccsscccccscc" />
    <path
       sodipodi:type="arc"
       style="fill:#ffffff;stroke:#646464;stroke-width:56.41188049;stroke-miterlimit:4;stroke-opacity:1;stroke-dasharray:none;display:inline"
       id="path5111"
       sodipodi:cx="693"
       sodipodi:cy="322.36218"
       sodipodi:rx="56"
       sodipodi:ry="56"
       d="m 749,322.36218 c 0,30.92795 -25.07205,56 -56,56 -30.92795,0 -56,-25.07205 -56,-56 0,-30.92794 25.07205,-56 56,-56 30.92795,0 56,25.07206 56,56 z"
       transform="matrix(0.01018444,-0.01018444,0.01018444,0.01018444,4.1022992,21.331519)" />
    <g
       transform="translate(92.223879,146.95789)"
       style="display:inline"
       id="g7520-1">
      <path
         style="fill:none;stroke:#000000;stroke-width:1;stroke-linecap:butt;stroke-linejoin:miter;stroke-miterlimit:4;stroke-opacity:1;stroke-dasharray:none;stroke-dashoffset:0;display:inline"
         d="m -80.134349,-123.14288 4.2244,0 c 1.29765,0 2.34232,1.04475 2.34232,2.34249 0,1.29774 -1.04467,2.34249 -2.34232,2.34249 l -8.05474,0 c -1.29765,0 -2.34232,-1.04475 -2.34232,-2.34249 0,-1.29774 1.04467,-2.34249 2.34232,-2.34249 l 2.34341,0"
         id="path8556-5-7"
         inkscape:connector-curvature="0"
         sodipodi:nodetypes="cssssssc" />
      <path
         style="fill:none;stroke:#000000;stroke-width:1;stroke-linecap:butt;stroke-linejoin:miter;stroke-miterlimit:4;stroke-opacity:1;stroke-dasharray:none;display:inline"
         d="m -79.640189,-118.57458 c 0,-0.11777 0,-4.59294 0,-4.59294"
         id="path8558-2-4"
         inkscape:connector-curvature="0" />
      <path
         inkscape:connector-curvature="0"
         id="path8560-7-0"
         d="m -76.885419,-120.87105 c -0.15651,0 -6.1038,0 -6.1038,0"
         style="fill:none;stroke:#000000;stroke-width:1;stroke-linecap:butt;stroke-linejoin:miter;stroke-miterlimit:4;stroke-opacity:1;stroke-dasharray:none;display:inline" />
    </g>
  </g>
  <g
     inkscape:groupmode="layer"
     id="layer6"
     inkscape:label="xx Guides"
     style="display:none"
     sodipodi:insensitive="true"
     transform="translate(-3.0000001,-12.843756)">
    <rect
       style="fill:none;stroke:#000000;stroke-width:0.1;stroke-miterlimit:4;stroke-opacity:1;stroke-dasharray:none;display:inline"
       id="rect3910"
       width="16"
       height="16"
       x="-2.1061265"
       y="14.656439"
       rx="0"
       ry="0"
       transform="matrix(0.7071068,-0.7071068,0.7071068,0.7071068,0,0)" />
    <path
       style="fill:none;stroke:#000000;stroke-width:0.1;stroke-linecap:butt;stroke-linejoin:miter;stroke-miterlimit:4;stroke-opacity:1;stroke-dasharray:none;display:inline"
       d="M 20.986654,-1.5753577 36.932485,14.370473"
       id="path3912"
       inkscape:connector-curvature="0" />
    <path
       inkscape:connector-curvature="0"
       id="path2569"
       d="M 0.96478577,16.801654 16.910617,32.747485"
       style="fill:none;stroke:#000000;stroke-width:0.1;stroke-linecap:butt;stroke-linejoin:miter;stroke-miterlimit:4;stroke-opacity:1;stroke-dasharray:none;display:inline" />
  </g>
</svg>
